{
	"obj_data": {
		"network": "Tjarnberg-D20131127-scalefree-N50-L240-ID436458",
		"A": [
			[-28.06760489,0,0,0.7576702184,0,0,6.558520683,0,0,0,-0.1730113097,0,0,0,0,0,0,0,0,0,0,2.563351474,0,0,0,0,0,0,0,0,0,0,0,0,0,0,0,0,0,0,0,0,0,0,0,0,0,0,0,0],
			[-9.146730104,-12.59303585,0,0,0,0,0,0,3.133095614,0,0,0,0,0,0,0,0,0,0,0,0,0,0,0,0,0,0,0,0,0,0,0,0,0,0,0,0,0,0,0,0,0,0,0,0,0,0,0,0,0],
			[3.662072722,3.05553882,-20.40439705,0,0,0,0,0,0,0,0,0,0,0,0,0,0,0,0,0,0,0,0,0,0,0,0,0,0,0,0,0,0,0,0,0,0,0,0,0,0,0,0,0,0,0,0,0,0,0],
			[0,2.35951631,0,-7.217753432,0,-7.80738393,0,0,0,0,0,0,0,0,0,0,0,0,0,0,0,0,0,0,0,0,0,0,0,0,0,0,0,0,0,0,0,0,0,0,0,0,0,0,0,0,0,0,0,0],
			[0,-3.484089823,0,1.816618752,-10.04459914,0,0,0,0,0,0,0,0,0,0,0,0,0,0,0,0,0,0,0,0,0,0,0,0,0,0,0,0,1.24289734,0,0,0,0,0,0,0,0,0,0,0,0,0,0,0,0],
			[0,6.551560458,-6.649003609,0,0.06761361529,-10.35681495,0,0,0,0,0,0,0,0,0,0,0,0,0,0,0,0,0,0,0,0,0,0,0,0,0,0,0,0,0,0,0,0,0,0,0,0,0,0,0,0,0,0,0,0],
			[-5.428975581,1.965766433,1.152414414,9.975991209,-7.851133917,0,-20.2681755,0,0,0,0,0,0,0,0,0,0,0,0,0,0,0,0,0,0,0,0,0,0,0,0,0,0,0,0,0,0,0,3.404544393,0,0,0,0,0,0,0,0,0,0,0],
			[-10.59346261,0,0,0,-5.270879039,-1.475567722,-2.008522101,-5.275850628,0,0,0,0,0,0,0,0,0,0,0,0,0,0,0,0,0,0,0,0,0,0,0,0,0,0,0,0,0,0,0,0,0,0,0,0,0,0,0,0,0,0],
			[0,0,-13.82499569,2.776135498,0,0,-2.249147026,0,-10.64616145,0,0,0,0,0,0,0,0,0,0,0,0,0,0,0,0,0,0,0,0,0,0,0,0,0,0,0,0,0,0,0,0,0,0,0,0,0,0,0,0,0],
			[-2.580254878,0,5.691475499,0,-0.6144884448,0,-0.1302556412,0,0,-1.99957324,0,0,0,0,0,0,0,0,0,0,0,0,0,0,0,0,0,0,0,0,0,0,0,0,0,0,0,0,0,0,0,0,0,0,0,0,0,0,0,0],
			[0,8.173292907,0,0,0,0,7.508094251,-0.3549714803,0,0,-15.44275087,0,0,0,0,0,0,0,0,0,0,0,0,0,0,0,0,0,0,0,0,0,0,0,0,0,0,0,0,0,0,0,0,0,0,0,0,0,0,0],
			[0,-5.017327982,-2.525567395,0,0,0,3.00880588,7.060651208,0,0,0,-8.756957498,0,0,0,0,0,0,0,0,0,0,0,0,0,0,0,0,0,0,0,0,0,0,0,0,0,0,0,0,0,0,0,0,0,0,0,0,0,0],
			[17.60042065,-2.835794571,0,0,0,0,-2.80795367,1.33139163,0,0,0,0,-16.02243819,0,0,0,0,0,0,0,0,0,0,0,0,0,0,0,0,0,0,0,0,0,0,0,-1.251846201,0,0,0,0,0,0,0,0,0,0,0,0,0],
			[3.402555758,4.620595151,6.771304708,0.2107953888,0,0,0,0,0,0,0,0,0,-6.074287879,0,0,0,0,0,0,0,0,0,0,0,0,0,0,0,0,0,0,0,0,0,0,0,0,0,0,0,0,0,0,0,0,0,0,0,0],
			[0,-4.983521174,0,0,1.179260996,0,0,5.631816426,0,0,0,-8.597866638,0,0,-5.516475553,0,0,0,0,0,0,0,0,0,0,0,0,0,0,0,0,0,0,0,0,0,0,0,0,0,0,0,0,0,0,0,0,0,0,0],
			[0,0,1.928976671,1.250851883,0,4.053833964,-0.8730110915,0,0,0,0,0,0,0,0,-1.989630062,0,0,0,0,0,0,0,0,0,0,0,0,0,0,0,0,0,0,0,0,0,0,0,0,0,0,0,0,0,0,0,0,0,0],
			[0.1093749659,4.406816808,2.752271869,0,0,0,0,0,0,0,-11.03096247,0,0,0,0,0,-6.417327545,0,0,0,0,0,0,0,0,0,0,0,0,0,0,0,0,0,0,0,0,0,0,0,0,0,0,0,0,0,0,0,0,0],
			[0,0,-10.38863313,0,0,0,0,2.304828827,0,2.965055894,-13.70965482,0,0,0,0,0,0,-20.04843125,0,0,0,0,0,0,0,0,0,0,0,0,0,0,0,0,0,0,0,0,0,0,0,0,0,0,0,0,0,0,0,0],
			[0,0,0,0,0,0,0,0.7586645363,0,-1.294601869,0.06065339019,0,0,0,0,1.203124625,0,0,-7.587639681,0,0,0,0,0,0,0,0,0,0,0,0,0,0,0,0,0,0,0,0,0,0,0,0,0,0,0,0,0,0,0],
			[0,0,0,0,7.607526038,2.31278337,10.98621817,0,0,0,0,0,0,0,0,0,0,9.678690165,0,-9.404258432,0,0,0,0,0,0,0,0,0,0,0,0,0,0,0,0,0,0,0,0,0,0,0,0,0,0,0,0,0,0],
			[0,0,0,5.55525395,0,0,1.154403049,0,0,0,-0.1481533629,0,5.595026665,0,0,0,0,0,0,0,-6.115054912,0,0,0,0,0,0,0,0,0,0,0,0,0,0,0,0,0,0,0,0,0,0,0,0,0,0,0,0,0],
			[0,0,0,0,0,0,-2.633948043,0,0,0.05369316508,0,0,0,0,0,0,0,1.6634938,0,0,0,-1.913067586,0,0,0,0,0,0,0,0,0,0,0,0,2.041334591,0,0,0,0,0,0,0,0,0,0,0,0,0,0,0],
			[0,5.556248268,2.561362838,0.1909090314,-4.605680383,0,0,0,0,0,0,0,0,0,0,0,0,0,0,0,0,0,-21.56675464,0,0,0,0,0,0,-9.618036775,0,0,0,0,0,0,0,0,0,0,0,0,0,0,0,0,0,0,0,0],
			[0,0,6.602270669,-6.0365038,0,0,0.2465908322,0,0,0,0,0,0,0,0,0,0,0,0,5.381248323,0,0,0,-9.155678965,0,0,0,0,0,0,0,0,0,0,0,0.2903408186,0,0,0,0,0,0,0,0,0,0,0,0,0,0],
			[0,0.9008519919,0,0,0,2.790055949,0,0,0,0,0,0,0,0.3629260232,0,0,0,9.753264006,0,0,0,0,0,0,-11.62954183,0,0,0,0,0,0,0,0,0,0,0,0,0,0,0,0,0,0,0,0,0,0,0,0,0],
			[0,-4.585794025,6.89658876,0,0,5.76107775,0,0,0,0,0,0,0,0,0,0,0,0,0,0,0,0,0,-6.119032184,0,-5.010367757,0,0,0,0,0,0,0,0,0,0,0,0,0,0,0,0,0,0,0,0,0,0,0,0],
			[0,-1.054971262,0,1.115624652,0,0,-5.314629025,0,0,0,0,1.502414304,0,0,0,0,0,0,0,0,0,0,0,0,0,0,-6.91050921,0,0,0,0,0,0,0,0,0,0,0,0,0,0,0,0,0,0,0,0,0,0,0],
			[0,2.842754796,0,-3.837072668,-5.965907231,0,0,0,0,0,0,0,0,0,0,0,0,0,0,0,0,0,0,-5.618890294,0,0,0,-19.96490855,0,0,0,0,0,0,0,0,0,0,0,0,0,0,0,0,0,0,0,0,0,0],
			[0,0,4.315339564,0,0,0,0,0,0,0,0,0,-1.469601815,0,0,0,1.031107633,0,0,0,0,0,0,0,0,0,0,-9.259088023,-3.690907941,0,0,0,0,0,0,0,0,0,0,0,0,0,0,0,0,0,0,0,0,0],
			[0,0,4.572867893,0,0,0,0,0,0,0,0,0,0,0,0,0,0,0,0,0,0,0,12.3345132,0,0,0,12.51050746,0,-1.693323336,-9.560366338,0,0,0,0,0,0,0,0,0,0,0,0,0,0,0,0,0,0,0,0],
			[-15.63167126,1.914061903,0,-0.2833805935,9.055252859,0,0,0,0,0,0,0,0,0,0,0,0,0,0,0,0,0,0,0,0,0,0,0,0,0,-8.724145008,0,0,0,0,0,0,0,0,0,0,0,0,0,0,0,0,0,0,0],
			[-6.754401304,4.39190204,0,0,0,0,-7.867043003,0,0,0,0,0,0,0,0,0,0,-9.274002791,0,0,0,0,0,0,0,0,0,0,0,0,0,-15.93195526,0,0,0,0,0,0,0,0,0,0,0,0,0,0,0,0,0,0],
			[0,-3.466192101,0,0,0,0,4.292470253,0,0,0,0,0,-8.765906359,0,0,0,0,0,0,0,0,0,-10.1092298,0,0,0,0,0,0,0,0,0,-8.682383657,0,0,0,0,0,0,0,0,0,0,0,0,0,0,0,0,0],
			[0,1.619743813,0,0,0,0,0,0.9963065076,0,0,0,0,0,0,0,0,0,0,0,0,0,0,0,0,0,0,0,0,0,0,0,3.432385294,0,-12.23508141,0,0,0,0,0,0,0,0,0,0,0,0,0,0,0,0],
			[0.7626418078,0,0,-5.085935915,0,0,17.03465378,0,0,0,0,0,0,0,0,0,0,0,0,0,0,0,0,0,0,0,0,0,0,0,0,0,0,0,-10.53082058,0,0,0,0,0,0,0,0,0,0,0,0,0,0,0],
			[0,-0.9565337928,0,-0.9913349183,-9.009514237,0,0,0,0,0,0,0,0,0,0,0,0,0,0,0,0,0,0,0,0,0,0,0,0,0,0,0,0,0,0,-14.75766585,0,0,0,0,0,0,0,0,0,0,0,0,0,0],
			[0,0,0,0,0,-8.123577013,0,0,0,0,0,0,0,0,0,4.858237122,0,0,0,0,0,0,0,0,0,4.987498445,0,0,0,0,0,0,0,0,0,0,-14.14914332,0,0,0,0,0,0,0,0,0,0,0,0,0],
			[3.180822872,-2.617044639,0,0,0,2.355539039,0,0,0,0,0,0,0,0,0,0,0,0,0,0,0,-6.788208112,0,0,0,0,0,0,0,0,0,0,0,0,0,0,0,-8.617752996,0,0,0,0,0,0,0,0,0,0,0,0],
			[0,-5.713350492,0,-2.630965089,0,0,0,0,0,0,0,0,0,0,0,0,0,0,0,0,0,0,0,0,0,0,0,0,0,0,0,0,0,0,-4.180112333,0,0,0,-16.37840399,0,0,0,0,0,0,0,0,0,0,0],
			[0,-4.332242968,0,0,0,0,0,0,0,0,0,0,-2.419175382,0,0,0,0,-0.7676133971,0,0,0,0,0,0,0,0,0,0,0,0,0,0,0,0,0,0,0,0.846164509,0,-2.964061576,0,0,0,0,0,0,0,0,0,0],
			[0,0,0,0,0,0,0,0,0,0,0,-3.427413704,0,0,0,0,0,0,0,0,-5.797867511,0,0,0,-12.14161553,0,0,0,-0.2525567395,0,0,0,0,0,0,0,0,0,0,0,-13.75141617,0,12.39417227,0,0,0,0,0,0,0],
			[0,0,0,0,0,-13.52471169,0,0,0,0,0,0,0,0,0,0,0,0,0,0,0,0,-8.250849701,4.235794134,0,0,0,0,0,0,0,11.68522363,0,0,0,0,0,0,0,0,0,-21.86803296,0,0,0,0,0,0,0,0],
			[0,0,0,0,0,0,0,0,0,0,0,8.874287007,0,0,0,0,0,0,0,0,0,0,0,5.389202866,0,0,0,0,0,0,0,0,0,-14.00695586,0,0,0,0,0,0,0,0,-16.08905749,0,0,0,0,0,0,0],
			[-10.21562182,-1.514346119,0,0,0,0,0,0,0,0,0,0,8.680395022,0,0,0,0,0,0,0,0,0,0,0,2.662783261,0,0,0,0,0,0,0,0,0,0,0,0,0,0,0,0,0,0,-6.163776488,0,0,0,0,0,0],
			[0,0,0,0,0,0,0,0,0,-0.5130680219,0,0,0,0,0,0,0,-3.783379503,0,0,0,0,0,0,-5.134657491,0,0,0,0,-1.578976781,0,0,0,0,0,0,0,0,0,0,0,0,0,0,-12.74814944,0,0,0,0,0],
			[0,0,0,0,0,0,0,0,0,0,0,0,0,0,-2.91534,0,3.310084196,0,0,0,0,0,0,0,0,0,0,0,-0.3828123807,0,0,0,0,0,0,0,0,0,0,1.609800635,0,0,0,0,0,-2.117897067,0,-3.052555867,0,0],
			[0,0,0,0,0,0,-5.454827845,0,0,0,0,0,6.141901495,0,0,0,0,0,0,0,0,0,0,0,0,0,-6.094174237,0,0,0,0,0,0,0,0,0,0,0,0,0,4.559941761,0,0,0,0,0,-8.277696284,0,0,0],
			[0,0,0,0,0,0,2.212357265,0,0,0,1.970738022,0,0,0,0,0,6.248293507,0,0,0,0,0,0,0,0,0,0,0,0,0,0,0,0,0,0,0,0,0,0,0,0,0,0,0,0,0,0,-4.713066713,0,0],
			[0,0,0,0,0,0,0,0,0,0,0,0,1.103692838,0,-0.8203122443,0,0,0,0,-1.203124625,0,0,0,0,0,0,0,0,0,0,0,0,0,0,0,-7.129259142,0,0,0,0,0,0,0,0,0,0,0,0,-2.122868657,0],
			[0,0,0,0,0,0,0,0,0,0,0,0,0,0,0,0,0,0,0,0,0,0,-1.856391467,0,0,0,0,0,0,0,0,0,0,0,0,0,0,0,-6.553549094,0,0,0,0,0,0,-0.09147724422,0,-1.863351692,0,-1.333380266]
		],
		"G": [
			[0.03325903966,-0.0006576104286,0.002887891563,0.008703432233,-0.009214805057,-0.006807600069,0.01003497167,0.001730870906,-0.0001935304437,0.006818059672,-0.003738125801,-2.092510193e-17,3.343408449e-17,-3.486387611e-18,-2.049142106e-17,-3.659182332e-18,7.372574773e-18,0.003790960176,-3.463517721e-18,-5.000882521e-18,2.183989751e-17,0.04456434732,-5.963111949e-19,-1.027281558e-17,1.872959253e-17,-3.279711572e-18,-7.155734338e-18,7.29125961e-18,6.613633252e-18,1.544988096e-17,1.017117163e-17,-0.0002016700943,-6.600080725e-18,-0.0009360834068,0.007810525703,4.424900116e-18,-9.183531214e-18,-1.379647264e-17,0.002085948458,1.062518129e-17,-5.043234168e-18,2.072350809e-17,-4.820464503e-18,-4.723055714e-18,6.437450399e-20,-7.48099499e-18,-9.022594954e-18,9.974659987e-18,-6.26804381e-18,-2.081668171e-17],
			[-0.02387134354,0.07483957501,-0.01561679203,-0.0005036782182,0.008356770499,0.0005531741752,-0.009484213266,-0.001217642075,0.02202479694,-0.004919759143,0.002698667283,6.2883726e-17,2.466559942e-18,-3.284624363e-17,-1.160096325e-17,-1.03297362e-16,-4.423544864e-17,-0.002738568886,1.778430376e-17,-1.314595134e-17,3.080489423e-17,-0.0319856152,-1.376936759e-17,-2.000353008e-17,5.949220608e-17,-1.839077935e-17,9.757819552e-18,-1.301042607e-18,2.699663409e-17,-2.179246367e-17,-6.993104013e-18,0.0001828916275,4.466235324e-17,0.0008489202051,-0.005417659861,1.675092356e-17,-2.903628943e-18,-2.312061133e-17,-0.001971463467,5.009014037e-17,5.611932089e-17,-3.155367135e-17,-6.597031406e-17,6.039683727e-17,-1.060146437e-17,-8.456776945e-18,5.299038118e-18,-7.806255642e-18,4.235164736e-17,1.491862189e-16],
			[0.002394444928,0.01108912991,0.0471887482,0.001486620425,-0.0004024058905,-0.001138954574,0.0003807715659,0.0001283067808,0.00326345833,0.0004869399115,-0.0002667761202,-4.243296253e-17,6.561117209e-18,1.387016451e-18,4.872811139e-17,3.004002347e-17,5.063224146e-17,0.0002702833265,-2.069968529e-17,5.2651568e-18,6.591356286e-17,0.003208357081,6.618376637e-17,2.219226322e-18,2.149219049e-17,2.109450852e-17,2.649519059e-17,1.550409107e-17,4.485886489e-18,3.001884765e-18,-2.213191212e-18,-8.806831329e-06,1.506913965e-17,-4.087829038e-05,0.000590502286,-7.962533221e-18,1.436779637e-17,3.549745675e-17,7.915018466e-05,5.850625973e-17,4.930398791e-17,3.841168684e-17,-6.660823575e-17,4.357137481e-18,1.631427808e-17,-3.55347262e-17,-2.894057471e-17,6.835894698e-17,1.913278021e-17,-1.919037845e-17],
			[0.01013304541,-0.01885439415,0.03826814177,0.1395877403,-0.003945584409,-0.1052996935,0.003633935816,0.0005112339824,-0.005548724757,0.002094346284,-0.001149125187,5.984795992e-17,3.258027528e-17,1.303753112e-17,-8.239936511e-17,-1.90656952e-16,-1.214306433e-17,0.00116651533,1.375242693e-17,-3.789286593e-17,4.171467859e-17,0.01357743819,-3.447762909e-17,1.82145965e-17,-9.648044082e-17,-7.326496181e-17,-8.890457814e-17,4.553649124e-18,1.908195824e-17,-2.710505431e-17,2.141299291e-18,-8.635086417e-05,3.512815039e-17,-0.000400811094,0.002332062032,4.60650398e-17,1.043544591e-17,-1.144917494e-16,0.000755378596,-1.643650493e-16,-7.724940479e-18,-4.77565646e-17,7.703256436e-17,-1.398620803e-17,4.364591371e-17,-6.548581122e-17,-3.23905399e-17,-2.081668171e-17,-5.247538515e-17,-1.387778781e-17],
			[0.008544315657,-0.02680940872,0.01165628648,0.0243402704,0.09626373849,-0.01861095391,0.002794672552,0.001840898059,-0.007889833462,0.0002709271257,-7.387525658e-05,2.846030703e-17,1.846531825e-17,9.62483538e-18,-3.344763702e-17,-1.705450017e-16,4.640385298e-17,-2.461229433e-05,-5.169442077e-18,2.873135757e-17,3.330872362e-17,0.01144867243,1.165517335e-18,6.722053469e-17,-1.087285372e-16,-1.239717422e-17,-4.90059382e-17,-4.014258544e-17,1.870248748e-17,6.722053469e-18,-6.444226663e-17,0.002106774598,-2.93310569e-17,0.009778925081,0.001988662586,6.461167322e-17,-1.497215438e-17,-2.428612866e-17,0.0005809227063,-1.224606354e-16,2.14307806e-17,-3.047561017e-17,6.124979945e-17,-8.138292557e-18,2.362629e-17,-1.940721889e-17,-5.834362941e-18,6.15826834e-17,-9.79170087e-17,-8.326672685e-17],
			[-0.0165820778,0.04004818628,-0.0400976934,-0.001114115608,0.006173155072,0.09751441131,-0.006225774092,-0.0008406154002,0.01178591902,-0.003423006638,0.001877921191,1.577514161e-17,-2.652907191e-17,1.965582306e-17,4.179599375e-17,8.897911704e-17,-1.647987302e-17,-0.001906056896,1.200796258e-17,-3.486387611e-17,-6.579074308e-17,-0.02221860528,2.062694633e-17,1.578869414e-17,5.978104432e-17,1.606652094e-17,1.664250335e-17,-2.168404345e-17,2.279535068e-17,-1.544988096e-18,4.368657129e-17,0.0001351022358,5.834362941e-17,0.0006270982397,-0.003793243141,9.585024831e-18,1.47697135e-17,4.884330787e-17,-0.001294138568,8.885036804e-17,-1.557481832e-17,2.86130906e-17,-3.654989519e-17,2.928870525e-17,-6.514615101e-17,4.987329993e-17,2.851959933e-17,-3.664603343e-17,1.715411125e-17,6.071532166e-17],
			[-0.007647791281,0.004587071511,0.0143836348,0.05246851406,-0.03405010807,-0.03942322407,0.04391473778,-0.0009100205583,0.001349945113,-0.001024818937,0.0005344951048,6.266688557e-17,-2.759294529e-17,3.083538741e-17,-5.746271514e-17,3.152317817e-17,-7.806255642e-18,-0.0005055503184,1.030330877e-17,-2.130457269e-17,-1.099109952e-17,-0.01024740433,-2.504507018e-17,-4.136231288e-17,2.942253646e-17,1.544988096e-17,-1.517883041e-17,4.195862408e-17,-2.059984128e-17,-1.734723476e-18,-2.3266301e-17,-0.0007452017119,1.673737104e-17,-0.00345897075,-0.005609855967,3.008661029e-18,2.188733136e-18,-1.431146868e-17,0.009128464192,1.539567085e-17,2.378129703e-17,-4.726232087e-17,5.688673274e-18,-2.524835809e-17,6.789816105e-18,3.816391647e-17,-1.714394685e-17,-5.551115123e-17,7.237049501e-18,2.428612866e-17],
			[-0.06776835356,0.01515745651,-0.01170515202,-0.06145631196,-0.06643409132,0.01999780702,-0.03791855804,0.1848098407,0.004460740214,-0.01261325223,0.006850940418,-2.320192649e-17,-5.773376568e-17,-2.509589216e-17,-6.299214622e-17,1.694879046e-16,-2.923009057e-16,-0.006861782862,-2.836374527e-17,-4.035942587e-17,-4.483175983e-17,-0.09080395815,1.00830802e-17,-4.5915962e-17,8.901977462e-17,-1.980024218e-17,-4.33680869e-18,6.879262784e-17,-1.460420326e-16,-4.445228907e-18,4.791834789e-17,-0.001453939544,3.020180677e-17,-0.006748688675,-0.01447307941,-3.022213556e-17,-2.131134895e-18,1.668045042e-16,-0.007882050919,4.141652299e-17,-1.407599352e-17,-1.858347935e-17,-6.511142266e-17,-2.267337793e-17,1.861778418e-17,3.829402073e-16,4.533320334e-17,-3.469446952e-16,-5.71916646e-18,-3.122502257e-17],
			[0.001148632147,-0.02028585845,-0.05433860887,0.02338425531,0.006687244259,-0.01765063856,-0.008824454648,0.0001589478193,0.08796057338,0.0001303019268,-6.613713198e-05,3.729655473e-17,-2.828412417e-17,4.560086575e-17,-5.778797579e-17,-2.187106832e-16,-8.456776945e-17,6.000245165e-05,6.789053776e-17,-3.270224803e-17,-1.860761979e-17,0.001539071556,-3.198396409e-17,-3.637498289e-17,-6.290236073e-17,-4.391018799e-17,-1.139496483e-16,-5.692061406e-18,6.922630871e-17,-4.521123059e-17,-2.275808123e-17,0.0001463533055,5.245166823e-17,0.0006793218467,0.0010264563,5.320044535e-17,-1.100804018e-17,-2.168404345e-17,-0.00183432083,-7.285838599e-17,1.260300322e-17,-2.434605624e-17,-2.988840458e-17,-8.521151449e-18,7.108300493e-18,-4.911435841e-17,1.03066969e-17,1.084202172e-17,-6.089828078e-17,1.05818132e-16],
			[-0.03822970242,0.04035205712,0.1260698533,-0.01789739124,-0.01661928316,0.01383011341,-0.01558485994,-0.002374760962,0.01187534622,0.4926781684,0.004052235699,2.799410009e-16,1.183677722e-16,1.014372776e-16,-1.997100402e-16,-2.487430834e-16,2.125036258e-16,-0.004082049929,-1.048796195e-16,8.386303804e-17,6.05106785e-16,-0.05122462206,1.778091563e-17,8.830826695e-17,1.835012177e-17,1.101413882e-16,-2.014447636e-16,2.965292942e-17,-3.215743644e-16,2.623769257e-17,4.707470308e-17,-0.0003637203804,-3.759471033e-17,-0.001688265254,-0.008643650652,1.847073926e-16,-1.206852543e-17,2.392292094e-16,-0.003239592061,4.180683577e-16,-8.997861592e-17,2.340902605e-17,7.845896784e-17,-3.426078865e-17,1.410953602e-16,8.370040772e-17,7.521652572e-18,-2.862293735e-17,-4.711942642e-16,-2.723515857e-16],
			[-0.01479477262,0.04149166645,-0.001003184909,0.02665568335,-0.0106047738,-0.01933403453,0.01720281226,-0.005334987845,0.01221072578,-0.00281217545,0.06628599775,5.290906602e-17,-5.258380537e-18,-4.253460648e-17,-9.410874857e-17,8.055622142e-17,-2.255140519e-17,-0.001537492126,3.32646779e-17,-4.233809484e-17,4.8409627e-17,-0.01982376498,-1.929879867e-17,-6.006480036e-17,9.074772184e-17,2.499086008e-17,6.591949209e-17,-2.059984128e-18,-2.190088388e-17,1.105886216e-17,-3.350184713e-17,-0.0002320901765,4.320545657e-17,-0.001077282995,-0.00526214005,1.750986509e-17,-3.970890457e-18,-1.214306433e-17,0.003575912407,6.201636427e-17,-5.661568219e-17,3.828588922e-19,8.218252467e-17,3.474867963e-17,-9.798477134e-18,5.681219384e-17,6.965998958e-18,-7.632783294e-17,3.95733793e-18,1.249000903e-16],
			[-0.04428209216,-0.0322803802,-0.009157544394,-0.03166413117,-0.06993644401,0.002590141857,-0.01016049776,0.149358383,-0.009499904548,-0.007843707157,0.004238224859,0.114194913,-7.640914811e-17,3.50332827e-17,7.589415207e-18,1.024842104e-16,-1.301042607e-16,-0.004215171616,-4.301572119e-17,-5.263801547e-17,-1.206717018e-16,-0.05933432099,2.179246367e-17,-8.337514706e-17,4.418123853e-17,1.952919163e-17,6.396792818e-17,1.429520564e-16,-2.29091919e-16,2.428612866e-17,3.595485455e-17,-0.001530590085,-1.415561461e-17,-0.007104474199,-0.01066323665,-4.52654407e-17,-1.986800481e-17,1.361215828e-16,-0.002112041302,-3.881443777e-17,-1.947159339e-17,4.028065181e-18,-5.723571031e-17,-7.391548311e-17,2.455717921e-17,2.372234353e-16,6.017322057e-18,-1.95156391e-16,4.984619488e-17,-1.561251128e-17],
			[0.03574878073,-0.01358413519,0.0007114920331,-0.008476627675,-0.01079492812,0.0002764175437,0.002921971008,0.01810194875,-0.00399772205,0.008846649961,-0.004926896553,-7.979727989e-17,0.06241247357,-1.693049455e-17,-9.107298249e-18,-0.01348337456,-8.67361738e-18,0.005098588811,-4.107093355e-17,0.002102112982,4.119968255e-18,0.0479003933,-7.914675859e-18,0.003673648296,3.801145054e-17,-0.005496742527,5.204170428e-18,2.531612073e-17,-5.854691731e-18,4.163336342e-17,4.403554886e-17,-0.0002362517882,-6.630573911e-17,-0.001096599769,0.009044100203,7.227498333e-05,-0.005521946889,1.013729031e-17,0.0006073839687,-5.312590645e-18,-1.941568922e-17,3.504514116e-17,3.171291355e-18,2.051852611e-17,7.433561145e-18,8.67361738e-18,-1.080136414e-17,-5.204170428e-18,-2.760649782e-17,-3.122502257e-17],
			[0.003492662608,0.06826796616,0.0436698893,0.01099345858,0.0006095926662,-0.00831638938,-0.00104272667,0.000204093681,0.02009081548,0.0006923132539,-0.0003783793657,1.063602331e-16,6.411700598e-17,0.1646283515,-5.160802341e-17,-6.901488929e-16,-6.895525817e-17,0.0003821356712,-4.006381137e-17,-1.119303218e-16,6.270754315e-17,0.004679877444,7.752045533e-18,-1.019421093e-16,1.291793007e-16,1.962405932e-17,3.848917712e-17,-2.162983334e-17,5.746271514e-17,1.750986509e-17,6.515546837e-17,1.334120578e-05,4.573300289e-17,6.192530132e-05,0.0009932020462,-5.407458335e-18,-2.952587448e-17,-1.950208658e-17,-0.0002167494001,4.08744219e-17,-3.771498901e-17,-4.766826141e-17,1.581410513e-17,1.510090338e-16,-8.990915922e-17,-2.797241605e-17,-6.047815243e-18,-8.283304598e-17,8.874872408e-17,1.647987302e-16],
			[0.02322350911,-0.007554366882,0.01892267893,-0.007731941733,0.05420735369,0.01190077902,-0.01371008113,-0.04261947965,-0.002223200714,0.003850437554,-0.00206516588,-0.1779818697,6.819631665e-17,-6.409667718e-17,0.1812751621,5.773376568e-17,-8.67361738e-18,0.002033159319,-2.047786853e-17,2.01119503e-17,1.188827682e-16,0.03111757094,2.428612866e-17,7.600257229e-17,-6.633962043e-17,-6.797947621e-17,-2.18575158e-16,-2.07624716e-16,2.396086801e-16,-4.943961907e-17,-4.438452644e-17,0.00118635197,5.877731028e-17,0.005506638936,0.007163185039,-2.7945311e-17,-9.051732888e-17,-1.019150042e-17,-0.002849885732,-8.847089727e-17,3.310204758e-17,1.773263475e-17,1.019827668e-17,3.637498289e-17,1.188556632e-17,-3.729655473e-17,3.415236843e-17,-1.040834086e-17,3.377289767e-17,-2.87964097e-16],
			[-0.02173801907,0.07848230427,-0.01820071638,0.06390595512,0.02464754398,0.148677291,-0.02930006629,-0.0008676378971,0.02309682831,-0.004735860061,0.002610621107,4.61111184e-16,-1.639855786e-18,4.717719406e-16,-1.67183975e-16,0.5026059966,2.953366718e-16,-0.002666314266,-8.347763805e-17,1.377343335e-16,-1.4720755e-16,-0.02912713781,-1.973247954e-17,3.64834031e-17,3.911936964e-17,-5.621588264e-17,1.770502148e-16,-1.738518184e-16,3.177796568e-16,3.301395615e-17,5.236188273e-17,0.000539422428,8.281271719e-17,0.002503813894,-0.003228530872,6.732895491e-17,-4.65868121e-17,4.391018799e-17,-0.006090543163,-5.06539255e-16,1.01677835e-17,-2.734963508e-17,1.412647668e-16,1.324996699e-16,-4.615651936e-17,8.10983225e-17,7.409844223e-17,-2.393918397e-16,-9.334303079e-17,1.42247325e-16],
			[0.01063243428,-0.01518394433,0.0112878578,-0.04537931671,0.02363791127,0.0330092942,-0.03574902538,0.008418858761,-0.004468535404,0.001780560606,-0.1122661909,-9.887923813e-17,-3.07913417e-17,1.243986468e-16,2.289834988e-16,-1.812786032e-16,0.1558281065,0.0009427874518,-1.797742727e-16,3.838075691e-17,-8.576039184e-17,0.01424657774,-0,6.2883726e-18,-3.764892044e-17,-7.611099251e-17,7.806255642e-18,-2.558717127e-17,2.168404345e-17,-2.602085214e-18,1.211595928e-17,0.0005173261686,-1.680513367e-17,0.002401250637,0.005711307928,-8.413408858e-17,-2.496375502e-17,-5.507747036e-17,-0.007431074727,-7.459310947e-17,-3.557538378e-17,3.104375752e-17,-3.55347262e-17,5.041540102e-18,-2.710505431e-18,-2.723515857e-16,-5.789639601e-17,3.053113318e-16,1.135159675e-16,-9.714451465e-17],
			[-0.004568509241,-0.02640884331,-0.006466714659,-0.02871033695,-0.002635022969,0.0181557199,-0.01862520193,0.02447681083,-0.007771949685,0.0730851315,-0.04380299625,1.582935172e-17,1.683223873e-17,7.397308135e-17,-4.380176777e-17,-5.37493227e-17,4.163336342e-17,0.04939797326,-1.308157684e-17,5.393905808e-17,4.956159181e-17,-0.006121422465,-7.48099499e-18,1.837722682e-17,-6.007157662e-17,5.746271514e-18,-1.240327285e-16,-1.089623183e-17,-3.794707604e-17,-2.504507018e-17,2.532628512e-17,-5.766864598e-05,-3.396263305e-17,-0.0002676780749,0.0003501887027,-2.164338587e-17,8.138292557e-18,-8.998878032e-18,-0.003871581558,-2.168404345e-17,-6.913144102e-17,1.947879317e-17,6.892137685e-17,-2.936832635e-17,1.757085146e-17,2.168404345e-18,3.480288974e-17,2.602085214e-17,-1.41217333e-17,-1.942890293e-16],
			[-0.003818328583,0.007406806548,-0.02557437309,0.007255070075,1.647647822e-05,0.02306010551,-0.005640686779,0.01870352131,0.002179774674,-0.08609524572,0.000937433372,8.635670304e-17,9.947554933e-18,1.546656751e-16,5.854691731e-18,0.07969509316,-9.324138683e-17,-0.0004246807232,0.1317932904,-8.216897215e-17,-2.264390119e-16,-0.005116242768,-1.485356976e-17,-1.005597515e-16,6.766099183e-18,-1.084202172e-18,6.396792818e-17,-2.059984128e-18,4.613280244e-17,1.485356976e-17,-1.750647695e-17,3.605950311e-07,-4.577366047e-18,1.673758454e-06,-0.0005263319798,-4.450649918e-17,3.68510154e-17,-3.491130995e-17,-0.001172517699,-1.119438743e-16,3.113354301e-17,2.232916492e-17,1.118168194e-17,1.076070656e-16,-1.062772239e-17,1.580766767e-16,1.895320923e-17,-2.142383493e-16,1.165517335e-16,2.957703527e-16],
			[-0.01080224875,-0.03365910684,0.00971588004,0.05116241995,0.03690036628,-0.01844293855,0.03286287918,0.02541043551,-0.009905654774,0.0733980118,-0.04405475829,2.786399583e-17,2.066082765e-17,1.428825997e-16,1.783512574e-17,-1.767520592e-16,1.604619215e-17,0.04976022936,5.050264541e-17,0.1063348064,1.542819691e-16,-0.01447411501,-2.916503844e-17,-5.816744655e-17,-4.569234531e-17,6.890104806e-17,-2.050768409e-16,-2.48011247e-17,6.60279123e-17,-5.556536134e-17,9.025983086e-18,0.0008075808767,-6.877907532e-18,0.003748513438,-0.005517275095,4.234825923e-17,9.352937804e-18,-1.04530642e-16,0.006831137586,-2.086547081e-16,-2.097168874e-17,4.979600818e-18,-3.958862589e-17,-1.526150083e-16,2.437252602e-17,-6.60279123e-17,2.102335775e-17,3.989863995e-17,-8.363942134e-17,-2.541369892e-16],
			[0.04082878851,-0.02969660116,0.0381555363,0.1283126779,-0.01963237477,-0.1023810696,0.01384821493,0.01698444052,-0.008739515294,0.009871611606,-0.007056890109,7.459310947e-17,0.05710487623,-1.146204984e-16,-1.674008154e-16,-0.01233673962,-6.245004514e-17,0.005666540292,-8.726811049e-17,0.001923347926,0.1635308291,0.05470718128,-8.998878032e-18,0.003361238856,-1.98137947e-17,-0.005029295968,-3.165870344e-17,-1.154675314e-17,7.654467338e-17,5.518589058e-17,2.898885559e-17,-0.0004296632262,8.436448155e-18,-0.001994349326,0.009462016017,6.612867174e-05,-0.005052356934,-1.400789207e-16,0.002878599315,-2.016616041e-16,8.619407271e-18,-5.606511078e-18,3.929894062e-17,6.716632459e-17,8.755948982e-17,1.626303259e-16,8.510987054e-18,-1.613292833e-16,-3.214659441e-17,-2.775557562e-17],
			[-0.01036821856,-0.01056351922,-0.01655932129,-0.07840558682,-0.01332804486,0.05614619692,-0.002393405662,0.02076946135,-0.003108774546,0.07646806972,-0.03748485175,-1.179611964e-16,9.952975943e-17,3.539920093e-17,-1.101549407e-16,2.23562488e-16,-6.938893904e-18,0.04235431553,-9.240113015e-17,-2.688821388e-17,1.975416358e-16,0.508828135,-1.127570259e-17,1.517883041e-17,2.117988944e-16,1.897353802e-17,-3.469446952e-17,-8.67361738e-19,-8.67361738e-18,1.379105163e-16,-1.187201379e-17,-0.0002916901711,-1.175817256e-16,-0.001353925727,0.09883067722,1.902774813e-17,-1.549324904e-16,-1.517883041e-17,-0.0004975122018,3.122502257e-17,-1.469907095e-16,1.106597724e-16,-1.053302411e-16,-2.005774019e-17,-2.415060339e-17,7.459310947e-17,3.480288974e-17,-2.775557562e-17,7.589415207e-19,-2.498001805e-16],
			[-0.005560308664,0.02231454796,-1.678033131e-05,0.008221351349,-0.01039330742,-0.003858348616,0.01111835748,-0.01245577887,0.006567025368,0.0005930568076,-0.001971695064,-0.009196978695,-0.001246010182,1.422295373e-17,7.548757626e-17,0.000269183723,0.002182731479,0.000534861236,3.396030371e-17,0.002170464896,1.87854967e-17,-0.007450351214,0.02943282424,0.00379309996,6.421949696e-17,0.0001097376336,-0.05360542115,-0.006300157463,0.01358471453,-0.02961037013,7.420008618e-19,-0.000227462141,6.149459197e-19,-0.001055801241,-0.002361594175,7.462506321e-05,0.0001102408165,-2.415737966e-17,0.002311149589,1.39238664e-16,-4.68875088e-17,6.483613695e-18,2.210417179e-17,2.967749337e-17,-2.082176391e-17,-6.020032563e-17,-2.265220211e-17,9.150666336e-17,4.661052902e-17,7.589415207e-17],
			[-0.01164717022,0.001173320211,0.01462032108,-0.06024438421,0.02120990214,0.05728652196,0.0183342186,0.01463170037,0.0003453004562,0.04208276771,-0.0253151844,-1.10805462e-16,3.111660235e-17,-8.321251674e-18,1.144917494e-16,-5.567378156e-17,-4.857225733e-17,0.02866236848,5.872987643e-17,0.06249825938,1.477496511e-16,-0.01560623952,4.119968255e-17,0.1092218288,3.37119113e-17,5.320722161e-17,-1.288032181e-16,-7.361732751e-17,1.006139616e-16,-5.074066167e-17,4.383564909e-17,0.0004641881122,-7.894347068e-17,0.002154602005,-0.004537952513,0.002148819162,9.439335164e-18,2.087089182e-17,0.003811095465,-4.90059382e-17,-8.584509514e-17,-2.765562573e-17,-2.076924787e-17,-9.942133922e-17,2.064727512e-17,-2.168404345e-17,2.930056371e-17,4.33680869e-17,-7.632783294e-17,-2.463307336e-16],
			[-0.009549797609,-0.00461240345,-0.01489017063,-0.02404152049,-6.252836676e-05,0.03840463306,-0.01788110639,0.02023816528,-0.001357400137,0.06011307206,-0.03608817196,4.27175656e-17,1.111307227e-17,0.005137598178,-2.081668171e-17,-6.659711844e-17,1.908195824e-17,0.04077074728,1.772670552e-17,2.661716333e-17,-5.285485591e-19,-0.01279593463,2.493664997e-18,-7.372574773e-18,0.08598791033,-7.995991022e-19,-1.082033768e-16,3.577867169e-18,-1.626303259e-18,-2.51534904e-17,4.195862408e-17,-1.36846103e-06,-1.170938346e-17,-6.351926733e-06,-0.00100502055,3.221435705e-17,-9.405453846e-18,-5.258380537e-18,-0.003716907982,-7.437626903e-17,5.229581416e-17,-1.121852787e-17,3.469446952e-18,-4.240585747e-17,3.127584454e-17,4.185020386e-17,3.995285006e-17,1.040834086e-17,-1.252253509e-17,-1.266348137e-16],
			[0.02030216972,-0.008618244931,0.01528603114,0.07480113471,-0.02700753921,0.04008855224,-0.02034504727,-0.01754481219,-0.002536293058,-0.05015735434,0.03023887825,1.667502941e-16,-1.165246285e-16,5.624637583e-17,-8.630249293e-17,2.521854253e-16,2.896988205e-16,-0.03431771074,-1.500552747e-16,-0.07632750312,-8.481171494e-17,0.02720321909,-6.353424731e-17,-0.1333897865,-8.766452191e-17,0.1995861479,3.783865582e-16,1.114559833e-16,-2.660632131e-16,1.086370577e-16,-5.725942723e-18,-0.00059107197,1.580427954e-16,-0.002743553353,0.006951871431,-0.002624297107,2.265304914e-17,5.941427905e-17,-0.004229082191,3.282964178e-16,2.114194236e-17,-4.660375276e-17,3.607343916e-17,2.799274484e-17,-8.06714179e-18,-3.252606517e-17,-1.929879867e-17,7.632783294e-17,1.078374586e-16,2.931682674e-16],
			[0.001534384978,-0.02501481598,-0.004490835421,-0.02462400902,0.009069119641,0.0137982249,-0.03394773515,0.03344030207,-0.007361696567,0.0001720196673,-8.712561446e-05,0.02482712426,2.8511129e-17,-5.920421488e-17,-1.491455614e-16,3.988847555e-17,-1.450662507e-16,7.877610473e-05,-7.324357422e-17,2.717281695e-17,-1.620374028e-17,0.00205594827,-7.982438495e-18,1.646632049e-18,-7.520974945e-17,2.605981566e-17,0.1447071366,-3.205850299e-17,7.016143309e-17,-1.013729031e-17,5.307127283e-17,0.0001984817043,1.313832804e-17,0.0009212839944,0.003199602918,4.561018311e-17,-1.209563049e-17,4.698661165e-17,-0.007056644315,-3.030209547e-16,-9.951578339e-18,4.104070506e-17,-4.707364429e-17,-3.037290742e-17,4.531245103e-17,1.249271953e-16,3.084131664e-17,-1.9461429e-16,-1.499892062e-16,-8.066464163e-17],
			[-0.004621710665,0.02196082832,-0.01717626977,-0.01721747661,-0.03278657159,0.009755098864,-0.008043898036,-0.004939649274,0.006462927994,-0.01302768847,0.007751846329,1.479935965e-17,-2.305962496e-17,-4.670793781e-17,2.461138932e-17,9.240113015e-17,-1.301042607e-18,-0.008673465889,-1.533722558e-17,-0.01758940504,-4.455393303e-17,-0.00619270795,-3.567025147e-17,-0.03073920784,4.442687808e-17,9.039535613e-18,8.077306185e-17,0.05008788282,-3.464025941e-17,8.267041565e-18,-6.590763363e-18,-0.0007175486558,1.745904311e-17,-0.003330614749,-0.0005367061504,-0.0006047600519,3.870940569e-18,8.538092108e-19,-0.001672068169,2.943608898e-17,-3.994522676e-17,4.415794512e-18,3.740751605e-17,1.900741934e-17,-8.214525522e-18,8.131516294e-18,-1.639855786e-17,-1.431146868e-17,-4.201283418e-19,1.040834086e-16],
			[0.003129956125,-0.04095926939,0.1011310654,0.03562801162,0.09268036929,-0.01669193171,0.009473845539,0.007686029566,-0.01205404482,0.03022582084,-0.04915977591,3.252606517e-17,-0.02485065623,1.284779574e-16,-9.150666336e-17,0.005368649678,0.04353279806,0.02030773177,-2.330357044e-17,0.04328815106,2.043450045e-16,0.00419388092,2.797241605e-17,0.07565028321,-1.416239088e-17,0.002188627547,-1.105886216e-16,-0.1256514991,0.270936045,-7.741203512e-17,-9.168962247e-17,0.002028350974,-3.282422077e-17,0.009414909517,3.125910953e-05,0.001488335985,0.00219866312,-3.361026735e-18,0.001969308349,4.462576142e-16,-7.60567824e-17,-6.993527529e-17,-2.286988958e-17,-6.575686176e-17,5.160802341e-17,2.263814136e-16,-1.769960047e-17,1.908195824e-16,-3.306816626e-17,-4.857225733e-16],
			[-0.004574962064,0.00861446667,-0.001239417848,-0.02721486786,-0.01814941745,0.0154898345,-0.03157461983,0.02638925827,0.002535181141,-0.004130412385,0.005921695606,0.020622606,0.002793958529,-3.075915445e-17,-1.593777194e-16,-0.0006035971209,-0.00489439117,-0.002674458617,-1.234601343e-16,-0.004866885515,-2.087766808e-17,-0.006130068712,0.03797339414,-0.008505359054,-2.614282488e-17,-0.000246067329,0.1202007221,0.01412699425,-0.03046133135,0.06639604344,3.295635791e-17,-0.0003972080479,2.455717921e-17,-0.00184370352,0.001416985326,-0.0001673335698,-0.0002471956281,3.770313055e-17,-0.006563349823,-2.685568781e-16,-2.818248022e-17,4.455816819e-18,-2.278518628e-18,4.789463097e-17,1.330519354e-17,9.627715292e-17,8.57874969e-18,-2.437286484e-16,-1.301178132e-16,5.898059818e-17],
			[-0.05629046433,-0.009616515552,0.002254902286,0.005024857289,0.1183896845,-0.00357788963,-0.01727849202,-0.001474313377,-0.002830077566,-0.0130826086,0.007250595959,6.982261991e-17,-1.924458856e-18,2.344587198e-17,8.153200337e-17,-2.467915195e-17,1.400789207e-16,-0.007456807735,-5.981238454e-17,5.301748623e-17,-7.264154556e-18,-0.07542454109,9.974659987e-18,9.372927781e-17,-1.407870402e-16,3.247863133e-17,-4.933119885e-17,-6.28295159e-17,7.827939685e-17,-8.028517087e-17,0.1146244129,0.002591010735,4.254477087e-17,0.01202658314,-0.01319491194,3.616491872e-17,2.913793339e-17,6.212478448e-17,-0.0035916438,-2.33537148e-16,6.912127663e-17,-5.585059968e-17,4.983094829e-17,-2.620381126e-17,3.063040544e-17,-1.111307227e-16,-1.053708986e-18,1.383441972e-16,-4.416090974e-17,-3.989863995e-17],
			[-0.01424505839,0.03401709557,-0.008867570909,-0.01302482259,0.02455778196,0.01193693733,-0.01771175682,-0.01486808107,0.01001100851,-0.04628361166,0.027562549,-7.318364664e-17,2.392021043e-17,-7.587382328e-17,8.153200337e-17,-7.837426454e-17,-1.170938346e-17,-0.03086708068,7.362410378e-18,-1.479935965e-17,-1.494843745e-17,-0.01908719362,1.084202172e-19,-3.117081246e-18,-2.147059115e-17,-3.779122197e-17,1.258758722e-16,-2.572269654e-17,6.488950002e-17,2.027458063e-17,9.195389675e-18,0.06330439293,1.055064239e-17,0.002494695445,-0.00223851553,1.190589511e-17,7.115076757e-20,-5.339695699e-17,-0.003681705642,-6.635317296e-17,-7.768986192e-18,-5.429248258e-17,8.18233827e-18,5.30242625e-17,3.647323871e-18,-1.214306433e-16,-4.260914538e-17,7.676151381e-17,3.085910433e-17,1.804112415e-16],
			[-0.02386962942,-0.03987661979,0.01264685986,0.02512664543,0.002829915756,-0.01549788023,0.009601632331,-0.003737143251,-0.01173542813,-0.008164857719,0.00645689475,0.01070839239,-0.06156209133,6.432029388e-17,-4.466912951e-17,0.01329966093,-0.002541437351,-0.004927038792,5.034086212e-17,-0.004649489766,2.541098842e-17,-0.03198331842,-0.03426975767,-0.008125438693,-1.262621192e-16,0.005421848328,0.06241483244,0.007335513162,-0.01581720026,0.03447648112,-2.605134533e-17,6.193396103e-05,0.1151757443,0.0002874762044,-0.006992011606,-0.0001598590553,0.005446709275,4.174178364e-18,0.001995871121,-2.766883944e-16,4.381870843e-17,-3.147235619e-17,6.920597992e-17,-1.153862162e-16,5.414234599e-18,-3.426078865e-17,-7.237049501e-18,-6.938893904e-17,-7.757466544e-17,-1.075528555e-16],
			[-0.01267486798,0.02068496164,-0.005508262602,-0.008725022671,0.00258591491,0.005050404798,-0.00931208152,0.0107168879,0.006087448785,-0.0146626407,0.008647435226,-3.659182332e-17,1.479935965e-17,-2.335015726e-17,-2.818925648e-17,-4.508248158e-17,-1.626303259e-17,-0.009580641824,1.772247036e-17,7.060866648e-18,-2.036944832e-17,-0.01698326904,-5.421010862e-20,8.239936511e-18,2.270048299e-17,9.798477134e-18,5.697482416e-17,1.029992064e-18,3.089976192e-17,-9.839134715e-18,-2.768950705e-18,0.01766500182,-4.055254938e-17,0.08199487955,-0.002523750434,2.146042675e-17,-1.324928936e-17,2.137233533e-17,-0.001935682803,8.630249293e-17,1.08132226e-17,-7.55309867e-18,-3.95733793e-18,-5.116079001e-18,9.33176198e-18,8.684459402e-17,-1.384390649e-17,-4.553649124e-17,-2.694920025e-17,9.36750677e-17],
			[-0.01485627458,0.01647828798,0.004994230863,0.01808845472,-0.05384123715,-0.01340875948,0.07000817008,-0.001593603629,0.004849452268,-0.002175462894,0.001148862523,-3.881443777e-17,-7.930938892e-17,5.839783952e-17,-1.279358564e-17,-1.78188627e-16,-8.326672685e-17,-0.001106613871,-8.748156279e-18,-3.062871137e-17,-1.141122787e-17,-0.01990617249,-9.757819552e-18,-1.131907068e-16,1.098093513e-16,4.263625043e-17,2.471980953e-17,5.220433461e-17,-3.491130995e-17,1.290200585e-17,-4.629543277e-17,-0.001178339347,4.189086144e-17,-0.005469447089,0.08532421138,2.843320197e-17,-3.953272171e-17,3.198396409e-18,0.01455245109,1.140580685e-16,-3.882121404e-17,-1.674075917e-17,-2.337810934e-17,-1.736078729e-17,-1.809601189e-17,4.553649124e-17,-4.580754179e-17,-1.05818132e-16,-1.265806036e-17,6.591949209e-17],
			[-0.004349714187,0.0127827929,-0.008674544886,-0.02420372111,-0.05904535777,0.01839950776,-0.001335517372,-0.001079282166,0.00376189226,1.279304443e-05,-5.262474162e-05,-7.316670598e-18,-2.513739678e-17,-2.229941289e-17,2.034403733e-17,1.424252019e-16,-2.785044331e-18,0.0001141692146,-3.785178483e-21,-4.885728391e-17,-5.092870299e-17,-0.005828255287,-1.351017551e-17,-5.871717094e-17,5.825267924e-17,1.146130869e-17,9.589768216e-17,1.589753787e-17,-5.630820923e-17,3.95606738e-17,5.062035652e-17,-0.001292233834,2.20217449e-17,-0.005998106235,-0.001019576119,0.06776139329,-1.016439537e-19,6.454348706e-17,-0.0002776111876,5.936684521e-17,-5.352189435e-19,1.724367175e-17,1.146379685e-18,3.081474098e-17,-4.577842503e-18,7.03545566e-18,6.353170621e-18,-3.618524751e-18,4.179959364e-17,8.467618967e-17],
			[0.00921288108,0.0009164961488,0.02216051911,0.04894935439,-0.004601306658,0.009193863775,-0.01365750574,-0.005999734989,0.0002697188162,-0.0173410216,0.01047723766,1.692439591e-16,-1.897353802e-19,1.347680241e-16,-1.137328079e-16,0.1725743429,2.164067536e-16,-0.01191797356,-9.168115214e-17,-0.02690504256,-8.281271719e-17,0.0123444945,1.051676107e-17,-0.0470191967,-9.499982723e-17,0.0703530652,1.335737077e-16,-1.444699395e-17,8.077306185e-18,5.301748623e-17,1.917004966e-17,-0.0001007016363,4.044412917e-17,-0.0004674224561,0.003519801948,-0.0009250508986,0.070675657,-1.217016939e-17,-0.002838956997,-9.942133922e-17,1.793338156e-17,-4.345639008e-17,4.756259405e-17,2.551263237e-17,1.631893676e-17,-3.1441863e-17,-1.781479695e-17,-7.806255642e-18,2.759294529e-17,8.67361738e-17],
			[0.02315979345,-0.003702568152,0.007892097904,0.06482099482,0.006246865732,-0.02025290331,0.006767652628,-0.01558124386,-0.001089641566,-0.05715897493,0.0278408586,8.933825901e-17,-5.225854471e-17,-7.115076757e-18,9.540979118e-17,-2.981555974e-17,1.387778781e-17,-0.03165260944,7.8103214e-17,5.160802341e-17,-2.403134115e-16,-0.3807151341,3.556183126e-17,5.898059818e-17,-2.025831759e-16,-6.245004514e-17,4.510281038e-17,-1.25767452e-17,5.117434254e-17,-1.040834086e-16,5.941427905e-17,0.0001367154262,4.377466271e-17,0.0006345861166,-0.07435768708,-2.087089182e-17,1.159012122e-16,0.1160395292,0.00140677772,-1.587271981e-16,9.256376048e-17,-1.13427876e-16,8.730537994e-17,-1.626303259e-19,1.672381851e-17,-1.231653668e-16,-2.439454888e-17,7.632783294e-17,6.960577947e-17,1.942890293e-16],
			[0.01049104421,-0.02728352318,-0.001974208516,-0.02686370139,0.01146008827,0.02014417649,-0.01514287589,0.0007493538068,-0.008029362242,0.001934977038,-0.001050010625,-4.640385298e-17,1.528725063e-17,2.309350627e-17,3.404394822e-17,2.477401964e-17,3.816391647e-17,0.001050353446,-3.538226027e-17,9.378348792e-18,-2.783689078e-17,0.0140571268,4.597017211e-17,2.146720302e-17,-1.000176504e-17,3.610393234e-17,-2.428612866e-17,-6.071532166e-18,2.103352215e-17,6.2883726e-18,7.928228386e-19,0.0002508091129,-6.300569875e-17,0.001164169877,-0.02026127654,-3.23905399e-17,1.938011383e-18,3.523657061e-17,0.05790829238,-6.245004514e-17,1.102498084e-17,1.629691391e-17,2.222614454e-18,-2.26598254e-17,2.019326546e-18,-1.431146868e-17,2.579045918e-17,2.255140519e-17,-3.038476588e-17,-3.469446952e-17],
			[0.01350772682,-0.0925156276,0.02617235216,0.03359450112,-0.0009379632579,-0.01151765859,0.01823263671,-0.02378145296,-0.02722674349,-0.03527424286,0.01936851048,-2.120699449e-16,-0.05093913056,-5.625654022e-17,1.235990477e-16,0.01100471329,6.938893904e-18,-0.0219874297,1.093011315e-16,-0.001715679599,-7.781861093e-17,-0.09944420411,2.667137344e-17,-0.002998318116,-1.296163697e-16,0.004486271241,-2.658463727e-16,-1.50704102e-16,2.612927236e-16,-1.222980051e-16,9.710385707e-18,-2.052774177e-05,-6.585172945e-17,-9.528273647e-05,-0.02078104299,-5.898860598e-05,0.004506842261,0.03312634663,0.003789979849,0.3373749075,8.378849914e-17,-3.64190286e-17,9.154732094e-17,-7.892991816e-17,-4.1674021e-18,-1.448494102e-16,5.616167253e-17,1.075528555e-16,-9.524716085e-17,-2.775557562e-16],
			[-0.01338783931,-0.006533190921,0.001668504811,-0.05271729223,-0.006332071509,0.02353766297,0.02009843788,0.007861885706,-0.001922675315,-0.03552751235,0.02236434991,0.02830807966,-0.02362013497,-0.004536168572,3.080489423e-17,0.005102812126,-0.0007995177663,-0.02363418625,2.932406888e-17,0.01726231848,-0.06894781379,-0.01793859134,9.188613412e-18,0.03016759206,-0.07592179125,0.002080254041,6.556712638e-17,0.002307699261,-0.004975976532,1.311207002e-17,-1.669057247e-17,-0.01395524909,4.611501475e-17,-0.06477547977,-0.005135632458,0.000593514141,0.002089792686,1.603263963e-17,0.004177820015,1.800995334e-16,0.07271978302,2.351289346e-17,0.05601953497,-4.582363541e-17,-3.552011488e-17,-3.516880797e-17,-3.73266244e-17,5.28006458e-17,3.747443165e-17,-6.15826834e-17],
			[0.002485517766,-0.01478353556,0.02289905621,-0.02104193902,0.01733431757,-0.04137911948,-0.006257534036,0.0001088281989,-0.004350697725,-0.01468712149,0.009407085525,0.003470037249,0.0004701219703,-6.198417701e-17,3.33392168e-17,-0.0001015635217,-0.0008235486662,-0.009965004096,-5.151230869e-18,0.01128686706,5.428634159e-17,0.00333038711,-0.01110505959,0.01972490552,-5.153009638e-17,-4.140421424e-05,0.02022542558,0.002377061185,-0.005125538179,0.01117204799,-1.409801637e-17,0.03391899637,-4.792512416e-17,0.001760901826,0.001161891941,0.000388065787,-4.15940661e-05,-2.524835809e-17,-0.001300740441,-1.645818898e-16,2.139054653e-17,0.04572885005,-1.848522352e-17,-4.56279708e-17,6.925214322e-17,-1.065228634e-16,-4.317835152e-17,6.700369426e-17,-2.266321354e-17,-1.691355389e-17],
			[-0.01729154378,-0.0354200638,0.004641613733,-0.03004867059,-0.03372182662,0.01622056194,0.008643984593,0.07795306746,-0.01042389288,0.02253483309,-0.01367026529,0.06298681163,-5.291584228e-17,4.867771293e-17,2.827057165e-17,1.333026571e-16,-1.778091563e-17,0.0156165955,-1.85309633e-17,0.02093446424,1.04659391e-17,-0.0231692307,2.059984128e-18,0.03658502638,4.726443846e-17,8.487270131e-17,-5.388484797e-17,6.380529785e-17,-1.116999288e-16,3.6429193e-17,5.001306037e-17,-0.01606770271,1.467061065e-17,-0.07458076494,-0.005204438376,0.0007197700918,3.591419696e-18,-1.717105191e-17,0.001796806899,-4.428965875e-17,-7.025884188e-17,5.855115248e-20,0.06215404482,-6.871300675e-17,1.543463436e-17,8.92840489e-17,2.291732342e-17,-4.813857646e-17,-1.133228439e-16,-1.747733902e-16],
			[-0.003038364169,-0.0384200516,-0.006380121821,-0.03662463499,-0.002010264204,0.02812704168,-0.01791121764,0.03166628818,-0.01130676964,0.02833652351,-0.01699636993,-6.743737513e-17,0.08789496601,0.002219468934,3.881443777e-17,-0.01898852394,-3.035766083e-17,0.01918329684,-1.62504965e-16,0.00296038818,1.265806036e-17,-0.004071155315,1.235990477e-17,0.005173568257,0.03714722114,-0.007741016658,-5.225854471e-17,2.293087595e-17,-1.084202172e-17,3.295974604e-17,-3.112676675e-17,-4.399552341e-05,-3.922778985e-17,-0.0002042121296,0.000688708603,0.0001017842562,-0.00777651175,-6.993104013e-18,-0.003723167145,-2.318024245e-16,3.997995511e-19,4.441163149e-17,-1.863811297e-17,0.1622381996,7.884182673e-18,5.898059818e-17,7.55553389e-17,-6.418476861e-17,2.190088388e-17,5.204170428e-18],
			[0.007307534414,0.007004341758,0.002996243795,0.02229510241,0.003724045231,-0.02333189572,0.01726770227,-0.01858863709,0.002061331921,-0.06521922389,0.02663872666,-0.002554301407,-0.0003460577291,-0.002069304812,5.052382124e-17,7.476111287e-05,0.0006062158317,-0.03058622956,1.131636018e-17,0.0006028090006,-3.862470239e-17,0.009791488419,-0.004703357764,0.001053467762,-0.03463392629,3.047772548e-05,-0.0148879765,-0.001749759525,0.003772918976,-0.008223767021,-1.879396703e-17,8.150238102e-05,1.617494116e-17,0.0003783060982,0.0004732399303,2.072581771e-05,3.061747582e-05,-5.426431873e-17,0.003589400957,8.73866951e-17,3.806566065e-18,-1.497977767e-18,1.855510374e-17,9.351243738e-18,0.07844275791,-4.683753385e-17,-2.334422803e-17,2.168404345e-17,1.150609556e-17,1.543903894e-16],
			[-0.01187463884,-0.07534542544,-0.03748755061,-0.006037546269,-0.07087795931,0.004721671567,0.003376340043,0.04010349702,-0.02217366541,-0.03580657513,0.02519658394,0.2449966394,-0.03422673696,-1.053844512e-16,-0.2495299414,0.007394225675,-0.06208046205,-0.02224119668,1.006139616e-16,-0.009128461703,-9.671083379e-17,-0.1052550759,-5.204170428e-17,-0.01595288078,-1.173106751e-16,0.003014390391,4.579669977e-16,0.02271165595,-0.04897200814,5.898059818e-17,1.508125222e-16,-0.001551195565,-6.667843361e-17,-0.007200117768,-0.02068163304,-0.0003138553556,0.003028212357,0.0251791339,0.0007018327045,0.2564366081,2.585822181e-17,-3.245830254e-18,5.448115917e-17,-1.943974495e-16,-3.816391647e-17,0.4721664785,3.285132583e-17,-0.305812466,-6.873841774e-17,5.551115123e-16],
			[0.02306007507,0.001715401342,-0.004725242145,-0.05177697876,0.004263676591,0.02899190875,0.009293677872,-0.006257404603,0.0005048313839,-0.01245832632,0.008376122691,-0.002684034989,0.03329728652,-0.002498843132,2.378739566e-16,-0.007193430422,-0.0004404310482,-0.008961172943,8.11084869e-17,0.01106903837,-0.03798134223,0.03089858291,6.722053469e-18,0.01934422855,-0.04182310326,-0.00293253256,-0.1065357405,0.001271244302,-0.002741120526,1.734723476e-17,2.730834222e-18,-0.007517887975,-4.361203239e-17,-0.03489545742,0.005222666673,0.0003805763871,-0.00294597918,4.288019592e-17,0.001931857275,3.25911173e-16,0.0400592102,4.720006395e-17,0.03085953001,4.672911363e-17,-4.594984332e-17,-1.487525381e-16,0.1208065585,2.688821388e-16,9.963817965e-17,1.734723476e-17],
			[0.004319544744,-0.0006272550927,0.02129708298,-0.02438599536,0.01091993298,0.01717166134,-0.01958662659,0.008503241942,-0.0001845970671,0.0007036052688,-0.1208676465,-6.418476861e-17,-7.719519468e-17,1.599198204e-16,2.012279232e-16,-1.734723476e-16,0.206587304,0.0003696872352,-2.285227129e-16,-4.33680869e-19,-1.234906274e-16,0.005787830743,6.071532166e-18,-1.127570259e-17,6.315477655e-17,-8.164042359e-17,-4.510281038e-17,2.081668171e-17,2.255140519e-17,1.561251128e-17,-6.830473687e-18,0.0002389875748,1.82145965e-17,0.001109298352,0.002738052302,-7.708677446e-17,-6.120321264e-17,-4.770489559e-17,-0.004071430879,1.335737077e-16,-2.471980953e-17,2.95445092e-17,-2.225324959e-17,3.122502257e-17,-3.542630599e-17,-2.636779683e-16,-4.803015624e-17,0.2121760758,1.398620803e-16,-1.942890293e-16],
			[0.03034188445,-0.02799585162,0.01668328713,0.05086835945,0.1508207658,-0.05579383337,-0.007322819438,0.01510354098,-0.008238995839,-0.03852934423,0.02338102277,0.06877519555,0.03244863966,1.218643242e-16,-0.07004777926,-0.007010091693,6.245004514e-17,-0.02671962232,-1.465841337e-16,-0.0591717894,1.908195824e-17,0.04065560193,4.640385298e-17,0.001909952978,-4.33680869e-17,-0.002857791197,-9.887923813e-17,-3.122502257e-17,1.42247325e-16,-3.816391647e-17,-7.025630078e-17,0.00330077933,-8.803721641e-17,0.01532108552,0.008485052554,-0.2275264471,-0.002870895104,-1.118896642e-16,-0.001522179077,-3.469446952e-16,-6.071532166e-18,-1.675092356e-17,-2.168404345e-17,1.994931997e-16,-5.963111949e-17,-1.838806885e-16,-8.326672685e-17,8.326672685e-17,0.4710607022,2.272487754e-16],
			[-0.04904380027,0.1090765812,-0.01746349116,0.1550814336,-0.05225378001,-0.1179573583,0.08608757386,-0.0009758753975,0.03210052371,-0.00886280543,0.1750855022,-0.004003677557,0.004082893968,-1.765081137e-16,0.01711913095,-0.0008820542676,-0.2874782736,-0.004897889096,2.940356292e-16,-0.00239555517,1.535230276e-16,-0.0595851192,-0.04097769042,-0.004186467258,3.469446952e-18,-0.0003595854422,0.07463185779,0.00721321524,-0.01555349536,0.04122487773,2.255140519e-17,-0.001143597143,2.610758831e-16,-0.005308185698,0.1004644073,-8.236413147e-05,-0.000361234259,-0.00172742753,-0.282194764,-0.0175929664,4.65122732e-17,-1.056826068e-16,1.485356976e-16,-8.370040772e-17,1.95156391e-18,-0.03239322597,-2.146720302e-17,-0.2755281276,-1.760744328e-16,0.7499736012]
		],
		"names": [
			"G01",
			"G02",
			"G03",
			"G04",
			"G05",
			"G06",
			"G07",
			"G08",
			"G09",
			"G10",
			"G11",
			"G12",
			"G13",
			"G14",
			"G15",
			"G16",
			"G17",
			"G18",
			"G19",
			"G20",
			"G21",
			"G22",
			"G23",
			"G24",
			"G25",
			"G26",
			"G27",
			"G28",
			"G29",
			"G30",
			"G31",
			"G32",
			"G33",
			"G34",
			"G35",
			"G36",
			"G37",
			"G38",
			"G39",
			"G40",
			"G41",
			"G42",
			"G43",
			"G44",
			"G45",
			"G46",
			"G47",
			"G48",
			"G49",
			"G50"
		],
		"description": "Stable scalefree network, IAA=43.6458",
		"created": {
			"creator": "",
			"time": 736265.634,
			"id": "",
			"nodes": "",
			"type": "unknown",
			"sparsity": ""
		},
		"tol": 2.220446049e-16,
		"N": 50
	}
}
