{
	"obj_data": {
		"network": "Tjarnberg-D20131127-scalefree-N50-L235-ID4862363",
		"A": [
			[-21.57755379,0,0,0,0,0,0,0,0,0,0,0,0,0,0,0,0,0,0,0,0,0,0,0,0,0,0,0,0,0,0,0,0,0,0,0,0,0,0,0,0,0,0,0,0,0,0,-4.585581834,0,0],
			[0,-65.5391236,0,0,0,0,0,0,0,0,0,0,0,0,0,0,0,0,0,0,0,0,0,0,0,0,0,-45.03997863,0,0,0,0,0,0,0,0,0,0,0,0,0,0,0,0,0,0,0,0,0,0],
			[61.7037392,17.86407647,-438.5935542,0,0,0,0,0,0,0,0,0,0,0,0,0,0,0,0,0,0,0,0,0,0,0,0,0,0,0,0,0,0,0,0,0,0,0,0,0,0,0.7314425012,0,0,0,0,0,0,0,0],
			[2.982034813,2.541293818,0,-6.77053187,0,0,0,0,0,0,0,0,0,0,0,0,0,0,0,0,0,0,0,0,0,0,0,0,0,0,0,0,0,0,0,0,0,0,0,0,0,58.70294946,0,0,0,0,0,0,0,0],
			[0,3.750987186,25.3191635,0,-27.6916629,0,0,6.189128856,0,0,0,0,0,0,0,0,0,0,0,0,0,0,0,0,0,0,0,0,0,0,0,0,0,0,0,0,0,0,0,0,0,0,0,0,0,0,0,0,0,0],
			[26.07873841,-18.52049923,0,0,-7.717656134,-283.1807776,0,0,0,0,0,0,0,0,0,0,0,0,0,0,0,0,0,0,0,0,0,0,0,0,0,0,0,0,0,0,0,0,0,0,0,0,0,0,0,0,0,0,0,0],
			[74.51336044,-2.71946571,6.554850107,0,-102.43946,0,-441.5287016,0,0,0,0,0,0,0,0,0,0,0,0,0,0,0,0,0,0,0,0,0,0,0,0,0,0,0,0,0,0,0,0,0,0,0,0,0,0,0,0,0,0,0],
			[0,6.470452895,-2.991412281,0,0,0,23.71561648,-2.738220646,0,-4.941925617,0,0,0,0,0,0,0,0,0,0,0,0,0,0,0,0,0,0,0,0,0,0,0,0,0,0,0,0,0,0,0,0,0,0,0,0,0,0,0,0],
			[6.779909338,-2.400631799,-113.1579059,0,4.060443628,0,0,0,-15.66974897,0,0,0,-1.547282214,0,0,0,0,0,0,0,0,0,0,0,0,0,0,0,0,0,0,0,0,0,0,0,0,0,0,0,0,0,0,0,0,0,0,0,0,0],
			[-14.44130066,0,30.91751188,0,0,0,51.92304012,0,0,-44.07409943,0,0,0,0,0,0,0,0,0,0,0,0,0,0,-114.301957,0,-8.739800143,0,0,0,0,0,0,0,0,0,0,0,0,0,0,0,0,0,0,0,0,0,0,0],
			[20.07715891,-7.41757716,0,0,0,0,0,0,-24.47519139,-29.73595091,-431.1947319,0,0,0,0,0,0,0,0,0,0,0,0,0,0,0,0,0,0,0,0,0,0,0,0,0,0,0,0,0,0,0,0,0,0,0,0,0,0,0],
			[-42.25487065,-8.402211296,0,-11.84374204,83.3375578,0,0,0,0,0,0,-342.4557526,0,0,0,0,0,0,0,0,0,0,0,0,0,0,0,0,0,0,0,0,0,0,0,0,0,0,0,0,0,0,0,0,0,0,0,0,0,0],
			[2.381876863,0,0,0,0,55.39270326,76.71706541,0,0,0,0,0,-134.9323865,0,0,0,0,0,0,0,0,0,0,0,0,0,0,0,0,0,0,0,0,0,0,0,0,0,0,0,0,0,0,0,0,0,0,0,0,0],
			[0,92.13362275,0,0,0,0,-22.24335401,0,0,39.26345837,17.02010435,0,0,-280.5925964,0,0,0,0,0,0,0,0,0,0,0,0,0,0,0,0,0,0,0,0,0,0,0,0,0,0,0,0,0,0,0,0,0,0,0,0],
			[0,0,0,27.96360947,0,2.644445966,0,0,0,29.21081271,0,0,-121.1475086,0,-277.9106406,0,0,0,0,0,0,0,0,0,0,0,0,0,0,0,0,120.1347421,0,0,0,0,0,0,0,0,0,0,0,0,0,0,0,0,0,0],
			[0,5.523328631,0,0,0,-3.63845757,0,0.7501974371,0,0,-82.45607581,0,0,0,0,-12.96903819,0,0,0,0,0,0,0,0,0,0,0,0,0,0,0,0,0,0,0,0,0,0,0,0,0,0,0,0,0,0,0,0,0,0],
			[0,0,0,0,0,-50.85400877,0,0,-33.96518897,-58.17781125,0,0,0,-18.22979772,0,0,-166.9470622,0,0,0,0,0,0,0,0,0,0,0,0,0,0,0,0,0,0,0,0,0,0,0,0,0,0,0,0,0,0,0,0,0],
			[-0.1875493593,2.522538882,-4.257370456,0,0,0,0,0,0,0,0,0,0,0,0,-1.988023208,0,-1.022144008,0,0,0,0,0,0,0,0,0,0,0,0,0,0,0,0,0,0,0,0,0,0,0,0,0,0,0,0,0,0,0,0],
			[0,0,0,0,50.6101946,4.623091706,0,0,0,21.64319606,0,0,0,0,0,25.7880369,0,0,-296.3467426,0,0,0,0,0,0,0,0,0,0,0,0,0,0,0,0,0,0,0,0,0,0,0,0,0,0,0,0,0,0,0],
			[0,0,0,0,0,26.74453863,-42.87378353,0,0,0,0,-27.56975581,0,0,0,0,0,-0.1219070835,0,-3.976046417,0,0,0,0,0,0,0,0,0,0,0,0,0,0,0,0,0,0,0,0,0,0,0,0,0,0,0,0,0,0],
			[46.21216213,0,0,0,0,0,0,0,39.66668949,0,-37.18166048,0,0,0,0,0,0,0,33.61822265,0,-427.3874799,0,0,0,0,0,0,0,0,0,0,0,0,0,0,0,0,0,0,0,0,0,0,0,0,0,0,0,0,0],
			[3.835384397,0,0,0,5.617103311,0,0,-0.8439721168,0,0,0,0,0,-3.488418083,0,0,0,0,0,0,0,-1.922380933,0,0,0,0,0,0,0,0,0,0,0,0,0,0,0,0,0,0,0,0,0,0,0,0,0,0,0,0],
			[0,0,-18.26730759,0,-3.338378595,0,0,0,-3.938536545,0,0,0,0,0,73.48183897,0,0,0,0,0,0,0,-12.86588605,0,0,0,0,0,0,0,0,0,0,0,0,0,0,0,0,0,0,0,0,0,0,0,0,0,0,0],
			[-39.46976266,0,0,0,0,0,-1.772341445,0,0,0,-65.48285879,0,0,53.5078322,0,0,0,0,0,0,0,0,0,-378.1088858,0,0,0,0,0,0,0,0,0,0,0,0,0,0,0,0,0,0,0,0,0,0,0,0,0,0],
			[0,0,-45.0493561,0,0,0,0,0,0,0,-11.52490813,0,0,0,0,0,0,0,-27.97298694,0,0,0,0,0,-225.2186481,0,0,0,0,0,0,0,0,0,0,0,0,0,0,0,0,0,0,0,0,0,0,0,0,0],
			[0,0,0,0,0,0,3.122696832,0.9189918605,0,0,0,0,0,-72.7691514,0,0,0,0,-73.38806429,0,0,0,0,0,0,-33.23374646,0,0,0,0,0,0,0,0,0,0,0,0,0,0,0,0,0,0,0,0,0,0,0,0],
			[0,0,-54.80192278,0,0,0,0,0,0,0,-16.72002538,0,-33.26187887,0,0,0,0,0,0,0,0,0,0,0,0,0,-14.31001611,0,0,0,0,0,0,0,0,0,0,0,0,0,0,0,0,0,0,0,0,0,0,0],
			[0,0,0,0,0,0,0,-38.27882423,0,-23.40616004,0,0,0,0,0,0,24.16573494,0,0,0,0,0,0,0,0,0,0,-459.6928571,0,0,0,0,0,0,0,0,0,0,0,0,0,0,0,0,0,0,0,0,0,0],
			[0,-6.292281004,10.27770489,0,0,0,0,0.4876283341,0,0,0,0,0,0,0,-2.241214843,0,0,0,0,0,0,0,0,0,0,0,0,-9.630659599,0,0,0,0,-53.55471954,0,0,0,0,0,0,0,0,0,0,0,0,0,0,0,0],
			[-22.3933935,16.92632968,0,0,0,0,0,0,0,0,0,0,0,-51.21035255,0,0,0,0,0,0,0,14.52569788,0,0,0,0,0,0,0,-460.0585783,0,0,0,0,0,0,0,0,0,0,0,0,0,0,0,0,0,0,0,0],
			[0,0,0,0,0,27.4572262,-3.657212506,0,0,0,0,0,0,0,0,0,0,0,0,0,0,0,0,-3.554060358,5.317024336,0,0,0,0,0,-465.1599209,0,0,0,0,0,0,0,0,0,0,0,0,0,0,0,0,0,0,0],
			[0,0,0,0,0,0,0,0,0,-24.23137722,0,110.9260685,0,0,0,0,0,1.406620195,0,0,0,0,0,0,0,0,0,0,0,0,0,-120.2660266,0,0,0,0,0,0,0,0,0,0,0,0,0,0,0,0,0,0],
			[0.7126875653,0,-3.872894269,0,0,0,0,0,0,0,0,0,0,0,0,0,0,0,0,0,0,0,0,0,0,0,0,19.21443186,0,0,42.07669876,0,-3.357133531,0,0,0,0,0,0,0,0,0,0,0,0,0,0,0,0,0],
			[0,-64.91083325,0,0,0,0,0,0,0,0,0,0,-18.43610202,0,0,0,0,0,0,0,0,0,0,0,0,0,0,12.05004633,0,0,0,0,0,-455.5949036,0,0,0,0,0,0,0,0,0,0,0,0,0,0,0,0],
			[0,0,0,0,0,0,0,0,0,14.70386977,0,-32.74611813,0,0,0,0,0,0,0,0,0,0,0,0,0,0,0,-0.1219070835,0,0,0,52.21374162,0,0,-461.2682717,0,0,0,0,0,0,0,0,0,0,0,0,0,0,0],
			[0,32.22097992,0,0,0,0,0,-5.448308887,0,-8.345946488,0,0,0,0,0,0,0,0,0,0,0,0,5.495196227,0,0,0,0,0,0,0,0,0,0,0,0,-32.783628,0,0,0,0,0,0,0,0,0,0,0,0,0,0],
			[0,0,0,0,0,75.27293535,0,0,0,0,0,0,0,0,0,0,0,0,0,0,0,0,0,0,0,0,0,0,0,0,-18.26730759,11.95627165,1.340977919,0,0,0,-88.07317912,0,0,0,0,0,0,0,0,0,0,0,0,0],
			[0,0,0,0,0,0,0,0,0,-60.03454991,0,0,0,0,0,0,0,0,0,0,0,0,0,0,0,0,-37.63177894,0,-98.5571883,-4.332390199,0,0,0,0,0,0,0,-456.6358025,0,0,0,0,0,0,0,0,0,0,0,0],
			[0,-62.20074501,0,0,0,-53.88293092,0,0,0,0,0,0,0,0,0,0,0,0,65.54850107,0,0,0,0,0,97.51628936,0,0,0,0,0,0,0,0,0,0,0,0,0,-432.5263324,0,0,0,0,0,0,0,0,0,0,0],
			[0,0,0,0,0,0,0,0,18.71742606,0,0,0,0,0,-28.24493351,0,0,0,0,0,0,0,0,22.21522161,0,0,-17.96722862,0,0,0,0,0,0,0,0,0,0,0,0,-136.2921194,0,0,0,0,0,0,0,0,0,0],
			[-35.42807397,0,105.7590837,0,0,0,0,0,0,-22.78724715,0,0,0,0,0,0,0,0,-49.70058021,0,0,0,0,0,0,0,0,0,0,0,0,0,0,0,0,0,0,0,0,0,-60.38151622,0,0,0,0,0,0,0,0,0],
			[0,0,0,0,0,0,0,0,0,0,0,0,0,0,0,0,0,0,0,0,0,0,0,0,0,0,0,-1.190938431,0,0,0,0,0,0,0,0,0,0,0,-81.49957408,0,-460.2836376,0,0,0,0,0,0,0,0],
			[0,0,0,0,5.588970907,0,0,0,0,35.04359778,0,0,0,-52.22311909,0,0,0,0,0,0,0,0,0,0,0,0,0,0,-14.86328672,0,0,0,0,0,0,0,0,0,0,0,0,0,-53.55471954,0,0,0,0,0,0,0],
			[0,61.45992504,0,0,0,0,0,0,0,0,0,0,0,0,0,0,0,0,-15.27589531,0,0,0,0,0,0,0,0,71.59696791,0,0,0,-33.88079175,0,0,0,0,0,0,0,0,0,0,0,-35.97196711,0,0,0,0,0,0],
			[0,0,0,0,0,-27.56975581,9.480620112,0,0,0,0,0,0,0,0,0,0,0,0,2.053665484,0,0,0,0,0,0,0,0,0,0,0,0,0.1969268272,0,0,0,0,0,0,0,0,0,0,0,-1.56603715,0,0,0,0,0],
			[0,0,0,0,38.66330042,106.1435599,56.75243612,0,0,0,0,0,0,0,0,0,0,0,0,0,0,0,0,0,0,0,0,0,0,0,0,0,0,0,0,91.85229871,0,0,0,0,0,0,0,0,0,-213.2623764,0,0,0,0],
			[0,0,0,0.4501184623,0,0,0,0,0,-4.529317027,0,0,0,0,0,0,0,0,0,0,0,0,0,0,0,0,0,0,0,0,0,-9.771321619,0,0,0,0,0,0,0,0,-1.687944234,0,0,0,0,0,-1.884871061,0,0,0],
			[0,0,-16.69189298,0,0,0,0,0,0,0,0,0,0,0,0,0,0,0,0,0,0,0,0,0,0,0,0,0,0,0,0,-41.07330968,0,0,0,0,0,-18.21104279,0,0,0,0,0,0,0,0,0,-13.21285236,0,0],
			[0,0,0,0.2063042952,0,0,0,0,0,0,0,0,-5.532706099,0,0,0,-0.6470452895,0,0,0,0,0,0,0,0,0,0,0,0,0,0,0,0,0,-45.05873357,0,0,0,0,0,0,0,0,0,0,0,0,0,-2.081797888,0],
			[0,39.47914013,0,43.22074985,0,0,0,0,0,0,0,0,0,0,0,0,0,0,0,0,-16.3636816,0,0,0,0,0,0,0,0,0,0,0,0,0,-0.4407409943,0,0,0,0,0,0,0,0,0,0,0,0,0,0,-462.1122438]
		],
		"G": [
			[0.04485081868,0.001106754265,-0.000272322631,-0.003097849937,0.004986475241,-6.82246878e-05,-5.717996992e-05,0.01124365326,0.0003413668305,-0.005069469921,-2.00351688e-05,0.001714147019,-0.0003719717895,5.092030067e-06,-2.403754839e-05,-0.000501401372,-1.271465536e-05,0.007282553333,-0.0002428569599,-1.290200585e-17,-4.998057492e-18,-4.417179872e-05,-2.535677831e-17,1.389596003e-05,0.002572834612,4.265710862e-17,0.001166725857,-8.783818759e-05,-0.006352802715,-5.845848121e-06,2.499340117e-17,0.005291988756,2.226612449e-16,0.0007467655258,6.200281174e-19,3.14058641e-17,-1.077161211e-18,0.0006207733957,3.098609476e-18,0.0002365128765,3.287165462e-17,-0.0003955215909,1.61931259e-17,-7.445419606e-18,-1.181780368e-17,-3.831593242e-18,1.626303259e-17,-0.01556568512,-6.125742275e-18,-3.864003832e-18],
			[0.001710901821,0.0165484991,-0.0005357807346,-0.0001183581255,-0.002658831616,1.982214456e-05,0.0007720522034,0.01658102455,0.0005390263325,-0.0008302781769,-1.22663936e-05,6.537182761e-05,-0.0001159025079,1.54091795e-05,-9.691309061e-07,-7.978470578e-05,-0.0002345844006,0.000277732199,-3.977513173e-05,4.559070135e-17,2.507833592e-18,-1.684999586e-06,9.024183141e-17,5.602486626e-07,0.0004213790523,-4.738764866e-17,0.0004328439806,-0.001620607716,-0.0002423371981,-2.22998654e-07,2.526609284e-17,0.0002018187313,2.749384243e-16,2.848649223e-05,1.277960959e-18,1.008038029e-17,1.949276591e-17,2.368033325e-05,-2.676929446e-18,9.535578862e-06,-3.555420796e-19,-1.594639319e-05,-1.018633087e-16,-3.486445844e-17,-1.910228703e-17,1.237832773e-18,2.965970568e-17,-0.0005937764304,-2.009500964e-17,2.798070771e-19],
			[0.006379145989,0.0008300747084,0.002220178051,-0.0004398085152,0.0005934216657,-8.95651434e-06,2.330946065e-05,0.002258210173,6.745591417e-05,-0.0007470113944,-3.399272451e-06,0.0002438762605,-5.791836477e-05,1.319400336e-06,-3.194510715e-06,-7.383645089e-05,-1.134977908e-05,0.001036108253,-3.578617076e-05,-1.870248748e-18,-1.140159131e-19,-6.282568769e-06,7.566968834e-18,1.846727149e-06,0.0003791198687,5.83438941e-18,0.0001845821401,-7.840904808e-05,-0.00090356112,-8.314568093e-07,3.204008002e-18,0.0007529053307,3.731603649e-17,0.0001062126946,-1.374310957e-18,3.483052419e-18,3.490047058e-18,8.829279451e-05,1.284767208e-18,3.143177939e-05,5.987252388e-18,-5.256351188e-05,-3.479406207e-18,-2.057019512e-18,-8.456776945e-18,-7.922735907e-19,1.870248748e-18,-0.00221391227,4.743384505e-19,-1.224326568e-18],
			[0.01832689175,0.008487456668,0.001223914742,0.1506297413,0.002197799145,-0.0008838504607,-0.0002143195623,0.01658454074,-0.01277051009,-0.002508653325,-0.0004345502598,0.00108141259,-0.004712720394,-0.0001198470198,0.001167640253,-0.0004946398748,-0.0001264201713,0.004594381214,-0.0001201790186,1.307222559e-15,-8.379233829e-18,-1.804943138e-05,6.369975755e-16,-0.0006750057043,0.001273180471,1.225876374e-16,0.01529005169,-0.0008733637215,-0.002595875195,-2.388723971e-06,7.73806949e-18,0.003338583682,8.84946142e-17,0.0003051425004,-5.229581416e-18,2.361993725e-16,5.141542929e-17,0.000253659736,8.796104217e-18,-0.01148877375,-1.423515101e-16,0.01921273014,-1.31499099e-16,2.800312099e-17,2.679063568e-16,2.325465429e-17,5.987506498e-17,-0.006360432979,7.27635183e-17,1.15027645e-17],
			[0.01187577974,0.008336191339,-0.0005764750507,-0.0008204396824,0.02706186643,-0.0002085924235,0.002649539881,0.07198763747,0.0005529604854,-0.008582184019,-0.0001427793256,0.0004538625173,-0.001193589447,8.764895104e-06,-6.414852899e-06,-0.0008224033223,-0.0001174378677,0.001928234831,-0.0004111363027,-4.883788686e-16,1.939831336e-18,-1.169598611e-05,2.391843166e-16,3.708387314e-06,0.004355591498,6.014105979e-17,0.004730040397,-0.0008113101898,-0.001682120594,-1.547887122e-06,8.676836105e-17,0.001401183977,9.559715487e-16,0.0001977315724,1.290115882e-17,9.784384623e-17,1.216347253e-17,0.0001643708706,-3.371522416e-18,6.311772262e-05,-1.455541417e-17,-0.0001055520631,-6.739485143e-17,-3.937316188e-17,-8.611275755e-17,-7.07956093e-18,9.844555726e-17,-0.004121544564,-3.697129408e-17,-1.573893922e-17],
			[0.003694858233,-0.001207566315,2.567311348e-05,-0.0002551871487,-0.0001044220143,0.00352941864,-0.0001279684721,-0.002010886463,-1.888609612e-05,-0.0001786627923,2.848390883e-06,0.0001412148039,5.853964547e-06,-7.777237755e-07,-1.975460778e-06,-1.854376076e-05,1.737188224e-05,0.0005999510716,-8.558982156e-06,1.205158477e-17,-1.245994616e-18,-3.638919846e-06,-1.717655762e-17,1.142001821e-06,9.067413815e-05,4.509696055e-18,-4.977235244e-05,0.0001200122699,-0.0005233506568,-4.815871972e-07,-3.840235625e-19,0.0004359644454,-2.312823462e-17,6.151933973e-05,1.569128535e-19,-2.473336206e-18,-5.761081356e-19,5.113997379e-05,5.114942662e-19,1.943716986e-05,4.393983414e-18,-3.250487019e-05,1.209043579e-18,1.539800019e-18,-1.122149249e-17,1.857632589e-19,-5.390517676e-18,-0.001282317726,3.05778894e-18,-4.133321225e-19],
			[0.00489797912,-0.001836911208,0.00012405103,-0.0003382494011,-0.005411932583,3.662690594e-05,0.001636077363,-0.01487301188,-7.300156018e-05,0.001129648924,2.977026302e-05,0.0001872001051,0.0002140049713,-1.249529446e-06,-2.609770228e-06,0.0001055841576,2.637746573e-05,0.0007953196164,5.411672378e-05,9.787635112e-17,-1.435282996e-18,-4.823826058e-06,-6.55573855e-17,1.508692243e-06,-0.0005733143496,-4.611631177e-18,-0.0009004472745,0.0001822266288,-0.0006937642605,-6.384017701e-07,-1.588530883e-17,0.0005779322546,-1.8232723e-16,8.155128626e-05,-2.403667746e-18,-1.628534661e-17,-1.977744177e-18,6.779218797e-05,1.641862423e-18,2.567833682e-05,5.669509153e-18,-4.294200291e-05,1.855796579e-17,9.308097997e-18,2.059984128e-17,2.471102818e-19,-1.297993288e-17,-0.001699866423,9.46982835e-18,4.011373296e-18],
			[0.026001701,0.02387298738,-0.0113371201,-0.001799897183,-0.04130849756,-0.0009086662055,0.01129141643,0.3028029033,0.001871440624,-0.03483961723,-0.0006174890234,0.0009933960291,-0.005033225832,2.447982202e-05,-1.5045802e-05,-0.003329219259,-0.0003368422116,0.004220442869,-0.001669019376,6.481360587e-16,3.582739263e-17,-2.560804769e-05,6.928695627e-16,8.697886317e-06,0.0176816461,2.892081767e-16,0.02014590897,-0.002327047689,-0.003682957895,-3.389057311e-06,2.861450938e-16,0.003066855152,3.247246493e-15,0.0004329279709,3.004595271e-17,3.050371049e-16,1.161106941e-16,0.0003598856097,-1.525517753e-17,0.0001480403015,-1.202346328e-16,-0.0002475684894,-2.381804502e-16,-9.411256022e-17,-1.088538981e-16,-9.789715637e-19,2.727310565e-16,-0.009024011207,-1.357963221e-16,-4.374181372e-17],
			[-0.02434840893,-0.005740440439,-0.01622550267,0.001675950574,0.005591326462,-0.0001669357486,0.0002886532001,0.005567909074,0.06354278061,0.00105704237,-2.099165633e-05,-0.0009310945344,-0.0007776253454,-7.32145215e-06,1.142317824e-05,0.0001110753445,7.980484565e-05,-0.003955754979,5.063844945e-05,2.894819801e-17,-1.17691394e-17,2.397978566e-05,-7.350890729e-17,-6.603669629e-06,-0.0005364653971,1.433603263e-17,0.0003817688165,0.0005513254432,0.003448780712,3.173567502e-06,-3.941583117e-17,-0.002874515285,-3.01564058e-16,-0.0004054006802,7.880794541e-18,-3.72622499e-17,2.056887164e-17,-0.0003370026442,-1.532989014e-18,-0.0001123961854,-1.372362781e-17,0.0001879606671,3.92559537e-17,4.850195359e-17,7.936359903e-17,-1.035770417e-17,-4.672911363e-17,0.008450228507,2.466559942e-18,1.28743714e-18],
			[0.007476408325,-0.0008781597972,0.004831572334,-0.000514669731,-0.006923323606,0.0007106155312,0.002591700867,-0.0164576144,-0.0007223375241,0.02409004754,0.0004709987596,0.0002858965073,0.003699096287,-1.835348144e-07,-3.522554328e-06,0.002291568765,1.294853839e-05,0.001214631265,0.001154052751,2.125764706e-16,4.634992205e-18,-7.363219077e-06,-2.110270356e-16,2.03636716e-06,-0.01222607276,-4.111080944e-17,-0.01502856913,8.945394994e-05,-0.001058980605,-9.744737965e-07,-2.012346465e-17,0.0008826320527,-2.113737897e-16,0.0001244820977,-6.696827769e-18,-5.61419724e-17,-1.692767635e-18,0.0001034798365,1.461086972e-18,3.465950201e-05,-1.780913241e-18,-5.796124753e-05,2.930706907e-17,1.445819067e-18,3.542969412e-17,-8.459245252e-20,-5.093886738e-17,-0.002594722265,1.898878461e-17,5.413846858e-18],
			[0.002925360705,0.0001532532808,0.0005843244292,-0.0002018417798,0.0004379904395,-4.304745158e-05,-0.0002110561504,0.001057194637,-0.003550337709,-0.001943051768,0.002287126543,0.0001118232909,-0.0002262829997,4.002512808e-07,-1.508031055e-06,-0.0001863090304,-1.979389297e-06,0.0004750812333,-9.308342936e-05,-2.928023492e-17,-9.361997215e-19,-2.881072143e-06,1.625498577e-17,8.717835501e-07,0.0009861289087,1.135077089e-18,0.001061605771,-1.367445388e-05,-0.0004143567493,-3.812910196e-07,4.043417653e-18,0.0003452256962,2.544063457e-17,4.870721627e-05,4.976318565e-20,9.064920132e-18,-5.201953584e-18,4.048947493e-05,-1.014463609e-19,1.483798418e-05,-1.307607112e-19,-2.481363043e-05,-1.885224025e-18,-3.136324776e-18,-8.687169907e-18,9.76834129e-20,1.298332102e-17,-0.001015260032,-6.26804381e-18,3.232081065e-19],
			[-0.003319849031,0.001192518545,-0.000135868802,-0.005024005314,0.005959534553,-1.226205356e-05,0.0006402979463,0.01515067115,0.0005208835823,-0.001355855295,-1.69438848e-05,0.002780024825,-7.873463205e-05,5.271477764e-06,-3.895388434e-05,-0.0001192027844,-1.688222005e-05,-0.0005950467947,-6.495331861e-05,-1.733944206e-16,1.388027615e-18,3.269588104e-06,3.425348299e-17,2.251900282e-05,0.0006881175913,9.664086754e-18,0.0004676863771,-0.0001166294775,0.0004702332434,4.327085612e-07,1.788155373e-17,-0.0004324006708,2.091781745e-16,-5.527544157e-05,3.798095735e-18,1.017450682e-17,3.518139766e-18,-4.594952816e-05,-1.799834533e-18,0.0003832793215,-7.053772747e-18,-0.0006409598043,-1.118538771e-17,-1.138485073e-17,-3.317319835e-17,-1.785103738e-18,2.266660167e-17,0.001152169039,-7.298035874e-18,-3.6714214e-18],
			[0.005093335375,-0.001520588591,7.626260406e-05,-0.0003517591717,-0.003031849092,0.00146852398,0.000876663801,-0.009083225281,-4.323293896e-05,0.0004794392503,1.774181902e-05,0.0001946649003,0.007528630712,-9.398178539e-07,-2.719098919e-06,4.356731184e-05,2.190424859e-05,0.0008270337973,2.29679159e-05,6.55264688e-18,-8.329876014e-19,-5.016224712e-06,-6.451871135e-17,1.571894492e-06,-0.0002433228556,6.767210913e-18,-0.0005117948482,0.0001513237632,-0.0007214350987,-6.638644713e-07,-9.742625899e-18,0.0006009778927,-1.102735253e-16,8.480396527e-05,-1.231797664e-18,-1.009292696e-17,4.224444476e-19,7.049608433e-05,6.570014364e-19,2.675405563e-05,8.891093089e-18,-4.474093252e-05,2.702625378e-17,1.067626796e-17,1.387101154e-17,-1.155121329e-18,-1.786223079e-17,-0.001767665719,4.221612209e-18,2.561081974e-18],
			[0.001397127707,0.005465792951,0.0005257685797,-9.631060751e-05,-0.001386234872,0.0001004307751,0.0004736655975,0.00438467105,-0.0001336540585,0.002890895654,0.0001982512566,5.341379273e-05,0.0004488687447,0.003569043218,-6.957204568e-07,0.0002747916975,-7.742584539e-05,0.0002269284898,0.0001384906392,5.436257455e-18,5.174029724e-19,-1.375975862e-06,1.655938824e-17,4.021917504e-07,-0.001467174382,-1.828868541e-17,-0.00182505352,-0.0005348903087,-0.0001978933039,-1.82101389e-07,7.138873089e-18,0.0001649013692,9.227111059e-17,2.326215747e-05,1.137988765e-18,1.847001664e-18,9.91986258e-18,1.933743322e-05,-7.301001885e-19,6.84540885e-06,-2.123829236e-18,-1.144760928e-05,-2.87507045e-17,-1.019457092e-17,-5.305814382e-18,-5.883946628e-19,1.502297635e-17,-0.0004848796656,-1.463757636e-17,1.095472819e-18],
			[-0.001513514447,0.002076372924,0.0001151178185,0.01329388388,0.003804634398,-0.0006796228029,-0.0001169746314,0.01132120762,-0.001291998442,-0.0006583912709,9.363607307e-05,0.001139495087,-0.003731468011,-9.454174493e-06,0.003701330132,-0.0008418627977,-3.017958108e-05,0.004841144694,-3.154075376e-05,4.282598581e-18,-3.785811276e-19,1.490600562e-06,9.096625634e-17,-5.957327607e-05,0.0003341437815,3.192784816e-19,0.001730288178,-0.000208493241,0.0002143786663,1.97271217e-07,1.166110258e-17,0.003517898478,1.414985479e-16,-2.519999512e-05,3.04931861e-19,2.68804847e-17,7.364183853e-18,-2.094832448e-05,2.485710828e-19,-0.00101395275,-1.826626551e-17,0.001695637932,-3.676093874e-17,-9.100521985e-18,6.613633252e-18,7.461566172e-19,2.043721095e-17,0.0005252722247,1.85669622e-18,-9.54305865e-19],
			[-0.017403069,0.007793119734,-0.004606269223,0.001200363466,-0.006277271019,-0.0007606046592,0.002359740101,0.01841993292,0.0229158706,0.01003497624,-0.01458310404,-0.0006652768272,0.001096536829,5.65201721e-06,8.8590843e-06,0.07806990142,-0.0001116797607,-0.002826428493,0.0004807334611,5.722419066e-16,7.822769476e-18,1.713959485e-05,-3.036443709e-17,-5.12138257e-06,-0.005092906081,-2.901299603e-18,-0.00538595087,-0.0007715307646,0.002465022206,2.26831307e-06,-5.005964718e-18,-0.002053871371,8.250778533e-17,-0.000289760864,-2.663071586e-18,-4.05042685e-17,5.267978479e-17,-0.000240873245,9.465014159e-19,-8.716727168e-05,-5.264479174e-17,0.0001457702366,-1.620903424e-18,4.568895717e-18,-1.05818132e-16,-1.959737778e-17,-5.019856059e-17,0.006039815997,2.629190268e-17,7.995153915e-18],
			[0.001070216673,0.001244908683,0.001552119109,-7.336820984e-05,0.001458273121,-0.001299741178,-0.0009746248928,0.004736129294,-0.01265563818,-0.008871216942,-0.0001823789132,4.095254606e-05,-0.001181653724,-0.0003879315548,-4.187732496e-07,-0.0008455226513,0.005972337042,0.0001739868853,-0.0004249826532,-1.183813247e-16,1.802807394e-18,-1.054014105e-06,9.542080261e-17,2.4209026e-07,0.004502280189,1.454472699e-17,0.005373942356,-0.0001214892344,-0.0001515886575,-1.394918602e-07,1.393136264e-17,0.00012643047,1.424336723e-16,1.781909317e-05,6.860966873e-20,2.523199977e-17,-2.22878853e-18,1.481270706e-05,-1.268091247e-18,4.120439583e-06,4.586471651e-18,-6.890630411e-06,-1.399959512e-17,-1.241141496e-17,-5.239406999e-17,2.088627738e-18,1.998320129e-17,-0.0003714236716,-6.32564205e-18,-1.130069544e-18],
			[0.003270959311,0.02202216396,-0.001560645182,-0.0002264708793,0.002260667985,0.001578083449,-0.002770841785,-0.006374593201,-0.04358365877,-0.01752502037,0.02835103092,0.0001249628106,-0.002109258798,2.060544297e-05,-1.90608489e-06,-0.1516397377,-0.0003121101071,0.9788666303,-0.0008395499401,-4.996003611e-16,1.853768663e-17,-3.221438523e-06,1.716075199e-15,1.101896043e-06,0.008894219647,-1.904197828e-16,0.01056075052,-0.002156187907,-0.0004633083588,-4.263362834e-07,2.463849437e-16,0.0003857905891,1.768550584e-15,5.446142839e-05,-1.498367402e-16,-5.187636345e-16,-2.745674239e-16,4.527285295e-05,-2.7579181e-17,1.875455904e-05,-2.881809374e-16,-3.136333691e-05,1.233618784e-17,-7.112366252e-17,8.326672685e-17,-3.516880797e-18,1.45716772e-16,-0.001135201635,6.938893904e-17,-2.981407744e-17],
			[0.001117405829,0.002018839976,-0.0001460208347,-7.722860702e-05,0.00356812502,5.147392981e-06,0.0008451176875,0.01266364641,0.002035520095,0.001164163232,-0.001258959773,4.27014989e-05,0.0001618275511,1.963172269e-06,-6.126965643e-07,0.00682024925,-2.855774792e-05,0.0001814173112,0.003430195642,-6.484206618e-17,1.582479566e-18,-1.10048884e-06,2.253700563e-17,3.541961448e-07,-0.0005908308963,9.019378876e-18,-0.0007592498006,-0.0001972889352,-0.0001582726691,-1.456424868e-07,1.030648514e-17,0.0001318299128,1.247433892e-16,1.860479198e-05,2.726599057e-18,1.003146413e-17,8.383204193e-18,1.546584503e-05,-1.867362301e-19,6.028511083e-06,-7.298882906e-18,-1.008150731e-05,-7.261696175e-18,-7.785397456e-18,-1.511106778e-17,-2.825862385e-18,1.444021768e-17,-0.0003878008875,-7.25399016e-18,-1.467462144e-18],
			[-0.005042432019,0.002740769477,-0.0001749974631,0.03677406193,0.0162620847,0.02338202618,-0.02285746888,0.04199117603,-0.001615354201,-0.003444012576,-0.001053618897,-0.02034913151,-0.00165762981,-2.89415919e-05,0.0002850166378,0.004212630194,-4.094812927e-05,-0.03042681473,-0.0001649881422,0.2515061182,3.987253744e-18,4.966092001e-06,-1.116646922e-15,-0.000164766379,0.001747889799,-4.09192723e-16,0.005808034161,-0.0002828869016,0.0007142249967,6.572297365e-07,4.737624681e-17,-0.0003129551302,1.082169293e-15,-8.395642509e-05,5.860112742e-17,2.623337271e-16,3.957877913e-17,-6.979153869e-05,1.580372235e-17,-0.002804366891,2.59530895e-18,0.004689755885,-1.0149297e-16,-1.138158171e-16,2.029626467e-16,-6.66318468e-18,9.606031248e-17,0.001749999473,3.946495908e-17,4.200705054e-17],
			[0.002423159324,-0.0002676427502,-0.001597687671,-0.000167928196,0.00130067924,-1.872066282e-05,0.0001054459516,0.002636659081,0.006403428258,-0.0001894271788,-0.0003021185612,9.255950839e-05,-7.997780246e-05,-9.330396954e-09,-1.455901539e-06,0.0005087820698,3.957903892e-06,0.0003932390564,0.0002563570457,-2.36957467e-18,0.002339797132,-2.386473851e-06,-8.496666903e-18,8.416477949e-07,9.613723122e-05,7.241217664e-18,9.507848435e-06,2.734286495e-05,-0.0003432234592,-3.158341765e-07,1.396148525e-19,0.0002857537143,8.400290436e-18,4.034557005e-05,1.332356356e-18,1.042409699e-18,1.677396551e-18,3.35385816e-05,5.803008427e-19,1.432506574e-05,4.284358822e-18,-2.395587452e-05,5.153391464e-18,2.320684987e-18,2.781656199e-18,-1.710805135e-18,-2.489429832e-18,-0.000840968708,7.544945978e-19,-1.006500755e-18],
			[0.1102326454,0.006166815925,0.001795445787,-0.007612905861,0.1096730269,-0.0005289319455,0.001811008293,0.09188239074,0.001717717161,-0.02514141004,-0.0005458275875,0.004213044903,-0.002834562872,-0.006451485116,-5.883377555e-05,-0.002440417216,-8.013347943e-05,0.01789912059,-0.001204419102,-3.306816626e-15,-7.31721571e-18,0.5200797002,-8.185319826e-16,3.40114466e-05,0.01275965553,6.179914267e-16,0.01061596671,-0.0005535957836,-0.01561367818,-1.436770435e-05,3.286284547e-16,0.0130066943,3.893559737e-15,0.001835372058,1.44456387e-16,5.297132294e-16,-1.119406979e-16,0.001525713367,3.934117977e-17,0.0005788837225,1.03941107e-16,-0.00096806996,-5.164678576e-16,-8.388167277e-17,-4.909267437e-16,7.236292466e-17,4.191525599e-16,-0.03825675202,-9.909607857e-17,-8.544578197e-17],
			[-0.0133293888,0.0102746163,0.002621787625,0.07625058187,0.01215360654,-0.003763633437,-0.001477033952,0.04106987517,-0.02707020824,-0.0007964111419,0.0005830903694,0.00632907959,-0.02068180603,-5.590262094e-05,0.0211423701,-0.004523964678,-0.0001502098994,0.02688909361,-3.815270467e-05,4.185020386e-16,-6.295555837e-18,1.312758822e-05,0.07772492282,-0.00034180777,0.0004041910067,-1.162840711e-16,0.008276045822,-0.00103771317,0.001888014084,1.737350281e-06,1.036446455e-16,0.01953940803,1.117514284e-15,-0.0002219341436,-4.269046054e-19,1.193028966e-16,2.614007203e-17,-0.0001844900537,-1.173581354e-17,-0.005817657701,-1.341632426e-16,0.009728896217,-1.674424259e-16,-9.905542098e-17,-7.54604712e-17,1.021892311e-17,4.640385298e-17,0.004626026346,-3.469446952e-18,-9.842221753e-18],
			[-0.005013729743,0.0006400261509,1.053007995e-06,0.0003462883446,-0.0007671824222,2.861768267e-05,0.0001018822169,-0.0006665755923,0.0005606597671,0.001269504138,-0.0003660891727,-0.0001916199638,0.0001405362359,0.0005044758179,2.684161793e-06,0.0001229979503,-9.410459933e-06,-0.0008140973854,6.081659825e-05,1.00288701e-18,7.829836545e-19,4.937824272e-06,1.036344811e-18,0.00264318911,-0.0006442930398,-7.4494761e-18,-0.0005596962647,-6.501141567e-05,0.0007101595214,6.534886867e-07,-2.156228246e-18,-0.0005915774334,-1.14044516e-17,-8.347853257e-05,-6.185458097e-19,-5.644998137e-18,1.062172698e-18,-6.939427483e-05,-5.592642568e-19,-2.641029844e-05,-3.903974854e-18,4.416606576e-05,-6.986781044e-18,-5.065257025e-19,-1.124859754e-18,8.784939347e-19,-6.26804381e-18,0.001740038215,-1.907518197e-18,7.122519314e-19],
			[-0.001564471301,-0.0004246253416,-0.0004558558492,0.0001078934334,-0.0005842863333,3.355029338e-06,-9.882902536e-05,-0.002078668906,-8.463378484e-05,0.0001042575859,4.001035046e-05,-5.980725949e-05,3.064914273e-06,-5.2822796e-07,7.922502182e-07,-0.0008227971605,5.918506481e-06,-0.0002540911323,-0.0004141215514,-2.813843451e-18,4.034644814e-19,1.540785953e-06,-1.136951149e-17,-4.579950164e-07,0.004387217321,1.206119496e-18,3.05600453e-06,4.088753236e-05,0.0002215963458,2.039129247e-07,-9.609853484e-20,-0.0001846395561,-9.1972955e-18,-2.604842605e-05,1.519947684e-18,-8.066764595e-19,-4.625457501e-19,-2.165361058e-05,5.357464521e-19,-7.795195042e-06,-1.079940538e-18,1.303594117e-05,3.151882389e-18,3.46639631e-18,-6.965998958e-18,2.729608547e-18,-6.530624023e-19,0.0005429570376,-2.718552244e-18,1.700744602e-19],
			[-0.004347442235,-0.01593852529,-0.00113062469,0.0002998686282,-0.006494743261,-0.0002529567836,-0.002437405047,-0.03058938279,-0.004157373902,-0.009757957428,0.002331712473,-0.0001661914549,-0.001459276622,-0.007818610675,2.215071099e-06,-0.01574457059,0.0002257592141,-0.0007060643692,-0.007919001547,5.27003571e-16,-2.995835567e-18,4.281624038e-06,-4.365946623e-17,-1.280519085e-06,0.004952314739,0.03008989676,0.006145246725,0.001559639615,0.0006157845865,5.666448856e-07,-3.69975521e-17,-0.0005130734416,-4.749805014e-16,-7.238485456e-05,5.433716357e-19,-2.2977251e-17,-1.88670898e-17,-6.017229024e-05,-1.996845638e-18,-2.179476995e-05,2.169251378e-17,3.644749585e-05,-2.679597331e-17,4.511032779e-18,5.853336479e-17,9.691453197e-18,-3.736431737e-17,0.001508800038,1.524659305e-17,2.299898972e-18],
			[-0.03968657134,0.0001764879,-0.009362434105,0.002737755333,0.004262828022,-0.003328806738,-0.001880362958,0.01122951624,0.003990423989,0.004016661121,-0.002700531789,-0.001517084007,-0.01701318193,-3.335969639e-06,2.031597893e-05,0.000399184774,-5.135655125e-06,-0.00644533116,0.0001924213229,-3.688455791e-16,-1.801055792e-17,3.908573563e-05,5.128513445e-16,-1.174454344e-05,-0.002038517816,3.244840284e-17,0.06912345303,-3.547926589e-05,0.005621323437,5.172740997e-06,-5.517572618e-18,-0.004683607309,-7.089326955e-17,-0.0006607808774,1.87312866e-17,-4.909148852e-17,-3.952478078e-17,-0.0005492958296,3.243498432e-18,-0.0001998952031,-3.653507211e-17,0.0003342856842,-1.196782116e-16,1.891170461e-17,-4.678332374e-17,-6.169007129e-18,-4.190441397e-17,0.01377340908,-3.1441863e-17,-9.754227934e-18],
			[-0.002489588346,-0.001877756838,0.0007796318039,0.0001722267207,0.003868951523,-2.8843841e-05,-0.001123438028,-0.02412758288,-0.000784354578,0.001208164518,1.784922441e-05,-9.512465192e-05,0.0001686534723,-2.242239341e-05,1.410213596e-06,0.0001160972952,0.000341351317,-0.0004041370683,5.78780753e-05,-9.477959867e-17,-3.345247954e-18,2.451897169e-06,-5.71505835e-17,-8.15235874e-07,-0.0006131622312,-1.292889253e-17,-0.0006298452177,0.002358198486,0.0003526326625,3.244925239e-07,-1.905432379e-17,-0.0002936729363,-2.281080903e-16,-4.145161237e-05,-1.992856767e-18,-2.068507397e-17,-6.241006584e-18,-3.445801564e-05,1.528621914e-18,-1.387552793e-05,1.165114995e-17,2.320411034e-05,2.104661476e-17,8.125587063e-18,-4.153849573e-18,8.066665334e-19,-8.080694317e-18,0.0008640232088,1.500603569e-17,2.936042946e-18],
			[0.01392424266,0.00251399188,0.002695328011,-0.0009607645772,-0.001618112457,0.0004588902892,0.0005172042406,0.01726329592,-0.004985643102,-0.005081692154,0.003358501229,0.0005322579721,0.001081388873,6.559290668e-06,-7.186521111e-06,-0.01843388694,-8.104379267e-05,0.002261297909,-0.0002434424756,-7.018582764e-16,4.676749006e-18,-1.371343629e-05,1.242360164e-16,4.154483998e-06,0.002579037585,-1.100990895e-16,0.002508032244,-0.0005598846104,0.1018627769,-1.814883434e-06,2.284066694e-17,0.001643209814,1.460115394e-16,-0.01197386627,-1.226842521e-17,1.079262912e-16,-1.703094736e-17,0.0001927233361,-2.350840683e-18,7.071040493e-05,6.641585339e-18,-0.0001182493413,-5.157602145e-17,-6.571747473e-17,1.369347344e-16,7.241311136e-18,-2.550585611e-17,-0.004832473146,5.976664476e-17,-9.908346572e-18],
			[0.001204750837,0.0001412722025,-8.292997827e-06,-8.321259107e-05,0.003276535944,-2.382936244e-05,3.564337574e-05,0.002475744802,7.232750172e-05,-0.0008993881624,-3.877769879e-05,4.604416837e-05,-0.0001256205768,-0.0006006571883,-6.457766947e-07,-8.617017215e-05,-1.923490909e-06,0.0001956186419,-4.308590016e-05,-1.224843523e-16,-4.989581372e-19,0.01642302101,-2.201480982e-17,3.733195663e-07,0.0004564534418,1.623053432e-17,0.0004974702761,-1.328828431e-05,-0.0001706444746,0.002173479217,6.58261067e-18,0.0001421495464,9.180312489e-17,2.005908518e-05,4.266716714e-18,1.436919927e-17,-1.992352186e-18,1.667477407e-05,1.729880489e-18,6.353996722e-06,1.575904798e-18,-1.062581847e-05,-1.785670192e-17,-3.958026144e-18,-2.550585611e-17,1.535267896e-18,2.619703499e-17,-0.0004181143786,2.029490942e-18,-1.95595624e-18],
			[0.0002000137367,-6.658114828e-05,-4.678622328e-06,-1.381619246e-05,3.556926531e-05,0.0002078644763,-2.232503983e-05,-2.042928097e-05,-5.791978242e-06,-2.793556474e-05,3.188520101e-06,7.644185046e-06,-2.375755133e-06,-3.896574853e-06,-1.075403237e-07,-1.226949775e-05,9.575844094e-07,3.247631893e-05,-6.128994283e-06,-2.567462742e-17,1.506205075e-19,-1.969856245e-07,8.236204272e-19,-2.014500775e-05,6.493076679e-05,-4.220935369e-18,8.452919683e-06,6.615395902e-06,-2.83305377e-05,-2.606975661e-08,0.002149798285,2.359945842e-05,5.68552337e-18,3.330226017e-06,1.102995716e-18,1.732403234e-18,-5.107963429e-18,2.768359869e-06,-8.014198818e-19,1.058122521e-06,-1.347993379e-18,-1.769503247e-06,3.521731591e-18,3.733681527e-18,2.999555424e-17,6.616837957e-19,1.073402502e-17,-6.941569712e-05,-1.33738032e-17,4.611061262e-19],
			[-0.004530127828,0.001534408684,-0.001117042631,-0.00453278931,0.006918074279,-0.0001360285261,3.598464715e-05,0.01721540551,0.0001162185764,-0.006309227928,0.0002210654682,0.002507984522,-0.0008425891297,5.140068684e-06,-3.524125772e-05,-0.002345218252,-2.183043433e-05,0.01065517184,-0.0003022485463,-2.909998631e-16,3.82701521e-19,4.461543859e-06,4.526882883e-17,2.037275602e-05,0.003202031029,-9.35336132e-19,0.003582861393,-0.0001508138232,0.0006416607147,5.90456095e-07,2.232185926e-17,0.007742758202,2.291122478e-16,-7.542656722e-05,3.855693976e-18,9.359925825e-18,1.612115457e-18,-6.270081389e-05,3.093109552e-19,0.0003467496394,-4.721361648e-18,-0.0005798710457,-3.047328083e-17,-1.329841727e-17,-4.759647537e-17,-1.859925533e-18,1.387778781e-17,0.001572201922,-1.672381851e-17,-5.019254202e-18],
			[-0.009579971951,-0.01230441593,0.001784476349,0.0006623006051,0.02296360317,0.002436035864,-0.00674879737,-0.1385676164,-0.004567169134,0.006350330194,0.0001417909978,-0.0003660800995,0.0009233558104,-0.0001776126635,5.305791827e-06,0.0004894359535,0.00197610803,-0.001555291244,0.0002441730126,4.74609501e-17,-2.941021177e-17,9.434935756e-06,-6.947482818e-16,-0.0002563342834,-0.002586776917,4.192191049e-17,-0.00346420631,0.01365178551,0.001356935584,1.248651924e-06,0.02694453884,-0.001130178304,0.2978731679,-0.0001595064037,-5.481150202e-17,-2.993825247e-16,-2.344457496e-17,-0.0001325949424,6.0175942e-18,-5.220532755e-05,1.10315877e-16,8.730321374e-05,8.733257764e-17,2.300141262e-16,3.409273731e-16,-5.578519286e-18,-8.754661492e-16,0.0033247738,4.95792101e-16,1.195916471e-17],
			[-0.0005157146545,-0.002345878296,9.386976852e-05,3.565257724e-05,0.0006038335762,-6.301233668e-05,-0.0001751869803,-0.002632969188,-9.579367587e-05,0.0001308475914,1.50180746e-06,-1.970710856e-05,-0.0002836796293,-2.750441177e-06,2.854066581e-07,1.2674984e-05,4.156442266e-05,-8.372564754e-05,6.268357194e-06,-1.414545022e-17,5.039267624e-19,5.079069812e-07,-3.191143689e-18,-1.649918473e-07,-6.640718205e-05,5.405435051e-18,-5.761790851e-05,0.0002871445156,7.304735017e-05,6.721816084e-08,-3.928949091e-18,-6.084063721e-05,-4.84821542e-17,0.002186345725,-2.969909271e-19,-4.443558002e-18,-5.166908423e-18,-7.137928509e-06,-3.043993635e-20,-2.808204422e-06,-5.296602898e-20,4.696173406e-06,1.261702228e-17,4.073844664e-18,1.131297204e-17,-2.015148457e-19,-4.355443415e-18,0.0001789811682,-1.193892939e-18,-9.633503095e-19],
			[-3.812775278e-05,6.153345408e-05,3.701093113e-05,-0.0001728838848,0.0001383048068,8.1325577e-06,4.153029621e-05,0.0003549036049,-4.664150652e-05,0.0001496748051,4.123593869e-05,9.567451008e-05,2.808342402e-05,2.076807946e-07,-1.336438163e-06,-0.000183989277,-9.500783681e-07,0.001287192173,7.170289735e-06,-1.626980885e-17,6.357059042e-19,3.755051688e-08,-3.765061451e-19,7.725867465e-07,-7.596228502e-05,7.880860716e-18,-0.0001065359532,-6.563541012e-06,5.400527762e-06,4.96956485e-09,1.735888146e-18,0.0009353596458,2.374826274e-17,-6.348265694e-07,0.002167935801,-1.466081683e-18,1.17992616e-17,-5.277204578e-07,-1.143816459e-18,1.314962862e-05,6.816497643e-19,-2.199018552e-05,-5.138690811e-18,-2.800608561e-18,-3.945140655e-17,5.672970077e-19,1.109274348e-17,1.323241385e-05,1.658151698e-17,4.459208673e-19],
			[-0.006777275421,0.01424282741,0.0005669886576,0.01309495388,0.008051562669,-0.0006412737594,-0.002025085024,-0.02295247791,-0.004134861028,-0.001292293319,6.839698357e-05,0.0008872560797,-0.003685832619,1.752738643e-06,0.003546331701,-0.0008668201835,-0.0002030531681,0.003769507311,-6.190833196e-05,-2.067573543e-16,-9.54761383e-18,6.674670712e-06,0.01302826223,-5.87071446e-05,0.0006558589027,-6.81165632e-17,0.002290522936,-0.001402776698,0.0009599533512,8.833489321e-07,-2.215414674e-18,0.002739175313,-6.127097527e-17,-0.0001128415443,1.204480851e-18,0.03050303035,-2.926829705e-18,-9.380324374e-05,-3.814165787e-18,-0.0009992109656,-1.587339743e-17,0.001670985177,-2.344260296e-17,-1.27167174e-17,-8.028517087e-17,1.260457817e-18,2.068115644e-17,0.00235208494,-2.13587828e-17,6.409373408e-18],
			[0.002355531442,-0.0009972950532,-0.0001015606047,-0.0008204930456,0.001192169455,0.002991976169,-0.0002026098112,-0.001487129101,-6.870127994e-05,-0.0009067159439,3.394243837e-05,0.0004540003375,-9.483001652e-05,-1.862998747e-06,-6.369400605e-06,-0.0003242242031,4.177261167e-05,0.001928820361,-4.335751965e-05,-1.892745943e-16,-1.480079285e-18,-2.319869823e-06,-3.710258419e-17,4.01711937e-06,0.0004593309876,-6.463613129e-17,0.0003893502783,0.0002885827728,-0.0003336444458,-3.070195698e-07,-3.564075862e-05,0.001401609462,0.004535334648,3.921956673e-05,-3.37966146e-19,-2.346228324e-18,0.01135419443,3.260255432e-05,8.104333071e-19,6.267050343e-05,2.972662128e-18,-0.0001048041764,-1.090183416e-16,-1.78535487e-17,4.987329993e-18,7.569629047e-19,5.393905808e-18,-0.0008174981372,1.261740278e-17,-1.906258401e-19],
			[-0.0007290715799,-0.0004430350002,-0.000445309458,5.019783119e-05,0.000877071387,8.208672419e-05,-0.0002977401418,-0.002511211326,0.000841493522,-0.002392837941,-0.0005638778646,-2.787873522e-05,0.00068353885,4.582148313e-06,3.460736227e-07,0.003645290289,1.623106592e-05,-0.0001184428021,-0.0001146307912,1.509616e-16,-9.864646568e-19,-0.000155108722,-1.74692075e-17,-2.000630494e-07,0.001214402368,2.83632622e-17,-0.004266737192,0.0001121310309,-0.02230778775,-2.052762299e-05,-6.851437752e-19,-8.606843616e-05,1.836028616e-17,0.002622257859,1.567222711e-18,-1.06612199e-17,1.042168162e-17,0.00217983806,-1.673959202e-19,-3.405125459e-06,3.820647988e-18,5.694407252e-06,1.230746813e-17,1.08948554e-17,-4.856548106e-17,3.336548806e-19,1.451475658e-17,0.000253027681,-8.859964628e-18,1.338139279e-18],
			[-0.0008897176631,-0.002019155016,-5.105400026e-05,6.143289077e-05,0.0008043803511,-0.000440999275,1.070883221e-05,-0.0006834743683,0.000214234164,0.0003415902172,-0.0001803630441,-3.40058063e-05,4.115408638e-05,-1.940654653e-06,4.712319826e-07,0.0008618731894,2.857747344e-05,-0.0001444736626,0.0004332587348,-1.442666516e-17,3.926718521e-19,8.762477631e-07,-1.822709023e-18,-2.724163334e-07,0.0008276980336,1.199613059e-17,-0.0001704197143,0.0001974252074,0.0001260222434,1.159656497e-07,-2.987432265e-18,-0.0001049841948,-2.234239981e-17,-1.481378709e-05,-1.440908922e-18,-4.55412558e-20,1.138256771e-18,-1.231444757e-05,0.002311997964,-4.63659729e-06,1.948652235e-18,7.753803361e-06,1.27706777e-17,5.21050994e-18,-5.295649986e-18,-1.740617138e-18,-3.78793134e-18,0.000308780651,3.804871999e-18,2.604579267e-19],
			[0.001384424537,-0.001137600332,-0.001017745967,-0.002829308038,-0.0007076031951,0.0005614152421,0.0003283757931,-0.003170551915,0.008559614698,-4.097539058e-05,0.0002740486073,-0.0001952551693,0.002932243593,8.362166545e-05,-0.0007677289342,0.0001571447125,1.635736244e-05,-0.000829541555,-1.962958444e-06,1.480342541e-16,3.008165005e-18,-1.363465012e-06,-9.404437407e-17,0.0004438194117,2.079564624e-05,-3.842525261e-18,-0.009509844082,0.0001130035404,-0.0001960939893,-1.8044566e-07,-1.075117744e-17,-0.0006028001966,-9.509300086e-17,2.305064986e-05,-1.393369198e-18,-1.087338841e-17,5.439834184e-18,1.916161056e-05,-2.423349682e-19,0.007553922541,5.999534365e-18,-0.0003624572671,3.067620477e-17,8.282552856e-18,4.869423007e-17,-2.539173165e-18,-7.426784882e-18,-0.0004804709714,5.634463165e-18,2.933170872e-18],
			[-0.01888372536,-0.0005258050347,0.002345269857,0.001305090183,-0.002210542034,-0.0002480720022,-0.001599323936,-0.006854441789,-0.001484996491,-0.008383478459,0.0008643136643,-0.000721642713,-0.001412390728,-2.223375684e-06,1.034217499e-05,-0.006313754657,6.200384407e-06,-0.00306589895,-0.003179137743,-1.623457228e-16,-9.57080022e-20,1.859783479e-05,8.846666211e-17,-5.978748249e-06,0.004254745344,-7.508854433e-18,0.005935280948,4.283486364e-05,0.002674746756,2.46130157e-06,-1.272254075e-17,-0.00222788657,-1.139547305e-16,-0.0003144137725,-4.027641664e-19,3.21745465e-18,-6.295704729e-18,-0.0002613667858,-2.335263218e-18,-0.0001017598599,0.01656135954,0.0001701734903,-2.291188388e-17,-4.311821218e-18,4.580754179e-18,1.675302129e-18,2.756584024e-17,0.006553684672,-8.172173875e-18,7.459183892e-19],
			[-0.000238689918,0.0002062863582,0.0001781887572,0.0005005224383,0.0001152803872,-9.933169059e-05,-5.523668381e-05,0.0006238177353,-0.001513568542,4.12925242e-06,-4.857027336e-05,3.481874963e-05,-0.0005196305936,-1.474835487e-05,0.0001359333606,-2.812503164e-05,-3.779509703e-06,0.0001479274522,1.97815098e-07,-4.43913027e-17,-2.275129579e-19,2.350762668e-07,9.629917577e-18,-7.85822462e-05,-2.095659647e-06,-8.306597342e-18,0.001685478878,-2.611044286e-05,3.38087465e-05,3.111080354e-08,-5.155254275e-19,0.0001074939486,1.029780306e-17,-3.974183913e-06,1.463778812e-19,-1.393435373e-19,-4.335940977e-18,-3.303671042e-06,-4.745372323e-20,-0.001337490396,-2.048972699e-18,0.002236691453,-7.638798717e-18,-5.461681679e-18,1.415561461e-17,1.223568044e-18,-1.590897282e-17,8.283844562e-05,1.136718215e-18,2.871704321e-19],
			[0.000904705622,-0.005732269514,0.001840642018,-6.183456614e-05,9.474038211e-05,0.0002179318964,0.001366958409,-0.01232324115,0.001099063717,0.01345904573,-0.000832123938,3.463614264e-05,0.001558114536,-0.00348132729,-3.015119361e-07,0.006261746792,9.421023694e-05,0.0001471516464,0.0006447662141,3.005001846e-16,1.721193024e-18,-8.910088108e-07,-1.246582624e-16,1.743022102e-07,-0.006830674454,5.300528367e-17,-0.008256726812,0.0006508439458,-0.02894596182,-1.179191778e-07,-1.725183767e-17,0.0001069301964,-1.516781899e-16,0.003402568498,-1.334500408e-18,-4.33199119e-17,3.278937331e-18,1.252189364e-05,2.216457955e-18,2.966669236e-06,1.468966889e-18,-4.961174856e-06,0.01867249065,2.343374882e-17,-1.536856579e-17,-3.32731747e-18,-2.008484525e-17,-0.0003139822918,-1.765216662e-18,1.419222935e-18],
			[0.001760255803,0.02223401479,0.001750449649,0.004442649905,-0.004873309583,0.0001023924846,-0.001309731086,-0.04128529732,-0.001614058543,0.006434179229,0.0003409856148,-0.002457961048,0.0008625395385,-2.39760915e-05,3.46037653e-05,-0.0005926534403,0.0003112995502,-0.01044264711,-0.001124752818,-1.338989683e-16,-5.261549672e-18,-1.733606371e-06,1.002039977e-16,-2.000422555e-05,-0.003265445752,-3.868801811e-17,-0.003566232815,0.002150588239,-0.0002493278423,-2.294314437e-07,-2.100048786e-17,-0.00758832357,-2.775625324e-16,2.930823537e-05,-4.651904946e-18,-3.639340585e-17,5.765700332e-18,2.436343425e-05,-2.318789089e-18,-0.0003404771542,1.887358813e-17,0.0005693815394,6.353382379e-18,0.02779942495,2.038300084e-17,2.34797533e-18,6.234162492e-18,-0.0006109049593,-6.803368632e-18,1.487803611e-17],
			[-0.0432125649,0.01218541027,0.0002939293213,0.0507527422,-0.006711562295,-0.03094395517,-0.01866592161,-0.01699677364,-0.002802111237,0.006266238632,-0.001233781203,-0.02808418982,-0.0008651621924,-5.416072412e-05,0.0003934098341,0.00655154735,4.865217006e-05,-0.04584384168,0.0002926385953,0.3298194005,-7.282541126e-18,4.255834732e-05,-1.152805065e-15,-0.0002592757751,-0.003100222892,-7.730691833e-16,0.002605926171,0.000336109656,0.006120755601,5.6323184e-06,0.003388235422,-0.00472884358,0.03745710495,-0.0007194886225,-8.291436114e-17,2.543843229e-16,1.001595284e-16,-0.000598098573,1.011083377e-17,-0.00387088109,3.744563253e-17,0.006473292574,-8.313797784e-17,-9.422394505e-17,0.6385544557,-1.947625207e-17,-1.743397093e-16,0.01499712153,3.694961004e-16,5.783581992e-17],
			[0.002376444336,0.006555851797,0.0001854805238,0.005274243768,0.006881811752,0.001452372376,-2.016488473e-05,-0.001793473908,-0.001709466399,-0.001900800573,1.291354599e-05,0.000584526157,-0.001744019026,1.624330749e-06,0.001524567584,-0.0005035693475,-9.308035145e-05,0.002483359283,-9.105935249e-05,-1.808449224e-16,-4.182000908e-18,-2.340466104e-06,0.005611284346,-2.364303388e-05,0.0009646857719,-1.778975654e-17,0.001579665313,-0.0006430382215,-0.0003366066099,-3.097453528e-07,1.248103048e-17,0.001804574413,1.104615667e-16,3.956776612e-05,1.914294461e-18,0.0131376828,3.37119113e-18,3.289200651e-05,-2.203609152e-18,-0.0004024106243,-2.566086314e-18,0.0006729531715,-1.248362452e-17,-9.092686931e-18,-3.724234462e-17,0.00468905963,1.768604794e-17,-0.000824756054,-1.649342555e-17,2.834619746e-19],
			[0.02680621565,-0.003346566372,-0.007627321801,0.05953762832,-0.01672276702,-0.000991330543,-0.005033316176,-0.03959983735,-0.0005865465094,-0.01827197362,-0.003155609407,-0.01278410146,-0.004381422296,-5.283459492e-05,0.0004607359448,0.01218717826,4.631309011e-05,-0.05431325297,0.001611998543,9.00321484e-16,3.384854499e-18,-2.640038237e-05,5.121228962e-16,-0.000266348638,0.009273310007,4.560086575e-17,0.01587576731,0.0003199503078,-0.003796911731,-3.493917614e-06,-1.776058684e-17,-0.03946763049,-6.456423937e-17,0.0004463231289,-1.881090769e-17,1.135346022e-16,2.569008577e-17,0.0003710207752,9.486901358e-18,-0.004533323526,-0.01483106825,0.007581098162,-1.435644613e-16,2.09217138e-17,-2.099015406e-16,3.567258082e-17,0.5305402692,-0.009303221756,3.248269709e-16,7.05765057e-18],
			[0.007028344242,-0.00520785596,0.001281419987,0.0145769994,-0.02346396632,0.0003210327334,0.0002690615763,-0.05290725184,-0.001606308951,0.02385449957,9.427591699e-05,-0.008065955605,0.001750321243,-2.396065682e-05,0.0001131092001,0.002359354922,5.982908382e-05,-0.03426821108,0.001142768639,4.53630189e-16,4.775785169e-19,0.0002078513474,-3.039831841e-17,-6.53877383e-05,-0.01210652851,-9.326806837e-17,-0.005490053574,0.0004133244778,0.02989324959,2.750776386e-05,-6.628541032e-17,-0.02490156672,-5.662516896e-16,-0.003513921216,-3.130633773e-18,-4.609976815e-17,-9.785559881e-18,-0.002921062543,6.458990182e-19,-0.001112916419,1.919715472e-17,0.001861135339,-4.962384873e-17,-2.232778849e-17,2.259477327e-16,6.705959843e-18,1.669671346e-16,0.07324466556,7.936359903e-17,1.761223034e-17],
			[-0.01122755563,0.003163533195,-0.001364876372,0.01962685448,0.004828680647,-0.003762471428,-0.002947074904,0.0166299913,0.003792376962,-0.002005103605,-0.0009260464834,-0.00249370703,-0.02071612033,0.0001066992305,0.0001519947507,0.004080282647,-0.001906445404,-0.02965692361,-9.605607161e-05,-2.272487754e-16,4.519450169e-18,1.105757581e-05,-2.181414771e-16,-8.786723779e-05,0.001017621178,-4.472333962e-17,0.003511005992,-0.0003088939208,0.001590304213,1.463397702e-06,-7.589415207e-18,-0.02155069782,-4.163336342e-17,-0.0001869386498,-0.04692311497,5.009014037e-17,-2.841795538e-17,-0.0001553988989,-8.249306813e-18,-0.001495523383,-9.05308814e-18,0.002500970757,2.941576019e-17,4.548228114e-17,1.66696084e-16,5.178918258e-18,-3.256943326e-16,0.003896575376,0.4803540275,9.659477704e-18],
			[0.00177448649,0.002217009548,0.0001252381669,0.01408420119,-6.778161984e-05,-8.031677222e-05,4.213936574e-05,0.00287397494,-0.001375063826,-0.0002989983277,-3.103197842e-05,0.0001033590977,-0.0004478710305,-9.892565756e-06,0.00010917789,-7.091998641e-05,-3.200415562e-05,0.0004382811215,-2.372285253e-05,1.45716772e-16,-8.285366984e-05,-1.747621613e-06,7.025630078e-17,-6.311507197e-05,0.0001517462887,9.05308814e-18,0.001466802033,-0.0002210981694,-0.0002513435189,-2.31286269e-07,2.168404345e-18,0.0003184842816,2.038300084e-17,2.954517612e-05,-2.067675534e-06,2.332389924e-17,4.255493527e-18,2.456039904e-05,1.138412281e-18,-0.001074235043,-1.390489286e-17,0.001796448293,-2.331034671e-17,-1.029992064e-18,4.33680869e-17,2.222614454e-18,8.023096076e-18,-0.0006158437854,-1.550070293e-18,0.002163976422]
		],
		"names": [
			"G01",
			"G02",
			"G03",
			"G04",
			"G05",
			"G06",
			"G07",
			"G08",
			"G09",
			"G10",
			"G11",
			"G12",
			"G13",
			"G14",
			"G15",
			"G16",
			"G17",
			"G18",
			"G19",
			"G20",
			"G21",
			"G22",
			"G23",
			"G24",
			"G25",
			"G26",
			"G27",
			"G28",
			"G29",
			"G30",
			"G31",
			"G32",
			"G33",
			"G34",
			"G35",
			"G36",
			"G37",
			"G38",
			"G39",
			"G40",
			"G41",
			"G42",
			"G43",
			"G44",
			"G45",
			"G46",
			"G47",
			"G48",
			"G49",
			"G50"
		],
		"description": "Stable scalefree network, IAA=486.2363",
		"created": {
			"creator": "",
			"time": 736265.634,
			"id": "",
			"nodes": "",
			"type": "unknown",
			"sparsity": ""
		},
		"tol": 2.220446049e-16,
		"N": 50
	}
}
