{
	"obj_data": {
		"network": "Tjarnberg-D20131127-scalefree-N50-L235-ID378209",
		"A": [
			[-13.7098816,0,4.468224183,0,0,5.814414108,0,0,0,0,0,0,0,0,0,0,-2.658770519,0,0,0,0,0,0,0,0,0,0,0,0,0,0,0,0,0,0,0,0,0,0,0,0,0,0,0,0,0,0,0,0,0],
			[-9.309784438,-13.0286114,0,0,0,0,0,0,0,0,0,0,0,0,0,0,0,0,0,0,0,0,0,0,0,0,0,0,0,0,0,0,0,0,0,0,0,0,0,0,0,0,0,0,0,0,0,0,0,0.8102573636],
			[0,-1.745868445,-8.984591461,0,0,0,-5.407468705,0,0,0,0,0,0,0,0,0,0,0,0,0,0,0,0,0,0,0,0,0,-1.327114359,0,0,0,0,0,0,0,0,0,0,0,0,0,0,0,0,0,0,0,0,0],
			[0,0,0,-2.406246363,0,0,0,0,0,0,0,0,0,0,0,0,0,4.237500674,0,0,0,0,0,0,0,0,0,0,0,0,0,0,0,0,0,0,0,0,0,0,0,0,0,0,0,0,0,0,0,0],
			[0,-2.999405622,0.01725884519,0,-8.511335758,0,0,0,0,0,0,0,0,0,0,0,0,0,0,0,0,0,0,0,0,0,0,0,0,0,0,0,0,0,0,0,0,0,0,0,0,0,0,0,0,0,0,0,-9.74761409,0],
			[0,0,-0.3687942709,-2.989413659,0,-12.08845851,0,0,0,0,0,0,0,0,0,0,0,9.403345547,0,0,0,0,0,0,0,0,0,0,0,0,0,0,0,0,0,0,0,0,0,0,0,0,0,0,8.25154472,0,0,0,0,0],
			[0,-2.265450521,0,0,4.118505478,-2.944904005,-14.01963245,0,0,0,0,0,0,0,0,0,-0.08720258621,0,0,0,0,0,0,0,0,0,0,0,0,0,0,0,0,0,0,0,0,0,0,0,0,0,0,0,0,0,0,0,0,0],
			[1.120008217,0,0,-0.2943087285,0,-2.565209411,0,-6.206825746,0,0,0,1.19721884,0,0,0,0,0,0,-0.9401528826,0,0,0,0,0,0,0,0,0,0,0,0,0,0,0,0,0,0,0,0,0,0,0,0,0,0,0,0,0,0,0],
			[8.980049659,5.395660022,0,0,0,5.838031475,0,6.434824174,-21.52450503,0,0,0,0,0,0,0,0,0,0,0,0,0,0,0,0,0,0,0,0,0,0,0,0,0,0,0,0,0,0,0,0,0,0,0.07721062321,0,0,0,0,0,0],
			[0,-6.432099093,0,0,0,0,-0.6086013829,1.36344877,-6.197742143,-10.49791968,0,0,0,0,0,0,0,0,0,-2.69328821,0,0,0,0,0,0,0,0,0,0,0,0,0,0,0,0,0,0,0,0,0,0,0,0,0,0,0,0,0,0],
			[-1.000104661,-0.3933199982,0,0,0,0,0,9.638610857,-8.540403287,0,-13.13670627,0,0,0,0,0,0,0,0,0,0,0,0,0,0,0,0,0,0,-2.752331627,0,0,0,0,0,0,0,0,0,0,0,0,0,0,0,0,0,0,0,0],
			[0,4.044019936,0,4.346503907,0,0,0,0,-7.433112114,0,0,-16.44404602,-1.69772535,0,0,0,0,0,0,0,0,0,0,0,0,0,0,0,0,0,0,0,0,0,0,0,0,0,0,0,0,0,0,0,0,0,0.8420499731,0,0,0],
			[0,8.925548043,0,0,-2.485273707,0,-7.65111858,0,0,0,0,-6.126890042,-11.03657732,0,0,0,0,0,0,0,0,0,0,0,0,0,0,0,0,0,0,0,0,0,0,0,-1.209935884,0,0,0,0,0,0,0,0,0,0,0,0,0],
			[0,2.6614956,-5.746287087,0,0,0,-1.29713847,0,-6.78726796,0,0,0,0,-7.515772899,0,0,0,0,0,0,0,0,0,0,0,0,0,0,0,0,0,0,0,0,0,0,0,0,0,0,0,0,0,0,0,0,0,0,0,0],
			[0,4.638087554,0,0,0,0,0,-2.265450521,0,9.463297325,0,-13.40194747,0,0,-10.92666572,0,0,0,0,0,0,0,0,0,0,0,0,0,0,0,0,0,0,0,0,0,0,0,0,0,0,0,0,0,0,0,0,0,0,0],
			[-1.959333109,0,0,0,0,-1.448834636,7.667469065,0,0,0,0,0,4.299269172,0,0,-13.01498599,0,0,0,0,0,0,0,0,0,0,0,0,0,0,0,0,0,0,0,0,0,0,0,0,0,0,0,0,0,0,0,0,0,0],
			[0,-0.9483281251,0.9519615662,0,0,0,0,0,0,0,0,0,0,0,0,0,-2.421688488,0,0,0,0,0,0,0,0,0,0,0,0,0,0,0,0,0,0,0,0,0,0,0,0,-4.318344738,0,0,0,0,0,0,0,0],
			[0,0,0,0,0,0,0,0,1.676833064,0,0,0,0,0,0,0,3.714285156,-6.998915904,0,0,0,0,0,0,0,0,0,0,0,0,0,0,0,0,0,0,0,0,0,0,0,0,0,0,0,0,0,0,0,0],
			[0,0,2.601543822,0,-5.491946211,0,10.30171386,0,0,0,0,0,0,0,0,0,0,0,-18.26894181,0,0,0,0,0,0,0,0,0,0,0,0,0,0,0,0,0,0,0,0,0,0,0,0,0,0,0,0,0,5.432902793,0],
			[0.472347342,0,0,0,0,0,0,0,-3.829646911,0,0,0,0,0,0,0,0,0,13.02043615,-7.316841999,0,0,0,0,0,0,0,0,0,0,0,0,0,0,0,0,0,0,0,0,0,0,0,0,0,0,0,0,0,0],
			[0,0,2.947629086,0,0,0,0,0,-0.2606993984,0,5.594590922,0,0,0,1.456101518,0,0,0,0,0,-3.563497351,0,0,0,0,0,0,0,0,0,0,0,0,0,0,0,0,0,0,0,0,0,0,0,0,0,0,0,0,0],
			[0,0,-4.301994253,0,0,0,-2.6614956,0,-0.5268489584,0,0,0,0,0,0,6.802710085,0,0,0,0,0,-3.477203125,0,0,0,0,0,0,0,0,0,0,0,0,0,0,0,0,0,0,0,0,0,0,0,0,0,0,0,0],
			[0,0,0,0,0,-1.018271866,0,0,0,1.305313712,0,0,0,0,-2.681479526,0,0,0,-2.201865302,0,0,0,-7.931801904,0,0,0,0,0,0,0,0,0,0,0,0,0,0,0,0,0,0,0,0,0,0,0,0,0,0,0],
			[0,0,0,0,0,0,-10.66505797,0,-9.987421202,0,-0.1035530711,0,0,0,0,0,0,0,9.01638407,0,0,0,0,-9.496906655,0,0,0,0,0,0,0,0,0,0,0,0,0,0,0,0,0,0,0,0,0,0,0,0,0,0],
			[0,0,0,0,0,0,-5.144952587,0,0,0,0,0,0,0,0,1.66502438,0,-0.9565033675,0,0,0,0,-4.095796471,0,-12.80515477,0,0,0,0,0,0,0,0,0,0,0,0,0,1.074590203,0,0,0,0,0,0,0,0,0,0,0],
			[0,0,-1.907556573,0,0,0,0,0,6.573803296,0,0,0,0,0,0,0,0,0,0,0,-1.910281654,0,0,0,1.759493849,-4.200257903,0,0,0,0,0,0,0,0,0,0,0,0,0,0,0,0,0,0,0,0,0,0,0,0],
			[0,0,0,0,0,0,0,0,0,0,0,0,0,0,0,-13.51276742,0,0,-3.866889682,0,1.112741334,7.413128188,0,0,0,0,-14.80899753,0,0,0,0,12.8296805,3.978617996,0,0,0,0,0,0,0,0,0,0,0,0,0,0,0,0,0],
			[3.756978089,2.699646731,3.335498923,0,0,0,0,-2.545225485,0,0,0,0,0,0,0,0,0,0,0,0,0,0,0,0,0,0,0,-4.431889772,0,0,0,0,0,0,0,0,0,0,0,0,0,0,0,0,0,0,0,0,0,0],
			[8.435033496,0,0,0,0,0,1.704992233,0,0,0,2.481640266,0,0,0,0,0,0,0,0,0,0,0,0,0,0,0,0,0,-6.289486531,0,0,0,0,0,0,0,0,0,0,0,0,0,0,0,0,1.839429553,0,0,0,0],
			[0,0,0,0,0,0,2.806833244,0,0,9.672220187,0,-1.615064565,0,0,0,0,0,0,0,0,0,0,0,0,0,0,0,0,0,-6.179574938,0,0,0,0,0,0,0,0,0,0,0,0,0,0,0,0,0,0,0,0],
			[0,0,-4.82339305,0,0,0,0,0,0,0,0,-1.954791308,0,0,0,-7.939977147,0,0,0,0,0,0,0,0,0,0,0,0,0.08266078485,0,-4.893336791,0,0,0,0,0,0,0,0,0,0,0,0,0,0,0,0,0,0,0],
			[0,0,6.574711656,0,0,0,0,0.2679662805,0,0,0,0,0,0,0,7.837332436,0,0,0,0,0,0,0,0,0,0,0,0,0,0,0,-8.148900009,0,0,0,0,0,0,0,0,0,0,0,0,0,0,0,0,0,0],
			[0,0,0,0,0,0,0,-6.8526699,0,-4.012227326,0,0,0,0,0,0,0,0,0,0,0,0,0,0,0,0,-2.16189745,0,2.098312231,0,0,0,-8.921006242,0,0,0,0,0,0,0,0,0,0,0,0,0,0,0,0,0],
			[0,15.36945582,3.239212734,0,13.84522728,0,0,0,0,0,0,0,0,0,0,0,0,0,5.951576509,0,0,0,0,0,0,0,0,0,0,0,0,0,0,-18.97201266,0,0,0,0,0,0,0,0,0,0,0,0,0,0,0,0],
			[0,0,0,0,0,0,0,0,0,-3.55986391,0,0,0,-1.261712419,0,0,0,0,0,0,0,0,0,0,-12.62711616,0,0,-0.6976206897,0,0,0,0,0,0,-7.545748788,0,0,0,0,0,0,0,0,0,0,0,0,0,0,0],
			[0,0.5041399515,0,0,0,0,0,0,-9.019109151,0,-3.703384833,0,0,0,0,0,0,0,0,0,0,0,0,0,0,0,0,0,6.247701958,0,0,0,0,0,0,-5.566431753,0,0,0,0,0,0,0,0,0,0,0,0,0,0],
			[0,0,0,0,0,0,0,0.5513746857,0,0,0,0,0,0,0,0,0,0,0,0,0,2.19459842,0,0.7693811513,0,0,0,0,0,0,0,0,0,0,0,0,-3.353666128,0,0,0,0,0,0,0,0,0,0,0,0,0],
			[0,-4.635362473,0,0,0,0,0,0,0,-3.484470007,0,-2.52705828,0,4.035844693,0,0,0,0,0,0,0,0,0,0,0,0,0,0,0,0,0,0,0,0,0,0,0,-3.418159707,0,0,0,0,0,0,0,0,0,0,0,0],
			[-0.9601368086,0,0,0,0,0,0,0,0,0,0,0,0,0,0,0,0,0,0,0,0,0,6.931697244,0,0,0,0,0,0,0,0,0,0,0,0,0.3206511764,0,0,-5.907066856,0,0,0,0,0,0,0,0,0,0,0],
			[0,0,0.1889389368,0,0,0,-2.504349273,0,0,0,-4.061278781,0,0,0,0,0,0,0,0,0,0,0,0,0,0,0,0,0,0,0,0,0,0,0,0,0,0,0,3.789679059,-3.170177353,0,0,0,0,0,0,0,0,0,0],
			[0,0,0,0,0,0,-4.443698456,2.889494029,0,0,-2.016559806,0,0,0.136254041,0,0,0,0,0,0,0,0,0,0,0,0,0,0,0,0,0,0,0,0,0,0,0,0,0,0,-2.604268903,0,0,0,0,0,0,0,0,0],
			[-0.5204904365,0,0,0,0,0,0,0,0,0,0,0,0,0,0,0,0,2.884043867,0,0,0.7348634609,0,0,0,0,0,0,0,0,0,0,0,0,0,0,0,0,0,0,0,0,-2.616077586,0,0,0,0,0,0,0,0],
			[0,0,0,0,0,0,0,0,0,0,0,0,-3.399084142,0,1.144533944,0,0,0,0,0,0,0,9.009117188,0,0,0,6.908079877,0,0,0,0,0,0,0,0,0,0,0,0,0,0,0,-9.139921067,0,0,0,0,0,0,0],
			[0,0,0,0,0,0,0,0,0,0,0,0,3.206511764,0,0,0,0,0,0,0,0,0,0,0,-10.67414157,0,0,0,0,0,0,0,0,0,-5.171295034,0,0,0,0,0,0,0,0,-3.055723959,0,0,0,0,0,0],
			[0,0,0,0,0,0,0,0,-3.908674255,0,0,0,-1.743143364,0,0,0,0,0,0,0,0,0,-0.8438666937,0,0,0,0,0,0,0,0,0,0,0,0,0,0,0,0,0,0,0,0,0,-7.039792116,0,0,0,0,0],
			[0,0,0,0,0,2.206407103,0,0,0,0,0,0,0,0,0,0,0,0,0,0,0,0,-1.1981272,0,0,0,0,0,0,0,0,0,0,0,0,0,0,0,0,0,0,0,0,0,-11.0438442,-6.68734833,0,0,0,0],
			[0,0,0,0,0,0.0944694684,0,0,0,0,0,0,0,0,0,0,0,-0.06086013829,0,0,0,0,0,0,0,0,0,0,0,0,0,0,0,0,0,0,0,0,0,0,0,0,0,0.5186737159,0,0,-1.204485722,0,0,0],
			[0,0,-0.2679662805,0,0,9.170805317,0,0,-5.309365796,0,0,0,0,0,0,0,0,0,0,0,0,0,0,0,0,0,0,0,0,0,0,0,0,0,0,0,0,0,0,0,0,0,0,0,-6.027878772,0,0,-5.224888291,0,0],
			[0,0,0,0,0,0,0,0,1.392516299,0,0,0,0,0,0,0,0,0,0,0,0,0,0,0,0,0,0,0,0,0,0,0,0,0,0,0,0,0,0,0,0,0,0,0,0,0,0,-3.064807561,-11.30636032,0],
			[0,0,0,0,0,0,0,0,0,0,0,0,0,0,0,0,0,-0.4532717762,0,0,0,0,0,0,0,0,0,0,0,0,0,0,0,0,3.304614673,0,0,0,0,0,0,0,0,0,0,0,-5.138594065,0,0,-8.21702703]
		],
		"G": [
			[0.0676205754,-0.006331550345,0.03197246103,-0.03777785483,-0.003212467315,0.03148188352,-0.009612579214,-0.003257665508,-0.005521705784,0.0007079330307,0.001854543496,0.0005178385783,-0.006202467825,8.893362952e-05,0.002008691584,0.0007651367039,-0.02159496799,0.0340989073,0.0005768006207,-0.0002605861497,0.007351051539,0.001412316566,-0.004193365665,0.0001812869013,0.0002106055252,3.337415691e-17,-9.186919346e-18,8.338917739e-05,-0.006744163202,-0.0008259983524,1.05201492e-17,-6.093555023e-18,2.622583411e-17,-2.120123467e-18,-0.0005297601517,2.206971374e-06,0.002237726745,5.730686108e-17,3.831252288e-05,2.112161357e-17,-1.532282602e-18,0.03564669368,1.93767257e-17,0.0003740353825,0.04134126143,-0.001855057115,0.003025569209,-0.001787155183,0.003046744699,-0.0006243359394],
			[-0.04770438718,0.08058485373,-0.02224371271,0.02849130586,0.003401338351,-0.022516097,0.008844288677,0.002873577775,0.004534055784,-0.00292571367,-0.001402479424,0.0004815116373,0.00276363562,-0.001226468519,-0.00167281988,-0.0006552433694,0.01581212376,-0.02363085537,0.0001105123151,0.001076938675,-0.005382538041,-0.000629286355,0.00389367949,-8.077606398e-05,-0.002550791863,-5.567886375e-17,2.045076348e-17,-0.001150005926,0.004666986432,0.0006246527494,-3.676800617e-17,6.993104013e-18,3.015437292e-18,6.484884244e-18,0.007305831915,-2.673018486e-05,-0.0009970646386,1.658829324e-17,-0.0004640299514,-3.610393234e-17,-2.49298737e-17,-0.02610098484,-4.05220562e-18,-0.00558249141,-0.02985178717,0.001283706537,-0.03356374053,0.001688942335,-0.002879311295,0.007946240275],
			[-0.00941114262,-0.004724974262,0.1065507051,0.002349655515,-0.01962557022,-0.0008463252001,-0.04221609655,-0.005850001734,0.001515586329,0.002111640002,-0.005119094024,0.0003225873905,-0.002519575243,8.188026153e-05,-4.130477802e-05,0.0003172548091,0.006009427939,-0.003809739504,-0.0001029822937,-0.0007772827569,-0.002045643899,0.0005737132309,-0.0009425176134,7.364262117e-05,0.000135891172,-2.44593469e-17,-2.565154577e-17,7.677554251e-05,-0.02248133821,0.002280002189,6.379852159e-18,-5.561618332e-17,5.729330855e-18,1.380663704e-17,-0.0004877446249,1.424026869e-06,0.0009090125199,5.144539308e-17,2.472078371e-05,4.363913744e-18,-2.006959865e-17,-0.009919729313,-3.231091881e-17,0.0004139630821,0.01718227205,-0.006183742173,0.002213217111,-0.009895824163,0.01687041511,-0.0004659161001],
			[0.03037180699,-0.0160103384,0.01237844729,0.394182097,0.001253776328,0.02722196478,0.0002209957872,-0.02504639254,0.01411583163,0.00480488573,-0.02807554639,0.005177857735,-0.005080782609,0.0003593191038,-0.007774788752,0.0006492377765,0.1902502507,0.1457878853,0.0005218544367,-0.001768651296,-0.06476228163,0.001156906195,-0.003486112312,0.0001485020739,0.0003481769612,1.411732873e-16,9.769000387e-17,0.0003369178189,-0.002608292372,0.01250461643,1.867267192e-16,9.732069751e-17,-3.230244848e-17,-4.876029864e-17,-0.002140393279,3.648606017e-06,0.00183304508,-2.155122868e-16,6.333897356e-05,-1.40214446e-16,-1.780700424e-16,-0.3140450319,-1.270684946e-16,0.002114318471,0.03261619552,-0.0007174398333,0.01035502916,0.0004869569437,-0.0008301648904,-0.001578733347],
			[0.01136936216,-0.03689165479,0.002316507951,-0.05688088907,0.1164774976,0.04585878221,-0.0007055264728,-0.02307782265,-0.01928202921,0.001381315376,-0.002160061281,-0.001511690161,0.0002636144448,0.000493828512,-0.0004432078955,0.0001298862358,0.0142549237,0.0174159988,0.0009213566058,-0.0005084543873,-0.004852458169,-6.002563143e-05,-0.0008289778692,-7.704972794e-06,0.00126052479,4.423798974e-17,-3.959540215e-17,0.000463041412,-0.0004756737232,0.00096207345,-5.771682503e-17,1.516527789e-17,-3.814697581e-17,3.208899617e-17,-0.002941639387,1.32092552e-05,-9.510683655e-05,8.955509945e-17,0.0002293096766,6.207057437e-18,2.253446453e-17,-0.02353052336,1.26411197e-17,0.001967671785,0.003743129944,-0.0001308393493,0.01446273269,0.05864416296,-0.09997665244,-0.0036377798],
			[0.005510281666,-0.02209609104,-0.002045348958,-0.09625323941,0.00780992342,0.08369124245,0.01029972172,-0.02412186361,-0.01576133087,0.002341375318,-0.00535562985,0.002641079189,-0.01428418328,0.0003319479705,0.0008473353182,0.00179028803,0.03747784769,0.02862149906,0.002084267501,-0.0008618470287,-0.01275767531,0.003252542255,-0.01038047089,0.0004175008074,0.0007053780416,6.984972496e-17,-4.85688692e-17,0.0003112531035,0.0004389219341,0.002385353292,-6.093216209e-17,-2.535677831e-17,2.133167774e-17,1.169921907e-17,-0.001977348818,7.391777324e-06,0.005153448573,1.163077881e-16,0.0001283195791,7.79541362e-17,1.453508537e-18,-0.06186447496,3.974617402e-17,0.001492929254,0.09502872506,0.0001207303609,0.01114172878,0.003362083708,-0.005731685089,-0.002178831882],
			[0.00974389827,-0.01907107367,0.004644040234,-0.001022077066,0.03202297992,-0.0005894504676,0.06752149085,-0.001892129276,-0.003064879931,0.0003555195414,0.000902896429,-0.001099354968,0.002653039377,0.0002710107754,1.545720225e-05,-0.0002351504135,-0.007505145303,0.003666846657,-0.0001937806874,-0.000130864735,0.002554794708,-0.0006041033295,0.00132432291,-7.754353611e-05,0.0006300571251,-3.050462105e-17,4.192813089e-18,0.0002541149591,-0.0009733580225,-0.0004021426106,6.956681596e-18,2.499424821e-17,-5.700531735e-18,2.949961645e-17,-0.001614357924,6.602476538e-06,-0.000957163719,2.287666584e-17,0.0001146174964,-3.808260131e-18,2.623091631e-17,0.01238870166,2.168404345e-17,0.00115388258,-0.01418420813,-0.0002677329524,0.007254248327,0.01624896657,-0.02770126133,-0.001880543634],
			[0.006411702699,0.008784116036,0.002190047203,0.03395396693,1.727387239e-05,-0.02773919571,-0.009480967799,0.164790077,0.0004053365579,-0.0006050273392,0.002210467333,0.01087698021,0.003765706431,1.382818316e-05,-0.0002278607536,-0.0005096332428,-0.01584064943,-0.005960941669,-0.008840809954,0.000222707146,0.005392248345,-0.0008574602443,0.003856609452,-0.0001100647789,-0.0004803629746,-7.608642855e-17,2.650239037e-17,1.296608296e-05,-0.0004671117101,-0.0009845238894,6.126589307e-17,-1.006783361e-17,-2.269074211e-17,2.891770482e-18,-8.237176923e-05,-5.033805894e-06,-0.001358591811,-4.288697219e-17,-8.738572951e-05,6.850802477e-18,1.003734042e-17,0.02614807201,1.023808723e-17,0.0006737066477,-0.03445352726,-0.0001284842723,0.003908748784,0.002500616974,-0.004263055375,0.0008661763767],
			[0.0195671964,0.01435912612,0.00779306999,-0.02471159392,0.001504302522,0.02184645338,-0.002011534539,0.04205309373,0.04109510414,0.0002716628504,-0.0003610584453,0.004192448935,-0.004313218952,-4.536024002e-05,0.0005650543422,0.0004248110076,0.0003456613291,0.01418479082,-0.001887966453,-9.99975607e-05,-0.0001176651082,0.0009821301379,-0.002366414584,0.0001260675783,-0.0006920242697,-1.373950968e-17,2.358139725e-18,-4.253231451e-05,-0.001651581949,0.0001608124488,1.321201991e-17,-2.578368291e-17,1.068362656e-17,5.587876353e-18,0.0002702020345,-7.25184086e-06,0.001556123414,4.565846399e-17,-0.0001258903139,4.288697219e-17,-2.724650881e-17,-0.0005705812356,3.754050022e-18,0.0005105427323,0.02521249065,-0.0004542859885,-0.003109663924,0.001292885628,-0.002204113258,0.00141591206],
			[0.0184728479,-0.05442440142,0.001074979614,-0.01434068245,0.004473350605,0.01073832015,-0.02392712067,-0.004288958858,-0.02525228064,0.09681652724,0.0007184853081,-0.0008439454262,0.0003762604433,0.0007567281879,0.0005189231923,0.0001881694808,-0.005263472571,0.009229788298,-0.02504636269,-0.03563761679,0.001791716393,-8.567539122e-05,-0.001141600847,-1.099741132e-05,0.001820903069,2.101488742e-17,4.099639465e-19,0.0007095509475,-0.0002078715019,-0.0003200074208,1.033854534e-16,-2.882622526e-17,-1.578191787e-17,-2.702373915e-17,-0.004507681085,1.908155517e-05,-0.0001357472672,-5.524010069e-17,0.0003312514733,3.041187094e-17,2.356106846e-17,0.008688384932,-2.986299359e-17,0.003147987762,0.004694514105,-5.71773691e-05,0.02230520961,0.009321817116,-0.01589184708,-0.005366633436],
			[-0.01921760392,0.01493180315,-0.006312374147,0.05463622671,-0.005086169366,-0.04008093515,-0.003388487783,0.09382450979,-0.01844153958,-0.03223856424,0.07713266255,0.009033259803,0.005254723272,-0.0001612028771,-0.0009644604197,-0.0006974518338,-0.005219676523,-0.01723914872,0.002963460218,0.01186683339,0.001776807966,-0.001196512894,0.004894890771,-0.0001535860445,-0.0005632323026,-3.076000148e-18,5.113029683e-17,-0.0001511528922,0.001326080769,-0.0343542507,-4.069823905e-17,5.029342828e-17,-1.681021587e-17,-1.027789778e-17,0.0009602538555,-5.902207776e-06,-0.001895799404,-6.360200994e-17,-0.0001024609894,-5.358669238e-17,4.497406137e-17,0.008616091038,1.053708986e-17,-0.000460267473,-0.04463461909,0.0003647532677,3.360960652e-05,-0.003407412171,0.005808961117,0.001472382093],
			[-0.009062093176,0.001649186872,-0.005301151438,0.1248262246,0.004579830187,-0.006164690671,0.00679873225,-0.02727755576,-0.01606295326,0.00239585794,-0.007775560335,0.06301750134,-0.005952154977,0.000788122963,-0.002838762106,0.0005590427121,0.05509166589,0.02959215281,0.0006942671494,-0.0008819017741,-0.01875352052,0.00135531974,0.0013840027,0.0001739707101,-0.001167498938,3.720846331e-17,3.448440535e-17,0.000738988456,0.001106417374,0.003463170339,-1.870248748e-18,2.425902361e-17,-3.138087663e-17,7.860465751e-18,-0.004694693589,-1.223442135e-05,0.002147418859,-2.092510193e-17,-0.000212386782,-5.496905015e-17,-6.850802477e-17,-0.09093950681,-2.392021043e-17,0.006954230969,-0.00951883406,0.0003043324074,0.04336144309,0.002120379822,-0.003614826538,0.0001626215664],
			[-0.03977759873,0.08143794399,-0.008485118655,-0.03540250089,-0.04717858319,-0.02000100525,-0.04557677331,0.02043028248,0.01923834985,-0.003824900728,0.002375450452,-0.03197181225,0.08928739453,-0.001639972393,0.0003626466073,-0.01088614813,-0.01389700731,-0.03860450555,-0.00146742924,0.001407924352,0.004730621366,-0.02033095052,0.001091094177,-0.002609708835,-0.002028500821,-9.510485932e-17,-2.66984785e-18,-0.001537730435,0.001769288368,-0.001058006008,-9.135758556e-17,-4.43167638e-17,2.72744609e-17,6.783039842e-18,0.009768993219,-2.125700757e-05,-0.032213112,-5.204170428e-17,-0.0003690168339,-1.604619215e-17,-2.160272829e-17,0.02293971276,-1.013729031e-17,-0.009122883046,-0.004132184481,0.0004866624483,-0.05661057496,-0.02344507897,0.03996920398,0.008030361048],
			[-0.02904995703,0.02247352084,-0.0971809702,0.0307856129,0.009324185979,-0.02695350198,0.02557194703,-0.03216002682,-0.03613594214,-0.00295723017,0.003587456694,-0.00367246293,0.006342291169,0.1325507834,-0.001073752375,-0.0008176468519,0.001987968033,-0.01889811556,0.001856281271,0.001088539721,-0.0006767157738,-0.001444154672,0.004007924097,-0.0001853736844,-0.0004909818642,-4.785736152e-18,-1.839247342e-17,-0.0004713891892,0.02050057908,-0.001597823575,5.778458766e-17,6.532995716e-17,-3.620218817e-17,-3.91159815e-18,0.002994671685,-5.145083056e-06,-0.00228817222,-8.856576496e-17,-8.931747583e-05,-4.550938619e-17,-1.043680116e-16,-0.003281527788,4.238552868e-18,-0.002953583504,-0.04402870078,0.00563891234,-0.01202154085,0.004192122192,-0.007146735877,0.002216049148],
			[0.005535195337,-0.01677336764,-0.002462885434,-0.160469859,-0.0003028759993,0.01305511915,-0.02334165492,-0.003204196493,-0.0003279963362,0.0797951897,0.009105647323,-0.08007490468,0.008018740333,-0.0008347499945,0.09478767022,-0.0006951877845,-0.06213434302,-0.03709695295,-0.02066364354,-0.02937215859,0.0211508884,-0.001825886104,-0.001833072571,-0.0002343732573,0.002025864953,-1.22348827e-16,-7.180806514e-17,-0.0007827085855,0.0005407699791,-0.004055580095,1.169718619e-16,-2.981555974e-17,5.383063786e-17,4.240585747e-17,0.004972441652,2.122938585e-05,-0.002893001659,-9.324138683e-18,0.0003685373272,6.938893904e-17,-1.698131653e-17,0.1025648148,-5.421688489e-17,-0.008312529116,0.01021300169,0.0001487447986,-0.04892376227,0.005671112116,-0.009668120003,-0.001653973462],
			[-0.01819274218,0.01907923474,-0.004652567688,0.004105483004,0.002895184492,-0.02101020824,0.02502375163,0.008809758564,0.007135266643,-0.00142126046,0.001633607973,-0.01158094234,0.03358134695,-0.0004324172413,-0.0002678229301,0.07278544303,-0.009933158026,-0.01891163499,-0.0009177562101,0.0005231579472,0.00338130423,-0.007646551979,0.002927463654,-0.0009815219526,-0.0004091245313,-2.900918438e-17,3.113693114e-18,-0.0004054587476,0.000977457169,-0.0007275954959,5.956335685e-18,-2.168404345e-19,2.244976123e-17,-1.050659668e-17,0.002575824517,-4.287286044e-06,-0.01211548054,-5.171644363e-17,-7.44263141e-05,-2.352718714e-17,5.801159249e-17,0.01639660877,-1.094366568e-18,-0.002556302281,-0.02652362139,0.0002688604683,-0.01612241425,0.001722804181,-0.00293703902,0.001881348374],
			[0.02366427694,-0.0236136446,0.009726780207,-0.01174508611,0.0006624219691,0.0192649475,0.00114458419,-0.04578485207,-0.003448583654,0.005018608591,-0.02987797579,0.003647631569,-0.003489238447,0.000404951382,-0.008574160199,0.0005029046182,0.2034126856,-0.1196408271,0.001410719031,-0.001847321474,-0.06924285032,0.0007945078317,-0.002661827922,0.0001019841205,0.000684969022,-3.407782953e-17,-6.02511476e-17,0.0003797052117,-0.002045270975,0.0133074036,-2.312061133e-17,-6.212478448e-17,-8.173529128e-17,1.290878212e-18,-0.002412215792,7.177907712e-06,0.001258847674,-8.874194782e-17,0.0001246068512,1.434399474e-16,-1.231721431e-16,-0.3357721901,-1.974670969e-16,0.002031844389,0.02351718707,-0.0005625745348,0.01248380759,-6.26334336e-05,0.0001067775667,-0.002328473467],
			[0.01724649876,-0.009091401163,0.007029047562,-0.01215357034,0.0007119514454,0.01545787453,0.0001254914984,-0.01422248528,0.008015613717,0.002728433504,-0.01594257715,0.002940224039,-0.00288510035,0.0002040377934,-0.004414880044,0.0003686668532,0.108032779,0.08278501784,0.0002963327766,-0.001004320961,-0.0367749805,0.0006569441607,-0.001979573744,8.432625805e-05,0.000197710776,5.021719531e-17,-2.779453913e-17,0.000191317321,-0.001481107501,0.007100692158,5.217722955e-17,-4.77591057e-17,1.273937553e-17,-1.966302284e-17,-0.001215413033,2.071845088e-06,0.001040886692,3.659182332e-17,3.596676119e-05,1.01318693e-16,-8.918918121e-17,-0.1783291082,-2.518059546e-17,0.001200606566,0.01852096504,-0.0004073950951,0.005880058358,0.0002765163867,-0.0004714055294,-0.0008964768779],
			[0.002144604084,0.001866350313,0.01858549067,0.02902179866,-0.0198108557,-0.02408691878,0.03162691316,0.01076409509,0.008876877882,-3.915819267e-06,0.001116054152,0.0002291038192,0.0007353159669,7.033488197e-08,0.0004042100616,-0.0001000682505,-0.0128069038,-0.006072332042,0.05408738302,1.441390953e-06,0.004359543852,-0.0001674331816,0.0007202255973,-2.149195399e-05,-9.812918537e-05,-4.155840101e-17,1.9307269e-17,6.594994477e-08,-0.003922656644,-0.0004970812994,1.733368223e-17,-6.576363802e-18,1.182881511e-17,-6.214680734e-18,-4.189710682e-07,-1.028312542e-06,-0.0002652873423,-3.513492665e-17,-1.785127269e-05,-2.644098048e-17,1.438770164e-17,0.02114028496,1.298247398e-17,0.0001182155768,-0.004908080292,-0.001078970348,-0.0006249692113,-0.02526368692,0.0430695694,0.0001840354277],
			[-0.002059819476,-0.004603130542,0.03105828926,0.06214004438,-0.03624847028,-0.05226517216,0.05671288164,-0.003066081956,-0.006069159343,-0.0001034555872,0.002294736838,-0.001753210988,0.003165644556,2.960799994e-05,0.0005532212961,-0.0003510255028,-0.02436509629,-0.01602885832,0.09727475494,0.136709066,0.008294019176,-0.0007208247389,0.00224953041,-9.252605712e-05,0.0002011800684,-1.079992419e-16,1.5219488e-17,2.776212747e-05,-0.00655136632,-0.001022056831,3.658165893e-17,3.259382781e-18,-4.152663727e-17,2.56650983e-18,-0.0001763690363,2.108200397e-06,-0.001142101449,-1.708296048e-16,3.659788112e-05,-9.248244531e-17,1.876347385e-17,0.04021932908,-1.251914696e-18,-3.270610587e-05,-0.0192614311,-0.001802026188,0.0007107796918,-0.04574920109,0.07799330311,-0.0004539014419],
			[-0.03712547734,0.01162978756,0.07664912297,0.02395824522,-0.02445269883,-0.0598897224,-0.04963045934,0.1380770674,-0.03083952018,-0.01628124484,0.1206088669,-0.01857778788,0.00975777557,-0.0005231284537,0.0371420645,-0.001147698386,-0.02863827446,-0.04641243237,-0.003738006701,0.005993034258,0.2903718253,-0.002221868533,0.006329316406,-0.0002852021077,0.0001065744547,-9.89453067e-17,3.584643433e-17,-0.0004905146867,-0.01617225408,-0.05371819297,-5.211624318e-17,1.244121993e-17,-3.585998685e-17,-3.020858303e-17,0.003116173381,1.116811966e-06,-0.003520410904,-7.464731958e-17,1.938760263e-05,-2.770136551e-17,-1.185981651e-16,0.04727304055,8.584170701e-17,-0.003814169539,-0.05353369597,-0.004448358395,-0.01788004748,-0.01131237992,0.01928536138,0.001146779848],
			[-0.03437117831,0.05559347434,-0.1456620265,0.00965135945,0.005206089494,-0.04291564955,0.04980852431,0.01954938206,0.008203535223,-0.005706317489,0.00889290668,-0.02284951969,0.06743774224,-0.001147834449,-0.0005703050198,0.1421186689,-0.02117567372,-0.03724068641,-0.001233687084,0.002100463235,0.007208321356,0.2722317227,0.006238190453,-0.00197108307,-0.001345926726,-1.464384441e-16,3.004595271e-17,-0.001076274195,0.03072143444,-0.00396082717,-8.616696766e-17,2.775557562e-17,-1.904130065e-17,1.971892701e-18,0.006837424214,-1.410419671e-05,-0.02433019303,-3.469446952e-17,-0.0002448456584,-3.046608105e-17,1.152913485e-16,0.03495456697,3.75269477e-17,-0.006473789886,-0.06611132597,0.008450272309,-0.03936099767,0.002980501052,-0.005081162434,0.005481912349],
			[-0.0001339853697,-0.0009673841818,-0.003887220534,0.05618993408,0.005335419702,-0.006703955264,-0.006148457698,0.0004860280315,-0.004485614084,-0.01134278975,-0.002582347883,0.02652913097,-0.001019293592,0.00036409943,-0.03218016238,6.393110869e-05,0.01888321554,0.01207146625,-0.01241832659,0.004175216837,-0.00642795538,0.0002320955573,0.1276392821,2.979210568e-05,-0.0004485317532,7.268220314e-17,-1.660184577e-19,0.0003414001219,0.0008155547288,0.001150156414,-9.786957486e-17,3.160449333e-17,6.068144034e-18,1.199737466e-17,-0.002168868743,-4.700241071e-06,0.0003677408085,-3.068292148e-17,-8.159511979e-05,6.451002926e-18,-2.981217161e-17,-0.03117041898,-4.360186799e-17,0.003103769596,-0.01351726734,0.0002243274009,0.01895334171,0.006198420693,-0.01056707641,-9.53909673e-05],
			[-0.02927463291,0.007925208217,0.004303080836,0.05409335491,-0.05629692433,-0.0447440025,-0.04364782154,-0.03290386054,-0.03114698129,-0.0003371363055,-0.0004157091714,-0.003055395167,0.002197438056,-0.000254818403,-0.000217323572,-0.0002700778546,-0.004037199362,-0.02461242721,0.05352146337,0.0001240979697,0.001374285926,-0.0005003618331,0.001631831161,0.1052332172,-6.68116377e-05,-2.790634748e-17,-8.925186165e-18,-0.0002389320791,-0.0009086679087,0.0001851534308,-4.778959888e-17,-1.860761979e-17,-2.635797125e-17,-1.724559081e-18,0.001517903143,-7.001305957e-07,-0.0007927918448,-7.791347862e-17,-1.215410847e-05,-3.878733272e-17,-3.579645938e-17,0.006664182557,-4.317581042e-17,-0.001715473401,-0.01475885274,-0.000249939217,-0.005469980933,-0.04355555288,0.07425356852,0.0007814819511],
			[-0.008123718081,0.01102381146,-0.00240173222,-0.01029484788,-0.01368547316,-0.002451061987,-0.02236874367,0.002533986137,0.002364153918,0.002003635433,0.001523022405,-0.007213476598,0.003856711331,-0.000262086842,0.007395820389,0.009503506466,-0.01036984211,-0.01310137473,0.002689553015,-0.000737526885,0.003529954007,-0.0008781822749,-0.02822012438,-0.0001127246873,0.07787394856,-9.647705269e-19,-2.440132514e-17,-0.0002457473768,0.001317410926,-0.0006783415974,5.751014899e-17,-2.869069999e-17,-5.556536134e-18,-1.564469854e-17,0.001561199806,0.0008160544461,-0.001391424565,-5.051026871e-17,0.01416652024,-4.08744219e-17,3.444374777e-17,0.01711744076,1.637992313e-17,-0.001583398058,0.003133739474,0.0003623685311,-0.009680392559,-0.007678963927,0.01309110863,0.001087026291],
			[0.04838028477,0.02394790684,-0.07205953594,-0.05495185808,0.01665562261,0.0607872935,0.02922597898,0.006737781451,0.07864563462,0.007710224864,-0.05245528444,0.01184253961,-0.008428592067,1.995162603e-05,-0.01289100762,0.005023794094,0.006492573398,0.03955098757,-8.137070177e-05,-0.00283809022,-0.1298378282,0.001919210312,-0.01797564634,0.0002463524812,0.03142823555,0.2380806187,1.609235545e-17,1.870776771e-05,0.01553209061,0.02336315035,1.636285542e-16,-4.728476725e-17,-2.231931816e-18,4.152621376e-17,-0.0001188479149,0.0003293418637,0.003040867994,-6.628879845e-17,0.005717300116,1.553085731e-16,5.584488221e-17,-0.01071725484,4.604936969e-17,0.00168244632,0.05731648778,0.004272274311,-0.001795323157,0.008445853347,-0.0143985028,0.002361434104],
			[-0.02213979225,0.02689612816,0.004697185862,-0.006616444157,-0.008150748803,-0.01182737056,-0.01317098499,-0.01265705325,0.002542721066,-0.01392602054,0.01043009863,-0.01265448742,0.02753394352,-0.0005813101037,0.002368537593,0.06157383575,-0.002740925435,-0.0179444592,-0.009705193372,0.005126089496,0.02073000352,0.1288918121,0.001605371593,-0.0008047673027,-0.000615518603,3.158247047e-17,0.06339880786,-0.000545069077,0.008435561508,-0.004645479765,-9.948910185e-17,0.09981549016,0.0282747967,-6.508601167e-18,0.003462750035,-6.450124875e-06,-0.009933697933,2.856872724e-17,-0.000111972706,5.507747036e-17,2.344587198e-18,0.004524430388,-2.930056371e-17,-0.003357903369,-0.0163161079,0.002320295036,-0.02016132788,-0.001386399182,0.002363535297,0.002652149714],
			[0.01749906836,0.03511942907,0.09248769454,-0.03240092782,-0.01543174471,0.02826578196,-0.02908879615,-0.1000525586,-0.00101108452,0.0007546666699,-0.004404349185,-0.005271556608,-0.007633382163,-0.0006180195116,0.0007835872912,0.0007809334123,0.004945473111,0.01506771337,0.005556033711,-0.0002777885383,-0.001683467544,0.001738139139,-0.004107171409,0.0002231099359,-0.0009971140655,1.643074511e-17,-2.2238003e-17,0.2250578909,-0.01952576393,0.001961660742,1.710837147e-17,3.419980228e-17,8.138292557e-18,-9.485074943e-18,0.003681420762,-1.044892909e-05,0.002753972113,-1.744210245e-17,-0.000181391041,-1.574803656e-17,-1.930235621e-16,-0.008163464989,-5.129631529e-17,-0.003158804615,0.04957983852,-0.005370778588,-0.01845932844,-0.009370020969,0.01597402508,0.003463025728],
			[0.08676797906,0.00368291109,0.04250390171,-0.04922402996,-0.002090114134,0.03775218318,-0.000954652259,0.04353401523,-0.0037370906,-0.01189556292,0.03282243806,0.001662069048,0.002611819063,-4.512821254e-05,0.002417309133,-0.0003276790892,-0.03090487585,0.04193832944,0.001341389206,0.004378689515,0.01052019782,-0.0005947173665,-0.004137511671,-7.633874097e-05,-0.0001315589922,2.013651426e-17,5.069492189e-18,-4.231475248e-05,0.1500255774,-0.01461884276,-2.283600826e-17,-4.016630236e-18,1.827558287e-17,-1.614275391e-17,0.0002688198924,-1.378629214e-06,-0.0009422922513,-2.730156596e-17,-2.393269072e-05,2.279535068e-17,-5.591179782e-17,0.05101450687,-9.120003743e-18,-0.000160180258,-0.01925812929,0.04126620406,-0.0003873794867,-0.001435077606,0.002446522343,0.0003631612527],
			[0.03570776595,-0.09427795064,0.005177409158,-0.05553415143,0.0203498908,0.01815097031,-0.00855838896,-0.0004433366511,-0.0367186289,0.151071748,0.003566856946,-0.01829023301,0.003349587598,0.001101540851,0.001561160654,4.160457327e-05,-0.02604576464,0.008377847167,-0.03947182997,-0.0556086571,0.008866128369,-0.0007627090036,-0.001547018202,-9.790237907e-05,0.003441373734,-1.208614372e-16,-4.747450263e-17,0.001032866711,-0.001056637091,0.1602347794,2.308808526e-16,-9.695477927e-17,-5.224499219e-17,-2.413705086e-17,-0.006561662351,3.606274484e-05,-0.001208464431,-1.516798839e-16,0.0006260410775,7.773729577e-17,-8.117963766e-18,0.042993599,1.096399447e-17,0.0036337863,0.003392983982,-0.0002906397868,0.02687415161,0.02141672498,-0.03651126321,-0.009296477114],
			[0.04388220481,-0.0268973237,-0.09464269858,-0.05967479484,0.01278243461,0.03802600335,-0.001723201323,0.003103824947,-0.006717974563,-0.0009333494043,0.006055851063,-0.006672793148,-0.04958397923,0.0003053327704,0.001650150322,-0.1186439687,-0.01233598232,0.02332845617,0.001335984133,0.0003435606436,0.004199239464,0.01129038913,-0.004443860896,0.001449249912,0.0009940711437,1.423735329e-16,-5.460482598e-17,0.0002862971936,0.02266628367,-0.002697226036,0.2043595286,1.054759307e-16,-3.831807647e-17,2.883130746e-17,-0.001818807302,1.041704179e-05,0.01788891125,1.511106778e-17,0.0001808374847,1.453373012e-16,-1.458810964e-16,0.02036293748,1.089453777e-17,0.0009590519435,0.02957808635,0.006234613479,0.006650225177,0.006087645353,-0.01037822646,-0.002652267603],
			[-0.02487943122,0.01482639481,0.08156478807,0.006960799713,-0.01304928432,-0.02180189959,-0.01030565859,0.009171926993,0.008098591989,0.0003169024659,-0.002486361063,-0.01052020664,0.03038836911,-0.000349366549,-0.0002984014208,0.0702417513,-0.005225731759,-0.02145836128,-0.001256473677,-0.0001166500076,0.001778869203,-0.006919503387,0.0021819099,-0.0008881969931,-0.0002996380817,6.320729259e-17,1.179578082e-17,-0.0003275857433,-0.01721371346,0.001107404677,-1.239039795e-17,0.1227159492,2.300202672e-17,2.074553094e-17,0.002081107866,-3.139958784e-06,-0.01096351778,-5.800481623e-18,-5.450897288e-05,2.312061133e-17,-3.320369153e-18,0.008626086383,-3.375595701e-17,-0.002102415319,-0.01277943494,-0.004734823385,-0.01359177838,-0.006245004883,0.01064649321,0.00146198808],
			[0.01254070694,0.01207819461,0.006693290861,-0.02960658836,-0.0005415421253,0.02822421519,0.02101132376,-0.1113475866,0.009550667873,-0.04250168985,0.003171457287,-0.004517989222,-0.009120040244,-0.0002207022038,-6.376515514e-05,-0.01469189891,0.007930328579,0.01464074157,0.02072312632,0.01564463196,-0.007497086267,-0.03067805739,-0.003811246015,0.0002665622591,-0.000331741938,1.802740222e-17,-0.01536393063,-0.0002069428103,0.03369560194,-0.001412540876,-1.390980565e-16,-0.02418907103,0.1052429248,4.435911545e-18,0.00131467965,-3.476380593e-06,0.003290328712,1.974603207e-17,-6.034917924e-05,1.260385026e-17,-5.850625973e-17,-0.01309054933,-4.61497431e-17,-0.001157245828,0.0237784135,0.009268350166,-0.008239547695,-0.006114908856,0.01042470532,0.001190995976],
			[-0.03128292165,0.03813904969,0.007693026171,-0.008923485576,0.07819185834,0.007525218318,0.00936362466,-0.0121356886,-0.007354906667,-0.001002806403,-0.003236421928,-0.0005861615283,0.002231720337,-0.0006191931113,-0.001558862186,-0.0004132580835,0.02022088803,-0.00898931676,0.01771169608,0.0003691273724,-0.006883306803,-0.0005081679893,0.002614367356,-6.52291436e-05,-0.001154114429,-2.418956691e-17,-3.922101359e-17,-0.0005805903175,-0.001635282335,0.00144147559,-2.623769257e-17,-1.480613592e-17,-4.299200427e-17,0.05270922056,0.003688411665,-1.209416279e-05,-0.0008051602082,7.630072789e-17,-0.0002099519252,5.204170428e-18,-3.079472983e-17,-0.03337850753,-1.68288506e-17,-0.002978730274,-0.02005770431,-0.0004498025983,-0.01645408332,0.03455017957,-0.05890119528,0.003760781818],
			[0.00811891416,0.0002238815474,0.0112107202,0.02184091864,0.02065859962,0.000929219901,0.04713362858,0.01241051291,0.01409280375,-0.04860340649,-0.003080259486,0.01357067134,-0.006986121803,-0.02202488837,-0.01251394152,-0.01592749789,0.01904650454,0.01933648109,0.006491369973,0.01789063938,-0.006483539896,0.001590756427,0.04747191331,0.0002041916878,-0.1309996534,-4.873658172e-17,1.990527426e-17,-0.02065177519,-0.003729167993,0.001371922129,-1.426742296e-16,7.161832976e-17,6.189439152e-17,2.902951317e-17,0.1311979312,-0.001372767807,0.002520453478,4.930409379e-17,-0.02383093802,8.67361738e-17,-4.01493617e-17,-0.03143995922,-2.01119503e-17,0.00195044442,-0.004680554208,-0.001025749142,0.0093930065,0.00861759897,-0.01469129498,2.207631442e-05],
			[0.07414845027,-0.02176779837,0.03726415354,-0.04897857109,-0.001091378829,0.03160241826,0.005243125507,-0.08143699439,-0.05809961494,0.007391944051,-0.01401934775,-0.01089368078,0.006674339667,1.901502596e-05,0.002287780312,-0.0006514155048,-0.03034260077,0.03341708983,0.00260297012,-0.002720932851,0.01032879615,-0.001519762899,-0.003713634535,-0.0001950788606,0.001117306599,5.378235699e-18,-2.543639941e-17,1.782955875e-05,0.1706034962,0.006244101673,1.175004104e-17,3.805380219e-17,-7.008350606e-18,-6.336653478e-18,-0.0001132687723,0.1796600082,-0.002407968699,-2.236844607e-17,0.0002032559906,8.431027144e-17,-1.13965742e-16,0.05008636253,1.181102742e-17,-0.001206375791,-0.03547399359,0.04692638955,0.001541539594,-0.001285597708,0.002191688801,-0.002146459888],
			[-0.02815397544,0.0396420487,-0.09397220691,0.02430791278,-0.009505714368,-0.04290901171,0.02102186956,0.03233730063,-0.001710648095,-0.003910961294,0.006087462227,-0.0138651225,0.04525368339,-0.0008073146017,-0.0004605204417,0.09285498392,-0.01738765162,-0.03099634772,0.01001780061,0.001439602761,0.005918856804,0.1778893708,0.005090625965,0.02283412486,-0.0009750619588,-6.041716606e-17,1.23531285e-17,-0.0007569836168,0.01981847429,-0.002711305387,5.595838463e-17,-1.929879867e-17,4.948705291e-17,-1.31730564e-17,0.004809014409,-1.021784129e-05,0.2818545164,-1.848564704e-16,-0.0001773794091,-7.54604712e-17,1.210918301e-16,0.02870169993,4.770489559e-18,-0.004519160997,-0.05231283934,0.005451291828,-0.0263696191,-0.007630766048,0.01300894081,0.00390898822],
			[0.01826080982,-0.02848543437,-0.08175423947,-0.07995385454,-0.001549437098,-0.007679190259,0.03756420869,-0.01732985921,-0.01119702182,-0.09999004307,0.01115371294,-0.05071783703,0.007757514531,0.1568127643,0.00257043977,-0.0006819487118,-0.05445948957,-0.02155378939,0.02706083163,0.03680577004,0.01853832406,-0.001766404372,-0.0004074818852,-0.0002267381002,0.001886329079,1.838061496e-17,-1.586662117e-17,-0.0002667034942,0.01727020544,-0.004967771603,2.430645745e-17,6.5377391e-17,1.107648044e-16,3.186876761e-17,0.001694331183,1.976716554e-05,-0.002798756597,0.2925550839,0.0003431535139,-1.140038584e-16,-2.57165979e-16,0.08989597689,9.043601371e-17,-0.004267252047,-0.009251290833,0.004750362131,-0.02347336083,-0.00841096491,0.01433902494,-0.002808866621],
			[-0.00712332579,-0.001287666123,-0.007735510534,0.06941829062,0.006723805778,-0.01126842686,-0.005367916525,-0.003320779128,-0.007519981875,-0.01302410543,-0.004092723193,0.03045532427,0.0001743535274,0.0004138324171,-0.0379643887,-8.470565566e-05,0.02402164552,0.01043688246,-0.01452484699,0.004794099638,-0.008177106557,-3.970070981e-05,0.1502593936,-5.096037837e-06,-0.0004999149037,3.711528968e-17,1.548376228e-18,0.0003880325702,0.01131402627,0.0018228651,-1.030195352e-16,3.293264099e-17,1.713378246e-17,1.461640054e-17,-0.002465118372,0.009746545068,-6.290327696e-05,-7.565020659e-17,0.1691978135,-8.104411239e-17,-2.688143761e-17,-0.03965239681,-3.168580849e-17,0.003515863407,-0.0245071967,0.00311204879,0.02183285982,0.007494288074,-0.01277627297,-0.0001269730469],
			[0.007845830014,-0.005884263467,0.001521204186,0.01393728759,-0.01191332186,0.03829199527,-0.05793201067,-0.1230211673,0.01714724213,0.02557624832,-0.1047246511,0.02572204244,-0.008769331245,0.0004920061015,-0.04416233066,0.0009969094109,0.04168972077,0.03143753167,-0.02101273904,-0.009414472534,-0.01419142118,0.001996797427,0.172249264,0.0002563116702,-0.0003656835197,1.498536809e-16,-6.797947621e-17,0.0004613326173,0.01125519776,0.04664349447,1.862388282e-16,-1.525201406e-16,-2.23819986e-17,2.692887146e-17,-0.002930783646,0.01165360114,0.003163799897,-1.986800481e-16,0.2023038747,0.3154397652,-2.180466094e-16,-0.06881699046,-1.116050611e-16,0.003905698582,0.04011379132,0.003095867355,0.02045753844,-0.0001020122082,0.0001739105577,-0.0005802302689],
			[0.003848644264,0.031901078,-0.00569088929,-0.001279041347,-0.05019586525,-0.0001458455275,-0.1217704419,0.1117332109,0.0180685716,0.02353060151,-0.05862639173,0.006757241833,-0.004085838321,0.00661272781,0.0004114396878,0.0003330688946,-0.0006236686173,-0.000510560331,-0.01167599611,-0.008661481499,0.0002123003911,0.0009303550313,-0.001561277262,0.0001194216543,-0.001197609224,6.366426687e-17,5.862315028e-18,-0.000326834401,0.001188340653,0.02611171056,-1.239844477e-16,4.947350038e-17,4.73067901e-18,9.809488562e-18,0.00207633469,-1.25499522e-05,0.001474089015,4.417446227e-17,-0.0002178643261,-1.114017732e-17,0.3839849253,0.001029486322,2.459444866e-17,-0.001019524406,0.01823405135,0.0003268663165,-0.008696162326,-0.02209355024,0.03766511588,0.0031456734],
			[-0.004869259481,-0.0054960841,0.02291880081,0.0008476893639,-0.005444806856,-0.006045539248,-0.01189048549,0.02375506912,0.001272339978,-0.001706387613,0.01593480468,-0.0020801877,0.0007943961419,6.029517542e-05,0.005166564501,-6.819238419e-05,0.1153505646,0.07144309027,-0.0008380894482,0.0006281116414,0.03956183716,-0.0001808858769,0.0004298850217,-2.321876051e-05,0.0002059977367,-8.4986839e-17,1.087886766e-17,5.653615068e-05,-0.004833841788,-0.007097230366,2.25285353e-17,6.688341558e-17,3.85734569e-17,-7.945169045e-18,-0.0003591665093,2.158685569e-06,-0.0002866022917,2.207571148e-16,3.747429226e-05,-1.036903853e-16,2.110382588e-17,0.1918431238,1.57158493e-17,0.0001777570889,-0.002844874593,-0.001329601959,0.0008578387896,-0.002517269412,0.004291444475,-0.0005419530198],
			[-0.001379434145,-0.013011796,0.002565764618,0.04345635504,0.01660613024,-0.006474236693,-0.001988465886,-0.01708645086,-0.009695299871,-0.01029124005,0.005594648559,0.01844789163,-0.01239550098,0.0004248923187,-0.01819466123,0.05056282243,0.01392887328,0.008047414939,-0.02161777274,0.003788147332,0.01022136251,0.1049793237,0.1263906485,0.0003622980444,0.0001007436898,1.299246897e-16,0.04791770362,0.0003984029565,0.006589327189,-0.00249181025,-1.636569298e-16,0.07544194024,0.02137048588,1.787408925e-17,-0.002531000032,1.055710382e-06,0.004472049651,1.924458856e-17,1.832689298e-05,8.95822045e-17,2.941237206e-17,-0.02299231373,0.1094101352,0.002873223356,-0.02284011544,0.001812467748,0.01837061972,0.01449110092,-0.02470444946,-0.001283055719],
			[-0.0271028807,0.0465697313,-0.01948642795,-0.03814994665,-0.03666225064,-0.01399856362,-0.04945382,-0.008415881082,-0.01192037143,0.07124036076,0.002385321364,-0.0313177068,0.09204407826,0.03646800518,-0.004276537988,-0.017666041,-0.01059220319,-0.02746796582,-0.02192043161,-0.02622317438,0.003605647001,-0.02095865392,0.01938425732,-0.002690281708,-0.05246027072,-4.29208535e-17,-2.873135757e-18,0.03419445456,0.003565649681,-0.00106240243,-3.519591302e-16,6.453713432e-17,-7.551468131e-17,-1.241411487e-17,-0.2172327393,-0.0005497401629,-0.03320766854,1.719544646e-16,-0.009543364642,-2.426444462e-16,2.915013066e-16,0.01748449096,-2.463849437e-17,0.3199119007,-0.00736170888,0.0009807716115,-0.04148496512,-0.0123619544,0.02107467744,0.004592107044],
			[-0.0009987047398,-0.02802168185,-0.001759923818,0.01575108891,0.01020723645,-0.006373598112,0.01313927462,-0.02846602509,-0.0270430311,0.002155931733,-7.817467673e-05,0.002408804809,-0.0195917168,0.0003876185503,0.003453938475,0.002452021226,0.0009856089147,0.0002361934352,0.002900198937,-0.0007935862929,-0.0003355069539,0.004461080167,-0.01425651882,0.0005726303997,0.0009402786459,6.841146302e-17,1.766571915e-17,0.000363452973,0.0003811409558,3.481835521e-05,-7.577556746e-17,3.520946555e-17,1.663572708e-18,-1.554136052e-17,-0.00230896752,9.853340993e-06,0.007068300861,8.624828282e-17,0.0001710517666,-3.404394822e-17,2.547197479e-17,-0.00162693916,5.789978414e-17,0.001603425191,0.1306945338,0.00010483706,0.01347211907,0.004344449917,-0.007406424399,-0.002763137321],
			[0.003491368255,0.03915949232,0.002928041979,-0.06783691667,-0.01523589994,0.03933968361,-0.01719905747,0.03896452803,0.04026370883,-0.0007557019398,-0.001175259485,-0.007859683682,0.02782453952,-0.0005958451321,0.0003410523898,-0.003470169733,0.007354482145,0.0068904805,-0.001876957368,0.0002781696153,-0.002503508101,-0.006335713336,-0.002749201451,-0.0008132608973,-0.00123973528,-1.218507717e-16,-6.47167053e-17,-0.0005586979378,-0.0006307371706,0.0005234508657,1.447816476e-16,-1.643786019e-16,2.556684248e-17,6.146071065e-18,0.003549332342,-1.299139836e-05,-0.01003853918,-1.333026571e-16,-0.0002255277312,1.385068275e-16,-6.262622799e-17,-0.01214000282,-6.984972496e-17,-0.002711490141,-0.182060594,0.1493626104,-0.02196824533,-0.007175908402,0.01223349885,0.003861404726],
			[-0.01211024963,0.01878012593,-0.008906797011,-0.02336324828,-0.01521087015,-0.0002450740621,-0.02049424441,-0.004797311765,-0.006774326255,0.03072318551,0.001412658871,-0.01342740072,0.03866132379,0.01571951962,-0.001552023646,-0.007485535546,-0.007080428398,-0.01376634146,-0.009290842329,-0.01130903104,0.002410218626,-0.008803274698,0.007633087026,-0.001130000475,-0.02254502405,-1.219727444e-16,-4.141652299e-17,0.0147395065,0.001644696872,-0.0006291865912,-1.585103576e-16,-1.370431546e-16,-4.011548038e-17,-1.691355389e-17,-0.0936380888,-0.0002362531688,-0.01394823491,1.491862189e-16,-0.004101301468,-1.09287579e-16,6.136584296e-17,0.01168762382,-3.252606517e-17,0.1378163796,0.003347320496,0.0004523921713,0.8129424144,-0.005073563991,0.00864941911,0.001851854116],
			[-0.008576976275,-0.02080415145,-0.01494331376,-0.1621263583,0.00141005924,0.1320930332,0.007128812936,-0.05193121956,-0.0383026467,0.001237997055,-0.008680659329,-0.002420118311,0.00204303855,0.0001773445646,-0.003069575116,-0.0001344706903,0.06398516651,0.03574566163,0.002236194062,-0.000455699723,-0.02178091938,-0.000465204701,0.0006805912265,-5.971431669e-05,0.000849548257,7.104912362e-18,-5.807935513e-17,0.0001662882471,0.003161960315,0.003866293953,-1.087929117e-16,1.510429152e-17,-1.088945557e-17,7.088988142e-17,-0.001056406716,8.902561706e-06,-0.0007370875808,-1.534146074e-17,0.0001545464536,4.363913744e-17,6.909078344e-17,-0.1056199589,-7.585010636e-17,0.0002305359521,-0.0104858651,0.0008697323604,0.007059978831,0.1914744367,-0.0001411319211,-0.002051437441],
			[0.004734894355,0.007407869151,0.005010485813,0.0409039495,-0.0001969505993,-0.0331157131,-0.002180147609,0.01925631297,0.01544403668,-0.0003021244408,0.002308591787,0.001172371125,-0.001085030668,-5.365934033e-05,0.0009016610226,8.877154203e-05,-0.01730184406,-0.007942522537,-0.0008386897516,0.0001112103001,0.005889647416,0.0002470640445,-0.0004759402551,3.171348133e-05,-0.0003155177171,-0,3.122502257e-17,-5.031401814e-05,-0.001060522956,-0.001028227711,-8.67361738e-18,8.67361738e-18,2.949029909e-17,-0,0.0003196381439,-3.306364203e-06,0.0003914574348,-1.040834086e-17,-5.739773325e-05,-2.168404345e-17,-2.949029909e-17,0.02856005786,4.90059382e-17,3.883430636e-07,0.005947622479,-0.000291708637,-0.002296736834,-0.05174361338,0.0882125857,0.0007304686362],
			[0.009887053832,-0.01115278379,0.00969078665,0.02406453561,0.01778118661,-0.0003257344045,0.03176491943,0.008775686356,0.009461882869,-0.038910208,-0.001242764675,0.01369243162,-0.02682765363,-0.01869927938,-0.003818582394,-0.001744696827,0.00612832304,0.01181876939,0.008404380827,0.01432262777,-0.002086116476,0.006108720066,0.01442739936,0.0007841237283,-0.03859586509,6.938893904e-17,4.380176777e-17,-0.01753349699,-0.002446572045,0.0005535171195,2.255140519e-17,1.509209424e-16,1.110223025e-16,1.431146868e-17,0.111387932,-0.0004044526815,0.009678882621,-8.67361738e-18,-0.00702120689,8.326672685e-17,-3.816391647e-17,-0.0101159888,8.239936511e-18,-0.08546657585,-0.00499730376,-0.0006729568583,-0.504927883,0.006623258332,-0.01129134023,0.1205987727]
		],
		"names": [
			"G01",
			"G02",
			"G03",
			"G04",
			"G05",
			"G06",
			"G07",
			"G08",
			"G09",
			"G10",
			"G11",
			"G12",
			"G13",
			"G14",
			"G15",
			"G16",
			"G17",
			"G18",
			"G19",
			"G20",
			"G21",
			"G22",
			"G23",
			"G24",
			"G25",
			"G26",
			"G27",
			"G28",
			"G29",
			"G30",
			"G31",
			"G32",
			"G33",
			"G34",
			"G35",
			"G36",
			"G37",
			"G38",
			"G39",
			"G40",
			"G41",
			"G42",
			"G43",
			"G44",
			"G45",
			"G46",
			"G47",
			"G48",
			"G49",
			"G50"
		],
		"description": "Stable scalefree network, IAA=37.8209",
		"created": {
			"creator": "",
			"time": 736265.634,
			"id": "",
			"nodes": "",
			"type": "unknown",
			"sparsity": ""
		},
		"tol": 2.220446049e-16,
		"N": 50
	}
}
