{
	"obj_data": {
		"network": "Tjarnberg-D20150924-smallworld-N10-L28-ID1042674",
		"A": [
			[-5.001104209,1.478003795,0,0,2.002015791,0,0,2.013407356,0,1.274612578],
			[1.478003795,-9.360345503,0,0.05177984148,0,0,0,0,0,0],
			[0,0,-0.9711827067,1.284554307,0,0,0.2435723743,0,0,0],
			[0,0,1.284554307,-10.1271014,0,0.1321421554,0,0,0,0],
			[0,0,1.942365413,0,-5.355485444,0,0,0,0,0],
			[0,0,0,0,0,-10.22921124,0.9794674814,0,0,0],
			[0,0,0,1.377136664,0,0.9794674814,-0.2769185922,0,0,0],
			[0,1.984617764,0,0,0,0,0,-2.584435448,1.031868681,0],
			[0,0,0,0,0,1.126107992,0,0,-0.2292811381,0],
			[1.274612578,0,0,0,0,0,0,0,0,-9.791982262]
		],
		"G": [
			[0.2294799845,0.07413995411,0.4380792865,0.2014927657,0.08578541712,0.1936608578,1.070309228,0.1787766413,0.8045756339,0.02987118101],
			[0.03623501803,0.1185404036,0.07041094493,0.03275179113,0.01354556539,0.03075510176,0.1707136481,0.02822893174,0.127042943,0.004716676205],
			[4.683753385e-17,8.847089727e-17,1.747744482,0.542895861,-3.729655473e-16,0.2331858192,2.362066754,1.734723476e-16,-1.33226763e-15,4.553649124e-17],
			[6.873841774e-17,2.537033084e-17,0.2237921828,0.1691972824,-3.035766083e-17,0.0318057305,0.3093409922,3.556183126e-17,-5.551115123e-16,5.009014037e-17],
			[-3.209238431e-17,1.561251128e-17,0.6338843544,0.1969013182,0.1867244362,0.08457348541,0.8566911094,7.632783294e-17,5.551115123e-17,1.95156391e-17],
			[-1.214306433e-17,-1.084202172e-17,0.161140284,0.1218295375,-6.114900253e-17,0.1707253017,0.7455953071,-4.163336342e-17,-1.082467449e-15,6.2883726e-18],
			[5.204170428e-17,6.938893904e-17,1.682892017,1.272344513,-4.649058916e-16,0.7620316033,7.786733141,3.191891196e-16,-6.661338148e-15,1.153591112e-16],
			[0.02782528792,0.091028542,0.3700602782,0.2640542735,0.01040179576,0.3584040098,1.593181338,0.4086090215,1.838925154,0.003621990014],
			[3.469446952e-17,8.153200337e-17,0.7914360653,0.598362417,-4.059252934e-16,0.8385126153,3.661970808,1.040834086e-16,4.361457765,4.380176777e-17],
			[0.02987118101,0.00965072398,0.05702434438,0.02622811261,0.0111666023,0.02520864096,0.1393210861,0.02327117732,0.1047308089,0.1060126699]
		],
		"names": [
			"G01",
			"G02",
			"G03",
			"G04",
			"G05",
			"G06",
			"G07",
			"G08",
			"G09",
			"G10"
		],
		"description": "Stable smallworld network, IAA=104.2674",
		"created": {
			"creator": "",
			"time": 736265.634,
			"id": "",
			"nodes": "",
			"type": "unknown",
			"sparsity": ""
		},
		"tol": 2.220446049e-16,
		"N": 10
	}
}
