{
	"obj_data": {
		"network": "Tjarnberg-D20150924-smallworld-N10-L28-ID50037",
		"A": [
			[-0.1869714963,0.09534628379,0,0,0,0,0,0.04411986424,0,0],
			[0.09534628379,-0.2369443984,0.08593996821,0,0,0,0,0,0,0],
			[0,0.08593996821,-0.3982138529,0.02112226163,0,0,0.08930571177,0,0,0],
			[0,0,0.02112226163,-0.4732768434,0.006178755036,0,0,0,0,0],
			[0,0,0,0.006178755036,-0.4785771493,0.0983665698,0,0,0,0],
			[0,0,0,0.08471606147,0,-0.216611754,0,0,0,0],
			[0,0,0,0,0.08364020795,0,-0.1288655364,0,0,0],
			[0,0,0,0.009445796437,0,0,0,-0.4892073716,0,0.05033810014],
			[0,0,0,0,0,0,0,0,-0.2378031072,0.0959187563],
			[0,0,0,0.07828068082,0,0,0,0,0.0959187563,-0.186320062]
		],
		"G": [
			[6.881288973,3.005936718,0.6531831149,0.08410362771,0.08019750353,0.03641886085,0.4526655042,0.6205988562,0.08535256916,0.2116072699],
			[3.00494324,5.892612815,1.276605402,0.0923668925,0.1558113104,0.07075619789,0.884706317,0.27100509,0.03727203242,0.09240533826],
			[0.6504440041,1.275503185,2.795043113,0.1613550681,0.3406108226,0.1546763628,1.937005981,0.0586612198,0.008067829597,0.02000187472],
			[0.02906460158,0.05699490142,0.1248944013,2.12271496,0.04253253971,0.01931464917,0.0865536568,0.002621232529,0.0003605049034,0.0008937687423],
			[0.002711624764,0.005317423178,0.01165220691,0.1980418151,2.093495397,0.9506869191,0.008075150747,0.0002445517451,3.363383533e-05,8.338546972e-05],
			[0.01136705893,0.02229049662,0.04884574166,0.8301860249,0.01663432007,4.624108537,0.03385081729,0.001025154415,0.0001409921437,0.0003495496726],
			[0.001759980718,0.003451274817,0.007562867753,0.1285390886,1.358783701,0.6170435779,7.765267857,0.0001587263701,2.183004907e-05,5.412135956e-05],
			[0.002146979737,0.004210169479,0.009225853249,0.1568033195,0.003141845955,0.001426758261,0.006393651976,2.044316547,0.2811601531,0.69705614],
			[0.006216240022,0.01218987937,0.02671199789,0.4539991939,0.009096717697,0.004130952728,0.01851180736,0.0005606204684,5.307270186,2.732368005],
			[0.01541138823,0.03022131752,0.06622475459,1.12556108,0.02255270832,0.01024151513,0.04589472882,0.001389898019,2.732368005,6.774124546]
		],
		"names": [
			"G01",
			"G02",
			"G03",
			"G04",
			"G05",
			"G06",
			"G07",
			"G08",
			"G09",
			"G10"
		],
		"description": "Stable smallworld network, IAA=5.0037",
		"created": {
			"creator": "",
			"time": 736265.634,
			"id": "",
			"nodes": "",
			"type": "unknown",
			"sparsity": ""
		},
		"tol": 2.220446049e-16,
		"N": 10
	}
}
