{
	"obj_data": {
		"network": "Tjarnberg-D20150924-smallworld-N50-L248-ID5423316",
		"A": [
			[-0.3467338935,0.9605174937,0,0,0,0,0,0.06891605336,0,0,0,0,0,0,0,0,0,0,0,0,0,0,0,0,0,0,0,0,0,-0.2121322267,0,-0.2325916801,0,0,0,0,0,0,0,1.532305374,0,0,0,0,0,0,0,0,0,0],
			[0.9605174937,-53.38840509,1.09188872,0,0,0,0,0,0,0,0,-0.005384066669,0,0,0,0,0,0,0,0,0,0,0,0,0,0,0,0,0,0,0,0,0,0,0,0,0,0,0,0,0.974516067,0,0,0,0,0,0,0,0,2.566046174],
			[0,1.09188872,-0.1582915601,-0.1238335334,0,0,0,0,0,0,0,0,0,0,0,0,0,0,0,0,0,0,0,0,0,0,0,0,0,0,0,0,0,0,0,0,0,0,0,0,0,0,0,0,-0.02799714668,0,0,0,0,0],
			[0,0,-0.1238335334,-1.418163161,0,0,0,0,0,0,5.866479042,0,0,0,0,0,0,0,0,0,0,0,0,0,0,0,0,0,0,-0.08076100003,0,0,0,0,0,0,-0.2261308001,0,0,0,0,0,0,0,0,0,0,0,0,0],
			[0,0,0,0,-0.2627424534,0,0,0,0,0,0,0,0,0,0,0,0,0,0,0.00861450667,0,0,0,0,0,0,0,0,3.178752961,0,0,0,0,0,0,0,0,0,0,0,0,0,0,0,0,0,0,0,0,0],
			[0,0,0,0,0,-0.4910268802,0,1.367552934,0,0,0,0,0,0,0,0,-0.6902373469,0,0,0,0,0,0,2.089017867,0,-0.0893755067,-0.2745874001,0,0,0,0,0,0,0,0,0,0,0,0,0,0,0,0,0,0,0,0,0,0,0],
			[0,0,0,0,0,0,-0.3919600535,0.3693469735,-0.1701365067,0,0,0,0,0,0,0,0,0,0,0,0,0,0,0,0,0,0,0,0,0,0,0,0,0,0,0,0,0,0,0,0,2.171932494,0,0,0,0,0,0,0,0],
			[0,0,0,0,0,1.367552934,0.3693469735,-24.94761132,0,0,0,0,0,0,0,0,0,0,0,0,0,0,0,0,3.984209335,0,0,0,0,0,0,0,0,0,0,0,0,0,0,0,0,0,0,2.596196948,0,0,0,0,0,0],
			[0,0,0,0,0,0,-0.1701365067,0,-1.336325347,4.264180802,0,0,0,0,0,0,0,0,0,0,0,0,0,0,-1.025126294,0,0,0,0,0,0,0,0,0,0,0,0,0,0,0,0,0,0,0,0,0,0,0,0,0],
			[0,0,0,0,0,0,0,0,4.264180802,-28.49248081,0,5.763104962,0,0,0,0,0,0,0,0,0,0,0,0,5.141783668,0,0,0,0,0,0,0,0,0,0,0,0,0,0,0,0,0,0,0,0,0,0,0,0,0],
			[0,0,0,0,0,0,0,0,0,0,-53.05890021,0.3564252135,0,0,0,0,0,0,0,0,0,0,0,0,0,0,0,0,0,0,0,0,0,0,2.750181254,0,0,0,0,0,0,0,0,0,0,0,0,0,0,0],
			[0,-0.005384066669,0,6.189523042,0,0,0,0,0,5.763104962,0.3564252135,-50.85466331,0,5.555279989,0,0,0,0,0,0,0,0,0,0,0,0,0,0,0,0,0,0,0,0,0,0,0,0,0,0,0,0,0,0,0,0,0,0,0,0],
			[0,0,0,0,0,0,0,0,0,0,0,0,-1.154343894,-0.3122758668,3.712852375,0,0,0,0,0,0,0,4.040203628,0,0,0,0,0,0,0,0,0,0,0,0,0,0,0,0,0,0,0,0,0,0,0,0,0,0,0],
			[0,0,-0.2756642134,0,0,0,0,0,0,0,0,5.555279989,-0.3122758668,-2.910626441,0,4.955494962,0,0,0,-0.2476670668,0,0,0,0,0,0,0,0,0,0,0,0,0,0,0,0,0,0,0,0,0,0,0,0,0,0,-0.1927495867,0,0,0],
			[0,0,0,0,0,0,0,0,3.176599334,0,0,0,3.712852375,0,-36.87224217,0,2.567122988,0,0,0,0,0,0,0,0,0,0,0,0,0,0,0,0,0,0,5.315150615,0,0,0,0,0,0,0,0,0,0,0,0,0,0],
			[0,0,0,0,0,0,0,0,0,0,0,0,0,4.955494962,0,-51.08725499,3.402730135,4.137116828,0,0,0,0,0,0,0,0,5.963392242,0,0,0,0,0,0,0,0,0,0,0,0,0,0,0,0,0,0,0,0,0,0,0],
			[0,0,0,0,0,0,0,0,0,0,0,0,0,0,2.567122988,3.402730135,-2.084710614,0,-0.2498206934,0,0,0,3.300432868,3.797920628,0,0,-0.6988518536,0,0,0,0,0,0,0,0,0,0,0,0,0,0,0,-0.3488875201,0,0,0,0,2.124552707,0,0],
			[0,4.053125388,0,0,0,0,0,0,0,0,0,0,0,0,0,4.137116828,0,-1.847811681,0,-0.02799714668,0,0,0,0,0,0,0,0,0,0,0,0,0,0,0,0,0,0,0,0,0,0,0,0,0,0,0,0,0,0],
			[0,0,0,0,-0.02799714668,0,0,0,0,0,0,0,0,0,0,0,-0.2498206934,0,-0.6148604136,0,0,0,3.373656175,0,0,0,0,0,0,0,0,0,0,0,0,0,0,0,0,0,2.057790281,0,0,0,0,0,0,0,0,0],
			[0,0,0,0,0,0,0,0,0,0,0,0,0,0,0,0,0,-0.02799714668,0,-0.2401293734,0.01076813334,0,0,0,0,0,0,0,0,0,0,0,0,0,1.597990987,0,0,0,0,0,0,0,0.06999286669,0,0,0,0,0,0,0],
			[0,0,0,0,0,0,0,0.4619529202,0,0,3.255206708,0,0,0,0,0,0,0,0,0.01076813334,-0.2692033334,0,0,0,0,0,0,0,0,0,0,-0.1109117734,0,0,0,0,0,0,0,0,0,0,0,0,0,0,0,0,0,0],
			[0,0,0,0,0,0,0,0,0,0,0,0,0,0,0,0,0,0,0,0,0,-0.13890892,0,-0.3467338935,0,0,0,0,0,0,0,0,0,0,0,0,0,0,0,0,0,0,-0.02045945334,3.338121335,0,0,0,0,0,0],
			[0,0,0,0,0,0,0,0,0,1.489232841,0,0,0,0,0,0,0,0,0,0,0,0,-53.34533255,0,0,0,0,0,0,0,0,0,0,0,0,0,1.830582667,0,0,0,0,0,0,0,0,0,0,0,1.196339614,0],
			[0,0,0.12275672,0,0,0,0,0,0,0,0,0,0,0,0,0,0,0,0,0,0,-0.3467338935,4.484927535,-13.88550794,0,0,0,0,0,0,0,0,0,0,0,0,0,0,0,0,0,0,0,0,8.438986096,0,0,0,0,0],
			[0,0,0,0,0,0,0,0,0,0,0,0,0,0,0,0,0,0,0,0,0,0,0,0,-1.35355436,-0.08076100003,0,0,0,0,0,0,0,0,0,0,0,0,0,0,0,0,-0.6385503069,0,0,0,0,0,0,0],
			[0,0,0,0,0,0,0,0,0,0,0,0,0,0,0,0,0,0,-0.3682701601,0,0,0,0,0,-0.08076100003,-0.6062459069,-0.04199572001,0,4.122041441,0,0,0,0,0,0,0,0,0,3.430727281,0,0,0,0,0,0,0,0,0,0,0],
			[0,0,0,0,-0.05707110669,0,0,0,0,0,0,0,0,0,0,0,0,-0.5556356802,0,0,0,0,0,0,0,-0.04199572001,-1.16618884,0,0,0,5.175164882,0,0,0,0,0,0,0,0,0,0,0,0,0,0,0,0,0,0,0],
			[0,0,0,0,0,0,0,0,0,0,0,0,0,0,0,0,0,0,0,0,0,0,0,0,0,0,0,-53.19457869,0.7085431736,5.503592949,0,0,0,0,0,0,0,0,0,0,0,0,0,0,0,0,0,0,0,0],
			[0,0,0,0,0,0,0,0,0,0,0,0,0,0,0,0,0,0,0,0,0,0,0,0,0,0,0,0.7085431736,-51.89809543,5.558510429,0.919598587,0,0,0,0,0,0,0,0,0,0,0,0,0.3715006001,0,0,0,0,0,0],
			[-0.2121322267,0,0.06030154669,0,0,0,0,0,0,0,0,0,0.002153626667,0,0,0,0,0,0,0,0,0,0,0,0,0,0,5.503592949,5.558510429,-2.173009307,0,0,0,0,0,0,0,0,0,5.476672615,0,0,0,0,0,0,0,0,0,0],
			[0,0,0,0,0,0,0,0,0,0,0,0,0,0,0,0,0,0,2.833095881,0,0,0,0,0,4.581840735,0,0,0,0.919598587,0,-51.47706142,2.135320841,0,0,0,0,0,0,0,0,0,0,0,0,0,0,0,0,0,0],
			[0,0,0,0,0,0,0,0,0,0,0,0,0,0,0,0,0,0,0,0,0,0,0,0,0,0,0,0,0,0,2.135320841,-0.5545588669,-0.5987082135,0,2.224696347,0,0,0,0,0,0,0,0,0,0,0,0,2.250539867,0,0],
			[0,0,0,0,0,0,0,0,0,0,0,0,0,0,0,0,0,0,0,0,0,0,0,0,0,0,0,0,0,0,0,-0.5987082135,-3.393038815,5.754490455,6.024770602,0,0,0,0,0,0,0,0,0,0,0,0,0,0,0],
			[0,0,0,0,0,0,0,0,0,0,0,0,0,0,0,0,0,0,0,0,0,0,0,0,0,0,0,0,0,0,0,0,5.754490455,-52.06715513,2.942930841,5.122401028,0,0,0,0,0,0,0,0,0,0,0,0,0,0],
			[0,0,0,0,0,0,0,0,0,0,0,0,0,0,0,0,0,0,0,0,0,0,0,0,0,0,3.021538214,0,0,0,5.134245975,0,6.024770602,2.942930841,-33.40274961,0,0.7666910936,0,0,0,0,0,0,0,0,0,3.186290654,0,0,0],
			[0,0,0,0,0.07860737336,0,0,0,0,0,0,0,0,0,0,0,0,0,0,0,0,0,0,0,0,0,0,0,0,0,0,0,0,5.122401028,0,-1.984566974,-0.1712133201,0,0,0,0,0,0,0,0,0,0,0,0,0],
			[0,0,0,0,0,0,0,0,0,0,0,0,0,0,0,0,0,0,0,0,-0.09799001337,0,0,0,0,0,0,0,0,0,0,0,0,0,0.7666910936,-0.1712133201,-0.5717878802,2.823404561,0.9928218937,0,0,0,0,0,0,0,0,0,0,0],
			[0,0,0,0,0,0,0,0,0,0,0,0,0,0,0,0,0,0,0,0,0,0,0,0,0,0,0,0,0,0,0,0,0,0,0,0,2.823404561,-53.26672518,2.506821441,0.7128504269,0,0,0,0,0,0,0,0,0,0],
			[0,0,0,0,0,0,0,0,0,0,0,0,0,0,0,0,0,0,1.918881361,0,0,0,0,0,0,0,0,0,0,0,0,0,0,0,0,0,0.9928218937,2.506821441,-19.24588471,0,7.390169909,0,0,0,0,0,0,0,0,0],
			[0,0,0,0,0,2.412061868,0,0,0,0,0,0,0,5.496055255,0,0,0,0,0,0,0.7322330669,0,0,0,0,0,0,0,0,0,0,0,0,0,0,0,0,0.7128504269,0,-38.16441817,7.195266696,0,0,0,0,0,0,0,0,0],
			[0.9529798003,0,0,0,0,0,0,0,0,0,0,0,0,0,0,0,0,0,0,0,0,0,0,0,4.077892095,0,0,0,0,0,0,0,0,0,0,0,0,0,7.390169909,7.195266696,-42.20569861,0,2.648960801,0,0,0,0,0,0,0],
			[0,0,2.696340588,5.809407935,0,0,0,0,0,0,0,0,0,0,0,0,0,0,0,0,0,0,0,0,0,0,0,0,0,0,0,0,0,0,0,0,0,0,0,0,0,-45.25631079,2.408831428,0,0,0,0,0,0,0],
			[0,3.260590774,-0.2239771734,0,0,0,0,0,0,0,0,0,0,0,0,0,0,0,0,0,0,0,0,0,0,0,0,0,0,0,0,0,0,0,0,0,0,0,0,0,0,2.408831428,-0.5007182002,0,0,0,0,0,0,0],
			[0,0,0,0,0,0,0,2.596196948,0,1.496770534,0,0,0,0,2.739413121,0.3779614801,0,0,0,0,0,0,0,0,0,0,0,0,0,0,0,0,0,0,0,0,0,0,0,0,0,0,0,-53.04920889,2.834172694,0,0,0,0,0],
			[0,0,0,0,0,0,0,0,0,0,0,0,0,0,0,0,0,3.066764374,0,0,0,0,0,0,0,0,0,0,0,0,0,0,0,0,0,0,0,0,0,0,0,0,0,2.834172694,-20.09225999,3.801151068,0,0,0,0],
			[0,0,0,0,0,0,0,0,0,0,0,0,0,0,0,0,0,0,0,0,0,0,0,0,0,0,0,0,0,0,0,0,0,0,0,0,0,0,0,0,4.792896148,0,0,0,3.801151068,-2.584352001,-0.1119885867,2.498206934,0,0],
			[0,0,0,0,0,0,0,0,0,0,6.381195816,0,0,0,0,0,0,0,0,0,-0.2724337734,0,0,0,0,-0.006460880002,0,0,0,0,0,0,0,0,0,0,0,0,0,0,0,0,0,0,0,-0.1119885867,-0.7688447203,0,0,-0.01830582667],
			[2.321609547,0,0,0,0,0,0,0,3.734388641,0,0,0,0,0,0,0,0,0,0,0,1.533382187,0,0,0,0,0,0,0,0,0,0,2.250539867,0,0,0,0,0,0,0,0,0,0,0,0,0,2.498206934,0,-53.39594278,0,0],
			[0,0,0,0,0,0,2.820174121,0,0,0,0,0,0,0,0,0,5.643578682,0,0,0,0,0.9508261737,0,0,0,0,0,0,0,0,0,0,0,0,0,0,0,0,0,0,0,0,0,0,0,0,0,0,-47.36255767,4.101581988],
			[0,2.566046174,0,0,-0.06676242669,0,0,3.007539641,0,0,0,0,0,0,0,0,0,0,0,0,0,0,0,0,0,0,0,0,0,0,0,0,0,0,0,0,0,0,0,0,0,0,0,0,0,0,0,0,4.101581988,-1.558148894]
		],
		"G": [
			[2.693560481,0.1033010469,0.5519739356,0.1006590432,0.166034733,0.2870491772,0.4539332484,0.06392774293,-0.6007436421,-0.09189272414,-0.03890845852,0.001527930173,0.001026739514,0.1119140575,0.01003677726,0.039474088,0.1436596603,0.2353200808,-0.9337431959,-0.1202045798,0.3724656189,-0.08469286742,-0.04297367812,0.0845935734,-0.3637914403,0.03454150235,-0.3166845991,-0.05499503349,-0.04673879751,-0.5255332666,-0.1475328261,-2.431547778,0.242638468,0.03701753985,-0.1403411054,0.1843181359,-0.7173858802,-0.04036551321,-0.05604167481,0.02219026396,-0.05191335919,0.03471036512,0.2428358799,-0.0009219737383,0.03006153104,-0.02415404243,-0.6061483569,-0.09789928256,0.0184753689,0.2258767083],
			[0.07389909582,0.02722252992,0.2507549719,-0.01752699408,-0.007780306283,0.02749816995,0.05256976267,0.009807129583,-0.01604051249,-0.002262622098,-0.003496824096,0.0002127440997,0.003180676351,0.004545528299,0.001382806096,0.002590125939,0.01347393077,0.01530433999,-0.02474565518,-0.006481119929,0.006033705451,0.01607261622,0.000133463194,0.007420986514,0.01819434216,-0.005612727512,-0.010016527,-0.002112812615,-0.003166452134,-0.02001358202,-0.00404801044,-0.06367464578,0.00743166716,0.001359316326,-0.003440590935,0.007444887119,-0.002698920177,-0.0002025840098,-0.001275563699,3.754951994e-05,-0.0002850036667,0.0008398364185,-0.03162117403,0.001675009166,0.003853211557,0.004490030674,-0.01605227077,-0.001937585922,0.005054275369,0.05832474933],
			[0.5478714213,0.1998807068,8.601992182,-0.7112284696,-0.09091992725,0.2318339273,0.3941990577,0.07089000439,-0.1374881762,-0.01942703233,-0.09784837987,0.001287281889,0.009149364436,0.03840960575,0.006142591278,0.01392694492,0.06182241944,0.0739936173,-0.06305574963,-0.05656221709,-0.112797162,0.1337616422,0.004603260193,0.04844778933,0.1708021405,-0.05058917135,-0.0758219605,-0.01234270529,-0.02269915395,-0.1163751904,-0.02705763216,-0.4056457238,0.03359958475,0.0007313166415,-0.02208666435,-0.01762286602,0.4168405401,0.02303940901,0.0180836711,0.007002663062,0.006764364173,0.008367360545,-0.1982280154,0.01234392846,0.01154177516,0.007602049488,-0.1022694291,-0.01428171042,0.03720887883,0.4283226843],
			[-0.08182268958,-0.01831063399,-0.7127448407,0.7512850077,0.05285477408,-0.06096598088,-0.0419625382,-0.005888588655,0.02476492465,0.00307584093,0.09421990689,-0.001211047651,0.01865474582,-0.02034006404,0.004098782343,0.0006483181858,0.03386122229,0.004687562831,-0.1437503903,0.03023289665,0.1762759664,-0.02627663695,-0.005520527719,0.000745684779,-0.0769473969,0.01952181223,-0.004535188145,-0.001685079715,0.00294598595,-0.01666628775,-0.001910880118,-0.03522019587,0.02475688193,0.01142227457,-0.0004672259631,0.08855946898,-0.5575330286,-0.03132463321,-0.03508512006,-0.00907231236,-0.01490654905,-0.002637305551,-0.01171311494,-0.001845995489,0.001404114318,0.001893125133,0.002887205638,-4.8600792e-05,-0.003566903361,-0.03957820193],
			[-0.6981357369,-0.0339270546,-0.5979364303,0.2570447076,3.677591004,1.00060381,0.09637438406,0.06211712331,-0.1994621266,-0.02062636012,0.04979922129,0.05298971504,-0.3389095557,0.5032534162,-0.06380220962,0.02797348311,-0.4242619044,0.09174696915,0.3481620457,-0.3579721901,0.8885180505,-0.1412741657,-0.02670164076,0.03802170893,0.5253717302,-0.2200973945,0.08032166291,0.1403340911,0.3507489428,1.311232889,0.03519464684,0.585595849,-0.2695256455,-0.06191255875,-0.03446350364,-0.3067320051,-0.2776016553,-0.01424222998,-0.03787803507,0.1684761567,0.04565653732,-0.006454067035,-0.2081531793,-0.001853275788,0.02882808219,0.06494575849,-0.2784512992,0.01083954961,-0.006773926496,-0.07043288531],
			[-0.1692376474,0.0605185742,1.208186178,-0.07878120869,-0.01285212443,2.306433327,0.6088541302,0.1480658675,-0.9338515327,-0.1535331614,-0.02580733479,-0.04931985534,-0.2185401228,-0.290497094,-0.09230697676,-0.09693533675,-1.010522256,-0.01796942429,-0.007870509134,0.2965376078,-0.1050833116,-0.12302672,-0.07337572124,0.07367066769,0.2817598606,-0.3405829337,-0.5205891297,-0.01322321212,-0.04234406636,-0.1223565414,-0.06887393515,-0.2879423485,-0.09143892577,-0.0435986773,-0.03846803742,-0.3183401467,-0.480033049,-0.03043308304,-0.09775940747,-0.02900719577,-0.02166952856,0.05906896889,0.5607920624,0.0007216604766,0.02832725371,-0.005463276322,-0.08579798622,-0.05259916351,0.008891855168,0.1240797543],
			[0.2152967797,0.09987383184,2.861381141,0.3572983971,0.01018498494,0.1938181707,3.124555108,0.08534016202,-0.8326221187,-0.1289020984,0.04041864438,-0.02148418544,0.03204182477,-0.06544462054,0.004515736835,-0.002432473431,0.01030274092,0.03917577917,-0.1955077424,0.06667058185,0.07523674081,0.04823710216,-0.006712940094,0.03077259957,0.272610793,-0.058313867,-0.09037227355,-0.01056869971,-0.0152925655,-0.1001822065,-0.02316899922,-0.3067404579,0.05787225397,0.01361435615,-0.01089317991,0.07962932485,-0.3754948207,-0.02182453766,-0.03828865914,-0.008928982116,-0.01479403704,0.1711050821,0.3973968434,0.007698865791,0.01112097681,0.005799982527,-0.02958197544,-0.01224724806,0.01826881454,0.2129150998],
			[-0.03952483061,-0.008873800815,0.1314895206,-0.04851622325,0.001349266331,0.1134110223,0.05200772358,0.04437405903,-0.0527283908,-0.008674184792,-0.006170448496,-0.003271748177,-0.01194195411,-0.02056455994,-0.005441306779,-0.00686625331,-0.06229140478,-0.009042147258,0.01717160593,0.02135124226,-0.02144117206,-0.0129441447,-0.003643168118,0.0003477016812,0.1299661565,-0.03241639911,-0.02401651388,-0.0002367097972,-0.002735671968,-0.001935705698,-0.001866085181,0.0150460141,-0.008654093719,-0.003255201691,-0.0002694669584,-0.0232110232,0.002733528578,-0.0001686673724,-0.006073713416,-0.002071262856,-0.001078899612,-0.005554877225,-0.1512561281,0.001319709137,-0.0003418428162,-0.002594371132,0.004416692012,-0.001965711037,-0.001764252236,-0.01930987414],
			[0.01377320636,-0.005089107349,-1.10518925,0.1856146509,-0.006191547897,-0.02875735702,-0.7456111786,-0.01140455807,1.678481833,0.2595272487,0.02017198889,0.04178046003,-0.03411761935,0.1119351768,-0.001192496619,0.01607967151,0.03370918049,0.03688499429,-0.01483807478,-0.1139148049,0.1350631403,-0.01941157196,-0.000984610897,0.005378327502,-0.3023405506,0.04253806628,0.03995786633,-1.975396128e-05,0.003015618725,-0.000579167053,0.004432260159,0.03404947905,-0.03275573726,-0.004737557401,-0.01053875085,-0.005302931897,-0.1172919521,-0.006149858273,0.001254058004,0.0006118008722,0.001362020902,-0.02276114045,0.2446546878,-0.001398822324,0.006732101956,0.01654705882,-0.07414769541,0.003550543505,-0.0008745994646,-0.009812150208],
			[-0.03816688683,-0.01812032254,-0.1969613777,-0.00190674467,0.001103786634,-0.02625706008,-0.1494290537,-0.008174564925,0.2712395131,0.07799022356,-0.0001144805675,0.01171613852,-0.01099951601,0.0263348883,-0.001208053199,0.002428548726,-1.474664748e-05,-0.001420919095,0.0180113101,-0.0260762015,0.01962571841,-0.01381353805,1.636070732e-06,-0.003609363996,0.08060639984,-0.007933688848,0.01691570215,0.0005705927315,0.0001016514159,0.005501935884,0.003787507438,0.05210361164,-0.0151926291,-0.002737105538,-0.0007641240828,-0.01031522031,0.0001735182293,-6.362027944e-05,-0.001345239513,-0.0007105008672,0.0001779675152,-0.01714663677,-0.1874119128,-0.001338313847,-0.001305568927,0.0006593261362,-0.009864927289,0.002226331293,-0.003334271366,-0.03850260158],
			[-0.002651396533,-0.0006159385346,-0.002672297216,-0.0003095643573,-0.00111117538,-0.002193080917,-0.0009550048733,-0.0006746755226,-0.00132456201,-0.0001857579397,0.01941885787,-8.028410007e-06,-5.543710492e-05,-0.001127292668,-0.0001120584606,-0.0005857068515,-0.001528161598,-0.00462532779,0.006874802275,0.0008136470108,-0.01892031497,0.001083756663,0.0002708749846,-0.0007749804252,0.0022851294,-0.0006435724221,0.007303104396,4.405004811e-07,-9.945070509e-05,1.70611011e-05,0.001009718404,-0.001521554772,0.00875599788,0.001431249218,0.003412970338,0.00275078681,0.007456804272,0.000412728885,0.0003896227383,-6.393168958e-05,0.0001716658249,-0.0001239783388,-0.001468179165,-1.109049214e-06,-0.0006661587339,-0.001819516978,0.01469186889,-0.000210062954,-0.0001242798271,-0.001514115522],
			[-0.009342198223,-0.00970222813,-0.2867375083,0.1290937218,0.0002490190465,-0.01583658878,-0.03702788366,-0.002265994302,0.05095969049,0.01334873457,0.01437903644,0.02893993895,-0.02325090237,0.07013569167,-0.001325122636,0.009437252096,0.01577050943,0.01965616144,-0.01302465192,-0.07047289256,0.09248220894,-0.018099293,-0.00140860323,0.00238290631,0.01180568128,-0.0004160580514,0.02437794716,-0.0008699125418,-0.0008631374214,-0.008296954636,0.003113673438,0.0332169898,-0.02401885927,-0.003362772719,-0.007014141523,-0.003168744282,-0.1050158456,-0.005912208864,-0.006797241711,-0.001939139161,-0.001394915972,-0.005431909348,-0.06866653764,-0.001101663678,0.002885806184,0.008673038081,-0.04791474725,0.002433302521,-0.001775212872,-0.02008821338],
			[-0.0003961614474,0.006029221505,0.09000125741,-0.06061778286,0.159376766,0.02807437265,-0.3214178789,-0.01122150669,0.79568832,0.1256170751,0.001263930035,0.001322736444,1.389164682,-0.1182829864,0.1525798342,0.003188208867,0.1888713168,0.02626174067,0.06608693919,0.1013563441,-0.5194831008,-0.113722791,0.1260126736,0.05872292795,-0.09723448377,-0.0007583353479,0.08724014823,0.006484668537,0.01636261698,0.06057053879,0.004804859031,-0.2796245214,0.3607279478,0.1065438776,0.07360358317,0.6354482586,0.5586927443,0.03158824009,0.03852573118,0.01207733367,0.01491101802,-0.01428851984,0.02135983462,-0.006081116888,0.0282539431,0.02417118141,0.331165062,-0.003139835054,0.004800161683,0.01867425338],
			[0.04547957167,-0.04955178313,-1.626016546,0.3466839898,-0.05769090666,-0.04963964608,-0.1370792676,-0.00564952134,0.1575903991,0.03787308593,0.0255224468,0.07411135543,-0.2222124797,0.6374616278,-0.01543552269,0.08318972642,0.1067671367,0.1765011997,0.02178061403,-0.6518208721,0.6310678377,-0.1221332635,-0.006762911408,0.02478431086,0.1100542138,-0.01729298095,0.2101890529,-0.006679985187,-0.01128588306,-0.06311194623,0.02663461867,0.289302422,-0.2322526362,-0.0407611668,-0.0631185406,-0.1171460246,-0.3408206738,-0.01918182337,-0.02176384673,-0.006902136834,0.003643035232,-0.02899002025,-0.4210566331,-0.006638125724,0.02625398121,0.07672337332,-0.4325667001,0.02003129548,-0.008804805082,-0.09969990868],
			[-0.009374897699,-0.001865910559,-0.1033824388,0.009359100868,0.05519623156,0.006956972726,-0.1119670776,-0.0027903352,0.2539354732,0.04001436887,0.004245504161,0.006482782732,0.1447446895,0.01755977639,0.04646652179,0.008842293323,0.07156686363,0.02955347739,-0.0157280854,-0.0214942106,-0.04276398331,-0.05399524951,0.01624267734,0.02196970341,-0.036567585,0.0009093861101,0.03498098411,0.002253455871,0.005771319037,0.02103760362,0.001938176645,-0.07239351138,0.08760213682,0.03025157157,0.01324738915,0.2014722107,0.01227794433,0.000765773699,0.001590596462,0.00299826128,0.001810934077,-0.006825964738,-0.02728835515,-0.002851618312,0.01202001917,0.01612535071,0.04814956311,0.0005507450903,0.0001232812124,-0.003314049272],
			[0.05828799742,-0.008229752794,-0.1644656855,0.01705362439,-0.03672163847,-0.01215808172,-0.04070464508,-0.002261129284,0.06857909575,0.01254126034,0.001445571946,0.009844311618,-0.01489003269,0.07700656065,0.001866170647,0.03457913754,0.05071490829,0.05153822621,0.07290417668,-0.08419813169,0.05690925727,-0.04099160769,0.007719051892,0.01306584728,0.06732647115,-0.01674177709,0.1431971748,-0.003440864861,-0.006781044608,-0.03238442512,0.0176850879,0.08842688237,-0.02653917096,-0.00374093657,-0.002585883121,-0.006725448353,0.02396719726,0.001284495914,0.0006391636207,-0.001193058515,0.005781001143,-0.009831146188,-0.148002746,-0.002225665619,0.009581158894,0.02208488464,-0.03323897831,0.006778180381,-0.001223912308,-0.01638446459],
			[0.3394815606,-0.007128060677,-0.2469541381,0.003425383364,0.06363542643,0.05176748023,-0.262449443,0.0009677437683,0.6215639068,0.1034076693,0.003210456996,0.04232302904,0.1269743454,0.2799483513,0.06305604851,0.1139050411,0.7518380725,0.4554048894,-0.1944829208,-0.3275593182,0.2673836567,-0.5616255784,0.06295554705,0.2274529065,0.02564165205,-0.01776022647,0.1146278971,-0.006035561972,-0.00364087457,-0.0578675535,0.008597761482,-0.06365048749,0.05386290558,0.02745527267,-0.002214232836,0.219834545,0.2307818942,0.01328222354,0.01946238897,0.009989703749,0.02342028803,-0.04952016069,-0.6937294532,-0.02791835481,0.1385123156,0.2461793687,-0.1152175409,0.03874973548,0.0008948315805,-0.008029755983],
			[0.2964981156,0.0416418514,0.184473125,-0.0007000133072,-0.09732973762,0.03649051958,0.02394331771,0.01742386716,0.1224706139,0.02379171367,-0.005813120428,0.02294645686,-0.02679233386,0.1857901567,0.007363691464,0.08442991988,0.1459784107,0.7001018863,0.09721094961,-0.2688635273,0.175645641,-0.05933355976,0.01709316345,0.04689902046,0.186430181,-0.04852412444,0.285629589,-0.01230598388,-0.02190649212,-0.116122311,0.02902007813,0.06483863812,-0.06110775712,-0.008359505181,-0.01998696411,-0.004839799671,0.03459601079,0.001706620074,-0.00200484433,-0.0024502832,0.01207849982,-0.02068651384,-0.4102398191,-0.001369905997,0.03115289224,0.06292806994,-0.1385747677,0.01148529413,0.008434264301,0.09240802741],
			[0.2362162522,0.0214144581,0.04055628508,0.06792132409,-0.2621262378,0.02975026571,0.1885415189,0.004758499463,-0.312204817,-0.04456895639,-0.01006245544,-0.01599700377,-0.06784219878,-0.09953861165,-0.02936605539,-0.04853104319,-0.3392757478,-0.2023432816,1.938614512,0.09718851521,-0.4384757208,0.2843651062,0.08845013439,-0.09542269184,0.3282372616,-0.04704106168,-0.02753100767,-0.01804142603,-0.03837406777,-0.1694377439,-0.01065320807,-0.1945738398,0.02922573914,-0.01215670633,0.008735064836,-0.1614186469,0.5956872004,0.0345643215,0.06257654124,0.003358404841,0.09305172737,0.03448881081,0.477964907,0.01462296208,-0.06054912286,-0.1188078245,0.07846005893,-0.02725884866,0.006746310229,0.05210333678],
			[-0.2573878307,-0.02348171612,-0.1765896804,0.02883238524,-0.1289145412,-0.2240757655,0.01533104227,-0.06432996187,-0.2713529446,-0.04459877017,0.09104446831,-0.02898099756,0.02846942648,-0.2248974766,-0.01005326077,-0.08767161696,-0.1898615267,-0.6574373949,0.7746619687,4.364832901,-2.309680237,0.1855368949,0.03181093632,-0.09027463898,0.2783698281,-0.0838775539,0.8584985938,-0.002129274939,-0.0146061056,-0.01869993436,0.1119593217,-0.430707219,1.18731583,0.1957192014,0.4389339687,0.4034030299,0.8675569928,0.047844117,0.04210606681,-0.009142632801,0.01581334212,0.03415147583,0.6278030908,0.004018687751,-0.08246393521,-0.2397679148,1.910361519,-0.03692573542,-0.00581446695,-0.07642044227],
			[-0.5512499823,-0.007914391958,0.3338912303,-0.04472576646,0.08813185867,0.1622526402,0.2151097942,0.07212095426,-0.3743706249,-0.05926334242,0.207603,-0.01079800308,0.00797536671,-0.0506951052,-0.001864190565,-0.00845103366,-0.0383457377,-0.01209851996,-0.310770059,0.2114221698,3.446765328,-0.05263691034,-0.02014107723,0.01523643196,-0.003239898018,-0.01906610966,-0.06532227713,0.01450211544,0.01785206444,0.1378708363,-0.05622216667,-1.197719488,0.2781121308,0.04242984732,-0.00292150411,0.1205305132,-0.1855383444,-0.01112665413,-0.02522222439,-0.007860003571,-0.02813390453,0.007703536378,-0.04922316857,3.284628456e-05,-0.005794068653,-0.06201833533,0.009635294178,-0.05490899649,-0.002133669696,-0.01876361017],
			[-0.2109136257,-0.06395754981,-0.3063812121,-0.132375204,0.08574921643,0.09690432151,-0.2633078672,0.03266667974,0.480188983,0.09952351596,-0.009111205164,0.01291104376,0.1624213062,0.01546734392,0.05175785474,0.003508549997,8.195687052e-05,-0.01879612184,0.04228422189,-0.01349625115,-0.06268678044,7.551729894,0.0003540074076,-0.1739723599,0.1387195231,-0.03676915905,0.04591892196,0.007381346572,0.0101013927,0.07004339743,0.009422052682,0.06554713264,0.07458457509,0.03078702084,0.0191124866,0.2181691031,-0.0009750177915,-0.0003841757589,-0.007408063021,0.001206110417,-0.001961888691,-0.05260142031,-0.750845116,0.4764419863,-0.007861914665,-0.01281453291,0.07719594496,0.002166404335,-0.01190487801,-0.1375734987],
			[0.01201733422,-0.00039259916,-0.004957569647,0.0008757766544,-0.009646875332,-0.002208798464,0.0004662925973,-0.001078555593,0.006159270562,0.002045617156,-0.001567712094,0.000148622517,-0.0008003287188,-0.000661406804,-0.0003004494943,-0.0007850337984,-0.003552778404,-0.006013447796,0.03501919385,-0.001668980253,-0.06034808014,0.007688204159,0.0205542618,-0.001496031034,0.01432979438,-0.00238898275,0.00902500827,-0.0007344208091,-0.001500983134,-0.006905251627,0.001650323887,0.008996013519,0.004609522319,-0.0005098934971,0.003976990026,-0.0126460545,0.1220006062,0.006838879767,0.007863457269,0.0001618542428,0.002877662804,-5.023260118e-05,-0.001364187721,0.000370033629,-0.0009443348961,-0.001982655788,0.01693627662,0.0001450435605,0.000577640253,0.0006750181224],
			[0.1029622562,0.01087879555,0.0915496284,0.006193479372,-0.02013978751,0.01795881955,0.01451562231,0.00415605075,0.01444247842,0.002860051339,-0.001082108735,0.003611715198,-0.01042893681,0.03017562529,-0.0006843096494,0.01157637515,0.01530682483,0.09507720263,0.02625652487,-0.04123451346,0.0378222885,-0.1929375935,0.008856633848,0.08372386584,0.05386845361,-0.01198142722,0.03640901286,-0.003668304658,-0.005911852337,-0.03469462948,0.002221712841,-0.0230241248,-0.005931339402,-0.001925557104,-0.003789255886,-0.01073225742,0.04554668464,0.002658734786,0.004826422262,0.001299570207,0.01111057765,-0.000384637509,-0.02031450846,-0.009420057891,0.0478900982,0.07496070495,-0.03418733671,0.003145759575,0.002344434021,0.02448880698],
			[-0.2124478069,-0.08531613495,0.1465069148,-0.3091928965,0.01097214117,-0.1039005765,-0.1681883268,-0.03330038459,0.05392108802,0.00749422397,-0.03347996541,-0.002162963308,-0.006597401375,-0.02550960786,-0.004220051244,-0.01045534515,-0.04571357434,-0.06049463302,0.1267111997,0.02896277626,-0.1069148291,-0.04016104205,0.002404438549,-0.02713199221,0.684173804,-0.07877474485,0.03327446178,0.004153273568,-0.0009701868496,0.04026806832,0.01382226521,0.223256188,-0.03010163597,-0.007469220027,0.01236741687,-0.04921088999,0.2159397336,0.01137428021,-0.0008758679726,-0.002271060023,0.00142010638,-0.07005116522,-1.16444994,-0.005021223871,-0.01605221199,-0.01979030014,0.06053164923,0.00666503427,-0.01576135438,-0.1827037916],
			[-0.0811056434,0.007414780319,-0.4410768801,0.2495353139,-0.1476080802,0.6343430522,0.1292118036,0.03909667686,-0.1909271562,-0.02237674624,0.01763339079,0.03167451821,-0.2163673375,0.3120475362,-0.04138448307,0.0155032535,-0.2830061501,0.05030613504,0.4247091991,-0.331894714,0.0247236249,-0.03835556168,-0.005440797148,0.01898513538,0.4529908325,1.494186987,0.03582101274,0.06659560895,0.1773033266,0.6208486584,0.01482636236,0.2034232333,-0.1149332081,-0.04261038577,-0.003814355562,-0.3018104447,0.9387750694,0.06832724215,0.3641163389,0.1069677019,0.1053118391,0.01776627182,0.2172823712,0.001428369639,0.01285681454,0.02149612712,-0.09716916569,-0.001680794597,0.001319757798,0.01682671373],
			[0.06214391136,-0.05414773875,-0.04481546441,-0.1434632321,-0.2354348568,-0.1177602083,-0.101654329,-0.02731603961,0.01691819769,0.0004563152174,-0.006623883305,-0.01731994232,0.003230629386,-0.1586527134,-0.01227472129,-0.06415435974,-0.1845309375,-0.4507044696,0.6499891712,0.1937755162,-0.3113021315,0.1119517514,0.02396649233,-0.07098440363,0.3413520952,-0.08525565736,0.7885158015,-0.01194505126,-0.03143834582,-0.1114065938,0.1043331607,0.5084673758,-0.02269809224,-0.008042579784,0.04542729556,-0.08234960146,0.3328537056,0.0181810094,0.0138466098,-0.00848539495,0.02475425833,-0.01752360085,-0.2375704581,0.003330007341,-0.04038465683,-0.05868621017,0.2365848307,0.01134299853,-0.009530240138,-0.1170398675],
			[-0.0557667321,-0.002510153026,-0.04726707577,0.02093270042,-0.009523810983,0.08058971529,0.008017526581,0.00517164571,-0.01559067681,-0.001598783507,0.003764616784,0.004313211149,-0.02706206614,0.04089902565,-0.005034821057,0.002538206991,-0.0328586363,0.009406720905,0.02299516771,-0.04013630023,0.07771461795,-0.01202682744,-0.002339287102,0.003437322673,0.03936612282,-0.01709569342,0.00385722045,0.02980509061,0.009761301339,0.1051227697,0.002057139129,0.04574085658,-0.02440001535,-0.005404090274,-0.004034508257,-0.02520159426,-0.02586538332,-0.001342590468,-0.003227846834,0.01347362505,0.003460441032,-0.000492990723,-0.01649117801,-0.0002977003272,0.002576167051,0.005859775213,-0.02782696379,0.0008946493908,-0.000503559274,-0.005132476539],
			[-0.05700745839,-0.002740632653,-0.04894436706,0.02116810622,-0.01026508891,0.0833129864,0.007924356834,0.005308678111,-0.0157513331,-0.001584024969,0.003869462822,0.004458447985,-0.02809000237,0.04220630534,-0.005246379763,0.002549763826,-0.0345531885,0.009365094726,0.02667826673,-0.0414173027,0.07970048991,-0.01217994295,-0.002293254687,0.003387362497,0.04267064483,-0.01796502162,0.004312498984,0.01160520068,0.02903102673,0.1084317156,0.002605629829,0.04957013716,-0.02549552308,-0.005647838057,-0.00403813233,-0.02644642056,-0.02529649724,-0.001306862144,-0.003244948879,0.01395031277,0.003730924244,-0.0006260176704,-0.01890643647,-0.0001640747948,0.002606288461,0.006017922896,-0.02819275378,0.0009960216765,-0.0005441471306,-0.005614586882],
			[-0.5316700563,-0.02390886778,-0.4505553022,0.1995982756,-0.09073015732,0.7682081765,0.07647262499,0.04930271725,-0.1486626995,-0.01524899566,0.03588846851,0.0411150405,-0.2579500774,0.3898728465,-0.04798826889,0.02420459416,-0.313144323,0.08971429864,0.218823515,-0.382602357,0.7408842114,-0.1146763594,-0.02231497188,0.03278709754,0.3749969054,-0.1629243339,0.03672648521,0.1048853826,0.0906096401,1.002096802,0.01954767532,0.4357231784,-0.2325542368,-0.05150572923,-0.03847537015,-0.2401794192,-0.2467432676,-0.01280846289,-0.03078075861,0.1284323561,0.03296631556,-0.004684371373,-0.1569602345,-0.002856277626,0.02456421728,0.05586247353,-0.2653299118,0.008518939081,-0.004797061108,-0.04888474719],
			[0.03748035154,-0.008044894549,-0.0004660101069,-0.02754403671,-0.02414533634,-0.006436499482,-0.01822509023,-0.003282475553,0.01321256618,0.002248194641,-0.001424505783,-0.0005978703058,-0.007641823816,-0.007721781684,-0.003014850251,-0.004957576248,-0.03288499089,-0.02497624606,0.1641937931,0.008158319621,-0.04129242189,0.01698798007,0.006897296189,-0.01038715017,0.1064073318,-0.01472371922,0.01629951828,-0.001924977658,-0.004129620214,-0.01807407674,0.0271349808,0.1296498109,-0.01558070972,-0.003738408081,0.007679808999,-0.02490831432,0.08327745415,0.004677605784,0.005442026654,0.0005507590126,0.008233109837,-0.006096854309,-0.09811291278,0.0005944671774,-0.005333413821,-0.005577571237,0.03457537977,0.003895094532,-0.001306016904,-0.01709287046],
			[1.070556245,-0.0381073972,-0.3583306265,-0.09980104234,-0.2534209514,-0.00757546353,-0.3320369364,-0.01627777637,0.6238300598,0.09793278034,0.04918232623,0.009532436335,-0.06795953488,-0.0175262176,-0.02240347865,-0.03378807997,-0.2296585049,-0.2078756412,1.102798841,0.02341868356,-0.2186062672,0.1236675228,0.04475062744,-0.06704326393,0.6432728165,-0.1157709007,0.3562112171,-0.03637901436,-0.05906135846,-0.3440150529,0.1691938163,2.883280387,-0.3388164952,-0.05553480537,0.1487526575,-0.2693252274,0.7648034864,0.04306238659,0.0514448859,0.007686769921,0.07036609134,-0.04215726392,-0.4926539952,0.00577454243,-0.01491816126,0.06304388004,0.6116803123,0.1153367128,-0.006381450215,-0.08674183601],
			[-0.3961599405,-0.01838939605,0.04460505438,-0.03170894713,0.05579598802,-0.08679972385,0.0448598099,-0.02682977216,-0.2295715089,-0.03662893545,0.01351169545,-0.01134508933,0.01775573503,-0.06674176959,-0.0001540090942,-0.02263727565,-0.02658647023,-0.1776137075,0.05911787025,0.05341408729,-0.8503589841,0.02418312433,0.001678573986,-0.02093438626,-0.04525589796,-0.00538760832,0.2609297076,0.01105999398,0.01452912432,0.1050290626,0.007871412884,-0.764526072,0.9042503401,0.1424167348,0.1312734998,0.3563573857,0.1254689087,0.00675058144,0.002826034498,-0.002458421176,-0.009285014239,0.00529758505,0.05908121051,-0.001223745574,-0.02871636716,-0.1040723173,0.5759223859,-0.0381503695,-0.004101075127,-0.04784630719],
			[-0.06991832108,-0.00368287702,0.004090259321,-0.005310799464,0.02901122388,-0.009818886495,0.006171018728,-0.004192971301,-0.03678903793,-0.005845132686,0.003483636268,-0.001608706532,0.001363643747,-0.008889849046,-0.0003380401919,-0.003751835101,-0.006563126117,-0.03026047748,0.008963525003,0.007934052855,-0.1294233699,0.002779090876,-1.685882541e-05,-0.003341733453,-0.004312561288,-0.002278652995,0.04670587141,0.002609463464,0.004313688468,0.02466622738,0.002271648085,-0.1155668897,0.1440258509,0.04882955564,0.02298929763,0.1261058529,-0.01131734028,-0.0006782782838,-0.001773556633,0.0003784202282,-0.00181048662,0.0005047084472,0.003918168013,-0.0002478471801,-0.004636907962,-0.01687598302,0.09996038781,-0.005921635266,-0.0008126109275,-0.00937861614],
			[-0.04994230428,-0.01062580965,-0.01439493258,-0.02270301333,-0.02147003953,-0.04025840182,-0.0136259517,-0.01272275552,-0.03215901568,-0.005313808875,0.009169646744,-0.00390552532,0.001943790438,-0.03083834489,-0.00199019303,-0.01252304223,-0.03152649695,-0.09178331675,0.1343226966,0.02483092022,-0.3770130035,0.02325446038,0.005408512789,-0.01526042579,0.04255668972,-0.01236244022,0.1377384751,0.0001212397306,-0.001806826764,0.001404448191,0.01907683583,-0.03366010708,0.1720412224,0.02804872818,0.06675504357,0.05348125436,0.1574733041,0.008728952316,0.008397869152,-0.0009821123767,0.0034927091,-0.001687919605,-0.01942616924,0.0001213795562,-0.01322611875,-0.03622774283,0.2896581554,-0.004368075618,-0.002167646336,-0.02660819484],
			[-0.2369538658,-0.01067161705,-0.0002631387171,-0.005317035443,0.2445414266,0.02083483661,0.02015895952,-0.005169886081,-0.09756981654,-0.01521169437,0.01496260657,-0.00136300796,-0.007202598523,0.002333054944,-0.002119620612,-0.005510491308,-0.01873172673,-0.05532339918,-0.05247351354,0.006375335351,-0.1436437371,-0.01227909934,-0.005164376628,-0.001682306876,-0.01744485816,-0.01000668074,0.1024850516,0.01402973111,0.02856300098,0.1319260932,0.003287613432,-0.2964863185,0.3492914634,0.1250067764,0.04785251028,0.8507584964,-0.3464594792,-0.01949298376,-0.02602701043,0.007172518222,-0.00997875077,0.0001486141099,-0.01538429483,-0.0012142503,-0.007273735974,-0.03380944345,0.2026528616,-0.01482348219,-0.002407368775,-0.02629248773],
			[0.3342176888,-0.002064973231,-0.1491008249,0.02075526368,-0.2781088929,-0.07586772809,-0.004793058306,-0.03700197755,-0.06128941366,-0.008024325558,-0.0463464341,-0.008002164173,-0.03131544139,-0.06195806788,-0.01483746986,-0.03553194859,-0.1740209912,-0.2219530688,1.036251593,-0.0008768773308,-1.79918079,0.1606132156,0.04709766615,-0.06302232524,0.3143909173,-0.05323490242,0.2463104505,-0.02012067977,-0.04098567258,-0.1891983972,0.04601489061,0.2479313687,0.1365498975,-0.01650886472,0.1173086579,-0.3886021337,3.549832149,0.199115198,0.2312319167,0.005534297985,0.08246088077,0.01041418481,0.199979865,0.005808585753,-0.04118129418,-0.08318997859,0.5138075219,-0.0003663783959,0.0004823511721,-0.008167438471],
			[0.02127463923,5.774028226e-05,-0.01053610529,0.002544448349,-0.01695161169,-0.001511378103,0.001449526211,-0.00182203191,-0.006114616789,-0.0008218281532,-0.002538867135,-0.0004056816544,-0.002851418231,-0.002698206918,-0.001106417302,-0.002114180315,-0.01218183729,-0.01289107628,0.06727364386,-0.0008137456875,-0.1001607969,0.009994852058,0.00296464288,-0.003808899263,0.0213004836,-0.003837336354,0.01339289752,-0.001290557526,-0.002617973441,-0.01213674726,0.002404812075,0.01141374282,0.007383395552,-0.001089960262,0.006333488478,-0.02301222165,0.1997818096,0.03011067717,0.01568329674,0.0007253536206,0.005571445627,0.0008287756287,0.01426378532,0.000388069541,-0.002496077382,-0.005104618166,0.02766757946,-0.0002424578339,7.120085269e-05,-4.253608173e-05],
			[0.07527873784,0.004230676665,-0.01188222894,0.01691821427,-0.04451186783,0.01130019646,0.02834725788,-7.709928105e-05,-0.0468506095,-0.006653226789,-0.003482546541,-0.001739755311,-0.01188233662,-0.008796564836,-0.004411403374,-0.006564956652,-0.04824870913,-0.03102423186,0.2620357674,0.004600325274,-0.1447872462,0.03880651188,0.01163853804,-0.01246580169,0.0842980291,-0.01380722131,0.008628713225,-0.004160674691,-0.008076518546,-0.03917491303,-5.173979402e-05,-0.0330185236,0.01247389225,-0.002323028494,0.005962680898,-0.04105147863,0.2693870535,0.0178449573,0.07510818202,0.002344109676,0.02445204088,0.005730295716,0.08209944086,0.001941802243,-0.008231388317,-0.01736961706,0.02944621577,-0.00412408351,0.001123501573,0.009578807405],
			[0.001246067994,-0.00238431559,-0.1549627314,0.04842948986,-0.00864083086,0.147817198,0.02761132272,0.01067706919,-0.04939982957,-0.00623093607,0.006099060377,0.007498444757,-0.04725066262,0.07471337659,-0.008395093104,0.005839623322,-0.05134880845,0.02492822946,0.00113957467,-0.07351048762,0.1508498489,-0.02576142628,-0.005940495219,0.008837014029,0.0499882556,-0.02733593963,-0.005146803547,-0.002111081686,-0.004889310482,-0.01977504774,-0.002374250792,-0.01299895686,-0.03298885877,-0.007889442052,-0.01233496616,-0.03604672435,-0.0788310844,-0.004236111941,-0.008060866411,0.02403784125,0.003724955083,0.0005300951922,-0.01493661028,-0.0008368451383,0.005538618551,0.009139645891,-0.07118120792,-0.002163370247,-0.0005410028006,-0.004514459699],
			[0.08259412077,0.00571525654,-0.01787022645,0.02277190954,-0.004746015864,0.03240885494,0.02502029084,0.004152684263,-0.03063795608,-0.004397435232,0.0006308664122,0.0008355582566,-0.008154927232,0.01217595322,-0.001494800396,0.0009950629618,-0.01004708213,0.005934837079,0.01700673149,-0.01286105779,0.01247272432,0.002258016499,1.044938317e-05,0.002071348475,0.0848439345,-0.01528972688,-0.008013354751,-0.003010087847,-0.004675155898,-0.02849189729,-0.00436614603,-0.07264656928,0.004047509647,-0.0003056442997,-0.004647797405,-0.00498345177,0.002215200785,0.0005343773668,0.007653290819,0.004243093231,0.02655018082,0.00428781093,0.05799829733,0.0003480651492,0.0006642801878,-0.001478494997,-0.02209883007,-0.003530851458,0.00108523028,0.01252852701],
			[0.04665404627,0.01913421394,0.407447659,0.0872705979,0.001123585324,0.01343885527,0.03620564214,0.00696162447,-0.009810849559,-0.001457517666,0.009923661196,-4.795299476e-05,0.005140669617,0.0004549132935,0.00164684282,0.001988246234,0.01509281113,0.01149691087,-0.0393649454,-0.0005225203141,0.02780390275,0.009385780094,-0.0006690491082,0.005915587661,0.003412062458,-0.001678933179,-0.009094943199,-0.001868585205,-0.002058349331,-0.01779567898,-0.003516683883,-0.05524764097,0.009349751167,0.00263937816,-0.00274556914,0.01790212789,-0.07741687826,-0.004391649185,-0.005778704541,-0.00121122548,-0.002379656725,0.03004031363,0.1166032442,0.001055385715,0.002592444101,0.002784084398,-0.01189791785,-0.001597805422,0.003528408674,0.04093904979],
			[0.4605899097,0.1799093982,-0.2547696896,0.6238454002,-0.00458916599,0.1400123031,0.3401717394,0.06564305678,-0.09015054119,-0.01305562152,0.06873830053,0.000578846563,0.04134988843,0.01460710264,0.01417949518,0.02020172823,0.1326938014,0.1218698037,-0.3223088835,-0.01941670523,0.2235036565,0.0899816138,-0.004408633169,0.05511134748,0.05849119684,-0.02199691352,-0.07506336327,-0.01722653549,-0.02036800106,-0.1638796143,-0.03117464509,-0.4989709456,0.07834358687,0.02122190305,-0.02573316415,0.1424854504,-0.576466063,-0.0327521305,-0.04419520974,-0.008714764235,-0.01632961493,0.1462425705,2.440838781,0.01046298598,0.03240028563,0.03923136212,-0.1160212406,-0.01391549491,0.03324290155,0.3851545742],
			[0.004741031313,-0.0004287978044,-0.004801554878,-0.001041625275,0.001448207479,0.006756010042,-0.007364329497,0.002193376809,0.02092967632,0.004358520413,-7.024411897e-05,0.0009159661365,0.005928993136,0.00386753989,0.002169621278,0.001472267285,0.00240662976,0.009840543806,0.002511418338,-0.004963692623,0.002689919901,-0.004809407046,0.0009076577498,0.00179476322,0.01172638493,-0.00290941369,0.005232593281,-0.000179453086,-0.000318557682,-0.001693479063,0.0004317800239,-0.002722140659,0.002967757113,0.001211197567,0.0002440129861,0.00883717773,0.001157225794,5.943982211e-05,-7.781972468e-05,0.0001317643,0.0009723418314,-0.001332525051,-0.01839495317,0.01891179172,0.004845816147,0.007493441332,-0.001049822287,0.0003316149481,-4.813108982e-05,-0.0008205317969],
			[0.1463920591,0.0125732439,0.01555427801,0.01463219811,-0.02316539554,0.03133249299,0.007083452233,0.007722555677,0.04221984202,0.007990509172,0.0001016506281,0.006375483049,-0.01019409698,0.05007926977,0.001070942074,0.01940654647,0.02617806081,0.1577872801,0.02724598964,-0.06669203118,0.09337015403,-0.01321212702,0.003596658388,0.01220390553,0.08423457422,-0.01921945828,0.05810063261,-0.005162697959,-0.008184431432,-0.04884600338,0.003559252153,-0.03407103437,-0.009633456876,-0.001643014142,-0.007241867766,-0.001717772689,0.004001301065,0.0003892118935,0.003194906309,0.001999987095,0.01657299572,-0.002889143593,-0.06066707647,0.003699665075,0.07880932401,0.12375694,-0.06059327418,0.005395707601,0.002520150842,0.02805209429],
			[0.5310550718,0.03318321842,-0.06303526751,0.07868481025,-0.0450027492,0.1311405577,0.02361543388,0.02512720253,0.1087526391,0.01979163863,0.005279702144,0.01450362782,-0.03668900813,0.1119318309,-0.001897883379,0.03336411652,0.0188033069,0.2618590302,0.06371560427,-0.1319033556,0.3498229602,-0.01838094634,0.004543842534,0.02533157115,0.2860951614,-0.06027240476,0.07276329998,-0.01722691745,-0.02534990728,-0.1632419259,-0.004921683171,-0.2303759766,-0.003831987618,-0.002843343379,-0.02233580143,-0.01176419913,-0.007624640353,0.000636092107,0.01856327903,0.01245024423,0.07713222551,0.002411860355,0.02402026681,0.006560256969,0.1247477302,0.5978013773,-0.2077013689,0.01900724643,0.006552235371,0.07433586545],
			[0.09035019731,-0.008412223212,-0.1598989016,0.002294203775,-0.02828595829,-0.1085481433,-0.106448502,-0.03867619185,0.1083448635,0.01682757602,0.08709058777,0.001308184856,0.002329796451,-0.01107745422,-0.0001920549465,-0.007638338247,-0.004316058751,-0.07734837424,0.157780161,-0.044707357,-1.430232515,0.02330571552,0.008366575334,-0.01809310412,-0.03512300639,7.490706201e-05,0.07415821413,-0.00278115654,-0.004068841141,-0.02635723647,0.02927118579,0.4487239849,-0.02549119341,-0.002722114992,0.03283552595,-0.01789720014,0.1200468907,0.006680491544,0.006792522295,-0.0001692811212,-0.0007389363921,-0.004242141588,0.0162797952,-0.001698113042,-0.02327249559,-0.08275744365,1.451563058,0.01486922531,-0.003193139553,-0.03931276328],
			[0.1722147382,0.003854609984,-0.06175877208,0.01554858323,-0.003469816759,0.02094518012,-0.03912219992,0.004542561609,0.1118998706,0.01750710666,0.008000816016,0.003758721135,-0.006693352251,0.01573678836,-0.0007336046483,0.002735068179,-0.001297381736,0.01595361329,-0.001098585463,-0.01230611216,0.131775079,-0.002199180972,-0.0004169691363,0.002851176449,0.003442756596,-0.003770137511,0.005567492727,-0.004315352311,-0.004983954787,-0.04106808099,-0.0008182243138,-0.0269889734,0.001785682298,2.290458324e-05,-0.001698228129,-0.0007975453883,-0.01284427227,-0.0006599308044,-3.643306491e-05,0.00168837004,0.003604725031,-0.001525468724,0.006614697222,0.0004133436537,0.006819219026,0.02895226329,-0.01520024865,0.01889343227,0.0007184422099,0.008417751345],
			[0.07196532008,0.008210169383,0.2522691157,0.009666116185,-0.005983459033,0.05028332669,0.214139258,0.01870129708,0.03078129635,0.006409314295,0.001154642155,0.00428714583,0.02592285894,0.03253057769,0.01081023257,0.01634118393,0.1078770815,0.07324855461,-0.04652248956,-0.04061854509,0.03764274061,0.1142531869,0.008572250931,0.03421811509,0.05756507932,-0.01519224088,0.004479502936,-0.002670729986,-0.004341714672,-0.02525478636,-0.001535905925,-0.04309641033,0.01551063554,0.005931920015,-0.001213185366,0.04356798986,0.008060667541,0.0003512635834,-0.001510458207,-0.0003667188904,0.001917001724,0.003169362203,-0.1335346128,0.009277910215,0.02253055912,0.03806511955,-0.01872767694,0.004256782253,0.02916975557,0.09052577963],
			[0.2647608938,0.05076902259,1.356437076,-0.1080795949,-0.1835339369,0.3536813264,0.7465186858,0.1483684282,-0.03861943824,-0.002713831449,-0.01676331322,0.003050001841,0.06494694961,0.03186070259,0.02296445745,0.03282932845,0.2041026434,0.1966350776,-0.1449888117,-0.06104509441,0.02956890558,0.3082912478,0.01689694524,0.1013371086,0.4098444591,-0.1023741116,-0.05450243506,-0.01697960407,-0.03695260047,-0.1593577832,-0.01581943231,-0.2143568301,0.04791249473,0.01422303695,-0.00790313424,0.09528723976,0.03394443941,0.0008756983974,-0.01617722668,-0.01212018702,0.0005380953002,-0.0007195501846,-0.6866202255,0.02980784905,0.06375880771,0.09980446986,-0.05527745777,0.003755724498,0.08199334079,0.9418804398]
		],
		"names": [
			"G01",
			"G02",
			"G03",
			"G04",
			"G05",
			"G06",
			"G07",
			"G08",
			"G09",
			"G10",
			"G11",
			"G12",
			"G13",
			"G14",
			"G15",
			"G16",
			"G17",
			"G18",
			"G19",
			"G20",
			"G21",
			"G22",
			"G23",
			"G24",
			"G25",
			"G26",
			"G27",
			"G28",
			"G29",
			"G30",
			"G31",
			"G32",
			"G33",
			"G34",
			"G35",
			"G36",
			"G37",
			"G38",
			"G39",
			"G40",
			"G41",
			"G42",
			"G43",
			"G44",
			"G45",
			"G46",
			"G47",
			"G48",
			"G49",
			"G50"
		],
		"description": "Stable smallworld network, IAA=542.3316",
		"created": {
			"creator": "",
			"time": 736265.634,
			"id": "",
			"nodes": "",
			"type": "unknown",
			"sparsity": ""
		},
		"tol": 2.220446049e-16,
		"N": 50
	}
}
