{
	"obj_data": {
		"network": "Tjarnberg-D20150924-smallworld-N50-L244-ID5330940",
		"A": [
			[-7.800959857,0,0,4.892790475,0,0.5998914419,0,0,0,0,0,0,0,0,0,0,0,0,0,0,0,0,0,0,0,0.32839907,0,0,0,0,0,0,0,0,0,0,5.508094148,0,0,0,0,0,0,0,0,0,0,0,0,0.6105614478],
			[0,-39.35216725,0,0,0,0,0,0,0,0,0,0,0,0,0,0,0,0,0,0,0,0,7.594673076,0,0,0,0,0,0,0,0,5.652732006,0,0,0,0,0,0,0,0,0,0,0,0,0,0,0,0,0,3.553111959],
			[0,6.096130028,-8.940279374,4.231250111,0,0,0,0,0.6888081576,0,0,0,0,0,0,0,0,0,0,0,0,0,0,0,0,0,0,0,0,0,0,0,0,0,0,0,0,0,0,0,0,0,0,0,0,0,0,0,0,0],
			[0,0,4.231250111,-11.69906867,0,0.2620079222,0,0,0,0,0,0,0,0,0,0,0,0,0,0,0,0,0,0,0,0,1.898075491,0,0,0,0,0,0,0,0,0,0,0,0,0,0,0,0,0,0,0,0,0,0,0],
			[0,0,4.812172653,0,-12.37127904,1.09782505,0,0,0,0,0,0,0,0,0,0,0,0,0,0,0,0,0,0,0,0,0,0,0,2.324875726,0,0,0,0,0,0,0,0,0,0,0,0,0,0,0,0,0,0,0,0],
			[0,3.050436126,0,0.2620079222,1.09782505,-1.510398611,0,0,0,0,0,-0.9437027425,0,0,0,0,0,0,0,0,0,0,0,0,0,0,0,0,0,0,0,0,0,0,0,0,0,0,0,0,0,0,0,0,0,0,0,0,0,0],
			[0,0,0,0,0,0,-21.3743929,4.211095655,0,0,0,0,0,0,0,0,0,0,0,4.039190005,0,0,0,4.249033454,0,0,0,0,0,0,0,0,0,0,0,0,0,0,0,0,0,0,0,0,0,0,0,0,0,0],
			[0,0,0,0,0,0,4.211095655,-1.696530935,0,0,0,0,0,0,0,0,0,0,0,-1.046846133,0,0,0,0,0,0,0,0,0,0,0,0,0,0,0,0,1.713128722,0,0,-0.668653702,0,0,0,0,0,0,0,0,0,0],
			[0,0,0,0,0,0,0,0,-1.58864532,4.774234855,0,0,0,0,0,0,0,0,0,0,0,0,0,-0.3615946438,0,0,0,0,0,0,0,0,0,0,0,0,0.5619536432,0,0,0,0,0,0,0,0,0,0,0,0,0],
			[0,0,0,0,0,0,0,0,4.774234855,-48.56868122,3.266207356,5.326704048,0,0,0,0,0,0,0,0,0,0,0,0,0,0,0,0,0,0,0,0,0,0,0,0,0,0,0,0,0,0,0,0,0,0,0,0,0,0],
			[0.1790189876,0,0,0,0,0,0,0,0,3.266207356,-1.005351665,0,0,0,-0.3556668628,0,0,0,0,0,0,0,0,0,0,-0.04030891111,0,0,0,0,0,0,0,0,0,0,0,0,0,-0.7445292994,0,0,0,0,0,0,0,0,0,0],
			[0,0,0,0,0,0,0,0,0,5.326704048,0,-2.949663849,5.174952853,-0.1683489817,0,0,0,0,0,0,0.158864532,0,0,0,0,0,0,0,0,0,0,0,0,0,0,0,0,0,0,0,0,0,0,0,0,0,0,0,0,0],
			[0,0,0,0,0,0,0,0,0,0,3.81867655,5.174952853,-50.67897128,0,7.742867602,0,0,0,0,0,0,0,0,0,0,0,0,0,0,0,0,0,0,0,0,0,0,0,0,0,0,0,0,0,0,0,0,0,0,0],
			[0,0,0,0,0,0,0,0,0,0,0,-0.1683489817,0,-1.004166109,0.9223627308,0,0,0,0,0,0,0,0,0,0,0,0,0,0,0,0,0,0,0,0,0,0,0,0,0,0,0,2.61770811,0,0,0,0,0,0,0],
			[0,0,0,0,0,0,0,0,0,0,-0.3556668628,0,7.742867602,0.9223627308,-5.492681917,0,0,0,0,0,0,0,0,0,0,0,0,0,0,0,0,0,0,0,0,0,0,0,0,0,0,0,0,0,0.5821080987,0,0,0,0,0],
			[0,0,0,0,0,0,0,0,0,0,0,0,0,0,0,-6.60829031,3.983468863,3.481978586,0,0,0,0,0,0,0,0,0,0,0,0,0,0,0,0,0,0,0,0,0,0,0,0,0,0,0,0,0,0,0,0],
			[0,0,0,0,0,0,0,0,0,0,0,0,0,0,0,3.983468863,-16.59541582,4.723255938,2.699511488,0,0,0,0,0,0,0,0,0,0,0,0,0,0,0,0,0,0,0,8.392552405,0,0,0,0,0,0,0,0,0,0,0],
			[0,0,0,0,0,0,0,0,0,0,0,0,0,0,0,3.481978586,4.723255938,-13.22962174,2.056940023,0.5406136314,0,0,0,0,0,0,0,0,0,0,0,3.35275296,0,0,0,0,0,0,0,0,0,0,0,0,0,0,0,0,0,0],
			[0,0,0,0,0,0,0,0,0,0,0,0,0,0,0,0,0,2.056940023,-4.329651276,0,0.9259193994,0,4.079498916,0,0,0,0,0,0,0,0,0,0,0,0,0,0,0,0,-2.084207816,3.447597456,0,0,0,0,0,0,0,0,0],
			[0,0,0,0,0,0,0,0,0,0,0.1387100765,0,0,0,0,0,0,0.5406136314,0,-1.112051724,-0.1422667451,1.557820859,0,0,0,0,-1.090711712,0,0,0,0,0,0,0,0,0,0,0,0,0,0,0,0,0,0,0,0,0,0,0],
			[0,0,0,0,4.126921164,0,0,0,0,0,0,0,0,0,0,0,0,0,0.9259193994,-0.1422667451,-4.837069334,0,0,0,0,0,0,0,0,0,0,0,0,0,0,0.3995324425,0,0,0,0,0,0,4.212281211,0,0,0,0,0,0,0],
			[0,0,0,0,0,0,0,0,0,0,0,0,0,0,0,0,0,0,0,1.557820859,0,-13.47858854,6.939060493,1.521068616,0,0,0,0,0,0,0,0,0,0,0,0,0,0,0,0,0,0,0,0,0,0,0,0,0,0],
			[0,0,0,0,0,0,0,0,0,0,0,0,0,0,0,0,0,0,0,0,0,6.939060493,-26.24347225,1.928899952,0.6413859092,0,4.185013419,0,0,0,0,0,0,0,0,0,0,0,0,0,0,0,0,0,0,0,0,0,0,0],
			[0,0,0,0,0,0,0,-1.267359588,0,0,0,0,0,0,0,0,0.6473136902,0,0,0,0,1.521068616,1.928899952,-2.432761341,0,0,0,0,0,0,0,0,0,0,0,0,0,0,0,0,0,0,0,0,0,0,0,0,0,0],
			[0,0,0,0,0,0,0,0,0,0,0,0,0,0,0,0,0,-0.5062325013,0,0,0,0,0.6413859092,0,-0.1232978458,0,-0.0379377987,0,0,0,0,0,0,0,0,0,0,0,0,0,0,0,0,0,0,0,-0.04268002353,0,0,0],
			[0,2.52997695,0,0,0,0,0,0,0,0,0,0,0,0,0,0,0,0,0,0,0,0,0,0,0,-0.4979336079,0,-0.2359256856,0,0,0,0,0,0,0,0,0,0,0,0,0,0,0,0,0,0,0,0,0,0],
			[0,0,0,0,0,0,0,0,0,0,0,0,0,0,0,0,0,0,-0.4896347144,0,0,0,0,0,-0.0379377987,0,-3.566153077,0,0,0,0,0,0,0,0,0,2.998271653,4.537123613,0,0,0,0,0,0,0,0,0.9816405412,0,0,0],
			[0,0,0,0,0,0,0,0,0,0,0,0,0,0,0.4303569039,0,0,0,0,0,0,0,0,0,0,-0.2359256856,0,-1.292256268,4.577432524,-1.198597328,0,0,0,0,0,0,0,0,0,0,0,0.1161845085,0,0,0,0,0,0,0,0],
			[0,0,0,0,0,0,0,0,0,0,0,0,0,0,0,0,0,0,0,0,0,0,0,0,0,0,0,4.577432524,-33.52041626,5.345672947,5.69185536,0,0,0,0,0,0,0,0,0,0,0,0,0,0,0,0,0,0,0],
			[0,0,0.6319014595,0,0,0,0,0,0,0,0,0,0,0,0,0,0,0,0,0,0,0,0,0,0,0,0,-1.198597328,5.345672947,-3.623059775,0,-0.1363389641,0,0,0,0,0,4.180271194,0,0,0,0,0,0.5963347732,0,0,0,0,0,0],
			[0,0,0,0,0,0,0,0,0,0,0,0,0,0,0,0,0,0,0,0,0.8192193406,0,0,0,0,0,0,0,5.69185536,0,-4.071200022,1.065815032,-0.1197411771,0,0,0,0,0,0,0,0,0,0,0,0,0,0,0,0,0],
			[0,0,0,0,0,0,0,0,0,0,0,0,0,0,0,0,3.837645449,0,0,0,0,0,0,0,0,0,0,0,0,-0.1363389641,1.065815032,-9.173833947,0,3.933675502,0,0,0,0,0,0,0,0,0,0,0,0,0,0,0,0],
			[0,0,0,0,0,0,1.990548875,0,0,0,0,0,0,0,0,0,0,0,0,0,0,0,0,0,0,0,0,0,0,0,-0.1197411771,0,-0.2442245791,0,-0.1221122896,-0.2809768216,0,0,0,0,0,0,0,0,0,0,0,0,0,0],
			[0,0,0,0,0,0,0,0,0,0,0,0,0,0,0,0,0,0,0,0,0,0,0,0,0,0,0,0,0,0,0,3.933675502,0,-11.13118725,1.148803967,2.614151441,0,0,0,0,0,0,0,0,0,0.8121060033,0,0,0,0],
			[0,0,0,0,0,0,0,0,0,0,0,0,0,0,-0.1232978458,0,0,0,0,0,0,0,0,0,0,0,0,0,0,0,0,0,-0.1221122896,1.148803967,-0.827518234,-0.8405593523,0.8097348909,0,0,0,0,0,0,0,0,0,0,0,0,0],
			[0,4.520525826,0,0,0,0,0,0,0,0,0,0,0,0,0,0,0,0,0,0,0,0,0,0,0,0,0,0,0,0,0,0,0,2.614151441,-0.8405593523,-3.861356573,0,4.425681329,0,0,0,0,0,0,0,0,0,0,0,0],
			[0,0,0,0,0,0,0,0,0,0,0,0,0,0,0,0,0,0,0,0,0,0,0,0,0,0,0,1.371688534,0,0,0,0,0,0,0.8097348909,0,-9.887538785,0,0,0,0,0,0,0,0,0,0,0,0,0],
			[0,0,0,6.7114337,0,0,0,0,0,0,0,0,0,0,0,0,0,0,0,0,0,0,0,0,0,0,0,0,0,0,0,0,0,0,0,4.425681329,0,-31.53342405,0,2.157712301,0,0,0,6.251437891,0,0,0,0,0,0],
			[0,0,0,0,0,0,0,6.756484836,0,0,0,0,0,0,0,0,0,0,0,0,0,0,0,0,0,0,0,0,0,0,0,0,0,0,0,0,0,0,-34.98576373,5.332631829,0,0,0,0,0,0,0,0,0,0],
			[0,0,0,0,0,0,0,-0.668653702,0,0,0,0,5.570928627,0,0,0,0,-0.04742224837,0,0,0,0,0,0,-0.09247338432,0,0,0,0,0,0,0,0.2051012242,0,0,0,0,2.157712301,5.332631829,-2.069981141,0,0,0,0,0,0,0,0,0,0],
			[0,0,0,0,0,0,0,0,0,0,0,0,0,0,0,0,0,0,0,0,0,0,6.648599221,0,0,0,0,0,0,0,0,0,0,0,0,0,0,0,0,1.103752831,-9.627901975,0,0,0,0,0,0,0,0,0],
			[0,0,0,0.3971613301,0,0,0,0,0,0,0,0,0,0,0,0,0,0,0,0,0,0.4884491582,0,0,0,0,0,0,0,0,0,0,0,0,0,0,0,0,0,0,0,-0.1458234137,0,0,0,0,0,0,0,0],
			[0,7.057616114,0,0,5.991801081,0,0,0,0,0,0,0,0,0,0,0,0,0,0,0,0,0,0,0,0,0,0,0,0,0,0,0,0,0,1.691788711,0,0,0,0,0,0,0,-19.51781187,4.912944931,0,0,0,0,0,0],
			[0,0,0,0,0,0,0,0,0,0,0,0,0,0,0,0,0,0,0,0,0,0,0,0,0,0,0,0,0,0.5963347732,0,0,0,0,0,0,0,0,0,0,0,0,4.912944931,-9.425171863,0.2916468275,0,0,0,4.356919069,0],
			[1.312410724,0,0,0,0,0,0,0,0,0,0,0,0,0,0,0,0,0,0,0,0,0,0,0,0,0,0,0,0,0,0,0,0,0,0,0,0,0,0,0,0,0,0,0.2916468275,-1.012465003,-0.5797369863,0.1434523013,0,0,0],
			[0,0,0,0,0,0,0,0,0,0,0,0,0,-0.6603548085,0,0,0,0,0,0,0,0,0,0,0,0,0,0,0,0,0,0,0,0,0,0,0,0,0,0,0,0,1.452306356,0,-0.5797369863,-1.237720682,0,3.643214231,0,0],
			[0,6.030924436,0,0,0,0,0,0,0,0,0,0,0,0,0,0,0,0,0,0,0,0,0,0,0,0,0,0,0,0,0,0,0,0,0,0.9911249909,0,0,0,0,4.909388262,0,0,0,0.1434523013,0,-5.544846391,0,0,0],
			[0,0,0,0,0,0,0,0,0,0,0,0,0,0,0,0,0,0,0,0,0,0,0,0,0,0,0,0,0,0,0,0,0,0,0,0,0,0,0,0,0,0,0,0,0,3.643214231,0,-34.10489547,7.578075289,4.518154713],
			[0,0,0,0,0,0.6473136902,0,0,0,0,0,0,0,0,0,0,0,0,0,0,0,0,0,1.02906279,0,0,0,0,0,0,0,0,0,0,0,0,0,0,0,0,0,0,0,0,1.886219929,0,0,7.578075289,-10.883406,0.6188603412],
			[0.6105614478,3.553111959,0,0,0,0,0,0,0,0,0,0,5.321961823,0,0,0,0,0,0,0,0,0,0,0,0,0,0,0,0,0,0,0,0,0,0,-1.886219929,0,0,0,0,0,-0.4232435667,0,0,0,0,0,4.518154713,0.6188603412,-4.106766709]
		],
		"G": [
			[0.1387424915,0.01215104127,0.052440456,0.0875796584,0.02241271196,0.09415686797,-0.02144540479,-0.01777679191,0.05058894643,0.009267763416,0.05142422407,0.007628987152,0.01209864308,0.003667965717,0.04388067422,0.008285986964,0.01024740609,0.004002317628,0.005629219696,-0.06607242131,0.02491359585,-0.002620829269,0.003268041161,-0.03655247776,0.001043906878,-0.1248343756,0.0706464232,0.4478074587,0.08042842569,-0.01518108809,0.1277859271,0.03695233045,-0.1926718512,0.03015582894,0.24709223,-0.03578554441,0.1187431785,0.002602411357,0.001283286661,-0.007708225509,0.008804829745,0.205805674,0.01186449593,0.007925156952,0.03151259704,0.0537685483,0.01331423605,0.01655947984,0.01766094015,0.05201970041],
			[0.002897701275,0.02558586304,0.0005815386575,-0.001632010603,0.002635011058,0.006770833739,-0.007063583215,-0.01311116732,0.01871580925,0.006143856577,0.03431014574,0.01820662298,0.004406219186,-0.02711385407,0.002658351767,0.005071141468,0.006887123345,0.001745253014,0.004729965769,-0.01048075002,0.005723256152,0.001939481819,0.01076518355,-0.001434828177,0.06297659749,-0.02687854794,0.01430029517,0.05490004237,0.01127348196,-0.0009108462053,0.02309609892,0.02261268008,-0.0481110634,0.008191623789,0.04809583616,-0.02028235011,0.008681448382,-0.001947766385,-0.0006600442028,-0.01516937541,0.002680383628,-0.06151956421,0.0002579924185,-0.001348969793,-0.004328059538,0.04030213933,0.001934956529,0.01117726978,0.009304870771,0.0362664161],
			[0.004692622455,0.02182271407,0.1409381469,0.05499774488,0.006320593731,0.02050367061,-0.009823790253,-0.003749158743,0.1356990303,0.02482037181,0.09146737673,0.04860083549,0.004872429394,-0.03136419489,0.005497809715,0.002703131448,0.004983450503,-0.0005710381334,-0.0001118614165,-0.04154308565,0.0109262133,-0.005507404212,0.004400378551,-0.0328354686,0.03900171012,-0.07451491376,0.04672749665,0.148172007,0.02760253791,-0.004903604305,0.04800091433,0.02498578939,-0.09755574903,0.01422166877,0.0797631332,-0.01209345902,0.03037863176,0.001594276621,-0.005000836121,-0.04065196088,0.004021684651,0.02025831701,0.001767876551,0.001660680599,-0.0002592574208,0.04298285528,0.007965562436,0.01139130521,0.01051252379,0.0336949123],
			[0.00682250795,0.0132116876,0.0615511551,0.1198462683,0.009245024171,0.03523722466,-0.006432263133,-0.001387598698,0.06949240794,0.01424350771,0.06527961689,0.0275589826,0.007219676489,-0.007785996786,0.01574139325,0.005481701702,0.006759238427,0.002670740271,-0.0009742496579,-0.02064879142,0.009873682364,0.0009801284721,0.004879155384,-0.01212919458,0.005377481975,-0.07813110907,0.07577197565,0.1632431836,0.03053285155,-0.002063084639,0.05046997741,0.02229830484,-0.06613372332,0.01699467707,0.07536266632,0.005691983617,0.0366584797,0.01112559325,0.0009485532973,-0.00441459338,0.006742438622,0.06135838036,0.005831394713,0.01092695224,0.02063597161,0.02680101921,0.01390689738,0.008600683493,0.01170900642,0.02367157202],
			[0.009022997185,0.02460261789,0.07885615635,0.04286926987,0.09672481401,0.09126591078,-0.005741227671,-0.001988332011,0.0643292804,0.01002875811,0.05262638404,0.001515342346,0.006275557448,-0.02792829788,0.004257982655,0.009171281185,0.01072249543,0.005138963795,0.006994432604,-0.01656607403,0.01137432656,0.0009796345236,0.01098773112,-0.0004520620185,0.0388153536,-0.02946013361,0.04036538853,0.06574537326,0.03317632026,0.09202219657,0.05608338025,0.03059968502,-0.05744254817,0.01962196646,0.07315261139,0.005358733692,0.02656919487,0.01929931339,0.003775666114,0.007895811883,0.006340014438,-0.07482016622,0.00825706859,0.02373355967,0.02606529588,0.04803016194,0.007521721141,0.01609123714,0.02319752259,0.04382612612],
			[0.01134932513,0.08120521744,0.07226539331,0.05417464686,0.07655188027,0.7525493646,0.005947194065,-0.004488044181,-0.2114787446,-0.08079655111,-0.2582811011,-0.3887832119,-0.001063709116,0.004234807414,0.01896572517,0.04227261735,0.04347333086,0.03049274002,0.03472732163,0.1084448649,0.002112947225,0.04858836705,0.06006415779,0.1404780051,0.13697887,-0.008325102213,0.064696638,0.07749680115,0.03426756638,0.076697813,0.06745169417,0.08289145012,0.07335526785,0.03501364405,0.1355294265,-0.03520124345,0.02424307093,0.02872867452,0.0420438657,0.2074181342,0.01833663783,-0.2958354457,0.0187184388,0.03506879772,0.04537573514,0.1191663706,0.01157323945,0.0399004488,0.04882701178,0.1232001298],
			[-0.006807836541,-0.005658981615,-0.0115555348,-0.01501020272,-0.007900959762,-0.01422318292,0.04910331302,0.0108829739,-0.02159508805,-0.005518662096,-0.01318674205,-0.02287784024,-0.01058146651,-0.01930795778,-0.02283079604,0.0144590145,0.01228121161,0.01339110515,0.0178017901,0.2671386464,-0.009066226029,0.06521798916,0.03535704915,0.1546528214,0.2248659168,0.03517847722,-0.05059315661,-0.0814692559,-0.01544914335,-0.002812155302,-0.02282363546,-0.004467251142,0.001870971837,-0.007613188648,-0.0381864245,-0.008913942668,-0.02160321391,-0.01121836236,-0.002210724817,-0.03383218906,0.0004753253369,-0.03621660469,-0.007462666191,-0.01256288019,-0.03406776404,0.003303652126,-0.01156906267,-0.002601721305,-0.007402978399,-0.009886119613],
			[-0.002944619103,-0.008402179996,0.02071835431,0.02636135538,0.02011043442,0.0206380991,0.09128115245,0.6286146569,-0.1296661874,-0.04613609509,-0.2808742504,-0.1322241511,-0.02287545013,0.03806300097,0.0378025455,-0.0007490280402,0.01118846484,-0.01422142464,-0.006041511775,-0.2226823407,0.0313808882,0.03458637464,0.02975825719,0.2265069725,0.2212480467,-0.2943459882,0.1147071123,0.6651225128,0.115409235,-0.03653812536,0.1790862517,0.02845789738,-0.3496911041,0.04077352873,0.2959231149,0.0007482355678,0.1589227195,0.002483232378,-0.01799321628,-0.135656504,0.007611608398,0.5364892329,0.01612675734,0.008417903092,0.02186032479,0.02862988877,0.01916990776,0.004116314846,0.006107680793,-0.00225817755],
			[-0.006647925806,-0.02435444752,-0.005744791708,-0.007920032584,0.001925781754,-0.01025662955,-0.02547936366,0.075899408,1.168762982,0.1802816425,0.4825297175,0.3003828505,-0.02010467192,-0.1192938615,-0.04886625516,-0.04346934347,-0.03779192761,-0.0392636172,-0.03732862977,-0.3196021613,0.03051018764,-0.0946682086,-0.0681325727,-0.3389763972,-0.08417556188,-0.2493245144,0.01447461854,0.4345166342,0.07093071762,-0.04291111842,0.1085841738,-0.0128041535,-0.4341644697,0.007694100242,0.14667064,-0.01242619578,0.09227390792,-0.03041202678,-0.06489284788,-0.3662647588,-0.01294108796,0.430487966,-0.01515884282,-0.0336294277,-0.09182437303,0.03657017846,0.000834841831,-0.00390280207,-0.0178315793,-0.02904030719],
			[-0.002475426878,-0.006288621503,-0.004661042004,-0.00598005549,-0.002207471143,-0.006149537222,-0.01089965677,-0.004794249398,0.1854023373,0.06236582998,0.1769613039,0.1062344552,-0.006321410186,-0.04788432516,-0.02435746515,-0.01302426008,-0.01125540981,-0.01184169177,-0.01145623992,-0.07436455751,0.005589696948,-0.02342585347,-0.01661051179,-0.07690338334,-0.0003469474498,-0.04166735557,7.224725964e-05,0.05426086313,0.008071620826,-0.009091884309,0.0124372258,-0.007607403566,-0.1068974021,-0.002296645514,0.008820223899,-0.002207998485,0.009071835786,-0.009358447935,-0.02019447025,-0.1147758495,-0.004558387041,0.06620113299,-0.007281010088,-0.01166601318,-0.03517067165,0.01171027449,-0.0008944495254,-0.001106322712,-0.005890538239,-0.007913654822],
			[-0.03295163751,-0.0334887958,-0.05282772432,-0.06293423779,-0.03740850398,-0.06509946246,-0.05827087854,-0.1204307604,0.2443837773,0.08894143763,0.9416769291,0.01451379142,-0.1057918006,-0.3271723318,-0.2704841714,-0.06640749017,-0.05836374261,-0.05926223189,-0.06290985258,-0.2595507011,-0.01218332703,-0.09566853682,-0.07043564824,-0.2674867637,0.06735888353,-0.04392563394,-0.03748816233,-0.1140495122,-0.03040585158,-0.0411265605,-0.04872114556,-0.06539944307,-0.3709324646,-0.04211029684,-0.155925089,-0.0123749722,-0.04947029312,-0.0511043794,-0.09980956731,-0.5629665179,-0.03021642767,0.02145483758,-0.05691837663,-0.07564552797,-0.3063095207,0.1160095536,-0.0150798739,5.667804894e-05,-0.0324440391,-0.03869971209],
			[0.003592732175,-0.01497639985,-0.004957545304,-0.008837555512,0.001084316723,-0.006960967078,-0.04081561787,-0.03789587938,0.4930985348,0.1647957215,0.6036293401,0.6905140642,0.02525010312,-0.1290721109,-0.0124380087,-0.03907437821,-0.03296687523,-0.03644258882,-0.0324257166,-0.2324488632,0.03109139889,-0.07008485294,-0.04719847663,-0.233366775,0.03097882649,-0.1295218372,0.010672235,0.1752309592,0.02866686215,-0.0192211165,0.04595462219,-0.01778649234,-0.3581051882,-0.002015791377,0.04457357342,-0.001407018725,0.03034710149,-0.02673619841,-0.06476919791,-0.3730472478,-0.01143632817,0.2046246825,-0.01790036783,-0.0298447423,-0.05056252519,0.002862316084,0.0003428067727,-0.006624145699,-0.01783364845,-0.02239832478],
			[0.006695950813,-0.001402121253,0.003193096114,0.002658393925,0.003757825414,0.004616848868,-0.01352043549,-0.01741514833,0.09267782998,0.03037822283,0.1662463546,0.09198360256,0.02265407951,0.02002955888,0.028298511,-0.00880006103,-0.006949421352,-0.008750931031,-0.007990092942,-0.06149001685,0.006435499095,-0.01691659332,-0.01050299145,-0.05751357489,0.01407172113,-0.03714827415,0.007746359473,0.05931998725,0.01104611453,-0.001241432417,0.01851301611,-0.00044599132,-0.1083390855,0.003374291755,0.03931766915,-0.002239363682,0.01154895692,-0.005850274631,-0.01611491689,-0.0947879599,-0.001969278553,0.05761421882,0.002480358883,-0.00208474241,0.01878304579,-0.0143814477,0.001749016939,-0.00264910897,-0.00288193598,-0.003566359005],
			[0.08313494346,0.06285788675,0.138448566,0.1083663642,0.1457722052,0.1972589171,-0.07364981177,-0.06552593915,0.1545988285,0.03146854068,0.1923962453,0.03039184689,0.0630319385,1.294996843,0.3252836436,0.02596301227,0.0336506415,0.01077687264,0.02201016347,-0.2477315759,0.05927927057,-0.02824007249,0.01297551102,-0.1200089272,0.0377709544,-0.2862513811,0.1482721018,0.6869974224,0.1603424006,0.1230613528,0.2762216927,0.1255470411,-0.6522241337,0.122702941,0.9979923476,-0.1050166685,0.1704374975,0.02145842879,0.004841819825,-0.02119403917,0.02655686509,0.2002031414,0.2240047612,0.1515399985,0.4122646413,-0.008296855091,0.036624667,0.03543246933,0.09213837094,0.1196099748],
			[0.05767673525,0.01734847947,0.05026689096,0.05434473662,0.04232054996,0.06697694509,-0.03247701485,-0.02926387271,0.1565095617,0.04482685598,0.2202648083,0.1333915551,0.05442454156,0.3787207776,0.3269327628,0.001268102574,0.005331972257,-0.003693232222,0.0004009164168,-0.119102994,0.02735060788,-0.01669956739,-0.002461614123,-0.08854875936,0.03817766369,-0.1349150189,0.06205767777,0.3273957796,0.06813576062,0.02500402899,0.1144870286,0.04122260821,-0.2868271739,0.0442010481,0.3044531415,-0.007613636064,0.07970632025,0.004781660152,-0.01296282147,-0.09343661478,0.009656398048,0.2297568888,0.0562696521,0.04360895145,0.307800834,-0.1532574685,0.01865581831,-0.01293976805,0.009057113474,0.01071341478],
			[-0.0005938122074,0.007348328787,0.02026445165,0.01615659769,0.02183809877,0.02671272492,-0.007850847717,0.0323074149,-0.004719186474,-0.004494004541,-0.02186915474,-0.02333679029,-0.005755869104,-0.05998116784,-0.003756898772,0.3129498872,0.1409314685,0.1455114033,0.1587361954,0.09614123113,0.04217424644,0.06405134702,0.07638829628,0.09576955081,0.4173631216,-0.09456632905,0.06439888505,0.2024971029,0.04502307065,0.01221480274,0.09082783579,0.08935417656,-0.1526497148,0.04961724409,0.1270767028,0.0209713478,0.03493364951,0.01019622602,0.02571627583,-0.05308282922,0.0608316052,0.07742027847,0.01114681946,0.01291292497,-0.01399760937,0.09191203975,0.007826276184,0.01793801702,0.01930365014,0.02891322643],
			[0.001214906168,0.005867381483,0.01857601784,0.01626921969,0.01914148563,0.02379641589,-0.00120004305,0.05370841693,0.001691020747,-0.00211738231,-0.01063193766,-0.01430259368,-0.002832234966,-0.03685350927,0.003174530938,0.130622292,0.1357706644,0.09257719547,0.1293482016,0.05891019859,0.03564410877,0.05238427475,0.06309289261,0.08692431151,0.3378934075,-0.09034164729,0.06108874996,0.1941784259,0.04092983507,0.008108096234,0.07726887079,0.0623579527,-0.1265085605,0.03743507248,0.1134556854,0.01570777747,0.03789428563,0.009470183432,0.02678017836,-0.03798076252,0.05048489925,0.09063647211,0.01061115528,0.01227597525,-0.001598674291,0.0641215004,0.008172735239,0.01318518387,0.01535050929,0.02207618954],
			[-0.002516851879,0.007233633936,0.01720757017,0.0120504928,0.01954721514,0.0234731942,-0.01352689157,-0.0001289581932,-0.01089090062,-0.006106631511,-0.02934128634,-0.02792732527,-0.007683658461,-0.07167423848,-0.01076179016,0.157305354,0.1121425172,0.1702489566,0.1532807612,0.1150674004,0.03926286831,0.06163127175,0.07279409067,0.08231317314,0.4055363264,-0.07612011686,0.0523327155,0.1621652505,0.03862252296,0.01390606303,0.08398057571,0.09824224007,-0.144978123,0.05133969186,0.1113770645,0.02183049382,0.02294700806,0.00851683606,0.01816858092,-0.057292587,0.05769360092,0.043242113,0.009015624762,0.010462842,-0.0247365097,0.1010791516,0.005503327562,0.01895958089,0.0190741691,0.02961740798],
			[-0.004502842354,0.01569041447,0.02150110067,0.01138991688,0.02577597192,0.0281606874,-0.04623101033,-0.166590476,-0.08515833964,-0.0314388663,-0.1691913869,-0.1065882776,-0.02550149466,-0.06896565489,-0.03682528859,0.05051193993,0.03976648366,0.05037050325,0.2792789238,0.1216453699,0.05197536499,0.08202520031,0.1195301439,0.0870885031,0.6776858258,0.004074826936,0.101920538,0.01403915834,0.01257143424,0.03164074439,0.0330288325,0.04284977216,-0.1439961373,0.0265996452,0.06018895647,0.0223335265,-0.0003767863999,0.01403251357,-0.008194396267,-0.1163458363,0.1062755297,-0.09379125169,0.01226142164,0.01706590421,-0.02051272884,0.08060928293,0.0122966593,0.0181921933,0.0215557369,0.03616851954],
			[-0.03876936329,-0.02907977631,-0.07594051435,-0.1005461111,-0.0528092562,-0.09171777506,-0.01286317287,-0.1485320492,-0.1036098974,-0.02352019461,-0.04124000492,-0.09630503945,-0.05086512167,-0.1062549536,-0.1394897443,0.04761090558,0.02399566093,0.06290696867,0.07273331219,1.297574749,-0.06401187003,0.1902155231,0.07594828301,0.1518552767,0.6000954929,0.3429180155,-0.3676358742,-0.7706659296,-0.1417823388,0.00100266893,-0.2161494955,-0.04869191391,0.1761022604,-0.06678506944,-0.3460597028,-0.05902648282,-0.1930422383,-0.06943239057,-0.01292061908,-0.1225328486,-0.01209891959,-0.4412829092,-0.04814179049,-0.07718320377,-0.1971310453,-0.008706929604,-0.07480410477,-0.01944007261,-0.04781883849,-0.05951670384],
			[0.01968766632,0.04507143856,0.1069367226,0.06466183161,0.1262141273,0.1355910864,-0.02999008777,-0.04501452445,0.08381163362,0.01246023174,0.06266857202,6.609148737e-05,0.0096256024,-0.07109411761,0.008653747329,0.02537284853,0.02732526869,0.01689320903,0.06567090999,-0.08199085893,0.2430417531,0.00531406798,0.03648731244,-0.008090656601,0.1684669254,-0.1010028501,0.1005200977,0.2298690912,0.07171411645,0.1188153951,0.1258866384,0.07240077038,-0.2268014899,0.05969084676,0.3086796433,0.009569628004,0.06369222394,0.03068201922,0.004605530123,-0.01278932484,0.03279271811,-0.08502014506,0.06835352791,0.06552431927,0.0654914122,0.1201794399,0.01819334883,0.03794481153,0.05790574762,0.09239397417],
			[-0.001048771803,-0.001065263095,-0.007049325001,-0.007203585306,-0.006991105427,-0.008108179034,-0.01503861653,-0.09907532044,0.02424497989,0.009084661255,0.0665319613,0.02030741826,0.0003095969154,-0.01339417298,-0.01344782373,0.002978866564,0.003094158247,0.002113663779,0.00294021486,0.225293185,-0.01068805641,0.1315309502,0.04694045965,0.08824443367,0.2461258006,0.04582906253,-0.02027223182,-0.1095517725,-0.01998780232,0.00174021211,-0.03124397947,-0.007197794807,0.04811454487,-0.008531145573,-0.05597888062,-0.0008948332398,-0.02710388023,-0.002420101636,0.001614602378,0.005723292562,-0.001925390991,-0.07792702901,-0.005587433118,-0.004834874407,-0.01380918479,-0.003592811033,-0.005840677385,-0.001516352543,-0.003174698861,-0.003224227287],
			[0.005455079875,0.002814367868,0.004774665912,0.009907056443,0.0003529128421,0.00589642827,-0.01172986537,-0.06548757913,0.04440745594,0.0140878843,0.08341990804,0.03750004103,0.008119836486,0.00525557347,0.009515175009,-0.01108784146,-0.005488357189,-0.01476429968,-0.01640374991,0.07374803378,-0.002914128508,0.04390913232,0.05743093746,0.04763418515,0.2685145117,-0.01924562164,0.047257896,0.03395950423,0.0055688835,-0.001472799308,0.006868947789,-0.002087788626,0.01258733667,0.001758489792,0.003240481342,0.009205313785,0.008812032506,0.009328335608,0.001873316184,0.0209278882,-0.002415401642,0.01223318559,0.001655448015,0.007534653307,0.01867000653,-0.004261526748,0.006782571361,0.001131153192,0.004094363431,0.005107421814],
			[0.005526792067,0.007503783955,-0.006472376976,-0.006052979565,-0.009474757462,-0.004814127571,-0.0665759315,-0.4270595516,0.1183692454,0.04032163891,0.2512350061,0.107507498,0.01779514751,-0.03384272417,-0.01971247337,0.02821756829,0.02788039071,0.02165700132,0.02639663193,0.3310192972,-0.01585699296,0.1129743406,0.07617051043,0.4091272386,0.3414367209,0.1426975549,-0.0187076619,-0.3364022205,-0.05731411264,0.0211124387,-0.08682487681,-0.004388719764,0.1885753772,-0.01522015084,-0.1564052857,0.01052902396,-0.08266823032,0.007109335467,0.01899422314,0.08073682502,0.006348835526,-0.2943939871,-0.007758808763,0.001832203289,-0.005644564736,-0.003478602558,-0.006086093294,0.001312707483,0.002164063338,0.009084153496],
			[0.02202493214,-0.0366617342,-0.0692159683,-0.03197560592,-0.09235472723,-0.097634063,0.004124842808,-0.3260963798,0.1872643327,0.07229915159,0.4103493484,0.239762613,0.05492843225,0.3224649845,0.05807566266,-0.7138353589,-0.5020847526,-0.7803587067,-0.7135505373,-0.0915358687,-0.1921792912,-0.0419140277,-0.02427071702,-0.09934952027,7.771538379,0.338438803,-0.1001811187,-0.7537450699,-0.1791221531,-0.06185523751,-0.3906237815,-0.4530434464,0.7341638667,-0.2350618415,-0.5400332792,-0.08186178099,-0.108191717,-0.01189016443,-0.07096114761,0.3246319471,-0.2932439218,-0.2104866703,-0.04043061405,-0.02862119195,0.1374634559,-0.4703613418,-0.07399877481,-0.08552562624,-0.07865077949,-0.1343897938],
			[-0.01280394249,0.1515647521,-0.05990453909,-0.09191551557,-0.0419350677,-0.03163629905,0.009141627221,-0.008065511902,-0.001669651257,0.008087212448,0.06665844717,0.03436200668,-0.005891107277,-0.34992265,-0.1787234245,0.006127528034,0.01345628507,-0.003765160558,-0.004251135672,-0.003381862357,-0.05123207862,-0.0349090518,0.04227785279,0.04752527554,0.2487765,2.642958709,-0.0009193665953,-1.368692421,-0.2247652547,0.08728102353,-0.3049451175,0.04844738442,0.1152251909,-0.01595660791,0.00459710852,-0.1428660369,-0.00852739199,-0.01121919671,-0.002577826424,-0.03808997327,-0.004996812525,-1.70112729,-0.04550026767,-0.03130135051,-0.1830738129,0.2737132053,-0.006814009172,0.06741417777,0.0463724387,0.2103831917],
			[0.03002394631,0.02157483675,0.05522042494,0.08175982628,0.03232588004,0.06760145091,-0.01856764214,0.0004245979799,0.1550143941,0.04361465637,0.2341113775,0.1151884749,0.03378460138,0.02134334968,0.08215050623,0.02192611357,0.02455129533,0.01352529953,-0.01054928189,-0.04963230242,0.03620916987,0.01161137057,0.01197275166,-0.02095361886,-0.07270733388,-0.3143124357,0.3539347053,0.6651661773,0.1219310363,-0.012372125,0.194763054,0.07029755115,-0.2002764695,0.06821256848,0.2679901097,0.06690163922,0.1548824624,0.06105455582,0.01119088928,0.03478090771,0.03006158329,0.3738677061,0.02941778679,0.05880699025,0.1215071956,0.05292372214,0.06636257658,0.02210991706,0.04199532068,0.05378307431],
			[0.05809723802,-0.04551238272,0.132667889,0.176491487,0.1167630253,0.1393779136,-0.09504105534,-0.1235764627,0.2042250777,0.04881588296,0.2272427296,0.1227180434,0.05968410452,0.4477716001,0.4057123666,0.04144851316,0.04545468086,0.02666199682,0.05969459263,-0.1052539616,0.1695020183,0.09447565808,0.02621207805,-0.115691151,0.1502810504,-1.62771625,0.1552912757,3.47742466,0.5952714446,-0.1939787723,0.8912765048,0.1402389841,-0.7591135149,0.121521108,0.5060589386,0.08402613246,0.1110940476,0.002791603777,-0.001637423269,-0.08227969019,0.03928944685,2.930606593,0.09879732784,0.05159731496,0.3399744842,-0.1455014116,0.03513106073,-0.02242040674,0.001910401875,-0.05511763099],
			[0.01856213602,0.004921372319,0.05053730508,0.0555319261,0.03603131641,0.0526772462,-0.0249938563,-0.02421558344,0.07822435462,0.01873813284,0.09239983635,0.04408503513,0.01713842401,0.05200701605,0.07525114923,0.01735273542,0.01915829302,0.01101541801,0.02192548506,-0.05039327959,0.05253176586,0.01353393704,0.01098049347,-0.02875326752,0.0463699416,-0.308743997,0.05736227884,0.6616713365,0.1766787229,0.06877534717,0.2680914799,0.05612803627,-0.2171533548,0.04418232785,0.1559680343,0.03513017077,0.04075801925,0.02167169632,0.003193453402,-0.009200254864,0.01401098302,0.4677323142,0.02856046296,0.0363422133,0.08819993053,0.01478523611,0.01208014551,0.009209455892,0.02212603695,0.02048379924],
			[0.0329414309,0.04740126972,0.09376761805,0.0886992665,0.0353366434,0.0878504173,-0.01302501163,-0.0007009078439,0.1612967845,0.04014370628,0.2126764584,0.09105306496,0.02381093611,-0.08569400969,0.002322375248,0.02324623404,0.02621372253,0.01412883923,0.02105224369,-0.05337253582,0.03691229411,-0.006331355398,0.02099766831,-0.0007754884561,0.06113607335,0.001401624363,0.08752515738,0.006558264031,0.1032251066,0.4636069231,0.1672279922,0.07196986803,-0.1383789816,0.05844305563,0.1601676151,0.07016934609,0.06705435925,0.08583090964,0.01058890876,0.02821515243,0.01675385315,-0.3003739523,0.03143978862,0.1062954033,0.1178101773,0.1103412907,0.01807247447,0.04320598473,0.078624172,0.105290493],
			[0.03165579792,0.02106599989,0.1028666641,0.1017977618,0.08510611842,0.1156302444,-0.05852801516,-0.0425707749,0.14495213,0.03339218334,0.1616685364,0.07541921429,0.03057028994,0.02665996947,0.1147102595,0.04702796557,0.05165244306,0.03016059631,0.0613446731,-0.1620031821,0.1383874862,0.009672172752,0.02386568481,-0.07556543935,0.09480650669,-0.5105468136,0.1307291235,1.093977827,0.2891362658,0.1256202019,0.70501331,0.1501748063,-0.5384098826,0.1075814209,0.3611228627,0.07341219942,0.08771297907,0.04477308647,0.01017879674,-0.01451119444,0.03518159879,0.6798536865,0.05921683817,0.07270079822,0.1353712275,0.1004561209,0.02591631356,0.03168872343,0.05492587282,0.06607233493],
			[-0.002012181294,0.007708606971,0.01973839844,0.01707583852,0.0201870256,0.02886905687,-0.01309450564,0.01643028121,0.0284962859,0.006634470725,0.03236224588,0.01510835333,0.003495847102,-0.109164104,0.002049173663,0.07301578033,0.07660375854,0.05093678272,0.0746864393,-0.01265088684,0.03934745785,0.02187892633,0.03344325697,0.02496694209,0.1782137871,-0.1326741134,0.05030887277,0.2716856133,0.06313041741,0.0111903528,0.142785663,0.188570373,-0.1753670048,0.0927638098,0.1665489112,0.03804853406,0.03224034138,0.01226259054,0.01436751827,-0.02629892011,0.03010526623,0.09123497328,0.009289743721,0.01255597769,-0.03644740928,0.1650105333,0.006591813939,0.02958184313,0.02807764865,0.04314646607],
			[-0.07716800581,-0.1053339942,-0.1878854201,-0.2270518067,-0.1376827976,-0.2428126469,0.480144443,0.1346020924,-0.3829553262,-0.1003225001,-0.3877276953,-0.3337549442,-0.1277499423,0.1076315258,-0.2456665064,0.04940865198,0.02329717719,0.0671179131,0.07057776317,2.43912833,-0.1950733026,0.5455778834,0.2578297867,1.369325926,1.71961768,0.8106022881,-0.5825786652,-1.751988728,-0.3797097875,-0.08938382525,-0.7432731482,-0.2641176725,4.871005081,-0.3235069631,-1.269982901,-0.4219732463,-0.3220962976,-0.1730655516,-0.03488512861,-0.2655359854,-0.03784631907,-0.651122753,-0.1054264575,-0.1842618461,-0.2864216218,-0.4217221585,-0.1237841325,-0.1167379879,-0.1696402588,-0.2566016716],
			[-0.0133132031,0.008188456599,0.003288517902,-0.0005564791873,0.006570080979,0.01582609166,-0.01396080049,-0.00256965262,0.0311234453,0.009881993493,0.04941302572,0.03190933171,0.003458220753,-0.2288243373,-0.02931793279,0.03091227393,0.03310707496,0.02079170686,0.03209634892,-0.04493124055,0.0207731201,-0.002921083361,0.01070274571,-0.006128887784,0.06240413612,-0.08289740954,0.02534227997,0.1479854868,0.03253486378,0.0002191914205,0.07238709435,0.08652450032,-0.1444740119,0.1526926717,0.1854337683,0.05595099108,0.01677795122,0.01020267983,0.004989573609,-0.01936920108,0.01200523417,-0.07026687934,-0.00364214423,0.001291976275,-0.1160354754,0.2988756497,0.001004183534,0.04903688601,0.03834800083,0.06483306405],
			[-0.02767627453,-0.05227586606,0.009634822773,0.0004387798052,0.02324133694,0.009965566274,-0.1109130523,-0.028734832,-0.03311567153,-0.01240944422,-0.1120511164,-0.01476075372,0.0004868288,-0.1749187372,-0.002169792373,0.002075857419,0.005123471753,-0.001921700999,0.006170247827,-0.5388918049,0.06160857697,-0.1101242585,-0.07467551019,-0.3129238281,-0.441599678,-0.4055598133,0.08211754843,0.8365755353,0.1524640178,-0.04361424617,0.2660708465,0.07514857695,-1.130187788,0.1784123746,2.061900035,-0.2595058173,0.1714808599,-0.02784450953,0.006894395154,0.03716864038,0.009490025109,0.7151897311,0.003726905444,-0.02366143506,-0.1414253671,0.2667219012,0.01427805197,0.02833979296,0.009307468873,-0.01676172121],
			[0.01738258367,0.06520726112,0.03342081762,0.04744208253,0.01733067176,0.05668174318,0.003671228726,-0.009266590243,0.1324953308,0.03926651311,0.2233928613,0.1022980664,0.02283739746,-0.1656800946,0.00384871805,0.03854373505,0.0425161243,0.02451093004,0.03594446771,0.07566889746,0.0195784274,0.03155218992,0.04866115128,0.07360426149,0.2498647336,-0.06152539721,0.05655504688,0.1158808303,0.03111623569,0.02319023719,0.06827739698,0.1012648397,0.05902531939,0.1038721205,-0.2166567165,0.3851242449,0.01501477504,0.0639737383,0.007326364358,-0.0188462943,0.01714598694,-0.2911652186,0.011912497,0.05046080866,0.01138142241,0.2312370149,0.008383493804,0.0572159312,0.06755320729,0.1321278522],
			[0.005793238476,-0.0105949932,0.01919392465,0.02452042411,0.018101757,0.02015188582,-0.02226811939,-0.01949686541,0.02561995339,0.00575591441,0.02234879204,0.01581572918,0.008319785731,0.04779403403,0.05610638369,0.005920112751,0.006725467262,0.003541415892,0.008786681407,-0.05873404512,0.028560251,0.004087945784,-0.00247913659,-0.0416764552,-0.01531623559,-0.2590245868,0.02826838028,0.5509306261,0.09506738437,-0.03048225056,0.145435648,0.02560947035,-0.1978672177,0.03146949326,0.2390632993,-0.009595232366,0.1305927081,-0.001893035305,0.0003374548162,-0.008370673881,0.006227767044,0.4651302655,0.01401126915,0.005220303749,0.0355823684,0.00165778481,0.006042991219,-0.0007894882508,0.001027258538,-0.009019107271],
			[0.01481362825,0.01599303987,0.02845274671,0.04347169856,0.01296270562,0.03508285638,-0.002401059257,0.001367448357,0.07181026089,0.01979009281,0.1093935174,0.04900549103,0.01347449093,-0.01491954551,0.01754798778,0.01058422222,0.01147759355,0.006956670175,0.008743109618,0.0009150266864,0.01066700069,0.006357655482,0.01095559438,0.009871760771,0.03294518602,-0.05428701717,0.03536415128,0.1165052394,0.02537299944,0.01275056027,0.04375696326,0.02841983704,-0.02867532693,0.02595335325,0.04392320299,0.04844327922,0.0268913225,0.04649092756,0.005428565125,0.01755159451,0.006933046654,-0.01386097783,0.01298917268,0.04014725703,0.05602995495,0.03470450596,0.007456727627,0.01492095842,0.02855156107,0.03675746145],
			[0.005549028886,-0.001003623402,0.01051357175,0.01405655671,0.008193037259,0.01210741389,0.02383667075,0.1445257507,0.03910471287,0.01149538864,0.06029085596,0.03279670589,0.009658524337,0.01811643784,0.0259622006,0.004975138371,0.006523238975,0.001979345701,0.004333076297,-0.03303073984,0.01164989307,0.01211360137,0.009087136638,0.05208993056,0.02383733294,-0.0922270587,0.02799455639,0.1920731485,0.03378457787,-0.007768376352,0.05179303005,0.01182237222,-0.04979400216,0.01302408249,0.08198876736,0.001636899724,0.04555787687,0.004579912415,0.03315966433,0.01975939091,0.004301841942,0.1483095498,0.006673842652,0.006767713982,0.02400218434,0.0003533877613,0.005393545651,0.001036286515,0.003523416018,0.00162771409],
			[0.04013633319,0.004061159891,0.04272601178,0.05882072569,0.02827193503,0.05328440576,0.04073118409,0.1517296519,0.4208420806,0.1338725044,0.7514196337,0.3826981388,0.09234998742,0.0706302886,0.1224339335,0.03358938287,0.02862110294,0.03100453327,0.0360826272,0.06543564407,0.03667155683,0.03565242941,0.02191398276,0.05476002995,-0.123933509,-0.2321348856,0.03832892977,0.4174178327,0.07542589216,-0.004671856313,0.1128945684,0.04150659118,0.1163780788,0.03378664608,0.1629663613,0.009791177489,0.09753498626,0.02690112807,0.05282327448,0.3015131263,0.0185791017,0.2932776069,0.0233523136,0.03373535124,0.1297737814,-0.03395581664,0.01109698262,0.001583356324,0.01537757533,0.01354006151],
			[0.008368306137,0.00240905244,0.008195326118,0.01358464083,0.003484830283,0.01018039053,-0.003430655415,-0.02782835092,0.07891158601,0.02507574889,0.1437496027,0.06976877199,0.01619429643,0.01172639511,0.0206067102,-0.003806045989,-0.000508861012,-0.006641173763,-0.007191146852,0.05842871051,0.002191698896,0.03440891834,0.04217148322,0.03917178896,0.1712162646,-0.03990235497,0.03702826183,0.07130413767,0.01249252608,-0.001552635974,0.01768574096,0.003316625758,0.02203395831,0.005087671254,0.02092036717,0.007479249593,0.01726670983,0.009525705741,0.007349344379,0.04901764779,0.1043267475,0.04206934575,0.00382031233,0.009070551379,0.02777007599,-0.006835550708,0.005955910727,0.0009626415271,0.004590286018,0.005079204383],
			[0.01506866813,0.03241485325,0.1440269517,0.3022814857,0.001762176106,0.06881219917,-0.06789201755,-0.3356412812,0.2704787673,0.06922321559,0.4006491034,0.1430806138,0.02070037035,-0.0660707983,-0.002171842597,0.02490783004,0.02877348025,0.01435388185,0.007195080382,0.6984020088,-0.008908907722,0.443244671,0.1705202149,0.2625481828,0.8390673685,-0.0592873803,0.1384670921,0.07765151399,0.01620756678,0.0002100328077,0.03280425113,0.0366214688,-0.01895613678,0.01771044587,0.01774954799,0.01250522941,0.009055219883,0.02219505581,0.007991719791,0.007147217507,0.0119142752,6.763699731,-0.002833375738,0.01356553452,0.009948506933,0.06096018934,0.01831261415,0.01834546116,0.02125643269,0.05367150393],
			[0.01179935012,0.01703662331,0.03507895053,0.0218528861,0.04107683103,0.05162218397,-0.01943391791,-0.01726195306,0.03586990971,0.006874797306,0.03501311829,0.009065335844,0.006626482436,-0.0269912246,0.008784130191,0.006999785275,0.008909657,0.003091711135,0.006216595893,-0.06801370201,0.01510224089,-0.009456126398,0.002809424791,-0.02984361804,0.003029333961,-0.07059924634,0.03569794126,0.1594455147,0.03934378893,0.03716052206,0.06857537221,0.03249160903,-0.172161792,0.03136536832,0.2784259157,-0.03769271106,0.0392474328,0.004827272378,0.002259452171,0.0008014610223,0.006049378828,0.009002674895,0.06495126413,0.04084631389,0.04643986582,0.05100241083,0.007497982277,0.01772545851,0.03100651622,0.04066759504],
			[0.04123902057,0.01892309772,0.039033532,0.03672586735,0.03343365121,0.08061545979,-0.02186341445,-0.03742256732,0.04856346312,0.01052807511,0.06421232313,0.0130945108,0.01217427256,0.02601614339,0.02663233992,0.008623324366,0.01066070265,0.004169713687,0.007246989848,-0.0493711698,0.01668831132,-0.003625892897,0.008010710093,-0.008191826126,0.02629396321,-0.06627462061,0.04376861358,0.1863081928,0.04714442158,0.05172618003,0.07923184704,0.03339967365,-0.1555988922,0.02747090859,0.2377815369,-0.03778052866,0.05199467324,0.008026501855,0.002945484028,0.002546491683,0.009181925944,-0.03088745746,0.04276577423,0.1434118581,0.2076217285,-0.005700419253,0.01291769479,0.02497826721,0.07831716786,0.06178532258],
			[0.3033005751,0.0622865268,0.1801855265,0.2672665811,0.0955100272,0.2182368032,-0.04551070397,-0.01423876986,0.1484055732,0.02338606337,0.1375778305,-0.004139618996,0.04769596627,1.055277128,0.3098982548,0.0473051878,0.05376858745,0.02826580284,0.03674924605,-0.07198149802,0.0711015297,0.05373399312,0.05288133778,-0.04379700247,0.1543718284,-0.3521792668,0.2246835101,1.141969372,0.2233455434,0.03232537845,0.3665846732,0.1560115728,-0.4585684165,0.1520366176,0.6731815359,0.1167857123,0.2981908006,0.05770998714,0.02338078268,0.06877258032,0.05676839316,1.097481894,0.1082420714,0.1528797303,1.814123105,-1.170791848,0.08552265476,-0.1429695976,-0.04202308291,-0.06464222543],
			[-0.1895350852,-0.06105465032,-0.1717447556,-0.2436750145,-0.09639276988,-0.1194689541,0.01715226599,-0.04432884348,-0.09108871171,-0.005531455354,-0.04006242452,0.05577099713,-0.04373457597,-1.826867651,-0.4210936111,-0.05698023472,-0.06137466019,-0.03792610489,-0.0462678935,-0.03583581746,-0.05603676494,-0.09179927228,-0.06629768807,0.000790294274,-0.1875073889,0.2781604234,-0.1945430015,-0.8440526332,-0.1756873312,-0.06415163623,-0.2956127176,-0.1597166523,0.277959652,-0.1745465531,-0.4844156362,-0.2900131442,-0.2171062787,-0.08609500393,-0.03453959315,-0.1300115994,-0.04989031427,-1.479493305,-0.1385370644,-0.172070834,-1.25048092,2.175631219,-0.0653494827,0.304572817,0.1589985142,0.278040668],
			[0.02151485389,0.04322880297,0.01852413616,0.02564738017,0.01152023484,0.03215583043,-0.0112414881,-0.04092441093,0.1177471392,0.03650823032,0.2080834222,0.09975408713,0.02444693066,-0.02142168058,0.02984191565,0.01025925816,0.01603102031,0.001130703696,0.006153309928,0.05199639767,0.01350457122,0.03960507137,0.05911352685,0.04514542067,0.2687480033,-0.08467302729,0.06426049983,0.173102762,0.03466276182,0.002616093408,0.06246806882,0.04966851767,-0.03413298472,0.03591455215,0.04952420565,0.0564229629,0.0351288031,0.01924366336,0.007703635989,0.02531140624,0.09981937004,-0.05331615906,0.008592785745,0.01953872725,0.06884815281,0.04882602056,0.1914366769,0.01953779498,0.02517253373,0.0658878382],
			[-0.005762671056,-0.006228754951,-0.01856383518,-0.02932413847,-0.007502000704,0.009316059293,-0.007017300441,-0.02232155114,0.006392651587,0.004805498229,0.02919753551,0.02018349158,0.001515059863,-0.2072378198,-0.03828800957,-0.009914893374,-0.009747226971,-0.007665962903,-0.008359573187,-0.04141921536,-0.002998836954,-0.02398583897,-0.01287666707,-0.01655652696,-0.033498992,0.01471717478,-0.01769445963,-0.044071304,-0.01076701182,-0.009158367779,-0.0193651546,-0.01963131958,-0.02812910065,-0.02536860835,0.01245227393,-0.08395256184,-0.01106022537,-0.01810089952,-0.008036793941,-0.03738665395,-0.005513849348,-0.2952936841,-0.01513080665,-0.02294588933,-0.07993924915,0.2565104239,-0.004942847555,0.08007942936,0.05167043654,0.08964183573],
			[0.05109448312,0.01106762873,0.01998875021,0.0247752314,0.01477696355,0.08954981263,-0.02055313606,-0.06044097487,0.03259716254,0.007962933681,0.06110835424,0.00591925543,0.01241230342,0.02780568383,0.02664558951,0.004413166425,0.005828134026,0.001708021561,0.003325823893,-0.01798590062,0.009260007764,8.882958403e-05,0.007747551741,0.0189689983,0.03476368243,-0.04037792501,0.02740977189,0.1459005843,0.02854211101,0.004376490451,0.04664526037,0.01532040468,-0.09283272623,0.005882386964,0.1334419744,-0.05664791143,0.03908381254,-0.003690647991,0.0008096692743,-0.003860386947,0.0069484279,-0.1093210393,0.007724653956,0.009876517056,0.2592144584,-0.006573931488,0.01129115844,0.03770362857,0.1265088983,0.07771637284],
			[0.0236343801,-0.016348973,-0.03516722754,-0.06641759411,-0.003686545111,0.01645782504,-0.03232745985,-0.03137308169,0.06703016435,0.02737834105,0.1502053881,0.09745430265,0.02588313711,-0.13785883,0.005843843539,-0.03629767415,-0.03386186833,-0.03014891323,-0.03137162726,-0.2535862567,0.007017440667,-0.1071816491,-0.05673383282,-0.1574285024,-0.1599750079,-0.04547948508,-0.02266836489,0.1032217278,0.01251938232,-0.02474293223,0.0139553856,-0.04509391878,-0.2807591349,-0.06061333409,0.2607879071,-0.304843743,0.02602318592,-0.06102020661,-0.03417205132,-0.1709001931,-0.01304600356,-0.8526503284,-0.01546037894,-0.05102110279,-0.02985655476,0.192952295,-0.003554190501,0.07431255275,0.04963425246,0.3221056575]
		],
		"names": [
			"G01",
			"G02",
			"G03",
			"G04",
			"G05",
			"G06",
			"G07",
			"G08",
			"G09",
			"G10",
			"G11",
			"G12",
			"G13",
			"G14",
			"G15",
			"G16",
			"G17",
			"G18",
			"G19",
			"G20",
			"G21",
			"G22",
			"G23",
			"G24",
			"G25",
			"G26",
			"G27",
			"G28",
			"G29",
			"G30",
			"G31",
			"G32",
			"G33",
			"G34",
			"G35",
			"G36",
			"G37",
			"G38",
			"G39",
			"G40",
			"G41",
			"G42",
			"G43",
			"G44",
			"G45",
			"G46",
			"G47",
			"G48",
			"G49",
			"G50"
		],
		"description": "Stable smallworld network, IAA=533.094",
		"created": {
			"creator": "",
			"time": 736265.634,
			"id": "",
			"nodes": "",
			"type": "unknown",
			"sparsity": ""
		},
		"tol": 2.220446049e-16,
		"N": 50
	}
}
