{
	"obj_data": {
		"network": "Tjarnberg-D20150924-smallworld-N50-L247-ID5494403",
		"A": [
			[-22.96665404,0,8.758101418,0,0,0,0,0,0,0,0,0,0,0,0,0,0,0,0,5.952466448,0,0,0,0,0,0,0,0,0,0,0,0,0,0,0,0,0,0,0,0,0,0,0,0,0,0,0,0,6.319741668,6.20021423],
			[0,-0.3922673216,0,0.002173226158,0,0,0,0,0,0,0,0,0,0,0,0,0,0,0,0,0,0,0,0,0,0,0,0,0,0,-0.2944721445,0,0,0,0,0,0,0,0,1.690769951,0,0,0,0,0,-0.4042200655,0,0,0,0],
			[8.758101418,0,-40.32855782,0,0,0,0,0,0,0,0,0,0,1.508218954,0,0,0,0,0,0,0,0,0,0,0,0,3.239193589,0,0,0,0,0,0,0,0,0,0,0,0,0,0,0,0,0,0,0,0,0,0,0],
			[0,0.002173226158,0,-0.3520626377,-0.1271337303,-0.2368816513,0,0,0,3.189209387,0,0,0,0,0,0,0,0,0,0,0,0,0,0,0,0,0,0,0,0,0,0,0,0,0,0,0,0,0,0,0,0,0,0,0,0,0,0,0,0],
			[0,0,0,-0.1271337303,-0.1999368066,-0.2662202044,0,0,0,0,0,0,0,0,0,0,0,0,0,0,0,0,0,0,0,0,0,0,0,-0.07171646323,0,0,0,0,0,0,0,0,0,0,0,0,0,0,-0.1140943733,0,0.03803145777,0,0,0],
			[5.639521881,0,0,-0.2368816513,-0.2662202044,-5.0429713,0,0,0,0,0,0,0,0,0,0,0,0,0,0,0,0,0,0,0,0,0,0,0,-0.4520310409,0,0,0,0,0,0,0,0,0,0,0,0,0,0,0,0,0,0,0,0],
			[0,0,0,0,0,0,-0.4498578148,0,0,0,0,0,0,0,0,0,0,0.06411017167,0,0,0,0,0,0,0,0.4433381363,0,0,0,0,0,0,0,0,0,0,0,0,0,0,0,0,0,0,0,0,0,0,0,0],
			[0,0,0,0,0,0,4.709381085,-44.46746704,0,9.165581323,0,0,0,0,0,0,0,0,0,0,0,0,0,0,0,0,0,0,0,0,0,0,0,0,0,0,4.224751652,0,0,0,0,0,0,0,0,0,0,0,0,0],
			[0,0,0,0,0,0,0,0,-0.1347400218,-0.1249605041,-0.0260787139,0,0,0,0,0,0,0,0,0,0,0,0,0,0,0,0,0,0,0,0,0,0,0,0,0,0,0,0,0,0.2042832589,0,-0.1249605041,0,0,0,0,0,0,1.636439297],
			[0,0,0,0,1.240912136,0,0,0,-0.1249605041,-22.0658518,0,0,0,0,0,0,0,0,0,0,0,0,0,0,0,0,0,0,0,0,4.244310687,0,4.068279368,0,0,0,0,0,0,0,0,0,0,0,0,0,0,0,0,0],
			[0,0,0,0,0,0,0,0,-0.0260787139,0,-1.173542126,3.444563461,-0.2271021335,0,0,0,0,0,0,0,0,0,0,0,0,0,0,0,0,0,0,0,0,0,0,0,0,0,0,0,0,0,0,0,0,0,0,0,0,0],
			[0,0,0,0,0,0,0,0,0,0,3.444563461,-13.96080484,0.5585191227,4.409475875,0,0,-0.1564722834,0,0,0,8.209361813,0,0,0,0,0,0,0,0,0,0,0,0,0,0,0,0,0,0,0,0,0,0,0,0,0,0,0,0,0],
			[0,0,0,0,0,0,0,0,0,0,-0.2271021335,0.5585191227,-0.2825194006,1.949383864,0,0,0,0,0,0,0,0,0,0,0,0,0,0,0,0,0,-0.3868342562,0,0,0,0,0,0,0,0,0,0,0,1.464754431,0,0,0,0,0,0],
			[0,0,0,0,0,0,0,0,0,0,0,4.409475875,1.949383864,-52.98434035,0.8888494988,2.890390791,0,0,0,0,0,0,0,0,0,0,0,0,0,0,0,0,0,0,0,0,0,0,0,0,0,0,0,0,5.606923489,0,0,0,0,0],
			[0,0,0,0,0,0,0,0,0,0,0,0,0,0.8888494988,-50.91434244,6.654418497,0,0,0,0,0,0,0,0,0,0,0,0,7.022780331,0,0,0,0,0,0,0,0,0,0,0,0,0,0,0,0,0,0,0,0,0],
			[7.917062895,0,10.11962761,0,0,0,0,0,0,0,0,0,0,2.890390791,6.654418497,-31.52264543,0.5845978366,0,0,0,0,0,0,0,0,0,5.202703423,0,0,0,0,0,0,0,0,0,0,0,0,0,8.012684846,0,0,0,0,0,0,0,0,0],
			[0,0,0,0,0,0,0,0,0,0.5270073434,0,0,0,0,0,0.5845978366,-0.233621812,0,0,0,0,0,0,0,0,0,2.090643564,0,0,0,0,0,0,0,0,0,0,0,0.7454165723,0,0,0,0,0,0,0,0,0,0,0],
			[0,0,0,0,0,0,0,0,0,0,0,0,0,0,0,0,0,-12.38847572,1.884187079,4.638751235,0,0,0,0,0,0,0,0,0,0,0,0,0,0,0,0,0,0,0,0,0,0,0.5661254142,8.585329939,0,0,0,0,0,0],
			[0,0,0,0,0,0,0,0,0,0,0,0,0,0,0,0,0,1.884187079,-2.014580649,3.395665872,4.261696496,0,0,0,0,0,0,0,0,0,0,0,-0.4498578148,0,0,0,0,0,0,0,0,0,0,0,0,0,0,0,0,0],
			[0,0,3.905287407,0,0,0,0,0,0,0,0,0,0,0,0,2.01132081,0,4.638751235,3.395665872,-52.16068764,0,0,0,0,0,0,0,0,0,0,0,0,0,4.962561933,0,0,0,0,0,0,0,0,0,0,0,0,0,0,0,0],
			[0,0,0,0,0,0,1.845069008,0,0,0,0,0,0,0,0,0,0,0,0,0,-51.28053105,0,3.282658112,0,0,0,3.34894151,0,0,0,0,0,0,0,0,0,0,0,0,0,7.265095047,0,0,0,0,0,0,0,0,0],
			[0,0,0,0,0,0,0,0,0,0,0,0,0,0,0,0,0,0,0,0,0,-0.8660306241,0,0,2.862138851,0,0,0,0,0,0,0,0,0,0,0,2.627430425,0,0,0,0,0,0,0,0,0,0,0,0,0],
			[0,0,0,0,0,0,0,0,0,0,0,0,0,0,0,0,0,0,0,0,3.282658112,0,-0.5400467003,0.1043148556,0,0,0,0,0,0,0,0,0,0,0,0,0,0,0,0,0,0,0,0,0,0,0,0,0,0],
			[0,-0.2184092289,0,0,0,0,0,0,0,0,0,0,0,0,6.733741252,0,0,0,-1.680990433,5.34287651,0,0,0.1043148556,-1.857021752,4.195413099,0,0,0,0,0,0,0,0,0,0,0,0,0,0,0,0,0,0,0,0,0,0,0,0,0],
			[0,0,0,0,0,0,0,0,0,0,0,0,0,0,0,0,0,0,0,2.669808336,0,0,0,4.195413099,-38.33788266,9.204699394,3.717303344,0,0,0,4.329066507,0,0,0,0,0,0,0,0,0,0,0,0,0,0,0,0,0,0,0],
			[0,0,0,0,0,0,0,0,0,0,0,0,0,0,0,0,0,0,0,0,0,0,0,0,9.204699394,-25.97005259,5.807946908,2.178659224,0,0,0,0,0,0,0,0,0,0,0,8.039850173,0,1.274597142,0,0,0,0,0,0,0,0],
			[0,0,0,0,0,0,0,0,0,0,0,0,0,0,1.92330515,0,0,0,0,0,0,0,0,0,3.717303344,5.807946908,-50.64812223,0,0,2.726312216,0,0,0,0,0,0,0,0,0,0,6.212166974,0,0,0,0,0,0,0,0,0],
			[0,0,0,0,0,0,0,0,0,0,0,0,0,0,0,0,0,0,0,0,0,0,0,0,0,2.178659224,0,-0.8812432072,-0.9399203135,0,0,0,0,0,0,0,0,0,0,0,0,0,-0.2586139128,0,0,0,0,0,0,0],
			[0,0,0,0,0,0,0,0,0,0,0,0,0,0,0,0,0,0,0,0,0,0,0,0,0,0,0,0,-0.9714320928,-0.03368500545,-0.1684250273,0,0,0,0,0,4.771318031,0,0,0,0,0,0,0,0,0,0,0,0,0],
			[0,0,0,0,0,0,0,0,0,0,0,0,0,0,0,0,0,0,0,0,1.451715074,0,0,0,0,0,0,0,-0.03368500545,-0.2444879428,0,-0.0988817902,0,0,0,0,0,0,0,0,0,0,0,0,0,0,0,0,0,0],
			[0,0,0,0,0,0,0,0,0,0,0,0,0,0,0,5.095128728,-0.3422831199,0,0,0,0,0,0,0,0,0,0,0,-0.1684250273,0,-1.726628183,0,0,0,0,0,0,-0.4150861962,0,0,0,0,0,0,0,0,0,0,0,0],
			[0,0,0,0,0,4.751758995,0,0,0,0,0,0,-0.3868342562,0,0,0,0,0,0,0,7.784496099,0,0,0.3172910191,0,0,0,0,0,-0.0988817902,0,-7.89424402,1.479967014,0,0,0,0,0,0,0,0,0,0,0,0,0,0,0,0,0],
			[0,0,0,0,0,0,-0.5465663788,0,0,0,0,0,0,0,0,0,0,0,0,0,0,0,0,0,0,0,0,0,0,0,0,1.479967014,-1.771179319,0,-0.315117793,0,0,0,6.506639118,0,0,0,0,0,0,0,0,0,0,0],
			[0,0,0,0,0,0,0,0,0,0,0,0,0,0,0,0,0,0,0,0,0,0,0,0,0,0,0,0,0,0,0,0,0,-0.4161728093,-0.1912439019,-0.09779517713,0,0,0,0,0,0,0,0,0,0,0,0,0,0],
			[0,0,0,0,0,0,0,0,0,0,0,0,0,0,0,0,0,0,0,0,0,0,0,0,0,0,3.494547663,0,0,0,0,0,-0.315117793,-0.1912439019,-0.7736685124,-0.3944405477,2.384029096,0,3.626027845,0,0,0,0,0,0,0,0,0,0,0],
			[0,0,0,0,0,0,0,0,0,0,0,0,0,0,0,0,0,0,0,0,0,0,0,0,0,0,0,0,0,0,0,0,0,-0.09779517713,-0.3944405477,-0.5617789619,3.053382752,0.02716532698,0,0,0,0,0,0,0,0,0,0,0,0],
			[0,2.499210082,0,0,0,6.27084408,0,0,0,0,0,0,0.604156872,0,0,0,0,0,0,0,0,0,0,0,0,0,0,3.154437769,0,0,0,0,0,0,2.384029096,3.053382752,-52.48232511,0,0,0,0,2.083037273,0,0,0,0,0,0,0,0],
			[0,0,0,0,0,0,0,0,0,0,0,0,0,0,0,0,0,0,0,0,0,-0.631322199,0,0,0,0,0,0,0,0,0,0,0,0,0,0.02716532698,0,-0.9953375805,3.007745003,1.052928074,0,0,0,0,0,0,0,0,0,0],
			[0,0,0,0,0,0,0,0,0,0,0,0,0,0,0,0,0,0,0,2.96428048,0,0,0,0,0,0,0,0,0,0,0,0,0,0,0,0,0,3.007745003,-45.7018595,0,0,4.125869862,0,0,0,0,0,0,0,0],
			[0,0,0,0,0,0,0,0,0,0,0,0,0,0,0,0,0,0,2.076517594,0,0,0,0,0,0,0,0,0,0,0,0,7.017347265,0,0,0,0,0,1.052928074,0,-17.68897432,0,0,0,0,0,0,0,0,0,0],
			[0,0,0,0,0,0,0,7.543267996,0,0,0,0,0,0,0,0,0,0,3.967224352,0,0,3.181603096,0,0,0,0,0,0,0,0,0,0,0,0,0,0,0,0,0,0,-38.3911267,2.59374542,0,0,0,0,2.93602854,0,0,0],
			[0,0,0,0,0,0,0,0,0,0,0,0,0,0,0,0,0,0,0,0,0,0,-0.7671488339,0,0,1.274597142,0,0,0,0,0,0,0,0,0,0,0,0,0,0,2.59374542,-1.989588548,0,0,0,0,0,0,0,0],
			[0.233621812,0,4.431208137,0,0,0,0,0,0,0,0,0,0,0,0,0,0,0,0,0,0,0,0,0,0,0,0,0,0,0,-0.1434329265,0.01629919619,0,0,0,0,0,0,0,0,0,0,-0.3933539347,0,0,0,0,0,0,0],
			[0,0,0,0,2.375336191,0,0,0,0,9.141675835,0,0,0,0,0,8.200668908,0,0,0,0,0,0,0,0,0,0,0,0,0,0,0,0,0,0,0,0,0,3.60646881,0,0,0,0,0,-40.42961284,0,0,0,0,0,0],
			[0,0,0,0,0,0,-0.1738580927,0,-0.007606291554,0,0,0,0,0,0,0,0,0,0,0,0,0,0,0,0,0,0,0,0,0,0,0,0,0,0,0,0,0,0,0,0,0,0,0,-0.4509444279,0,0,0,0,0],
			[0,0,0,0,0,0,0,0,0,0,0,0,0,0,0,0,0,0,0,0,0,-0.466157011,0,0,0,0,0,0,0,0,0,0,0,0,0,0,0,0,0,0,0,0,0,0,0,-2.076517594,0,3.307650213,0,0],
			[0,0,0,0,0,0,0,0,0,0,0,0,0,0,0,0,-0.3401098938,0,0,0,0,0,0,0,0,0,0,0,0,0,0,0,0,0,0,0,2.163446641,0,0,0,0,0,0,0,0,0,-0.5954639674,0,0,0],
			[0,0,0,0,0,0,0,8.060495821,0,0,0,0,0,0,0,0,0,0,0,0,0,0,0,0,0,0,0,0,0,0,0,0,0,0,0,0,0,0,0,0,0,0,0,0,0,3.307650213,0,-13.8912616,5.37438829,6.48599347],
			[6.319741668,0,0,0,0,0,0,0,0,0,0,0,0,0,0,0,0,0,0,0,0,0,0,0,0,0,0,0,0,0,0,0,0,0,0,0,0,0,0,0,0,0,0,0,0,0,0,5.37438829,-15.27560667,7.200984876],
			[6.20021423,0,0,0,0,0,0,0,0,0,0,0,0,0,0,0,0,0,0,0,0,0,0,0,0,0,0,0,0,0,0,0,0,0,0,0,0,0,0,0,0,3.868342562,0,0,0,0,0,6.48599347,7.200984876,-50.53185463]
		],
		"G": [
			[0.07408067247,-0.01569440649,0.01968232128,-0.01758971606,0.06180810461,-0.007173711235,0.1124616178,0.01135434736,-0.002438092919,0.002714062092,0.003278472298,0.0005557196299,-0.008232558016,0.0002411689107,-0.002288425571,-0.0004411254692,-0.01333970593,0.01100743566,0.04352472619,0.0101636597,-0.002132532426,-0.04532067242,-0.07726024951,-0.01619784315,-0.005254070412,0.0005827949971,-0.002454383264,-0.01238903997,-0.002471563431,-0.03192441576,-0.005640905154,7.135573659e-05,0.002091296183,0.1433538855,-0.03851522219,-0.01898250219,-0.003863594689,-0.001457140527,-0.003071566565,-0.001321970974,0.002003488236,0.04306086488,0.02476200601,0.002039193187,-0.01263956483,0.09984472755,0.01382611109,0.0607637829,0.06426831001,0.02596846851],
			[0.02460644614,2.521967105,0.001803353805,0.0434191742,-0.7679873235,0.370782746,-0.3866428993,-0.05390811563,0.002140004555,-0.01112974977,0.1065609039,-0.01597725264,-0.793229795,-0.03335477884,0.01270158391,-0.0569230746,0.468611685,0.06493868681,0.3175073602,0.04980560711,0.09340540128,0.1379796749,0.5545506313,0.1568384692,0.02989981517,0.01035011199,-0.0005092993197,0.05916886323,0.1253154003,-0.620822368,-0.39920777,0.3402633453,0.2391671329,0.7053610132,-0.3431778644,0.1967582641,0.009381320547,0.5708575289,0.05203522467,0.2797421365,0.007793571539,0.03062683643,0.05388056867,-0.01494861717,-0.2204144334,-0.976266778,-0.01062285771,-0.304689241,-0.1222075977,-0.05343481423],
			[0.01605239919,-0.003337793206,0.02906467889,-0.005595651971,0.01935377757,-0.002101267541,0.02531437827,0.00254910797,-0.001362829427,0.0004004974597,0.001922866136,0.001236526186,0.008975121959,0.001276044875,-0.0001377136028,0.0003281607174,-0.009373885605,0.002635511981,0.01036309057,0.002479345217,0.000503794717,-0.008254134499,-0.01194324029,-0.001831173011,-0.0004736044133,0.001008432714,0.001040457421,6.241909223e-05,-0.001437975814,0.01022204916,0.000158911769,-0.0005285512595,-0.0006599554854,0.03430143142,-0.008396608213,-0.003738617575,-0.0006790512255,0.0005771481418,-0.0008750620443,0.0001736620168,0.00102178734,0.01031439328,0.004185003819,0.0008848239462,0.01096926484,0.02152684256,0.006274181766,0.01310648392,0.01388586365,0.00558654717],
			[0.1258309845,0.08468970547,0.07711671118,2.678001753,0.2690561834,0.09774320938,-1.321271052,0.01474318148,-0.353739462,0.3638098216,0.124725643,0.01228652457,-0.4175390642,-0.005645130976,0.01129089932,0.1156654821,-1.085912347,0.009429420768,0.05287595363,0.0219660142,-0.02492081828,0.1554973971,-0.4262119769,-0.001172422624,-0.007919254441,-0.04260463884,-0.09457955563,-0.06645071071,0.04923841303,-1.417338546,0.8411051661,0.2379757566,1.174373633,0.5256696972,-0.8616990141,0.5627368811,0.01086144488,-0.2028864785,0.06776514092,-0.02334612314,0.01529397743,0.1932422209,0.1696354572,-0.01312497125,-0.1382645183,0.09027129231,0.09259360114,0.06702135678,0.08744565128,0.02504758252],
			[-0.1966915286,0.04457245284,-0.08873932811,-1.60076479,4.98245516,-0.2945427377,0.9006914749,-0.03106052779,0.3072519661,-0.2359621267,-0.08830226694,-0.01275715018,0.2275226557,-0.0002297497096,-0.0117515229,-0.08828083511,0.3688371607,-0.02482132413,-0.1071557884,-0.03521212847,-0.03553954432,-0.09002419228,0.07361314326,-0.01395463034,0.001273175199,0.02216298773,0.04331483442,0.08045207874,-0.05195156866,-0.377148072,-0.5639022449,-0.1227090906,-0.7270224477,-0.6384316809,0.616679664,-0.2758897531,0.007168393199,0.1447071795,-0.03903988714,0.02294735179,-0.03041056054,-0.2057936829,-0.1862250848,0.002972216463,-1.263477832,-0.2362883714,0.1682784599,-0.1428929452,-0.1575649217,-0.05497830567],
			[0.08865804917,-0.020750412,0.02349891732,-0.05921842872,-0.2215322445,0.2067180857,0.06244343814,0.01312708654,-0.00298215145,-0.0009903421866,0.004680105122,0.0003171435832,-0.01903156334,-0.000241263904,-0.004412408005,-0.002975849906,0.05546060519,0.01205008014,0.05058359932,0.01077227444,-0.01555631406,-0.07120644203,-0.1665861954,-0.03011209236,-0.009283194419,-0.002406029043,-0.0009727087275,-0.02684187851,0.01004560807,-0.3299636307,-0.0261359296,0.001277817015,-0.007676926634,0.1526420146,-0.03584715199,-0.032842394,-0.005836953234,0.005903441286,-0.002644016316,-0.002725561481,-0.0005891707301,0.04661041568,0.03593758634,0.001869356191,0.05305051548,0.120271662,-0.01705395596,0.07296977427,0.07702388417,0.03112389411],
			[0.01318749875,-0.07878320372,0.001806555473,-0.008272647011,0.0002952329418,0.01141389436,2.274776425,0.004750537713,-0.0001145621151,-0.001354012832,0.01375319329,-7.286226837e-05,-0.07216111316,-0.001834141198,0.007878125509,0.01179185995,-0.1164884335,0.01969860011,0.02603128466,0.0105958499,0.003921428042,0.0114824674,-0.02161786812,0.04784525821,0.02001302995,0.05753738868,0.001088904464,0.1129770505,-0.0642358432,-0.0093003938,0.07036343529,0.02250874306,0.01877046691,0.1595932088,-0.0544321687,-0.03503211966,-0.008177084499,-0.0211794745,-0.004940166001,0.01736037613,0.005980151705,0.03850405008,-0.04589058765,0.001568668771,-0.02287992299,0.04816697518,0.02950493259,0.02061095197,0.01577523754,0.00650792639],
			[0.004756134935,0.003736117299,0.001265654748,-0.02019156929,0.04154870477,0.007744689108,0.2178360689,0.02319047626,-0.005422395716,0.00599105269,0.00316047238,0.000210810985,-0.01251149211,-0.0002166808687,0.001034638342,0.003165980102,-0.03425634431,0.002863195054,0.006682316631,0.001921719773,-0.0006340574818,0.002904594549,-0.0180764152,0.005184759463,0.002128358785,0.006251396966,-0.00161703811,0.01923886746,-0.01322944165,-0.04601015505,0.02128182507,0.008145536,0.02258409152,0.02891958971,-0.02087526537,0.01527042277,0.001057068755,-0.002020515474,0.0008673563431,0.003078174653,0.0009743335107,0.01071703627,-0.006805387639,0.0001547185411,-0.01320647538,0.003990224136,0.007457762432,0.00296161431,0.00362467445,0.001304639846],
			[0.1005798217,0.003019830489,-0.2298051482,-0.0613440576,0.2576799857,-0.04709653216,0.8886473055,0.1110261828,7.581608801,-0.01013828693,-0.6941861052,-0.1734655071,0.08553456949,-0.01776235827,-0.02445257189,0.008772709638,-0.5060956322,0.07216881367,0.3909553644,0.02165609083,-0.1353154007,-0.1952163688,-1.965270872,-0.1796273203,-0.02923869449,0.03717411323,-0.04056139526,0.03760051334,-0.2193171435,-0.4030813318,0.1161524609,-0.01858386035,-0.1405771043,0.2859922053,0.01384894849,-0.145211808,-0.01517054107,-0.06715270321,-0.03158948252,0.01318749006,0.06270350065,0.7800390581,-2.329375642,0.0184241244,-0.2860485957,0.8815827888,0.3256271136,0.5538200021,0.4197258289,0.3887641059],
			[0.0126182528,0.007866070708,0.006719751381,-0.08616836454,0.2123895749,0.0141500091,-0.1050510947,0.001401100561,-0.02702470006,0.03068932821,0.01052364027,0.0008822280056,-0.03789605701,-0.0006275261075,0.0004415724319,0.009067076439,-0.1013725602,0.0009022410568,0.005106232256,0.001787364287,-0.005386902581,0.008193990614,-0.05686706461,-0.003029189013,-0.001533360461,-0.004005467793,-0.008786021227,-0.006162522759,0.004025289283,-0.1955824328,0.06870265556,0.0212419826,0.0999262441,0.04343635856,-0.07297011356,0.04855008175,0.001044835332,-0.01657895873,0.005692597225,-0.00205552314,0.0004269801503,0.01656982474,0.01393532739,-0.0011813712,-0.06153961466,0.01014443446,0.01567032024,0.007329892429,0.009176462393,0.00292157871],
			[0.03775910067,0.04995866425,0.0222776526,0.1746740698,-0.7365152516,0.1361367117,0.5935466698,0.002341703307,-0.7146855095,-0.005809661211,3.535807731,0.8448924054,-0.9709099999,0.03590804801,0.02956334385,0.003401236996,-0.9146012351,0.003878751749,-0.05628750202,0.02501872188,0.2232134743,0.3306500602,1.391889391,0.2209836631,0.05743665552,0.04354282851,-0.01944501663,0.2043017516,0.006413640944,-0.2842295717,0.11241418,0.07629031405,0.08386910312,0.3110110661,-0.1077502624,0.1567478965,0.02700149823,-0.2383158748,-0.02721009118,0.01038030512,0.03636227707,0.005344631837,0.09830344304,-0.03435215584,0.6328183835,-0.04335157914,0.1322497059,-0.02111046144,-0.00193984412,-0.02149764838],
			[-0.0009142348868,0.01931386371,0.003676072548,-0.0132323346,0.0235492117,0.007204799853,0.1785646564,-0.0004421724051,-0.1773872115,-0.006074841626,0.8406081532,0.2933948133,0.1266126595,0.0294329786,0.007751127838,0.002255411594,-0.2998048689,0.00314522202,-6.954643362e-07,0.005932201326,0.07411150238,0.06011486691,0.462143509,0.05392466672,0.01252387516,0.01091611448,-0.005012785758,0.05474845575,0.003833008367,-0.07587479361,0.01073247817,-0.001928778859,-0.01511210961,0.0641957809,-0.002545438852,0.03281529567,0.007755490208,0.00104825416,-0.007174445763,0.006869983492,0.01268137153,-0.0008749395103,0.02488413683,0.005255039756,0.3600036202,-0.02654901809,0.06403154795,-0.01430696987,-0.009689284206,-0.009073863633],
			[-0.2205352585,0.03443595522,-0.03297316401,-1.096278654,4.13350791,-0.588794815,-0.4608037223,-0.03155672001,0.1319821937,-0.06095452134,-1.038245241,0.1040236004,6.927713401,0.2629097939,-0.03239461429,0.0156257118,0.2370057161,0.01937440376,0.2459587025,-0.04179372058,-0.01382545506,-0.7744150432,0.04268364534,-0.3033976409,-0.1034888758,-0.06370502679,0.02910794544,-0.2296444943,0.05017950119,0.3642047546,-0.4314498454,-0.4213481125,-0.6464601356,-0.6662925303,0.516597452,-0.2955892703,-0.02015608204,1.255099403,0.03541652145,0.04904602095,-0.002756916319,-0.13046267,0.1369378501,0.2551034705,2.223123388,-0.2798979369,0.250408009,-0.1715094554,-0.1851359769,-0.07118194262],
			[-0.007204120526,0.008695584407,0.0002356239159,-0.04246755642,0.1561063432,-0.02058515001,-0.09337972076,-0.001292498348,-0.02360859697,-0.002680078866,0.03260546162,0.02878446172,0.2708107724,0.03136193047,-0.0001337249131,0.002289014871,-0.01110671306,0.0006988790499,0.01022029773,-0.0009943014044,0.005913163491,-0.02266019095,0.04180225569,-0.007681876989,-0.003215816965,-0.003226927755,0.0009416898172,-0.00536320396,0.007022387682,0.008346444401,-0.01781836808,-0.01618176376,-0.02579283309,-0.01998553801,0.01978392124,-0.004094262175,0.000730427743,0.04854517948,0.0009112273779,0.002254104662,0.001274256341,-0.005169283803,0.01203189829,0.009959813063,0.350449145,-0.01495001055,0.0162532165,-0.008322835993,-0.007707088969,-0.003815051295],
			[0.007621130809,0.07636411421,-0.00098061766,-0.01453192202,-0.008330275399,0.02676932654,-0.009501943536,-0.0002098882291,0.0002025017003,-0.001046663726,-0.002020759266,0.0009826160905,0.0253227415,0.001482151127,0.02064317562,0.002755524968,0.01194172048,0.005418439087,0.02668474437,0.00376315108,0.0003121916264,-0.005953998683,-0.03705915273,0.004230476969,0.001969894367,0.007520370545,0.00150415526,0.06286460655,0.09299408622,-0.04749654071,-0.01693781268,0.01089658099,0.0005336718366,0.03092547537,-0.003430810161,0.06606307227,0.01236818911,0.03751622687,0.002467580059,0.01295036594,0.002770335282,0.02799951218,-0.03359684335,0.002068055548,0.02053633429,-0.02083927543,0.01312752973,-0.003750461516,0.00219809194,0.0007735117507],
			[0.02888168089,0.02440507595,0.01508284205,-0.02265015852,0.049118226,0.007525821427,0.05989838382,0.005514762081,-0.003247031713,0.0002259010006,0.00371927034,0.003871483319,0.03987425318,0.004301469829,0.006315657684,0.03623980755,-0.01342604547,0.01037383826,0.04552276292,0.008386426428,0.003067191982,0.0192269062,-0.03660705903,0.01014349933,0.005146008827,0.009093824057,0.004302828994,0.03943737922,0.005223293178,0.01758079034,0.009613767662,0.003358828588,-0.004488654668,0.104284386,-0.02106696158,0.02297416533,0.004736685261,0.01223382334,-0.001724376688,0.007194181288,0.011544042,0.0402740386,-0.009966623965,0.003647544531,0.04105583274,0.02650177012,0.06005682373,0.01962009558,0.02321962066,0.009265818381],
			[0.123196486,0.004687966431,0.05563105963,-0.2761276629,0.6364084854,0.06887589866,0.4004621287,0.03310181632,-0.06297397018,0.06064135632,0.04205566451,0.01380753934,-0.0006643190115,0.01094733094,0.0456859389,0.1369836799,3.362213295,0.06994145261,0.2900729074,0.06343143925,0.06629593878,0.1351464765,-0.1792790414,0.1639157085,0.07135527304,0.1172546573,0.1565151042,0.3446530135,-0.1124666195,1.41653875,0.3469407933,0.07479460492,0.1873298274,0.8682763251,-0.3328493531,0.1747004075,0.01530072549,0.1858250469,0.0673305301,0.06480288443,0.09532531714,0.4321779357,-0.1059279388,0.01482817521,-0.02490280322,0.1478704767,0.5106629633,0.09340486351,0.1025346715,0.03967725892],
			[0.008287114358,-0.02062186825,0.02255884439,-0.1135659395,0.3578208162,-0.02344456344,0.1854212296,0.002354245306,0.009256991312,-0.005358634717,0.0007562349422,0.0007436202792,0.006308013187,0.0009646253826,-0.001110390774,0.0008641109637,0.004142424275,0.1129417954,0.1569813032,0.01972667971,0.01706365796,-0.06840699945,0.1023518207,-0.009282004689,-0.006253766315,-0.0004114718331,-0.0003326362412,-0.01515337128,0.01600750755,-0.06539203647,-0.04098289053,-0.005284003633,-0.04974303316,0.2612036423,-0.03851260973,-0.03523366084,-0.003949150219,0.09638239751,-0.003726899875,0.003578993556,0.003384735934,-0.0002983238707,0.1695707839,0.02421201192,-0.07853908126,0.01965667231,0.03954249098,0.009820159588,0.008681547694,0.003814219263],
			[0.006551233401,-0.02642555658,0.02840016371,-0.1488528667,0.518197007,-0.05712647766,0.7439160752,0.005014012143,0.01392360876,-0.009411367863,-0.01323522469,0.003947086203,0.1266609537,0.006792532186,0.0112679396,0.01478459904,-0.1698019526,0.1392774146,0.7274868455,0.06618612452,0.09588690533,0.05734369401,0.6441375243,0.0689754224,0.01766609316,0.02329952808,0.002504355592,0.06479592844,0.01694858625,-0.003940435419,0.01126666399,-0.04166777783,-0.2305566493,0.8385400028,-0.05986169072,-0.09281258684,0.002009625961,0.004306006688,-0.04006031506,0.008320385938,0.01942916319,-0.03376822667,0.1534278648,0.03416480282,-0.04665354134,0.02024213475,0.1288950624,0.009478453499,0.007729362276,0.003572803744],
			[0.003192078625,-0.01654103968,0.007299722473,-0.01724476786,0.06282106479,-0.008237806756,0.04171938449,0.0008126384712,0.0008579854631,-0.0004412847658,0.0009072662122,0.0003946225967,0.001198633834,0.0003888564414,0.0002010954238,0.00184691372,0.008254119625,0.01708778243,0.05170254444,0.02405812877,0.006400484181,0.0008058033259,0.06275796225,0.0009281838811,-0.0009390707587,-0.002769154009,-0.004496052272,-0.01579529346,0.01957869687,-0.05490448961,-0.005411014544,-0.002783376452,-0.002211332342,0.3271772554,-0.08015003644,-0.01476675874,-0.002500113403,-0.01030423407,-0.007217525941,-0.003453014993,-0.0002521877963,-0.01666535252,0.03470537614,0.003672059757,-0.01105954835,0.01073689715,0.002768842777,0.004719101084,0.003713663366,0.001554380015],
			[0.003823600136,0.004958816669,8.113016285e-05,-0.003662163804,-0.003857864308,0.007558847844,0.1437604671,0.001737596742,0.000711946873,-0.001150787539,-0.0001291658402,0.0003507165937,0.005905186529,0.0004633308609,0.00392362053,0.002726779429,-0.07216389442,0.003360852936,0.00692206532,0.004177173928,0.03140372609,0.03092794163,0.1731226081,0.02687348938,0.007326376805,0.008596082031,0.0001312700309,0.03245569724,-0.00550219144,-0.01203456532,0.01662072287,0.003492747048,0.0005159338639,0.05128918308,-0.01123494588,0.01567496315,0.003130012396,-0.006145510585,-0.002399410526,0.004015193189,0.007628697749,0.01615945507,-0.01672741838,0.0009276289538,0.006737019264,0.00293193282,0.03736809501,0.002446650269,0.003026027037,0.001237467551],
			[0.08501747248,0.261603395,0.002482700351,-0.03809331209,-0.2070699409,0.1701496468,-0.1935124267,0.009757182899,0.0009128854434,-0.01149027383,-0.005126457443,0.008369038103,0.153323041,0.01108137717,0.05616547677,0.06839345559,-0.5172661142,0.0002323517917,-0.1068983656,0.04671539984,-0.02839859556,1.301123903,-0.3694472228,0.356245189,0.1614441259,0.1063539673,-0.002185279846,0.5214702927,-0.1536813464,-0.2860650086,0.3753858842,0.07176092944,0.08698430354,0.5311020445,-0.1476196232,0.3990911303,0.07222621531,-0.09649159618,-0.01411536094,0.06760043797,0.02118564177,0.1870009217,-0.3428007078,0.005604194663,0.1901740964,0.003235915071,0.09123386154,0.03400141152,0.05802211135,0.02309374378],
			[0.03707852814,0.01234120639,0.0004998413149,-0.01562678904,-0.08628014355,0.06964467365,0.7577583217,0.01302275036,0.001929738987,-0.006860415192,-0.0005240573881,0.003702762892,0.05864797422,0.004704115528,0.04358981926,0.02736347661,-0.475794203,0.0054907999,-0.0719236958,0.0334056119,0.1736518305,0.1925369445,2.786299954,0.3024129481,0.0622458246,0.0622424121,-0.001712070724,0.2554623114,0.04757916496,-0.1415798263,0.1458019592,0.03084864385,0.04918155145,0.41430582,-0.1174450357,0.161718075,0.02837888333,-0.05925766212,-0.01397643753,0.02594224766,0.04683568317,0.1262514555,-0.1606664181,0.003290786122,0.08031964144,0.04221826855,0.2254200929,0.02801249671,0.03115765136,0.01264761347],
			[0.07163471325,-0.09215630816,3.465532842e-05,0.03434252815,-0.3252773257,0.1226887861,-0.6009842198,0.01273986639,-0.01241365861,0.0006969042009,0.001351598764,0.008132899249,0.1177966113,0.009773155067,0.1021966933,0.05585465854,-0.192318686,-0.07733551217,-0.5901837098,0.04149319455,-0.08922600809,0.02351614343,-0.6094073312,0.7199419144,0.09169990102,0.05172619789,-0.0129944366,0.3012094523,0.4194683888,-0.3542578315,0.2317955199,0.04979361626,0.2383811965,0.5308892757,-0.2544730339,0.3439564542,0.0484222663,-0.1133903187,0.00314926817,0.007952067317,0.002406652441,0.1450964546,-0.3053924883,-0.01215464965,0.203815902,0.1263032336,-0.008908634134,0.06803000418,0.06608046925,0.02653619191],
			[0.01839452001,-0.02189613001,0.003753670243,0.003493982377,-0.04081823284,0.01651326006,-0.04479527438,0.003819820554,-0.001270098783,-0.001629340675,0.002943708389,0.002177866598,0.01796705466,0.002320011916,0.01593874685,0.0202283583,-0.1466141961,-0.005640342872,-0.06010487637,0.009969367,-0.00918211022,0.04431104549,-0.07250500609,0.1006235876,0.0457106491,0.02267851258,-0.001420726635,0.0752313665,0.02361018654,-0.04102944367,0.1167831926,0.008347176925,0.02632464385,0.1310902942,-0.04399016267,0.0340531671,0.005353847919,-0.06436511329,-0.006369699174,0.004383447478,0.00396591723,0.02543299924,-0.05717575277,-0.0005467992406,0.03917391791,0.03191709375,0.01694757337,0.01736143423,0.01695216918,0.006860028997],
			[0.01218305082,-0.07695969635,-0.001429063366,0.008028221979,-0.05144412185,0.0149720135,0.02580099396,0.004479956226,-0.0014548804,-0.000599024177,0.01384608863,-0.000181467097,-0.07413449418,-0.002000606259,0.008154551511,0.01184031244,-0.1188005257,0.003656015972,0.003713369999,0.007899038622,0.001511557327,0.02154351586,-0.03673665398,0.04989111562,0.02121168287,0.0584430288,0.001153019575,0.1168297741,-0.06749529909,1.903705533e-05,0.0773246391,0.02360386235,0.02623973593,0.1241680724,-0.04966341634,-0.03045223419,-0.007726257647,-0.03542858798,-0.004473876548,0.01709812524,0.005578635749,0.03911342608,-0.07108671455,-0.001909509392,-0.0118590253,0.04603280407,0.02422067432,0.01949398211,0.01475180644,0.006052065169],
			[0.002911050877,-0.003170550777,-0.0001847853171,-0.002334433911,0.001156381522,0.002819811228,0.05457505803,0.00163889339,0.0006171453058,-0.001104102073,-0.0001058751045,0.0004899361899,0.007907327022,0.0006323208872,0.004535128356,0.004212571454,-0.0754673743,0.002725399582,0.006581911134,0.003850859288,0.009284997503,0.03032305165,0.04073621599,0.0245739369,0.00980677869,0.01248192546,0.01915156,0.03677169118,-0.01449020705,0.2096971012,0.02552681712,0.0007609894052,-0.001861450113,0.04876582858,-0.009613924539,0.006684586,0.001651939719,-0.01147798737,-0.003014092519,0.004686910726,0.006711114511,0.0143954335,-0.02044945036,0.0008652258693,0.007569531851,0.00501487596,0.03316405979,0.002760835437,0.00270204779,0.001116587273],
			[-0.06083577971,-0.7331919652,-0.07702388829,0.1241786935,-0.05911405059,-0.1595593427,0.08811028048,0.008602643117,-0.006276760969,0.003303358721,0.04972691657,-0.003171473662,-0.3043444935,-0.010337198,0.02180593344,0.05409159897,-0.4531042512,-0.03254831439,-0.1924321446,-0.009979971913,0.002687175206,0.1829371899,0.2127104818,0.1153306913,0.04785875979,0.09348100497,-0.008907684178,0.9896309226,-0.8806732358,0.3455771971,0.3968385776,-0.02774906287,0.04680073303,0.04396975623,-0.07601632945,-0.5448897153,-0.1051083426,-0.3996075914,-0.03305753896,-0.05137910794,0.002043015045,-0.1225600663,-0.6954917234,-0.01793803879,-0.1135734129,0.2152751009,0.006297873872,0.04554642138,-0.01072323745,-0.00334977779],
			[0.02879734829,0.529405425,-0.02143089682,-0.0785176708,-0.1266932367,0.1895488297,-0.1138258018,-0.006583577626,0.007532890949,-0.007463034004,-0.02230121852,-0.0001877137547,0.1115285838,0.002700203132,0.00129942046,-0.01465141849,0.1007036436,0.02936489453,0.1490327679,0.01946171594,-0.00139136633,-0.05851618438,-0.2392783964,0.022031288,0.009812432416,0.04631340409,0.006708629402,0.4190711117,0.668358215,-0.3620594249,-0.1296514682,0.07786436877,0.01138678419,0.127921192,-0.007415010951,0.4576986898,0.08508725334,0.2542519628,0.01940826707,0.08678652682,0.008984801956,0.1654859051,-0.2356522017,0.01027636097,0.06562852534,-0.1743018445,0.03620925475,-0.04472799169,-0.005090323715,-0.002689075231],
			[-0.01496405326,-0.03493729411,-0.004753691071,-0.01941083485,0.16721021,-0.06121265445,0.8683737451,0.005774206512,0.00727147512,-0.006773220503,-0.02466642165,0.00446961766,0.1944206123,0.008793989559,0.0216797209,0.01907501861,-0.4333220075,0.01257158612,0.01408907391,0.0158501167,0.1809349448,0.2005103417,1.074578916,0.142687229,0.04141622453,0.04338693773,0.004284376822,0.1323306163,-0.1381127908,4.247727339,0.1125376811,-0.06580528902,-0.0755060303,0.1860933752,0.007780039973,-0.002839630769,0.007002865883,-0.06294335823,-0.02134273827,0.01263378638,0.04146381143,0.03716249444,-0.07121853576,0.009713416488,0.06703593752,-0.004267159213,0.2151233136,-0.006948493648,-0.01051697996,-0.003991175622],
			[0.0631048096,0.07196024679,0.03190399536,-0.00677017829,0.02339926768,-0.00183603697,0.05827489476,0.01004750714,0.002816887079,-0.0126108035,-0.005149541803,0.01112698636,0.1950547685,0.01454544535,0.02075388107,0.09507875012,-0.7997105547,0.004345243617,-0.00575471169,0.01313670034,-0.009978906572,0.2972832168,-0.04707796973,0.06564509559,0.03200129603,0.0174349092,-0.01611256842,0.1040892173,-0.05354769803,-0.1662766213,0.6265895336,-0.02345907704,-0.05072270438,0.1387635816,0.02032533633,0.0363511057,0.01703732768,-0.368581988,-0.04290968139,-0.00713710358,0.01532070429,-0.0006325731178,-0.06307542485,0.00798950729,0.1749339155,0.05144623163,0.0770356156,0.04109164272,0.05011019385,0.02024932362],
			[0.08332443922,-0.02116151574,0.02024536472,0.02097620653,-0.4269111389,0.1977522445,0.002291112211,0.01347608449,-0.01009275274,0.002394247426,0.06668919872,-0.005838323933,-0.4320076336,-0.01586092217,0.003557558132,-0.002139647219,-0.02236620005,0.008254735329,0.01602002014,0.01550675731,0.01415547079,-0.02177027628,-0.03374528904,0.03423500395,0.001815422939,0.003149330528,-0.01095137951,0.006540861327,0.03302577472,-0.4428813929,0.009928604736,0.1874582929,0.1903863093,0.24929431,-0.1816541907,0.08123086046,-0.0003478364354,-0.02120832292,0.01093238867,-0.001853694135,0.006418173183,0.08898250181,0.01078634993,-0.01389861118,-0.08919684055,0.1129728599,0.00437958774,0.0683374019,0.07216365546,0.02895200545],
			[0.06568907007,-0.04591209581,0.02317139585,0.02607963707,-0.3842769859,0.1670586273,-0.8780153693,0.01000152776,-0.01036059782,0.005469564733,0.06806288996,-0.008260275751,-0.4758102438,-0.01905394745,-0.01642346546,-0.02281701427,0.1564326419,0.01014814458,0.07839261205,0.007394966936,-0.01212321931,-0.2442401528,-0.3421435072,-0.08617639921,-0.04298916376,-0.04553282553,-0.04530238841,-0.1654025233,0.08680717892,-0.7846867614,-0.1054967936,0.176546136,0.8123446556,0.2943455307,-0.6046608993,0.3050977114,-0.01475994874,0.2484065625,0.08658000748,-0.01029735476,-0.002465871346,0.1772636589,0.1266421343,-0.01508349822,-0.1396850249,0.1005014398,-0.0367016038,0.0574832299,0.0584464785,0.02343155397],
			[-0.003015822062,-0.1437667341,0.007220837095,0.04033585047,-0.06388842808,-0.02697891255,-0.2880440408,-0.00133113538,-0.006773644063,0.006403768983,0.01486491348,-0.001790295945,-0.1031903218,-0.004209874976,-0.007009899078,-0.006457774423,0.2118920412,-0.02754535366,-0.1276943107,-0.01771563456,-0.01592662655,0.03187820668,0.1474456859,-0.03143465899,-0.01782582755,-0.04914366704,-0.0512226899,-0.2122272673,0.1782429546,-0.5284405163,-0.03029636726,0.00324966475,0.1833528205,2.551711011,-0.7503375803,-0.06513805041,-0.02534731703,-0.2067584742,-0.0435794796,-0.04838528117,-0.02459200107,-0.1762217733,0.1020384791,-0.009587883813,-0.03617992754,0.05294723456,-0.1253351859,0.01567047969,0.005291413739,0.002176025792],
			[-0.02398507316,-0.0007671272779,-0.009918761514,-0.06076701212,0.3099456615,-0.07603974642,0.9948758594,0.008383002587,0.01485666783,-0.01244419613,-0.02877056667,0.004543941668,0.2158849142,0.009516612372,0.01965176735,0.02105066911,-0.6566445477,0.06118900603,0.2737594536,0.03846785887,0.0481112383,-0.06179958625,-0.2942304119,0.07978272014,0.0483382278,0.1180856042,0.163667123,0.3166536735,-0.2534057004,1.940181608,0.1258258786,-0.07547640156,-0.5968964569,-0.2883824413,2.449016834,-1.609930847,0.006904751229,0.4520836773,0.1283687831,0.08050806675,0.0686960241,0.4238466101,-0.1248414888,0.02081509396,0.03990704913,-0.02858831629,0.3585123271,-0.01804127588,-0.01985643333,-0.007607122937],
			[0.0597381414,0.6133074839,-0.01133198423,-0.05281818442,-0.3342352051,0.2635102097,-0.7197475958,-0.01072870672,-0.0002274206844,-0.002916277803,-0.006996023659,-0.001267226517,0.01695720377,-0.0006949073518,-0.008599107857,-0.01368433511,0.3823865403,-0.002437717866,0.008058412994,0.0001638319586,-0.02630755525,-0.01480695533,-0.05207939126,-0.0222476039,-0.01866929045,-0.02178935397,-0.1020791491,0.2839110759,-0.2629738702,-1.545324947,-0.1171316219,0.1337691675,0.3869960686,-0.06954695503,-1.596085216,3.425507805,0.09436429117,-0.004202573255,-0.06557739044,0.0484682549,-0.02968626479,-0.07893404662,-0.1900959494,9.669959495e-05,0.07592524,-0.1694138574,-0.1677199264,-0.03140587961,0.01631245337,0.005615952873],
			[0.007985012346,0.1100795336,-0.003270659735,-0.01636208408,-0.02378805525,0.03809484759,-0.01498703531,-0.0009449679773,0.00168445405,-0.002012433791,-0.004896407973,0.000386113627,0.03096494694,0.001125287931,0.001150217446,0.0005078942643,-0.01078548413,0.006220780605,0.03023914266,0.004537990485,0.0006418518037,-4.270016841e-06,-0.04279208046,0.007810126482,0.00341981745,0.01035107931,0.0008273473611,0.08993068815,-0.07637438561,-0.04959563987,-0.003484027953,0.01456037913,-5.220006853e-06,0.03225661477,-0.0007372834025,0.09444978855,0.01797446575,0.03831013493,0.00228612281,0.01750684384,0.002662833129,0.03393267766,-0.05070770525,0.002442850432,0.02001019645,-0.03370165452,0.01161020653,-0.007705083865,0.0006582337207,0.0001391221727],
			[-0.02125084523,-0.2184397417,0.01525131663,0.009690242832,0.03220603186,-0.03369093527,0.2088014207,0.001273855855,-0.002701996755,0.008252773786,0.04144354737,-0.01007244844,-0.3666212669,-0.01782738578,-0.04700596612,-0.05767163782,0.3483745851,0.03967334884,0.2830560925,-0.0119050593,0.0250549393,-1.088296335,-0.008593079683,-0.2926583412,-0.1327703194,-0.07637938323,-0.01194570425,-0.4031351221,0.108405172,-0.1137188961,-0.312752364,0.04554121192,-0.00320097295,-0.06502793758,-0.06566248519,-0.1989789817,-0.05986976253,1.426956106,0.09392796614,0.02934438062,-0.004279333399,0.07346534202,0.3230019432,-0.004857858431,-0.2298095035,0.06009508843,-0.01904297031,0.01103223721,-0.005910256888,-0.002121159007],
			[-0.001125093746,-0.01433953743,0.001373988819,-0.001309846329,0.007534106232,-0.002228345382,-0.0002603550403,0.0004623671336,0.0001852644811,0.0002278791231,0.003120610199,-0.0007066397653,-0.02686484889,-0.00127223009,-0.003666321513,-0.003714351059,0.006083395111,0.005502961548,0.0331403921,0.001238975322,-0.003860364276,-0.06356154505,-0.1015252906,-0.02336213299,-0.008092902946,-0.002558744501,-0.001822967533,-0.02168633005,-0.001550381728,-0.01968276482,-0.01897131271,0.003654934547,-0.003195319636,0.02286052786,-0.009243279432,-0.01633738548,-0.004291192196,0.09255835396,0.02688335712,0.002975893739,0.001698219961,0.05177499178,0.02211901686,0.0001952611844,-0.01772479137,0.004322927275,0.008854532943,0.0009615000325,-0.0001407080749,-2.868689418e-05],
			[0.03255952863,-0.0244995649,0.01227322342,-0.008575688997,-0.1066103575,0.06973823822,0.1006663922,0.006010485727,-0.002530205522,0.0003362530676,0.02736931804,-0.002452313825,-0.1783348009,-0.006555933608,-6.394976249e-05,-0.002546120157,-0.00806913683,0.02198609836,0.1086040915,0.01321262486,0.01836317603,-0.06668516452,0.06171712256,0.004257986059,-0.005109068995,-0.0005619416207,-0.004761568447,-0.01379519821,0.02154394085,-0.1829259671,-0.01335509039,0.07218551302,0.04827196302,0.1934627758,-0.08299928758,0.009485435841,-0.003465798414,0.07703089232,0.005225278158,0.05852046116,0.004572210775,0.03570893986,0.04151654158,-0.001792220508,-0.05454103585,0.05077053807,0.01573494709,0.0288793233,0.02918340557,0.01177862744],
			[0.005544226152,0.05089502961,-2.681239655e-05,-0.01561146976,0.0111461038,0.01768721154,0.06947788429,0.004418664632,0.003897943753,-0.004170183313,-0.004118929294,0.0005951328603,0.02986346485,0.001319234085,0.003907905615,0.001946472528,-0.2300132478,0.01498251893,0.07171222587,0.009924456202,0.000279410217,0.1144145027,-0.05026604754,0.02956520286,0.0139848112,0.01218558063,-0.007404558102,0.06801745331,-0.03734225218,-0.1152750499,0.02180127018,0.004647658287,-0.02248942023,0.1118137874,-0.007979869894,0.04338631115,0.01058562365,-0.005933260398,-0.007977075701,0.01005003058,0.02807247704,0.04060139287,-0.02439371562,0.004263521184,0.01358290838,-0.01292522514,0.1391276398,-0.001894597317,0.002029010553,0.0008524655785],
			[0.0007358523084,0.01228826879,-0.00114318978,-0.009183484912,0.01484193129,0.005795961873,-0.1850732383,0.003609109433,0.003405473132,-0.003175002623,0.003702655516,-0.0007681209008,-0.03117484482,-0.001375644426,-0.00648877814,-0.0004280164239,-0.1925089742,0.01975711343,0.1235996698,0.00511790675,-0.06562434919,0.08872030542,-1.16341066,-0.04610001284,0.00781949545,0.02932687647,-0.008254214253,0.06501507057,-0.1102669756,-0.09567660086,0.02173962337,0.009285717265,-0.03147198863,0.06556458249,0.003065569867,-0.02530328068,-0.002092030687,-0.007583023928,-0.007876445654,0.0140525926,0.0221118242,0.5319239911,-0.0153916025,0.003066016137,-0.0208595856,-0.003638520396,0.1099737529,-0.0007825152719,8.182156497e-05,0.0001117928278],
			[0.205273647,-0.07403865581,0.3283143996,-0.07014516867,0.2285112625,-0.01906816685,0.330810395,0.03235446769,-0.01824593582,0.01082124797,0.02824971587,0.009960487428,0.007191169704,0.008557043357,-0.01033081906,-0.03132345938,0.1771589998,0.03498471105,0.1453547562,0.02981909819,0.008634055562,-0.2292050934,-0.1646612566,-0.05276709219,-0.02004951289,0.005479341093,0.01568475497,-0.04433912236,0.003227158157,0.138472542,-0.2296288447,0.01040989505,0.02019204925,0.4312843773,-0.132403034,-0.06327956765,-0.0161712391,0.1391575207,0.004417607585,0.003696856921,0.007379940264,0.1456862401,2.627538149,0.007689625574,0.04857990642,0.2877258859,0.05098265106,0.1715840302,0.1793153256,0.0721727333],
			[-0.004740286246,-0.01013797833,0.0007256275957,-0.1172624805,0.3535911937,-0.01558441256,0.05993984258,-0.0002758356689,0.01104149006,-0.006142071644,0.001642892387,-0.000663243955,-0.01981723865,-0.0008731558741,-0.00350263158,-0.0009302262961,0.02710134026,0.004388914494,0.02934231842,-0.001025536825,-0.0004489481515,-0.09661641398,-0.01672529872,-0.02555350966,-0.01107170055,-0.004572306075,0.0003653906379,-0.02462839329,0.008587512809,-0.07296023554,-0.04354462488,0.002337385152,-0.02131565257,-0.01233571729,0.009601366214,-0.01832097125,-0.003722408982,0.1345243394,0.007022433303,0.004960310703,0.0002696932329,0.006378277859,0.01900113452,0.02494836879,-0.1003194208,-0.0008524416137,0.02391314397,-0.001774094567,-0.002999785153,-0.0008792520206],
			[-0.006780863982,0.03032331032,0.0031797281,0.004224173313,-0.004460234147,-0.003606138246,-0.8920114676,-0.003704263406,-0.1278383896,0.0006930362932,0.006406727254,0.002954015692,0.02637840029,0.001006744818,-0.002624896574,-0.004694232675,0.05344775609,-0.008811946298,-0.01663058578,-0.004450430411,0.000770552574,-0.001134169164,0.04148374699,-0.0154165062,-0.00722268417,-0.02281012285,0.0002643495242,-0.04419164261,0.02846495161,0.01038465622,-0.02908726957,-0.008364606907,-0.004865626449,-0.06635387674,0.02075229964,0.01595571518,0.003408499536,0.009298276728,0.002437476959,-0.006915596654,-0.003363250066,-0.02800222029,0.05698343016,-0.0009155563232,2.23121424,-0.03344047121,-0.01686790123,-0.01728793332,-0.01316173207,-0.0090665469],
			[0.06701601628,-0.1279368649,0.02675907419,-0.05867573157,0.2837489741,-0.066254893,0.7467203074,0.07021440178,-0.01661396978,0.02334999149,0.01549233787,-0.00279261388,-0.1205051465,-0.005680278181,-0.02765187525,-0.02405253589,0.08824016244,0.02583011001,0.1506265809,-0.002519068933,-0.006698402988,-0.6285632677,-0.2479979284,-0.1822188893,-0.07374122141,-0.02532484209,-0.008193001395,-0.1913074391,0.00777799851,-0.04916570594,-0.1204034111,-0.00989529033,0.01308182697,0.02644936079,-0.03357861985,-0.1747206212,-0.03595384936,0.03564636101,0.002983523245,-0.02161723353,0.0004826820809,0.1211417587,0.168230012,0.001119218472,-0.1424189824,1.122768489,0.02050259321,0.3869012112,0.2046272866,0.08650548574],
			[-0.04135463604,0.3972646313,-0.04365767372,0.09826833771,-0.4499231276,0.09906694393,-0.2831821781,-0.02233996305,0.04208868737,-0.04194799308,-0.04181053151,-0.006483590479,0.1128816446,-0.002164354583,-0.02191535755,-0.07639539113,-1.959574197,-0.01734689869,-0.05581512224,-0.01974252086,-0.03553412755,-0.0772068408,-0.05307425593,-0.06524754551,-0.02833091956,-0.02936443217,-0.08639047269,0.1298824943,-0.2132469888,-0.9892728975,-0.2108196496,0.01018066335,-0.1070157464,-0.3787364412,0.1874341537,0.2433728129,0.0565657559,0.03305153094,-0.03015106826,0.02659274318,-0.04477212318,-0.123561556,-0.1237291904,0.0004060152737,0.08692496084,-0.206904112,1.429870794,-0.08134405886,-0.05617300886,-0.02215691569],
			[0.05405391025,-0.04344924192,0.0171490372,-0.04220478118,0.1489524589,-0.0176146196,0.4415130343,0.04545517518,-0.01030146794,0.01303958813,0.009003484697,-0.0005737082057,-0.05404393902,-0.00200430381,-0.009444068353,-0.005461105007,-0.01750335499,0.01624869223,0.07949671397,0.005002288371,-0.008207505126,-0.2112359561,-0.2077585085,-0.06418893276,-0.02354137455,-0.0009099610008,-0.00545148184,-0.04660898833,-0.01677580238,-0.07118185043,-0.02268409145,0.003901293991,0.02047162863,0.09145450248,-0.04188487546,-0.05344317087,-0.01239249663,0.008779665285,-0.0001162867682,-0.004044003085,0.003288779821,0.1024064705,0.05730159306,0.001492452697,-0.06260774903,0.4029921184,0.025729232,0.247685552,0.1366406802,0.05756215484],
			[0.06137071832,-0.02666419674,0.0174858459,-0.02790287133,0.09766039322,-0.01118836738,0.2448528632,0.0259719214,-0.005654296251,0.00701304762,0.005780358737,-2.387018273e-06,-0.02925670418,-0.0008172645781,-0.005582410639,-0.002653521235,-0.02192780915,0.01351113679,0.06192381894,0.007547024967,-0.007244726145,-0.1128504728,-0.175899195,-0.03834504867,-0.01275947747,0.001026921519,-0.003969762598,-0.02435019738,-0.01293059321,-0.05130405097,-0.01203756978,0.002119784366,0.008888711967,0.1154294415,-0.03786574121,-0.03419825128,-0.007511880028,0.002850905791,-0.001908831427,-0.001912204073,0.003321946802,0.08761254609,0.0372510865,0.001809161033,-0.03487090726,0.2284664588,0.02261681391,0.1401709335,0.1630690916,0.04857657665],
			[0.02482959513,-0.01036165068,0.007020447133,-0.01225470483,0.04175569786,-0.00429181462,0.0911938003,0.0112049329,-0.002166453579,0.002763035375,0.002665075135,-6.459352419e-05,-0.01450262073,-0.0004494427609,-0.002785224621,-0.001165986182,-0.02174525691,0.006874043074,0.03383046503,0.003356407707,-0.007371243579,-0.04196376602,-0.1502748889,-0.01921979434,-0.004885984943,0.002346098404,-0.002198460895,-0.005995527701,-0.01274038748,-0.02768892625,-0.003654917049,0.001522426977,0.001741641622,0.05079627599,-0.0152632358,-0.01599922447,-0.003295315282,0.0007738853806,-0.001266782361,0.0001219945056,0.002834063011,0.07163313411,0.01452335413,0.0009342941272,-0.0161529468,0.09625554919,0.01664067095,0.05916222748,0.04866835868,0.0372950783]
		],
		"names": [
			"G01",
			"G02",
			"G03",
			"G04",
			"G05",
			"G06",
			"G07",
			"G08",
			"G09",
			"G10",
			"G11",
			"G12",
			"G13",
			"G14",
			"G15",
			"G16",
			"G17",
			"G18",
			"G19",
			"G20",
			"G21",
			"G22",
			"G23",
			"G24",
			"G25",
			"G26",
			"G27",
			"G28",
			"G29",
			"G30",
			"G31",
			"G32",
			"G33",
			"G34",
			"G35",
			"G36",
			"G37",
			"G38",
			"G39",
			"G40",
			"G41",
			"G42",
			"G43",
			"G44",
			"G45",
			"G46",
			"G47",
			"G48",
			"G49",
			"G50"
		],
		"description": "Stable smallworld network, IAA=549.4403",
		"created": {
			"creator": "",
			"time": 736265.634,
			"id": "",
			"nodes": "",
			"type": "unknown",
			"sparsity": ""
		},
		"tol": 2.220446049e-16,
		"N": 50
	}
}
