{
	"obj_data": {
		"network": "Tjarnberg-D20150924-smallworld-N50-L247-ID5037856",
		"A": [
			[-0.6346181686,-0.1479110062,0,0,0,0,-0.4727155807,0,-0.3437931496,0,0,0,0,0,0,0,0,0,0,0,0,0,0,0,0,-0.1369176206,0,0,0,0,0,0,0,-0.3258039732,0,0,0,0,0,0,0,0,0,0,0,0,0,0,0.7655393971,0],
			[-0.1479110062,-5.779522628,1.596039709,3.485902633,0,0,0,0,0,0,0,0,5.492695204,0,0,-0.623624783,0,0,0,0,0,0,0,0,0,0,0,0,0,0,0,0,0,0,0,0,0,0,0,0,0,0,0,0,0,0,0,0,0,4.409347023],
			[0,1.596039709,-10.36576322,4.567252017,0,0,0,0,0,0,0,0,0,0,0,0,0,0,0,0,0,0,0,0,0,0,0,0,0,0,0,0,4.351381899,0,0,6.863870208,0,0,0,0,0,0,0,0,0,0,0,0,0,0],
			[0,3.485902633,4.567252017,-16.74292627,0.2278629015,-0.1878869539,0,0,0,0,0,0,0,0,0,0,0,0,0,0,0,0,4.911045166,0,0,0,0,0,0,0,0,0,0,0,0,0,0,0,0,0,0,0,0,0,0,0,0,0,0,0],
			[0,0,0,0.2278629015,-0.2148707185,0,-0.08394949002,0,0,0,-0.2408550845,0,0,0,0,0,0,0,0,0,0,0,-0.1788923656,0,0,0,0,0,0,0,0,0,0,0,0,0,0,-0.5576644694,0,0,0,0,0,0,0,0,0,0,0,0],
			[0,0,0,-0.1878869539,0,-0.2628418557,-0.01698977774,1.810910428,0,0,0,0,0,0,0,0,0,0,0,0,0,0,0,0,0,0.0109933856,0,0,0,0,0,0,0,0,0,0,0,0,0,0,0,0,0,0,0,0,0,0,0,0],
			[0,0.361782326,0,0,-0.08394949002,-0.01698977774,-0.6156295935,0,-0.08694768609,0,0,0,0,0,0,0,0,0,0,0,0,0,0,0,0,0,0,0,0,0,0,0,0,0,0,0,0,0,0,0,0,0,0,0,0,0,0,0,0,0],
			[0,0,0,0,0,1.810910428,0,-46.77785512,1.935835264,0,0,0,0,0,0,0,0,0,0,0,0,6.0303717,0,0,0,0,0,0,0,0,0,0,0,0,5.468709636,0,0,0,0,0,0,0,0,0,0,0,0,0,0,0],
			[0,0,0,0,0,0,-0.08694768609,1.935835264,-0.3797715025,0.6755935149,0,0,0,0,0,0,0,0,0,0,0,0,0,0,0,0,0,0.01998797381,0,0,0,0,0,0,0,0,0,0,0,0,0,0,0,0,0,0,0,0,0,0],
			[0,0,0,0,0,0,0,0,0.6755935149,-20.27380184,4.930033741,6.176283909,0,0,0,0,0,0,0,0,0,0,0,0,0,0,0,0,0,0,0,0,0,0,0,0,0,0,0,0,0,0,0,0,0,0,0,0,0,0],
			[0,0,0,0,0,0,0,0,0,4.930033741,-2.898256203,0,4.67118948,0,0,0,0,0,0,0,0,0,0,0,0,0,0,0,0,0,0,0,0,0,0,0,0,0,0,0,0,0,0,0,0,0,0,0,0,0],
			[0,0,0,0,0,0,0,0,0,6.176283909,0,-46.85980581,0,5.893454079,0,3.052163601,0,0,0,0,0,0,0,3.777727051,0,0,0,0,0,0,0,0,0,0,0,0,4.716162422,0,0,0,0,0,0,0,0,0,0,0,0,0],
			[0,0,0,0,0,0,0,0,0,0,4.67118948,0,-48.33391888,0,0,0,0,0,0,0,0,0,0,0,0,0,0,0,0,2.163698165,4.453320566,0,0,0,0,0,0,0,0,0,0,0,0,0,0,0,0,0,0,0],
			[0,0,0,0,0,0,0,0,0,0,0,5.893454079,0,-9.802102359,-0.06396151621,-0.5416740904,0,0,0,0,0,0,0,0,0,0,0,0,4.944025323,0,0,0,0,0,0,0,0,0,0,0,0,0,0,0,0,0,0,0,0,0],
			[0,0,0,0,0,0,0,0,0,0,0,0,0,-0.06396151621,-0.332799764,-0.1309212285,1.568056546,0,0,0,0,0,0,0,0,0,0,0,0,1.806912833,0,0,0,0,0,0,0,0,0,0,0,0,0,0,0,0,0,0,0,0],
			[0,0,0,0,0,0,0,0,0,0,-0.2918244177,0,0,-0.5416740904,-0.1309212285,-0.6086338026,0,0,0,0,0,0,0,0,0,0,0,0,0,0,0,0,0,0,0,0,0,0,0.6276223778,0,0,0,0,0,0,0,0,0,0,0],
			[0,0,0,0,0,0,0,0,0,0,0,0,0,0,1.568056546,0,-37.34553027,5.689576746,6.672985058,0,0,0,0,0,0,0,0,0,0,0,0,0,0,0,0,8.0151775,0,0,8.263028375,0,0,7.232648325,0,0,0,0,0.6216259856,0,0,0],
			[0,0,0,0,0,0,0,0,0,0,0,0,0,0,0,0,5.689576746,-44.28735358,5.773526236,4.819100487,0,0,0,0,0,0,0,0,0,0,0,0,0,0,0,0,0,0,0,0,0,0,0,0,0,0,0,0,0,0],
			[0,0,0,0,0,0,0,0,0,0,0,0,0,0,0,0,6.672985058,5.773526236,-9.005581602,-0.3857678946,4.800111912,0,0,0,0,0,0,0,0,0,0,0,0,0,0,0,0,0,0,0,0,0,0,5.399751126,0,0,0,0,0,0],
			[0,0,0,0,0,0,0,0,0,0,0,0,0,0,0,0,0,4.819100487,-0.3857678946,-3.887660907,3.93863024,5.184880407,0,0,0,0,0,0,0,0,0,0,0,0,0,0,0,0,0,0,0,0,0,0,0,0,0,0,0,0],
			[0,0,0,0,0,0,0,0,0,0,0,0,0,0,0,0,0,0,4.800111912,3.93863024,-45.96134639,0,4.732152801,0,0,0,0,0,0,0,0,0,0,0,0,0,0,0,0,0,0,0,0,0,0,0,0,0,6.057355464,0],
			[0,0,0,0,0,0,0,0,0,0,0,0,0,0,0,0,0,4.889058395,0,5.184880407,3.606829875,-37.20961205,0,0,0,0,0,0,0,0,0,0,0,0,0,0,0,0,0,0,0,0,0,0,0,0,0,0,0,7.174683201],
			[0,0,0,0,-0.1788923656,0,0,0,0,0,0,0,0,0,0,0,0,0,0,0,4.732152801,0,-8.082137212,0,6.077343438,0,0,0,0,0,0,0,0,0,0,0,0,0,0,6.602027751,0,0,0,0,0,0,0,0,0,0],
			[0,0,0,0,0,0,0,0,0,0,0,0,3.951622423,0,0,0,0,0,0,0,0,0,0,-0.649609149,0,-0.1179290455,0,0,0,0,0,0,0,0,0,0,0,0,0,0,0,0,0,0,0,0,0,0,0,0],
			[0,0,0,0,0,0,0,0,0,0,0,0,0,0,0,0,0,0,0,0,0,0,6.077343438,0,-25.62658123,0.9874059064,7.330589396,0,0,0,0,0,0,0,0,0,0,0,0,0,0,0,0,0,0,0,0,0,0,0],
			[0,-0.3767733064,0,0,0,0,0,0,0,0,0,0,0,0,0,0,1.30521469,0,0,0,0,0,0,-0.1179290455,0.9874059064,-0.222865908,0,0,0,0,0,0,0,0,0,0,0,0,0,0,0,0,0,0,0,0,0,0,0,0],
			[0,0,0,0,0,0,0,0,0,0,0,2.347587525,0,0,0,0,0,0,0,0,0,0,0,0,7.330589396,0,-41.74888091,6.697970025,6.590034967,0,0,0,0,0,0,0,0,0,0,0,0,0,0,0,0,0,0,0,0,0],
			[0,0,0,0,0,0,0,0,0,0,0,0,0,0,0,0,0,0,0,0,0,0,0,0,0,0,6.697970025,-10.40374037,4.373368671,5.860473922,0,0,0,0,0,0,0,0,0,0,0,0,0,0,0,0,0,0,0,0],
			[0,0,0,0,0,0,0,0,0,0,0,0,0,0,-0.9834083117,0,0,0,0,0,0,0,0,0,0,0,6.590034967,4.373368671,-11.43012283,0,0,0,0,0,0,0,0,0,0,0,0,0,4.353380697,0,0,0,0,0,0,0],
			[4.810105898,0,0,0,0,0,4.428335599,0,0,0,0,0,2.163698165,0,0,0,0,0,0,0,0,0,0,0,0,0,0,5.860473922,0,-39.64014967,0,7.107723488,0,0,0,0,0,0,0,0,0,0,0,0,0,3.309009065,0,0,0,0],
			[0,0,0,0,0,0,0,0,0,0,0,0,0,0,0,0,0,0,0,0,0,0,0,0,0,0,0,0,0,0,-0.8404942989,0,0.7965207565,0,0,0,0,0,0,0,0,0,3.918642266,0,0,0,0,0,0,0],
			[0,0,0,0,0,0,0,0,0,0,0,0,0,0,0,0,0,0,0,0,0,0,0,0,0,0,0,0,0,7.107723488,0,-20.65956973,6.422135987,2.417545433,0,0,0,0,0,0,0,0,0,0,0,0,0,0,0,0],
			[0,0,0,0,0,0,0,0,0,0,0,0,0,0,0,0,0,0,0,0,0,0,0,-0.2388562871,0,0,0,0,0,0,0.7965207565,6.422135987,-11.9847891,0,2.200675917,0,0,0,0,0,0,0,0,0,0,0,0,0,0,0],
			[0,-0.6825893058,0,0,0,0,0,0,0,0,0,0,0,0,0,0,0,0,0,0,0,0,0,0,0,0,0,0,0,0,0,2.417545433,0,-0.8784714491,-0.1738953722,0,-0.1269236337,0,0,0,0,0,0,2.535474478,0,0,0,0,0,0],
			[0,0,0,0,-0.02498496727,0,0,0,0,0,0,0,0,0,0,0,0,0,0,0,0,0,0,0,0,0,0,0,0,0,-0.7485496193,0,2.200675917,-0.1738953722,-1.321205069,0,-0.1968815421,0,0,0,0,0,0,0,0,0,0,0,0,0],
			[0,0,0,0,3.497895418,0,0,0,0,0,0,0,0,0,0,0,0,0,0,0,0,0,0,0,0,0,0,0,0,0,0,0,0,0,0,-32.83924158,0,7.254635096,0,0,0,0,0,0,0,0,0,0,0,0],
			[0,0,0,0,0,0,0,0,0,0,0,0,0,0,0,0,0,0,0,0,0,4.866072225,0,0,0,0,0,0,0,0,-0.8534864819,0,0,-0.1269236337,-0.1968815421,0,-1.9848058,0,0,0,0,5.021978421,0,0,0,0,0,0,0,0],
			[0,0,0,0,0,-0.02398556858,0,0,0,0,0,0,0,0,0,0,0,0,0,0,0,0,0,0,0,0,0,0,0,0,0.4537270056,0,0,0,0,7.254635096,0,-8.18307648,6.049360275,0,0,0,0,0,0,0,0,0,0,0],
			[0,0,0,6.507084875,0,0,0,0,0,0,0,0,0,0,0,0,0,0,0,0,4.913043964,0,0,0,0,0,0,0,5.594633871,0,0,0,0,0,0,0,0,6.049360275,-25.10089752,6.544062627,0,0,0,0,0,0,0,0,0,0],
			[0,0,0,0,0,0,0,0,0,0,0,0,0,0,0,4.512285089,0,0,0,0,0,0,0,0,0,0,0,0,0,0,0,0,0,0,0,0,0,0,6.544062627,-45.90238186,0.2718364439,0,0,0,0,0,0,0,0,0],
			[0,0,0,0,0,0,0,0,0,0,0,0,0,0,0,0,0,0,0,0,0,0,0,0,0,0,0,0,0,0,0,0,0,0,0,0,0,0,0,0.2718364439,-48.52880162,3.440929692,0.1738953722,0,0,0,0,0,0,0],
			[0,0,0,0,0,0,0,0,0,0,0,0,0,0,0,2.319604361,0,0,0,0,0,0,0,0,0,0,0,0,0,0,0,0,0,0,0,0,5.021978421,0,0,0,3.440929692,-34.23540155,0,0,0,0,0,0,0,0],
			[0,0,0,0,0,0,0,0,0,0,0,0,0,0,0,3.355980803,0,0,0,0,0,0,0,0,0,0,0,0,0,0,0,0,0,0,0,0,0,0,0,0,0.1738953722,0,-48.66072225,3.712766136,3.513885797,5.032971806,0,0,0,0],
			[0,0,0,0,0,0,0,0,0,0,0,0,0,6.47310532,0,0,0,0,0,0,0,0,0,0,7.804304376,0,0,0,0,0,0,0,0,0,0,0,0,0,0,0,0,0,3.712766136,-16.65597858,0,0,0,0,0,0],
			[0,0,0,0,0,0,0,0,0,0,0,0,0,0,0,0,0,0,0,0,0,0,0,0,0,0,0,0,0,0,0,0,0,0,0,0,0,0,0,0,0,0,3.513885797,0,-23.29898168,4.425337403,0.9794107169,0,0,0],
			[0,0,-0.2818304308,0,0,0,0,0,0,0,0,0,0,0,0,0,0,0,0,0,0,0,0,0,0,0,0,0,0,0,0,0,0,0,0,0,0,0.1659001827,0,0,6.876862391,0,0,0,4.425337403,-2.632416151,0,0,0,0],
			[0,0,0,0,0,0,0,0,0,0,0,0,0,0,0,0,0,0,0,0,0,0,0,0,0,0,0,0,0,0,0,-0.1599037905,0,0,0,0,0,0,0,0,0,0,0,0,0.9794107169,0,-0.2108731237,0,-0.222865908,0],
			[0,0,0,0,0,0,0,0,0,0,0,0,0,0,0,0,0,0,0,0,0,0,0,0,0,0,0,0,0,0,0,0,0,0,0,0,0,0,0,0,0,0,0,0,0,0,0,-0.3847684959,-0.3188081823,1.411150951],
			[0.7655393971,0,0,0,0,0,0,6.952816691,0,0,0,0,0,5.139907466,0,0,0,0,0,0,0,0,0,0,0,0,0,0,0,0,0,0,0,0,0,0,0,0,0,0,0,0,0,0,0,0,-0.222865908,-0.3188081823,-5.020979022,0],
			[0,4.409347023,5.474706028,0,0,0,0,0,0,0,0,0,0,0,0,0,0,0,0,0,0,7.174683201,0,0,0,0,0,0,0,0,0,0,0,0,0,0,0,0,0,0,0,0,0,0,0,0,0,1.411150951,0,-22.15566957]
		],
		"G": [
			[1.58538547,0.1606886211,0.04819910575,0.01827408903,0.09311606609,-0.06709101707,-1.267147197,-0.02102636101,-1.270813594,-0.01042945141,0.1317907776,-0.0004248814527,0.06048541744,0.03391201227,0.08876991128,-0.5937461292,-0.09323990262,-0.03936262588,-0.1147934554,-0.1013550448,-0.04654719013,-0.0125929722,-0.1606172816,0.3773053696,-0.1893836719,-2.01600409,-0.06617580597,-0.1049754949,-0.1018733877,-0.03036671783,0.250405159,-0.1237817945,-0.03751489342,-0.9239556563,-0.02901390035,-0.03430364102,0.007414303209,-0.09786895986,-0.07809085925,-0.03438441097,-0.02536502584,-0.02115985771,-0.007640646468,-0.1795685552,-0.06785851273,-0.1668564893,-0.8329392447,-0.1149597455,0.2298368553,0.02057964222],
			[0.05225253226,0.3452190561,0.1607334204,0.1288907494,0.6147441159,-0.1446817477,0.007118532861,-0.00756749187,-0.07896586623,0.00480086693,0.02309881858,0.005958711984,0.03761318809,0.03246347378,-0.06444597861,-0.05360680868,0.0144697248,0.01969306729,0.03396748441,0.09098504405,0.02723714903,0.03175437462,0.1216621031,-0.05591603916,0.05452780484,0.2319348326,0.02481295232,0.04588019461,0.04990684828,0.01611585413,0.1645786129,0.05698306445,0.1318035419,0.102366157,0.1741200888,0.03700324843,0.004180787082,-0.0005613147646,0.008181400461,0.01877078244,0.01790578893,0.005469858849,0.02271572143,0.03165835615,0.03486777693,0.122304663,0.1953458768,0.3685173192,0.008756099654,0.1024591811],
			[0.06093673398,0.07585200689,0.1454115312,0.06321119579,0.503730342,-0.09142151813,-0.03376813176,-0.007135443919,-0.1302306902,-0.02609748283,-0.08845522213,-0.0008135888861,-0.004016778927,0.0168874031,-0.03325061108,-0.04243895804,0.002881446338,0.00220905271,0.006490243787,0.008809919573,0.006221757446,0.0003091408975,0.04662246745,-0.05462950984,0.0209050794,0.07958085811,0.01002548836,0.01954015117,0.02039852896,0.008452046688,-0.01990546423,0.04070190728,0.09641537301,0.06825748144,0.1259789033,0.02929949774,-0.02618989705,-0.008133820048,-0.0003322220607,0.006676510508,0.003086388636,-0.002922838903,0.001610373401,0.01285362743,0.005493218567,0.02293794186,0.02125727044,0.05967524026,0.01206425899,0.01899678904],
			[0.02955315618,0.08625493494,0.07232744519,0.1055971362,0.3095173514,-0.1040454812,-0.02487685809,-0.004385267765,-0.07169576565,-0.01589959795,-0.05612383002,0.000450800485,0.0009938560321,0.01468034642,-0.06701895943,0.04923969781,0.007029081865,0.008041587624,0.01733808522,0.0360198384,0.01597911977,0.008685317219,0.09352609222,-0.04345032227,0.0357151216,0.1579389932,0.01397473207,0.02206403826,0.02637804914,0.003757086666,0.002367042255,0.01949608345,0.04732190006,0.0318792709,0.05694921174,0.01672723664,-0.003183818927,-0.0004791102685,0.007209799856,0.01449945152,0.003370123716,0.001356670694,0.003870374768,0.01133648308,0.00613286592,0.02243251768,0.03064905838,0.0766238511,0.0175576063,0.024859107],
			[0.08002738845,-0.009804871707,-0.00529468568,-0.003307296711,3.503789436,-0.1190240411,-0.366923062,-0.02652851929,-0.4145438974,-0.1635115738,-0.5853166039,-0.02417432125,-0.06116225932,-0.005083046594,0.7202016668,-0.8201030705,0.01445496793,-0.01210195714,-0.01468567319,-0.08623559694,-0.04002131084,-0.02410283705,-0.1531908607,-0.05098287253,-0.06675270816,-0.3238058896,-0.0395952842,-0.06436675368,-0.1111671678,0.0153594975,-0.3708806558,-0.02573714425,-0.08381159921,-0.04730735606,-0.2366198295,-0.08876887876,-0.04403200205,-0.4127870959,-0.1256721774,-0.04005361367,-0.01758173777,-0.00517235318,-0.04386364749,-0.0217400039,-0.03226121291,-0.1187906922,-0.07334274177,-0.01202681273,-0.03206134569,-0.01052258653],
			[0.3149262159,-0.09527580926,-0.06765271866,-0.1194879462,-0.3447965576,6.124849329,-0.4143856317,0.320348552,1.761896681,0.1794210976,0.4595597904,0.02939899418,0.04233616567,0.04623144293,0.1802053199,-0.5707668107,0.004732689111,0.01087006997,0.005471047755,0.05318847957,-0.005114760561,0.03407031687,-0.1047032389,0.09192662742,-0.04885241201,-0.1564353097,-0.001272525862,0.02630813957,0.01954152189,0.02756558114,-0.9986498316,0.0733438221,0.2921977268,-0.2609362911,1.872484828,-0.01532176007,-0.170839378,-0.01057652694,-0.0199971321,-0.01816074659,-0.0423245374,-0.02831447879,-0.08947456992,-0.05789231529,-0.08631947325,-0.281528824,-0.4603710808,-0.1130316866,0.06945716096,-0.01512773725],
			[-0.02325727956,0.2105073811,0.09850394041,0.08486528828,-0.09569073609,-0.5203036678,1.793555097,-0.04910581558,-0.696497949,-0.03182317537,-0.03326081303,-0.001724390182,0.01547533683,0.01188077239,-0.1270172453,0.1194035118,0.008569362252,0.01115428133,0.02247354986,0.05136730978,0.02096211208,0.01389668407,0.1017277795,-0.06594558789,0.04756788095,0.2342670525,0.01947769354,0.03000982429,0.03997951483,0.003554292445,0.2666233915,0.02265789106,0.03641391236,0.09914309783,-0.1590867259,0.0357051253,0.02303636947,0.05895899772,0.02477896172,0.01827011255,0.01794086927,0.006992779195,0.02990469117,0.02904395517,0.03568211717,0.1216282088,0.1919822398,0.2230317598,-0.0009400648191,0.06060010399],
			[0.04594591181,0.0007301575024,-0.0001327988397,-0.00495279909,-0.02432950311,0.3203731277,-0.04391556794,0.04555150639,0.246674025,0.02586923205,0.06701699962,0.004439602167,0.007995083416,0.007932548126,0.01481837407,-0.08049296932,-0.0005204951972,0.001692233818,0.000492075976,0.009910533751,0.0004078439121,0.005584937025,-0.005991900881,0.01514079188,-0.004999929234,-0.04258757416,0.0006445193807,0.005204279404,0.004355406882,0.004410681905,-0.1329604921,0.01410663902,0.05006491724,-0.02971975234,0.2798714548,-0.0005332218774,-0.02699510462,-0.001713005064,-0.002939159439,-0.001313083353,-0.005447813212,-0.004617411412,-0.01168460802,-0.006969197407,-0.01129668359,-0.03578649702,-0.06511621829,-0.002018710177,0.01051580327,0.001825310074],
			[0.2432856849,-0.02597644262,-0.01032275059,-0.03803975061,-0.08015985923,2.000090202,-0.7331639881,0.2792209262,4.658925711,0.3681126828,0.8069484074,0.05459928936,0.09771358121,0.0468306103,-0.09939369636,-0.1651325783,-0.01534896311,0.01252443985,-0.004676880704,0.08774608177,0.004550895945,0.05034677183,-0.04568555777,0.2655251103,-0.03591989447,-0.3504482752,0.003812256702,0.03542698412,0.02810039275,0.02167451013,-0.6497876903,0.08719176527,0.314422128,-0.1793777539,1.713479528,-0.01013937378,-0.0698161043,-0.01917266124,-0.01615815299,-0.009035975239,-0.02727927323,-0.01622573879,-0.05738602906,-0.04161404332,-0.05954799995,-0.1825779359,-0.3857328006,-0.01209774153,0.0604732104,0.01036354365],
			[0.0005561875493,0.01059811099,0.007460183298,0.003912124235,0.01594875352,0.1399716377,-0.05636393312,0.02021557243,0.3447512074,0.1288987594,0.2577658855,0.01773909927,0.03406437908,0.005310301394,-0.1036071105,0.1496909953,-0.005425789198,0.003870349405,-0.0004959842971,0.02811681612,0.004216690087,0.01424482735,0.004462538502,0.09731269151,-4.059041443e-05,-0.04510991303,0.001635464361,0.004200357799,0.006136915519,-0.0001680293171,0.04966094518,0.01156870952,0.03817370496,-0.002334624071,0.1414065082,0.000610401256,0.04134482916,0.001699333979,0.002635374074,0.00103214214,0.002464447448,0.005166289779,0.004840500226,0.000562805347,0.003330873214,0.01464294634,-0.004291344845,0.02831412096,0.003564523008,0.008525509497],
			[0.004565334253,0.01353868834,0.009483496821,0.005935182762,0.0110139221,0.2608802776,-0.1012106393,0.03763585718,0.6521291338,0.2480378179,0.8885859591,0.03356979647,0.101602203,0.005431672451,-0.2603135335,0.4092715305,-0.0131724913,0.005897523857,-0.003981399546,0.04901854032,0.007688422722,0.02513634688,0.009920756167,0.1732916515,0.002734826097,-0.06951647726,0.003880940832,0.00914386024,0.01225057956,0.0004308323376,0.2905067047,0.03011066316,0.09396318622,0.01126659077,0.2999502356,0.0005107568918,0.07287181835,0.007892779275,0.008509278046,0.002723224089,0.01405299459,0.009319127396,0.02682852511,0.006404644776,0.02491527239,0.09372048765,0.07298605262,0.0478533667,0.00369336434,0.01388224462],
			[-0.02843027448,0.02682314,0.01804747054,0.01226504322,0.0523289322,0.03244033294,-0.02403038955,0.005773798169,0.1014945302,0.02294884041,0.04856749078,0.02546058934,0.0200278229,0.00797295167,-0.1214331786,0.1827386234,-0.005616789812,0.006627006715,0.002061533635,0.04356843383,0.007206534004,0.02118746775,0.01172676423,0.1520619043,0.001612869641,-0.05425111317,0.001853602487,0.002613779043,0.007292151094,-0.003266328074,0.002202077412,0.00440215316,0.0159097124,0.002964576931,0.03731484673,0.002705057089,0.08518450015,0.001375133968,0.003625864285,0.002202700692,-0.0001438272964,0.0112946114,0.000751169717,0.001287063087,-0.002440533447,-0.006772438747,-0.03015194918,0.05606758466,0.002137646798,0.01577048826],
			[0.002245570422,-0.002785255741,-0.001989504371,-0.0004464011216,-0.009998893243,0.01413622508,-0.003309279423,0.002015525681,0.04076097172,0.01785453391,0.06519865155,0.002106425562,0.02708746402,-0.002234460135,-0.0521641787,0.09594817263,-0.002446471256,-0.0004256770277,-0.001946805337,0.0007388774109,0.0003199601408,0.0005617613687,0.001445547808,0.004814352179,0.001739672271,0.004477838452,0.0006818533851,0.001240228856,0.001123935913,0.0004446517758,0.1278331196,0.006472503023,0.0180107731,0.009454388915,0.03686293929,-0.0003273244351,0.001577713089,0.003103604061,0.002498204114,0.0006002979638,0.006118221022,0.0003295168954,0.01153712777,0.003379792699,0.01194332314,0.04269485663,0.04981359793,-0.0001922968056,-0.001470482544,-0.0003846446187],
			[-0.08112979623,-0.002832997154,0.0007534882294,-0.002367253245,-0.06028625325,0.04722540547,-0.01752530171,0.006442288561,0.1488387614,0.02166666454,0.04776117884,0.0167166762,0.01097602869,0.1030967371,-0.3331797192,0.1171410365,-0.01440232042,-0.0005867470795,-0.01088273416,0.01480901084,0.001500289826,0.009699878374,0.007581500345,0.08673439893,0.009052649906,0.04638394877,0.01785869211,0.03500651178,0.06748774269,-0.00913613645,-0.005209694216,0.001542734678,0.005599877658,0.02269627437,0.02639035349,-0.003393453901,0.04439560691,-0.0001617094806,-0.001627537824,0.0008575751106,-0.0001391499224,0.003455722754,0.005615716515,0.001178652483,-0.001272651009,-0.002886977253,-0.03737820097,0.02357421675,-0.01039749275,0.004078805424],
			[1.613714966,0.3332192464,0.1548830698,0.1503536021,1.164240869,-0.5722017847,0.1983778476,-0.06526184795,-2.00979463,-0.09605464338,-0.1279767834,0.006693551212,0.05394196786,0.1286558856,3.185031611,-0.4491855328,0.1299596946,0.07027403217,0.1610061911,0.2248808744,0.05494833253,0.07353936577,0.0831749561,0.2491999025,-0.01940190265,-1.237434252,0.06333808775,0.2215452211,0.1976648714,0.1802538034,0.2196161113,-0.003497726926,0.03907501557,-0.6131153814,-0.1627297669,0.06957570789,0.2575694444,0.02482084465,0.04235427471,0.01849589957,0.08355557585,0.07363634446,0.04362251456,-0.03141123426,0.143342249,0.5509577846,0.7640000188,0.1399093996,0.2695351124,0.09904165701],
			[-0.3047717122,-0.05959351928,-0.01931066443,-1.975585275e-05,0.001452866099,-0.05794290021,-0.02110421322,-0.008236428288,-0.001517156654,-0.1350593099,-0.513111967,-0.03359324099,-0.078191874,-0.1191388622,-0.4687641255,1.561500578,-0.01217148681,-0.01544403259,-0.01872689756,-0.06945918416,-0.005219680478,-0.03515476541,0.007531353693,-0.2474731019,0.01413885671,0.3779702652,-0.0161308975,-0.05609587386,-0.06090477396,-0.03569221313,-0.2026711867,-0.0098339133,-0.04487625928,0.1273841032,-0.1041579499,-0.0007747770859,-0.1439354454,0.02821085098,0.0437039538,0.007165502839,-0.0250517155,-0.02620310951,-0.02434681623,0.007892932923,-0.04278578248,-0.1633420384,-0.1924316278,-0.06809625227,-0.03989981239,-0.02758151365],
			[0.07007791875,0.03008812974,0.02138163737,0.02433986062,0.2985720653,-0.03414639353,-0.02993890494,-0.002571398317,-0.1078359306,-0.02144191683,-0.07292044167,-0.0003814072817,-0.003861607712,0.01482935256,0.0855901035,0.05373727034,0.04352923726,0.02048019934,0.05182640644,0.05853906958,0.01679054768,0.0159589252,0.0287952229,-0.006541332969,0.01434008369,0.02225827257,0.01157042544,0.0246212111,0.03232439819,0.006730383425,-0.0487612944,-0.003348056833,0.0007684968277,-0.03938760075,-0.0106732381,0.01743318621,0.04357868895,0.0105914723,0.02005993745,0.007035502109,0.005760657709,0.01616761871,0.0007818004849,0.01098020639,0.01327076259,0.0322643825,0.167107951,0.03001446345,0.02161773653,0.01306772407],
			[0.03400670188,0.01391032362,0.0112351363,0.01026820598,0.1102497338,0.01585361974,-0.02900199151,0.003150370964,-0.01820008022,-0.00568515807,-0.023206636,0.001853150971,-0.0003509375604,0.01756032039,-0.01615449966,0.03782154673,0.01398160737,0.04074070184,0.0413465416,0.08429009435,0.0159057747,0.01632843287,0.02197104204,0.003042756086,0.01178140305,0.03047736617,0.007863605907,0.01488458121,0.0215834423,0.001391790885,-0.03260116664,-0.0002969734772,0.005986569061,-0.02057810729,0.02305387563,0.006695867978,0.01789148264,0.004232555275,0.007679774894,0.004262936483,0.001355893181,0.005714558996,0.0002813119033,0.01033444017,0.002525712661,0.006533318916,0.02955439841,0.01462220199,0.02213354316,0.008987356965],
			[0.07813290096,0.0199665627,0.01946120959,0.02244943017,0.2846854041,0.0481472091,-0.08163762266,0.008751211344,-0.03950671173,-0.01803018058,-0.07695898812,0.006567149248,-0.00427153147,0.06028114089,-0.0887501025,0.1563830969,0.04223780612,0.04617736525,0.1890068085,0.1189148084,0.04156804623,0.02872943473,0.06536199598,0.009988674978,0.04479525572,0.1475536362,0.02718991999,0.04897799161,0.0726430114,0.001797129129,-0.1114315402,-0.006498532348,0.003848771327,-0.06414893237,0.0417760516,0.0177072943,0.06241419776,0.01507606985,0.02482838401,0.01296632197,0.004358691763,0.01851685317,0.002133985216,0.05198522141,0.008677571581,0.02092685309,0.1042173763,0.001548624267,0.05733663302,0.01337578348],
			[0.1361770275,0.06839144037,0.0546911573,0.03873249588,0.3196201482,0.1283256526,-0.1333744338,0.02150326868,0.007387364574,-0.005330341975,-0.03497526314,0.009612912188,0.006451539393,0.07165084665,-0.1431824171,0.096779882,0.02649547805,0.08739555707,0.09234562004,0.5630438552,0.07654942123,0.09679677902,0.08960956084,0.02371877363,0.03767333181,0.07703034058,0.02603094822,0.04904208202,0.07315785693,0.002691359073,-0.1085338121,0.009009213242,0.04949801264,-0.06575617027,0.1744155825,0.01973839181,0.03819636352,0.008330515784,0.01714781133,0.01533558934,0.0004374665634,0.01124447392,-0.0008943938342,0.01972862763,-0.002852831105,-0.003122784203,-0.05054660651,0.09708617094,0.1091916899,0.05114045671],
			[0.05488984132,0.003874871837,0.003741029219,0.002487430949,0.0271645544,0.09904263893,-0.06619329763,0.01404070979,0.04537679574,0.00468878113,0.006742503457,0.005045490378,0.003041459592,0.03187287944,-0.08574047009,0.03851240346,0.002857684425,0.01231008866,0.0255329775,0.06551304962,0.03438883122,0.01345718215,0.02825439993,0.02469755977,0.009587475088,0.0005725296001,0.008361820089,0.01567948737,0.02637225027,-0.001556950515,-0.05600639449,-0.0007403528177,0.01234720204,-0.04034608915,0.08227693425,0.001950705395,0.01151987451,0.002133380743,0.003607183521,0.004561933945,-0.002716094073,0.002020577993,-0.002614874355,0.001553005583,-0.007932735245,-0.02029222554,-0.08764079984,-0.03603503936,0.05603411632,0.002833847699],
			[0.03461579717,0.03689347452,0.02917143512,0.01927884241,0.1377276826,0.009830072622,-0.02884026231,0.003180446549,-0.01495410712,-0.003615908675,-0.01550303592,0.002141283049,0.002535371194,0.01767606613,-0.0338159121,0.01979274017,0.007843052764,0.02174777493,0.02547852778,0.1100436157,0.01958336256,0.04931738127,0.03016884488,-0.003061602725,0.01334735247,0.0399740805,0.007880388793,0.01467095094,0.02016497086,0.002040825939,-0.01682441738,0.007110089165,0.02245669539,-0.004302509553,0.04995816997,0.008412134613,0.007903465631,0.001813422189,0.004826707311,0.005035848384,0.001455321854,0.002962568916,0.001213041657,0.007875403133,0.002185033304,0.008557851152,0.008959655155,0.08669406439,0.02300100547,0.02883465689],
			[0.01532889756,-0.02470800881,-0.005083170805,0.001691367982,-0.02535952284,0.0728493046,-0.05728879216,0.01054375858,0.01937741525,-0.01889175552,-0.0807328881,0.0003103643642,-0.01511677981,0.01330530339,-0.1783380426,0.2616032934,0.01052373046,0.01236034743,0.02985405626,0.05606111861,0.03101849207,0.009205077983,0.1922392834,-0.05175517778,0.06484363045,0.3088515751,0.02249554676,0.02847614435,0.04143976668,-0.006148782225,-0.1112357652,-0.007832733323,-0.006821937276,-0.0352434607,0.03601793963,0.007046026389,0.006041558626,0.02507732193,0.02414755853,0.0310629167,-0.00489395239,0.002617620019,-0.005814359342,0.003017428372,-0.010755274,-0.03692637999,-0.06814735188,-0.05961186891,0.04656808551,-0.005733250887],
			[-0.06443823455,0.09174959784,0.02552412621,0.0163606749,-0.2252992783,0.06434110036,0.03919657548,0.01138409067,0.3950605837,0.1617091532,0.5894896004,0.01705804668,0.2126807164,-0.02592001864,-0.4127790246,0.4676650901,-0.07520204036,-0.02724469233,-0.08097330826,-0.05616654195,-0.01911600143,-0.008294810541,-0.03465455429,1.775761569,-0.05105443858,-1.123075606,-0.0198784692,-0.0278901282,-0.04079454445,0.002303032197,1.053934966,0.07603288895,0.1814183658,0.1746093263,0.3341796024,-0.01335021187,-0.05274351028,-0.001495239956,-0.01522240902,-0.00690264883,0.0425208057,-0.01935060051,0.08871948044,0.02010548099,0.08045593098,0.3077735404,0.2050103966,0.1287557828,-0.05016166113,0.02377436718],
			[0.01670929221,-0.03222454492,-0.01066396896,-0.004755521952,0.01748766572,0.02453223895,-0.02678927932,0.002960847017,-0.0233054557,-0.0165294447,-0.06420158426,-0.0004620407726,-0.01470342349,0.005016359401,-0.06834236472,0.1085839548,0.01399645374,0.007842662595,0.02073391138,0.02604987224,0.0121022575,0.004592324015,0.05824070157,-0.0580796276,0.07238731975,0.3423890115,0.02167148962,0.02568615373,0.03066351452,-0.001972526181,-0.09041637465,-0.01032986173,-0.01839606502,-0.03360859607,-0.01622758801,0.003603772444,0.01519993283,0.01093882609,0.01260776604,0.01016043592,-0.00229744355,0.004955683677,-0.00481831686,0.0005316373368,-0.004330713786,-0.01897208752,-1.257637756e-05,-0.04521648623,0.02001949924,-0.007806038912],
			[0.4302020162,-0.5987299983,-0.2072642569,-0.1050805824,0.9060076865,0.1192620232,-0.3268022449,0.004828216978,-0.8103431971,-0.2924925635,-1.062481119,-0.02338070906,-0.2638867199,0.06790641308,0.525840707,0.6389556442,0.3322710075,0.1358129072,0.3808049328,0.3341506233,0.1160213841,0.06451551952,0.2393318332,-1.140740678,0.339525841,6.33647896,0.132347909,0.1951902392,0.2623770889,0.002213408421,-1.522081129,-0.2019415328,-0.395824923,-0.6450288842,-0.6055989797,0.06257116013,0.3434030444,0.1122335291,0.1675632621,0.05813813465,-0.02921252357,0.1176338995,-0.1021174498,0.002501166859,-0.04298691049,-0.2647232047,0.5398831221,-0.7156915285,0.2270406081,-0.1438493516],
			[-0.01224198326,-0.01152108261,-0.005147599794,-0.003872758993,-0.03987806563,0.009301727472,-0.002137278421,0.0009591226871,0.01161370438,-0.002724553913,-0.01439522639,0.001276777826,-0.003323785681,-0.002640981362,-0.1618939193,0.07664784806,-0.004550987541,-0.001124045094,-0.003560849899,-0.000419584735,0.0009643502335,-0.0002673537982,0.0119892483,-0.006476180587,0.01714905716,0.08738532955,0.03928359685,0.03989542791,0.03749830323,-0.002096198929,-0.01884333136,-0.00241707277,-0.005337787959,-0.001388902282,-0.005017193,-0.001671337379,0.001872631478,0.002332850327,0.001485280219,0.001935899721,-3.939328496e-05,-0.0006907156335,0.001731135457,-0.0009799441302,-0.0004327572067,-5.268238608e-05,-0.01626761573,-0.01224787117,0.0007966394911,-0.003159562609],
			[0.05259814948,-0.006777207429,-0.006932748315,-0.006142464874,-0.1220475199,-0.02078589827,0.03017259394,-0.003362442308,-0.08323126439,-0.006503033465,-0.0157481375,0.0003283754323,-0.001824083587,-0.006292517461,-0.3742444421,0.118074727,-0.0205519385,-0.008225174321,-0.02199408051,-0.01956022732,-0.0043715973,-0.005337074752,0.003972042238,0.002559120732,0.01005738943,0.009866067939,0.03946044681,0.1576488802,0.07856945081,0.005781713075,0.01252935147,-0.002045004722,-0.00663751196,-0.0196365409,-0.02100660765,-0.006319830433,-0.009277117875,0.0006581283925,-0.003634475359,7.717848373e-05,0.004058975695,-0.0052947467,0.007796233644,-0.008381670065,0.005305501656,0.03109257629,-0.04224727063,-0.02117414187,0.005965291377,-0.004425720021],
			[-0.1394736655,-0.03980912641,-0.02013130885,-0.01737074122,-0.166681305,0.04120884726,-0.005846624889,0.004143314333,0.1479377747,-0.0004391164885,-0.02107500532,-0.0008011086638,-0.009981583182,-0.01875574205,-0.5259679331,0.1796836593,-0.02151107228,-0.009845846282,-0.0240024869,-0.02727527346,-0.005476948038,-0.008925298904,0.002953672454,-0.03319177128,0.0173233953,0.1820328837,0.03224945413,0.06300896363,0.1209941641,-0.01579838806,-0.03231750221,-0.003311540529,-0.01227372256,0.04748852808,-0.005675637378,-0.009137214754,-0.02596107777,0.001452113138,-0.002212734208,9.889040086e-05,-0.001768163699,-0.008530413169,0.008135267089,0.001260979015,-0.002447205484,-0.008418938384,-0.04936351161,-0.02574663352,-0.02404684925,-0.01245283202],
			[0.2114476924,0.03084384439,0.008598893487,0.006484743351,-0.04670097118,-0.07828296284,0.0603692997,-0.01015726606,-0.2714270483,-0.008102838385,0.00422287162,-0.0002784661031,0.008009329723,0.005844112812,-0.0868410505,-0.01207906942,-0.01523064615,-0.005969524407,-0.01706321273,-0.01389040123,-0.004775627309,-0.002508532574,-0.008855431969,0.03671401777,-0.01467304484,-0.2182003087,0.001088160633,0.01661268566,0.006330813906,0.02444919927,0.06789562504,0.001603346505,0.003476665302,-0.06871039676,-0.02732212977,-0.002490395623,0.0007640694232,-0.002581530256,-0.006498347822,-0.002149337706,0.008570162879,-0.002244210256,0.005790721969,-0.01470048499,0.01173935577,0.06153957553,-0.01956920188,-0.00437761186,0.02762425267,0.005047277646],
			[-0.08315083122,-0.05941653407,-0.03571832774,-0.01422123228,-0.09738508599,-0.08218167623,0.04091389446,-0.01266666224,-0.1097596806,-0.06245226481,-0.226479108,-0.01221483171,-0.0410232371,-0.0327884508,-0.2509200728,0.6179437892,-0.005335753171,-0.007905750506,-0.008663022772,-0.03664847633,-0.002271593893,-0.01905023501,0.009585597968,-0.1473551421,0.02314190641,0.2275326266,0.002800962757,-0.004201902842,-0.003727223608,-0.007504832343,1.049724147,0.03788626098,0.09522982647,0.1241787645,0.09874042697,-0.00287835791,-0.0596845043,0.02666018085,0.02134587141,0.004703136706,0.04749942189,-0.005108272134,0.09426316675,0.03710685696,0.09778843103,0.3351814656,0.4736008862,-0.05015465815,-0.03325543968,-0.02118840556],
			[0.1181231244,-0.06247303607,-0.03390250597,-0.02557568281,-0.190104056,-0.01604790202,0.03691375309,-0.004592389709,-0.1556009727,-0.009448312758,-0.02010364241,0.002053244812,-0.007884791318,0.02343841748,-0.1547873665,0.07073150355,-0.01327736842,-0.009480930167,-0.01842961195,-0.03564754311,-0.007579609077,-0.01353016351,-0.01250056997,0.008124550708,0.004349221989,-0.0583904064,0.007001603961,0.01893765396,0.02027044339,0.01102059808,0.001671590284,0.08759796559,0.03920659157,0.196167558,0.02431433823,-0.009591458476,-0.02575305623,0.003328443548,-0.00235022159,-0.002110161326,0.003854068024,-0.006195348746,0.004215295292,0.02482669647,0.004974000469,0.03027422225,-0.03358812394,-0.09841705634,0.01660579126,-0.02308308731],
			[0.08924883515,-0.03809580824,-0.0223801422,-0.01692088894,-0.1437756788,-0.01656274838,0.03143368529,-0.003832645474,-0.1180392176,-0.005909376457,-0.009568048189,0.001151469578,-0.008071685491,0.01392225726,-0.06576881353,-0.01534497846,-0.007666307729,-0.008283496774,-0.01325231434,-0.03607157892,-0.007141065251,-0.01490899686,-0.01155464062,-0.0392782635,-0.0003644191668,-0.03647754122,0.003580460205,0.01172561293,0.01117047337,0.008790276122,-0.0528135514,0.05853258322,0.1430450885,0.09160817581,0.2171662986,-0.006015000543,-0.04578995243,0.002416820748,-0.002864869514,-0.002071075124,-0.0001299961166,-0.00834957837,-0.00267213814,0.009053203797,-0.001505428262,0.003409901376,-0.04163250475,-0.07170232855,0.01139325291,-0.01697659265],
			[0.150687154,-0.5233569074,-0.2555490451,-0.1926772953,-1.105329155,0.1370146433,0.05446125786,0.0007991632924,-0.2181372994,-0.04122136488,-0.1587975532,0.01530623571,-0.06948660941,0.146131133,-0.8927327379,0.6807254298,-0.04831984752,-0.04146539089,-0.07212236352,-0.1679708605,-0.03176227041,-0.06864392002,-0.05009583698,0.06582998721,0.081274729,0.2394372858,0.04712282818,0.08184413955,0.124937741,-0.00105465729,-0.04503459681,0.1747375335,-0.05516954159,1.635043391,-0.2887844763,-0.05866496174,-0.1006841694,0.02961345105,0.006631715791,-0.006211838123,0.008084188027,-0.02416495879,0.02609596086,0.2313317201,0.01199095555,0.06872560356,-0.1189032901,-0.6376951839,0.03042504705,-0.1670021642],
			[0.1644338365,0.006307869609,-0.007246770452,-0.01059102592,-0.2174295596,-0.006639573685,0.05290853056,-0.001650436321,-0.1061473669,0.03554612079,0.1525149118,0.006551483219,0.01698375468,0.01647499961,0.1395518239,-0.4628823193,-0.009234643587,-0.01753943432,-0.02404235181,-0.08524715268,-0.01802331997,-0.0357144787,-0.03367699715,0.008454025627,-0.02859415322,-0.2325070373,-0.004104790974,0.007085995366,-0.001399115144,0.01867684108,-0.5580478816,0.05767244392,0.1954197502,-0.09956690726,1.112255731,-0.005174306869,-0.1583383829,-0.006363120038,-0.01812161968,-0.007572465592,-0.02453211682,-0.02764320318,-0.05134221444,-0.03439567966,-0.04937531097,-0.1576895399,-0.2778756285,-0.07115368999,0.02017939266,-0.0148420286],
			[0.003631502449,0.001034694131,0.002594958185,0.005952625838,0.5029775428,-0.02468916416,-0.0560259732,-0.003668539274,-0.05577341706,-0.02620260464,-0.09554472804,-0.003644185167,-0.0103564496,-0.0006398826415,0.05105983524,-0.07466222803,0.001169832649,-0.00134263894,-0.001232343752,-0.008951898139,-0.003042812758,-0.003244533231,-0.01278850937,-0.01568634675,-0.00464252263,-0.01571713042,-0.002197986156,-0.003274053054,-0.005432676166,0.0009442138763,-0.03642380608,-0.001862221939,-0.007214532026,-9.088617591e-06,-0.02580322632,0.02832644783,-0.009376648772,-0.01336646265,-0.005385359235,-0.002616948883,-0.001662636032,-0.001295423781,-0.003731411973,-0.001232665702,-0.002938372072,-0.01088694384,-0.007321669666,-0.001099246911,-0.002722405484,-0.0009147715368],
			[0.06702602148,0.2212499205,0.1606603344,0.1066079878,0.7539177644,0.06596686831,-0.1607908206,0.01905522877,0.0555022854,-0.009986626733,-0.05480717914,0.004895721661,0.02091246686,0.04129781562,-0.0205119258,0.08810780377,0.03740988628,0.09332896622,0.1117128429,0.467510901,0.08289743635,0.2091379126,0.1240837861,0.01280303222,0.03651140357,0.1170653791,0.02032129917,0.03536866792,0.05217621988,0.0004367841289,-0.7497029957,-0.02787783913,-0.01518768951,-0.2181528237,-0.04767919472,0.0415137963,0.8721695749,-0.005419566339,0.01851861296,0.02035453234,-0.022329773,0.1335972108,-0.06120232788,-0.01063457767,-0.06377778027,-0.2236813751,-0.2869417119,0.4314828526,0.09556693193,0.1392399076],
			[-0.02214744739,0.009411222678,0.01429937056,0.02854013926,0.5874192108,-0.05437072617,-0.07669468746,-0.003815224481,-0.05259058691,-0.03977143923,-0.1502818715,-0.004840082107,-0.01739009089,-0.0004456868213,-0.1161221529,0.05745069514,-0.00167417781,-0.0002425847801,0.001502448382,0.001057193599,0.005522909975,-0.003065461878,0.01597332729,-0.04642479872,0.01117038538,0.08498022111,0.009141736823,0.01621456517,0.029008511,-0.003131604556,0.01394578476,0.003979784292,0.007752898388,0.0227685774,-0.002713708561,0.0331820022,-0.02121439521,0.1385240721,0.036216435,0.007466224615,0.0009510297319,-0.003370036355,0.004258479155,0.004902307664,0.00225406768,0.00799467351,0.002220257977,0.0008229357095,0.003135306257,0.0009327145498],
			[-0.02682895572,0.01556859964,0.01864181401,0.03206100744,0.1973587026,-0.01349116113,-0.04126940769,0.001458763992,0.01096380707,-0.01698073728,-0.06989886549,-0.001144282622,-0.007859239867,0.00280706025,-0.1987789346,0.1186410906,-0.003248631527,0.001918061175,0.004181719499,0.01512523733,0.0112700998,0.001308204059,0.03580978923,-0.03257121879,0.01874843943,0.1161167091,0.01478697256,0.02627957542,0.04611244678,-0.004696325591,-0.02014767298,0.005065956069,0.01315536498,0.02046182982,0.02729179848,0.0110708081,-0.01365302407,0.036065261,0.05376863303,0.01281328219,-0.0004500941738,-0.002734308341,0.00281048727,0.005096991055,-0.001103860236,-0.002385654239,-0.02556356118,0.005745099163,0.01027569313,0.003887966917],
			[-0.03379093362,-0.003626824062,0.0007687664011,0.004575602514,0.02832715524,-0.007617380789,-0.007968940135,-0.0006008024315,0.001417370235,-0.01570269816,-0.06042604574,-0.003466244912,-0.008808240331,-0.01131281297,-0.07443727009,0.1704711058,-0.001657693526,-0.001239421997,-0.001238350908,-0.004644787881,0.001098665915,-0.00325743597,0.005853763177,-0.02897832076,0.004065655276,0.05373038556,0.0005232189324,-0.001767324106,0.0005884095224,-0.00417934596,-0.02284877661,-0.0002465642496,-0.002538421627,0.0154300214,-0.006354706736,0.001504761706,-0.01604617638,0.007915660469,0.01196459988,0.02431877724,-0.002405852917,-0.002945823095,-0.001996775961,0.00150228799,-0.004368163195,-0.01641450449,-0.02258254938,-0.005850229968,-0.002452768545,-0.002149271745],
			[-0.001093008895,0.001990882054,0.001582693325,0.001143913233,0.008094724828,0.0003162424071,-0.001822853555,0.0001493802114,0.0005837076467,-0.000890715803,-0.003566097554,-0.0001411145491,-0.0002347965123,-0.0002432632753,-0.003048988787,0.009929843386,0.0003251417357,0.0008959200114,0.001075683832,0.004533290782,0.0008528286439,0.00199857192,0.00138522393,-0.001312047014,0.0004920125651,0.003561214561,0.0001373215059,7.725893309e-05,0.0002441260319,-0.0002039619557,-0.009032863834,-0.0003546241869,-0.0004217813997,-0.001552959135,-0.001122180645,0.0004418098542,0.00833697247,0.0001432505198,0.0004915880222,0.0003902589878,0.0204223811,0.003344249052,-0.0006952765778,-4.265511029e-05,-0.000822980958,-0.002969206744,-0.003667260373,0.004171350259,0.0007601289665,0.001309101268],
			[-0.01092750513,0.02861743633,0.02241789297,0.0157519202,0.1115039411,0.005782545086,-0.02519946395,0.002252162849,0.008097482746,-0.0107053419,-0.04316373845,-0.001572126587,-0.002253812412,-0.002038689019,-0.03507623864,0.1197213045,0.004695648081,0.01273403515,0.01522639788,0.06432845724,0.01189225328,0.02849734013,0.01885131431,-0.01502122871,0.006363267416,0.04313941432,0.001901784014,0.001395231072,0.003551671254,-0.002374738074,-0.1246134262,-0.004791324892,-0.00531083988,-0.02352598883,-0.01416400698,0.006081554184,0.1190238832,0.001130817253,0.005727038898,0.003510518414,-0.002920302514,0.04736759947,-0.01069723538,-0.001029487302,-0.01233718678,-0.04417733418,-0.05549808174,0.05909948306,0.01139168299,0.01868785258],
			[-0.03597581501,-0.005000496298,-0.003111997015,0.0003891589244,0.008336740289,-0.01426020894,0.002386110192,-0.001937782325,0.000451253508,-0.01219397645,-0.04663177644,-0.00285396448,-0.007158227254,-0.009862567243,-0.04045040469,0.1356594426,0.0004138431125,-1.19329883e-05,0.000835626722,-0.0005285182864,0.0009642995513,-0.001055541226,0.004404625469,-0.02362175426,0.005037690734,0.05621717402,-0.0001270127787,-0.003284650292,-0.003069998043,-0.003396433071,-0.01930407125,-0.003771518323,-0.008650510442,0.008013931359,-0.02296374418,0.0006052681537,-0.003494026021,0.005226984433,0.005160718913,0.001429733446,0.01021438937,0.0006015192797,0.02076128981,0.006118710349,0.02128025933,0.07119865371,0.1100432164,0.003817059004,-0.00944867313,-0.00109388032],
			[-0.0317199676,-0.01731475084,-0.005397555457,-0.003061493147,-0.01337704851,0.02666953852,-0.01883142098,0.003459084125,0.04702464662,-0.002042725908,-0.02191516055,0.005644027198,-0.004219375404,0.04021906154,-0.1705246502,0.1266428313,0.001053156428,0.003444057381,0.005671906765,0.01784339194,0.006468635476,0.005686201536,0.03121746069,0.001228853526,0.03855883922,0.1909871252,0.01706657619,0.02490806885,0.03991146355,-0.005231966974,-0.04869310475,-0.00508129055,-0.00837160149,-0.005140645781,-0.002466172138,0.0005046819447,0.02359692276,0.006227777978,0.00642533021,0.005412745582,0.001146312599,0.003799129619,0.004552679175,0.06210958647,0.002219768322,0.005859295295,0.009997223829,-0.01117394485,0.003233282629,-0.002316254681],
			[-0.04639846103,0.002698753925,-0.001156834862,0.003351921155,0.03571932439,-0.05300331549,0.023989318,-0.007024770731,-0.01743746442,-0.01019712353,-0.0349287612,-0.003684068427,-0.005325278771,-0.01811592272,0.02484136288,0.05990509241,0.004578556039,0.002321054994,0.005940927361,0.007111356966,0.002560676007,0.001671670245,0.006242752835,-0.02678388355,0.004651004735,0.06066925394,-0.001230643155,-0.004985306063,-0.007903015716,-0.001486514263,0.002236571396,-0.008873906426,-0.01537751597,0.002655351775,-0.05637108864,0.002468198564,0.00893255013,0.00720865946,0.005209581855,0.001791988821,0.02556646809,0.004847221628,0.007001645684,0.00389094994,0.09888015469,0.1777447851,0.5029792659,0.03608255204,-0.02860184599,0.003376624407],
			[-0.08877525244,0.002210075482,-0.01247695835,0.003654396255,0.06428420748,-0.08191620707,0.03434811688,-0.0108955701,-0.01716081356,-0.01918164281,-0.06803541758,-0.006779835145,-0.01023158414,-0.03292613215,0.03003715183,0.1348107833,0.008132370935,0.005990598017,0.0121971771,0.02292094128,0.006214599361,0.007804967662,0.01012857704,-0.04553083776,0.007569946473,0.1081294945,-0.002207303724,-0.009249058976,-0.0130036806,-0.00413404362,-0.01682735638,-0.01995107075,-0.03678666384,-0.005465846647,-0.1113551374,0.004257794553,0.03826271864,0.02209353992,0.01236000777,0.003787743324,0.09606007379,0.0169856073,0.01005006499,0.005362443681,0.1636307823,0.6689761139,0.8338389458,0.06521821987,-0.04719065559,0.007121243282],
			[-0.5735709579,0.0721546745,0.04002087951,0.06182998825,0.5293491428,-0.8395943209,0.4069183119,-0.1109282173,-0.338896054,-0.1121583726,-0.3562000561,-0.04676636542,-0.05476983917,-0.2467987824,0.6003528647,0.3292312968,0.07068843476,0.02819014638,0.08321803654,0.06750143596,0.02937583324,0.008288300572,0.08694009649,-0.346681673,0.05836390796,0.7529850322,-0.01884639392,-0.06501915989,-0.1182332598,-0.004497656306,0.1984957526,-0.1074218172,-0.1685607015,0.05911224717,-0.7554674659,0.03730558778,0.05214512095,0.05290531223,0.04956712213,0.02038527055,0.1375135416,0.0364041499,0.04666426843,0.04637900994,0.5155233462,0.9502076283,7.802862066,0.5499851823,-0.433278651,0.05207394159],
			[-0.09919554095,0.4881685876,0.390365367,0.2548565881,1.618863806,-0.8501377731,0.2530674067,-0.09437551182,-0.6368925926,-0.1055032848,-0.3206365622,-0.02071198719,-0.001840597938,-0.06993075596,0.2229363076,0.03646984454,0.06959935256,0.06552358567,0.1221122134,0.2752093941,0.07564841759,0.097072998,0.2673258837,-0.3436739693,0.1383128616,0.8136543014,0.03969702524,0.06140012215,0.03522521595,0.03951536756,0.300848936,0.1136393803,0.2053789159,0.3715524119,-0.09390104856,0.1019171101,-0.02381401742,0.01510926743,0.03900841828,0.0442774173,0.04514656673,0.01574803556,0.04315670034,0.1057679047,0.1045070399,0.3078700447,0.9401888834,4.261811896,-0.2361980178,0.4000345193],
			[0.2540505847,-0.01158821391,-0.0186264699,-0.02542213247,-0.2074936425,0.5729991787,-0.3060826577,0.07738278429,0.355670439,0.0680895319,0.1979578863,0.02658653307,0.03407726224,0.1370887535,-0.3478203596,-0.09900382792,-0.0372372012,-0.009670574732,-0.03940878468,-0.007040655892,-0.01110359136,0.009211800809,-0.04585816765,0.2044919238,-0.03790437424,-0.4039529502,0.007400458259,0.02602429668,0.06259637428,-0.01018418919,-0.1791848353,-0.0002067236377,0.0637815593,-0.1850100838,0.4496397951,-0.01756955637,0.008393576704,-0.0207671999,-0.02231944887,-0.009899180404,-0.02052407821,-0.008698397461,-0.01640804985,-0.04459691297,-0.05681037909,-0.1396762142,-0.6614728452,-0.2912073697,0.2723545277,-0.01787092281],
			[0.030348338,0.1304874405,0.1022300442,0.06374654828,0.3945269782,-0.1023486577,-0.0001483117734,-0.008250328514,-0.09330366722,-0.01338399714,-0.04270291127,0.0003590573527,0.007196895502,0.0119036624,-0.01779335432,-0.01242303892,0.01056450676,0.01568106738,0.02439220952,0.07344875885,0.01811798522,0.02854934043,0.06252953947,-0.04750818306,0.02914940249,0.1305920077,0.01249582217,0.02262096152,0.0237464246,0.008473555352,0.04154878038,0.03093853866,0.07040878188,0.05951095031,0.07597959699,0.0238196876,-0.004596916246,-0.0005720034037,0.005593722982,0.009836378975,0.007672979634,0.002328757012,0.008060312841,0.01876361762,0.01566055202,0.05238899072,0.1069142227,0.3876067691,-0.002871913952,0.1050371569]
		],
		"names": [
			"G01",
			"G02",
			"G03",
			"G04",
			"G05",
			"G06",
			"G07",
			"G08",
			"G09",
			"G10",
			"G11",
			"G12",
			"G13",
			"G14",
			"G15",
			"G16",
			"G17",
			"G18",
			"G19",
			"G20",
			"G21",
			"G22",
			"G23",
			"G24",
			"G25",
			"G26",
			"G27",
			"G28",
			"G29",
			"G30",
			"G31",
			"G32",
			"G33",
			"G34",
			"G35",
			"G36",
			"G37",
			"G38",
			"G39",
			"G40",
			"G41",
			"G42",
			"G43",
			"G44",
			"G45",
			"G46",
			"G47",
			"G48",
			"G49",
			"G50"
		],
		"description": "Stable smallworld network, IAA=503.7856",
		"created": {
			"creator": "",
			"time": 736265.634,
			"id": "",
			"nodes": "",
			"type": "unknown",
			"sparsity": ""
		},
		"tol": 2.220446049e-16,
		"N": 50
	}
}
