{
	"obj_data": {
		"network": "Tjarnberg-D20150924-scalefree-N10-L27-ID50693",
		"A": [
			[-3.982496067,0,0,0,0,0,0,0,0,0],
			[0,-0.03689061548,0,1.133068904,0,0,0,0,0,0],
			[0.542123007,-0.7357241616,-4.484347647,0.6546841303,0,0,0,0,0,0],
			[0,-1.075396244,0,-0.1093791834,0,0,0,0,-0.01282719514,0],
			[0,0,-0.261217377,-0.3878983585,-1.621297804,0,0,0,0,0],
			[0,0.1167374193,-0.008253156564,0,0,-4.970687271,0,0,0,0],
			[0,0,0,-0.2178634462,-0.4411958515,0,-4.951695067,0,0,0],
			[-1.188056803,0,0,-0.9253478913,0,0,0,-4.186040783,0,0],
			[0,0,0.9703922278,0,0,0,0,0,-4.020082731,0],
			[0,-0.09426496894,0,-0.04295618838,0,0,0,0,0,-4.970190092]
		],
		"G": [
			[0.2510988042,-3.989863995e-17,-1.371515748e-17,-1.331400268e-16,-1.32272665e-17,-5.014435048e-18,-1.504542273e-17,5.559246639e-17,3.771668308e-17,1.357455001e-17],
			[-8.715283469e-05,0.08988014956,-0.0006402344428,0.9272445461,-1.387778781e-17,-8.67361738e-18,5.963111949e-18,1.45716772e-16,-0.002958632329,1.214306433e-17],
			[0.03036979116,-0.1431665218,0.2230998727,-0.1477208672,2.775557562e-17,-1.170938346e-17,-3.380000273e-17,3.6429193e-17,0.0004713446255,-1.225148455e-17],
			[-2.837534153e-06,-0.8796325293,-2.084484232e-05,0.03018935731,-4.440892099e-16,-8.586881206e-17,-1.532519771e-16,-4.128641873e-16,-9.632756421e-05,1.034328873e-16],
			[-0.004892387131,0.2335200828,-0.03594002146,0.01657737106,0.6167898317,9.454242944e-17,-1.490777987e-17,1.05818132e-16,-5.289472574e-05,-8.077306185e-17],
			[-5.247174568e-05,0.002348559021,-0.0003854632953,0.02202176337,-5.59448321e-17,0.2011794236,1.480867702e-17,3.035766083e-18,-7.026657782e-05,-5.808951952e-17],
			[0.0004360363616,0.01789522199,0.003203171739,-0.002805306986,-0.05495595171,3.761673319e-18,0.2019510464,9.019206822e-18,8.951114328e-06,-1.69383296e-16],
			[-0.07126471819,0.1944477248,4.607869796e-06,-0.006673527464,1.526556659e-16,2.146720302e-17,1.246832498e-17,0.2388892158,2.129375059e-05,-2.843320197e-17],
			[0.007330846471,-0.03455841317,0.0538532157,-0.035657769,7.459310947e-17,-1.016439537e-17,-1.589033809e-17,1.196959198e-16,0.2488648757,1.05303136e-17],
			[1.677470831e-06,0.005897784708,1.23228878e-05,-0.01784710371,1.118896642e-16,1.087590304e-17,-1.252736318e-16,-1.19262239e-18,5.694616189e-05,0.201199548]
		],
		"names": [
			"G01",
			"G02",
			"G03",
			"G04",
			"G05",
			"G06",
			"G07",
			"G08",
			"G09",
			"G10"
		],
		"description": "Stable scalefree network, IAA=5.0693",
		"created": {
			"creator": "",
			"time": 736265.634,
			"id": "",
			"nodes": "",
			"type": "unknown",
			"sparsity": ""
		},
		"tol": 2.220446049e-16,
		"N": 10
	}
}
