{
	"obj_data": {
		"network": "Tjarnberg-D20150924-scalefree-N10-L27-ID1095332",
		"A": [
			[-107.1877481,0,0,0,0,0,0,0,0,0],
			[0,-7.025999694,-22.90397737,0,0,0,0,0,0,0],
			[7.703413756,0,-72.25967114,0,0,0,0,0,0,0],
			[-4.110079549,0,-36.10486678,-8.79769801,0,0,0,0,0,-15.13977005],
			[0,5.523530044,0,6.578732717,-36.21125553,0,0,0.8337403839,0,0],
			[0,0,39.32692598,8.083373566,0,-14.01726021,0,0,0,0],
			[-19.36709434,0,1.257124173,0,0,0,-1.016121093,0,0,0],
			[0,0,5.419312496,0,0,0,0,-84.88302164,0,0],
			[0,-1.90414145,0,0,0,0,0,-1.026977088,-2.158171723,0],
			[0,0,0,11.4161639,21.93562265,0,0,0,0,-3.664983771]
		],
		"G": [
			[0.009329424469,-6.116504321e-19,1.426403483e-18,-1.602281934e-19,-9.30966964e-20,5.728291916e-19,2.602085214e-18,-1.00049563e-19,-4.123991662e-19,4.015796438e-20],
			[-0.003242237887,0.1423285004,-0.04511352875,2.971653382e-18,6.014896598e-17,-6.782429548e-17,-4.687819143e-16,2.19963884e-17,4.134082604e-17,9.854371134e-17],
			[0.0009945854396,-1.033104662e-17,0.01383897801,-9.152176519e-19,-2.216373919e-18,6.223193043e-18,5.983440739e-18,-2.718490425e-18,5.205675897e-18,-1.127258216e-18],
			[-0.0004083482228,-0.02716480752,0.001685465246,0.0138084341,-0.03455397687,3.286238854e-18,6.875197026e-17,-0.0003393970359,1.543452021e-17,-0.0570415942],
			[-0.0005672841326,0.01677505325,-0.0065548973,0.002508667426,0.02133807874,-1.096731883e-17,-7.030373462e-17,0.0002095874725,1.432242799e-17,-0.01036311491],
			[0.002554932719,-0.01566520731,0.03979869824,0.007962949221,-0.01992634075,0.07134061759,4.303469473e-16,-0.0001957210602,2.752756824e-17,-0.0328943394],
			[-0.1765867549,1.254964015e-16,0.01712129972,-3.579561235e-17,4.904405468e-17,-1.50473709e-16,0.9841346735,-1.796345123e-18,2.684078003e-16,9.798223024e-17],
			[6.349879159e-05,1.245844173e-17,0.0008835423741,-2.885290931e-18,3.5789729e-18,2.682341095e-18,-1.901758373e-17,0.01178091897,-4.400264196e-18,7.597274279e-18],
			[0.002830390039,-0.1255755481,0.03938294685,1.354997365e-17,-3.156949894e-17,-2.079948132e-18,3.042813397e-16,-0.005606010738,0.4633551581,-5.809342857e-17],
			[-0.00466727876,0.01578542953,-0.03398219855,0.05802714071,0.02007926492,-2.993399629e-17,4.724410967e-17,0.0001972231162,-1.066050521e-18,0.03314678613]
		],
		"names": [
			"G01",
			"G02",
			"G03",
			"G04",
			"G05",
			"G06",
			"G07",
			"G08",
			"G09",
			"G10"
		],
		"description": "Stable scalefree network, IAA=109.5332",
		"created": {
			"creator": "",
			"time": 736265.634,
			"id": "",
			"nodes": "",
			"type": "unknown",
			"sparsity": ""
		},
		"tol": 2.220446049e-16,
		"N": 10
	}
}
