{
	"obj_data": {
		"network": "Tjarnberg-D20131025-random-N10-L25-ID990015",
		"A": [
			[-6.6425,0,0,0,0,1.4047,0,0,0,0],
			[-2.0145,-5.1081,0,0,0,0,-4.4018,0,-2.87,0],
			[0,0,-0.7459,0,0,0,0,0,0,0],
			[0,0,0,-6.3372,0.735,0,0,-3.0824,4.6854,0],
			[0,0,0,0,-0.1014,0,0,0,-0.2453,0],
			[0,0.3441,0,0,0,-0.0834,0,0,0,7.0948],
			[0,0,0,0,0,0.0754,-1.2759,0,0,5.1393],
			[0,0,0,4.4359,0,0,0,-1.6945,0,0],
			[0,0,0,0,0,0,0,0,-2.7463,0],
			[0,0,0,0,0,-7.0948,-5.1393,0,0,-0.008]
		],
		"G": [
			[0.148614965,0.006366391089,1.518896475e-17,-4.767609647e-17,3.601719617e-16,0.09450788237,-0.1304261487,-4.003840038e-17,-0.006653148755,0.02692723577],
			[-0.06946680701,0.229055977,7.462670098e-16,-1.79808154e-16,1.165734176e-15,0.4941611041,-0.6822307913,-1.869571121e-16,-0.2393732126,-0.02681305485],
			[-3.464995124e-17,1.119787404e-16,1.340662287,-2.667686046e-16,-2.70917049e-15,5.739416724e-16,-7.452863484e-16,-2.516797644e-16,-2.993845237e-16,-6.135432123e-17],
			[-4.849263623e-18,-1.375208812e-16,2.823089331e-16,0.06941371122,0.5031467234,-5.544203334e-16,6.540720656e-16,-0.1262678215,0.07348400077,-4.715072428e-17],
			[5.598548968e-16,-1.826013299e-15,4.016709433e-15,2.567390744e-16,9.861932939,-4.557335412e-15,5.850138082e-15,7.112366252e-16,-0.8808695881,-6.236025964e-16],
			[-0.009130130881,0.0301051846,3.787713213e-16,-1.484272774e-16,2.318891607e-15,0.4469058223,-0.6167549602,-2.698748614e-16,-0.03146119499,0.127332643],
			[0.01259906172,-0.04154344376,-4.312315945e-16,1.146950373e-16,-1.851817311e-15,-0.6167046355,0.8513895637,3.109288543e-16,0.04341466104,0.01879205076],
			[4.515024422e-17,-2.274520633e-16,6.882316437e-16,0.1817127658,1.317148746,-6.270754315e-16,7.209944447e-16,0.2595978582,0.1923680608,-6.647048702e-17],
			[4.163336342e-17,-9.020562075e-17,-1.611986988e-16,1.387778781e-17,1.526556659e-15,-2.636779683e-16,3.053113318e-16,-1.387778781e-17,0.364126279,6.259754798e-17],
			[0.003261836187,-0.01075539681,1.426597786e-16,3.469446952e-17,-1.723881454e-15,-0.1596618496,0.02583839595,6.938893904e-18,0.01123984592,0.002797247928]
		],
		"names": [
			"G01",
			"G02",
			"G03",
			"G04",
			"G05",
			"G06",
			"G07",
			"G08",
			"G09",
			"G10"
		],
		"description": "Stable random network, IAA=99.0015",
		"created": {
			"creator": "",
			"time": 736265.634,
			"id": "",
			"nodes": "",
			"type": "unknown",
			"sparsity": ""
		},
		"tol": 2.220446049e-16,
		"N": 10
	}
}
