{
	"obj_data": {
		"network": "Tjarnberg-D20131025-random-N10-L25-ID916134",
		"A": [
			[-8.6139,0,0,0,0,0.4195,0,0,0,0],
			[0,-3.7398,-1.6191,0,0,0,0,0,0,0],
			[0,0,-6.3028,0,0,0.8795,0,-0.5715,-0.0457,0],
			[-2.084,0,0,-1.836,0,1.612,0,0,0,0],
			[0,0,0,0,-0.264,0,0,0,-2.9243,0.0055],
			[0,0,0,0,0,-1.9431,-0.5335,0,0,0],
			[0,0,0,0,-0.3866,0,-0.2025,0,-2.2214,0],
			[0,0,0,0,0,0,0,-8.7077,0,0],
			[0,0.1052,0,0,0,0,0,0,-8.3914,0],
			[0,2.6413,0,0,0,0,0,1.2298,0,-0.5385]
		],
		"G": [
			[0.1160914336,0.0002410639096,-6.192590214e-05,-9.9312919e-17,0.09658692585,0.02503519766,-0.06595692815,0.0001433884292,-0.01619867925,0.0009864959929],
			[-7.237049501e-17,0.2671054511,-0.0686156051,2.81458884e-16,-0.1198204396,-0.03105729231,0.08182254542,0.004330511839,0.02046929503,-0.001223792791],
			[4.618701255e-17,0.000666440653,0.1584884442,-2.090341789e-16,0.2767614601,0.07173618787,-0.1889938579,-0.01000262379,-0.04728001332,0.00282671872],
			[-0.1317726294,0.004072401048,-0.001046142117,0.5446623094,1.63168638,0.4229308541,-1.114240053,0.002422325227,-0.2736515742,0.0166653205],
			[-1.040834086e-17,-0.009797755813,0.00251690462,2.081668171e-17,3.792273949,0.001139219604,-0.003001351402,0.005305068409,-1.320780147,0.038732603],
			[3.356689926e-16,0.004949941384,-0.001271569794,-1.335737077e-15,1.983289918,0.514066005,-1.354341796,0.002944299381,-0.3326193163,0.02025644299],
			[-1.366962099e-15,-0.0180285494,0.004631278849,5.63438185e-15,-7.223487609,0.002096242987,4.93274891,-0.0107236516,1.211457532,-0.07377749647],
			[-4.092227926e-20,-2.471049217e-17,-1.358381444e-17,-4.530355718e-18,3.643366533e-15,1.274953992e-17,-1.47722546e-15,0.1148408879,-8.992779394e-16,7.409420706e-19],
			[1.19262239e-18,0.003348606127,-0.0008602094593,1.387778781e-17,-0.001502146274,-0.0003893542378,0.001025780177,5.429008812e-05,0.1194262423,-1.534225536e-05],
			[-1.875669758e-16,1.310131157,-0.3365541277,7.771561172e-16,-0.5877097997,-0.1523335676,0.4013331276,0.2835088299,0.1004002766,1.851007607]
		],
		"names": [
			"G01",
			"G02",
			"G03",
			"G04",
			"G05",
			"G06",
			"G07",
			"G08",
			"G09",
			"G10"
		],
		"description": "Stable random network, IAA=91.6134",
		"created": {
			"creator": "",
			"time": 736265.634,
			"id": "",
			"nodes": "",
			"type": "unknown",
			"sparsity": ""
		},
		"tol": 2.220446049e-16,
		"N": 10
	}
}
