{
	"obj_data": {
		"network": "Tjarnberg-D20131025-random-N10-L25-ID87560",
		"A": [
			[-0.2,0.3771,0,-0.3327,0,0,0,0,0,0],
			[0,-0.3732,0,0,0,0,0,0,0,0],
			[0,0,-0.5279,0,0,-0.0446,0,0,0,0],
			[0.2695,0,0,-0.3706,0,-0.262,0,0,0,0],
			[0,-0.393,0,0,-0.2087,-0.0322,0,0,0,0],
			[-0.1095,0,0,0,0,-0.1822,0,0,0,0],
			[0,0,0,0,0,0,-0.3985,0,0.2501,-0.4945],
			[0.3415,-0.3457,0,0,0,0,0,-0.1815,0,0],
			[0,0,0,0.564,-0.0056,0,0,0,-0.334,0],
			[0,0,0,0.1471,0,0,0,0,0,-0.1763]
		],
		"G": [
			[1.714397757,1.732313489,1.715207837e-16,-1.539072136,-1.169203623e-15,2.213155322,-1.301042607e-16,1.873501354e-16,-4.059252934e-16,2.081668171e-16],
			[9.436895709e-16,2.679528403,-1.006139616e-16,6.661338148e-16,-1.276756478e-15,1.33226763e-15,-8.326672685e-17,2.220446049e-16,-6.314393453e-16,3.330669074e-16],
			[0.08704834792,0.08795801715,1.894298163,-0.0781462098,-8.569533971e-16,-0.3513248687,-1.283695372e-16,5.967448757e-16,-9.801187639e-17,3.330669074e-16],
			[1.975114062,1.995754322,-7.112366252e-16,0.9252011641,-8.881784197e-16,-1.330420993,-1.387778781e-16,6.661338148e-16,-8.951173136e-16,-0],
			[0.1589683839,-4.885152174,-1.028691021e-15,-0.1427112286,4.791566842,-0.6415922637,4.440892099e-16,-4.440892099e-16,-1.484923295e-15,-1.554312234e-15],
			[-1.030332351,-1.04109949,1.635844238e-15,0.9249637703,-1.33226763e-15,4.158394578,2.775557562e-17,1.665334537e-15,4.579669977e-16,-2.220446049e-16],
			[0.04653780051,0.1001193441,-8.222589276e-16,0.0240849497,-0.05042018991,-0.02572297863,2.509410289,6.661338148e-16,1.879052435,-7.038589834],
			[3.225712584,-1.844230922,3.989863995e-16,-2.895829943,-2.220446049e-16,4.16414624,3.885780586e-16,5.509641873,-8.326672685e-17,-0],
			[3.33255721,3.451982904,-2.577799085e-15,1.564708501,-0.08033764766,-2.235821927,-4.996003611e-16,6.661338148e-16,2.994011976,-8.881784197e-16],
			[1.647982295,1.665203975,-9.159339953e-16,0.7719630813,-1.221245327e-15,-1.110067658,-1.665334537e-16,4.440892099e-16,-1.054711873e-15,5.672149745]
		],
		"names": [
			"G01",
			"G02",
			"G03",
			"G04",
			"G05",
			"G06",
			"G07",
			"G08",
			"G09",
			"G10"
		],
		"description": "Stable random network, IAA=8.756",
		"created": {
			"creator": "",
			"time": 736265.634,
			"id": "",
			"nodes": "",
			"type": "unknown",
			"sparsity": ""
		},
		"tol": 2.220446049e-16,
		"N": 10
	}
}
