{
	"obj_data": {
		"network": "Tjarnberg-D20151002-smallworld_scalefree-N50-L312-ID4774003",
		"A": [
			[-23.676,0,0,0,0,0,3.866,0,0,3.6,0,0,0,0,0,0,0,0,0,0,0,0,0,0,0,0,0,0,0,0,0.438,1.684,0,0,0,0,0,3.574,0,0,0,0,0,0,0,0,0,2.158,0,0],
			[2.308,-30.69,0,0,0,0,0,0,0,0,0,0,0,0,0,0,0,0,0,0,0,0,0,0,0,0,0,0,0,3.316,0,1.764,0,0,0,0,0,0,0,0,0,0,0,0,0,2.948,0,0,0,5.84],
			[-0.484,-0.414,-0.776,-0.854,0,0,0,0,0,0.978,0,0,0,0,0,0,0,0,0,0,0,1.402,0,0,0,0,0,-0.078,0,0,0,0,1.3,0,0,0,0,0,0,0,0,0,0,0,3.098,0,0,0,0,0],
			[0,-0.554,0,-1.012,0,0,0,0,0,0,0,0,0,0,0,0,0,0,0,0,0,1.118,0,0,0,0,0,0,0,0,-1.2,0,0,0,0,0,-0.386,0,0,0,0,0,0,0,0,0,0,0,0,0],
			[0,1.25,-1.426,-1.63,-9.756,0,0,0,0,0,0,0,0,0,0,0,0,0,0,0,0,0,0,-1.252,0,4.128,0,0,0,0,0,0,0,0,0,0,0.842,0,0,0,0,0,0,0,0,0,0,0,0,0],
			[0,0,0,1.672,3.572,-28.058,0,0,0,0,0,0,0,0,0,0,0,0,0,0,0,0,0,0,0,0,0,0,0,0,0,0,0,4.166,0,0,0,0,0,2.476,0,0,0,0,0,0,0,0,0,0],
			[3.866,0,0,0.922,0,0,-12.912,0,0,0,0,0,0,0,0,0,0,0,0,0,0,0,0,0,0,0,0,0,0,0,0,0,0,0,0,0,0,0,0,0,0,0,0,0,0,0,0,0,0,0],
			[0,0,0,0,0,0,0,-36.13,0,0,0,0,0,0,0,0,0,0,0,0,0,0,0,0,0,0,0,0,4.65,0,0,0,0,0,0,0,0,0,0,0,0,0,0,0,7.908,0,0,0,0,0],
			[0,0,0,0,6.956,0,0,9.768,-22.376,0,0,0,0,0,0,0,0,0,0,0,0,0,0,0,0,0,0,0,0,0,0,0,0,0,0,0,0,0,0,0,0,0,0,0,0,0,0,0,0,0],
			[0,0,0,0,0,0,0,6.362,0,-31.698,0,0,0,0,0,0,0,0,0,0,0,0,4.986,0,0,0,0,0,0,0,0,0,0,0,4.942,2.948,0,0,0,0,0,0,0,0,0,0,0,0,0,0],
			[0,0,0,0,0,0,0,0,0,0,-0.1,0,0,0,0,0,0,0,0,0,0,0,0,0,0,0,0,0,0,0,0,0,0,0,0,0,0,0,0,0,0,0,0,0,0,0,0,0,0,0],
			[0,0,0,0,0,0,0,0,0,0,0,-3.838,0,0,0,0,0,0,0,0,0,0,0,0,0,0,0,0,0,0,0,0,0,0,0,0,0,0,0,0,0,0,0,0,0,0,0,0,0,0],
			[0,0,0,0,0,0,0,0,0,0,0,0,-0.1,0,0,0,0,0,0,0,0,0,0,0,0,0,0,0,0,0,0,0,0,0,0,0,0,0,0,0,0,0,0,0,0,0,0,0,0,0],
			[0,0,0,0,0,0,0,0,0,0,0,0,0,-0.1,0,0,0,0,0,0,0,0,0,0,0,0,0,0,0,0,0,0,0,0,0,0,0,0,0,0,0,0,0,0,0,0,0,0,0,0],
			[0,0,0,0,0,0,0,0,0,0,0,0,0,0,-31.98,0,0,0,0,0,0,0,0,0,0,0,0,0,0,0,0,0,0,0,0,0,0,0,0,0,0,0,0,0,0,0,0,0,0,0],
			[0,0,0,0,0,0,0,0,0,0,0,0,0,0,0,-1.7,0,0,0,0,0,0,0,0,0,0,0,0,0,0,0,0,0,0,0,0,0,0,0,0,0,0,0,0,0,0,0,0,0,0],
			[0,0,0,0,0,0,0,0,0,0,0,0,0,0,0,0,-0.1,0,0,0,0,0,0,0,0,0,0,0,0,0,0,0,0,0,0,0,0,0,0,0,0,0,0,0,0,0,0,0,0,0],
			[0,0,0,0,0,0,0,0,0,0,0,0,0,0,0,0,0,-37.718,0,0,0,0,0,0,0,0,0,0,0,0,0,0,0,0,0,0,0,0,0,0,0,0,0,0,0,0,0,0,0,0],
			[0,0,0,0,0,0,0,0,0,0,0,0,0,0,0,0,0,0,-5.51,0,0,0,0,0,0,0,0,0,0,0,0,0,0,0,0,0,0,0,0,0,0,0,0,0,0,0,0,0,0,0],
			[0,0,0,0,0,0,0,0,0,0,0,0,0,0,0,0,0,0,0,-0.1,0,0,0,0,0,0,0,0,0,0,0,0,0,0,0,0,0,0,0,0,0,0,0,0,0,0,0,0,0,0],
			[2.756,2.832,-0.01,-0.09,0,0,0,0,0,0,0,0,0,0,0,0,0,0,0,0,-16.782,0,0,0,0,0,0,0,0,0,0.98,0,0,0,0,0,0,0,0,0,0,0,0,0,0,0,0,0,0,0],
			[3.842,3.914,0,0,0,0,5.328,6.566,0,0,0,0,0,0,0,0,0,0,0,0,0,-30.122,0,0,0,0,0,0,0,0,0,0,0,0,0,0,0,0,0,1.766,0,0,0,0,0,4.428,0,0,0,0],
			[0,3.804,1.12,1.016,2.774,0,0,6.472,0,0,0,0,0,0,0,0,0,0,0,0,4.212,0,-28.408,0,0,0,0,0,0,0,0,0,0,0,0,0,0,0,0,0,0,0,0,0,0,0,5.816,0,0,0],
			[-0.04,0.054,-2.028,0,0,2.464,0,3.354,0,1.524,0,0,0,0,0,0,0,0,0,0,0,0,0,-8.714,0,0,0,0,0,1.116,0,0,0,0,0,0,0,1.456,0,0,0,0,0,0,3.628,0,0,0,0,0],
			[0,3.126,0,0.19,2.046,0,0,0,0,0,0,0,0,0,0,0,0,0,0,0,3.552,4.588,0,0.882,-12.068,0,0,0,0,0,0,0,0,0,0,0,0,0,0,0,0,0,0,0,0,0,0,0,0,0],
			[0,5.082,0,2.332,0,0,0,7.544,0,0,0,0,0,0,0,0,0,0,0,0,0,6.372,0,3.07,0,-32.698,0,0,0,0,0,0,0,0,0,0,0,0,0,0,0,0,0,0,0,0,0,0,0,0],
			[0,5.136,0,2.34,0,6.96,6.432,0,0,0,0,0,0,0,0,0,0,0,0,0,5.51,0,0,3.13,0,7.398,-36.36,0,0,0,0,0,0,0,6.29,0,0,0,0,0,0,0,0,0,0,0,0,0,0,0],
			[2.74,2.814,0,0.044,1.712,0,4.336,0,0,0,0,0,0,0,0,0,0,0,0,0,3.248,0,0,0,0,0,0,-20.996,0,0,0,0,0,0,4.152,0,0,0,-0.432,0,0,0,0,0,5.874,0,0,2.666,0,0],
			[1.542,1.62,-1.058,-1.28,0,3.896,0,4.65,0,0,0,0,0,0,0,0,0,0,0,0,0,3.218,0,0,0,4.438,0,0,-12.242,0,-0.282,0,0,0,0,0,0,0,0,0,0,0,0,0,0,0,0,0,0,0],
			[0,0,0,0.52,0,5.384,0,0,0,0,0,0,0,0,0,0,0,0,0,0,3.74,0,4.658,0,0,5.87,0,3.722,0,-21.898,0,0,0,2.852,0,0,0,0,-0.094,0,0,0,0,0,0,0,0,0,0,0],
			[0,0,0,0,-0.682,0,0,3.692,0,0,0,0,0,0,0,0,0,0,0,0,0,0,0,-1.676,0,0,0,0.93,0,1.526,-2.326,-0.058,0,0,0,0,0,0,0.028,0,0,0,0,0,0,0,2.908,0,0,0],
			[0,0,-0.774,0,0.576,0,0,0,0,3.102,0,0,0,0,0,0,0,0,0,0,2.234,0,0,0,2.53,0,0,0,0.962,0,-0.058,-7.774,0,0,0,0,0,0,0,0,0,0,0,0,0,0,0,0,0,0],
			[4.106,0,0,1.398,3.192,0,0,0,0,0,0,0,0,0,0,0,0,0,0,0,0,0,0,2.118,4.838,0,0,0,0,0,2.404,0,-11.428,0,0,0,0,0,0,0,0,0,0,0,0,0,0,0,0,0],
			[0,1.894,0,-0.572,0.712,0,0,0,0,0,0,0,0,0,0,0,0,0,0,0,0,0,0,-0.428,0,0,0,0,1.098,0,-0.184,0,0,-8.344,0,0,0,0,0,0,0,0,0,0,0,0,0,0,0,0],
			[3.684,0,1.118,0,0,0,0,0,0,0,0,0,0,0,0,0,0,0,0,0,0,5.164,0,1.608,0,0,6.29,0,0,0,2.02,3.188,0,0,-26.326,0,0,0,0.25,0,0,0,0,0,0,4.276,0,0,0,0],
			[1.526,0,0,-1.312,0,3.892,0,0,0,0,0,0,0,0,0,0,0,0,0,0,0,3.204,0,0,0,4.428,4.486,0,0,0,-0.396,0,0,1.08,0,-9.182,0,0,0,0,0,0,0,0,0,0,0,0,0,0],
			[1.948,0,0,0,0,0,0,4.976,0,0,0,0,0,0,0,0,0,0,0,0,0,0,0,-0.29,0,0,0,0,0,0,-0.034,1.4,0,0,3.428,0,-5.698,0,0,0,0.43,0,0,0,0,0,0,0,0,0],
			[0,0,0,0.748,2.596,0,0,0,0,4.842,0,0,0,0,0,0,0,0,0,0,0,0,0,0,0,0,0,4.048,0,0,0,0,0,0,0,2.926,0,-11.034,-0.056,0,0,0,0,0,0,0,0,0,0,0],
			[0,0,0,0,0,0.668,0,0,0,0,0,0,0,0,0,0,0,0,0,0,0,0.358,0.3,0,0,0,0,0,0,-0.094,0.028,0,0,-0.454,0.25,0,-0.26,0,-0.126,0,0,0,0,0,0,0,0,0,0,0],
			[0,0,-1.394,-2.11,0,0,0,0,0,1.496,0,0,0,0,0,0,0,0,0,0,0,1.766,0,0,0,0,0,0,0,0,-1.732,0,0,0,1.614,-0.892,0,0,0,-2.616,0,0,0,0,0,0,0,0,0,0],
			[0.758,0,0,0,0,0,0,0,0,2.238,0,0,0,0,0,0,0,0,0,0,0,0,2.382,-1.656,1.648,0,0,0,0,0,0,0,0,0.292,0,-0.012,0.43,0,0,0,-6.116,0,0,0,4.25,0,0,0,0,0],
			[0,5.894,3.364,3.33,0,0,0,0,0,6.92,0,0,0,0,0,0,0,0,0,0,6.242,0,0,4.05,0,0,0,6.234,0,0,0,0,0,5.514,0,0,0,0,0,0,0,-26.644,0,0,0,0,0,0,0,0],
			[1.568,0,0,0,0,0,0,0,7.238,2.988,0,0,0,0,0,0,0,0,0,0,0,0,3.124,0,0,0,4.512,2.094,0,0,0,0,0,1.14,0,0,0,0,0,-0.768,0,0,-9.77,0,0,0,0,0,0,0],
			[0,2.484,0,-0.108,0,0,0,0,0,0,0,0,0,0,0,0,0,0,0,0,0,0,0,0.2,0,0,5.234,0,1.714,0,0,0,0,1.966,0,0,0,0,-0.266,0.048,0,0,1.756,-6.32,0,0,0,0,0,0],
			[0,5.524,0,0,0,7.322,0,0,0,0,0,0,0,0,0,0,0,0,0,0,0,0,0,0,0,7.744,0,0,0,6.29,0,0,0,0,0,0,0,0,0,3.592,0,0,0,0,-39.124,0,0,0,0,0],
			[0,0,0.202,0.078,0,0,0,0,8.142,0,0,0,0,0,0,0,0,0,0,0,0,0,4.32,0.694,0,0,0,0,0,0,0,0,0,0,0,0,0,0,0,0,0,0,0,0,0,-16.204,0,0,0,0],
			[4.506,4.572,0,0,0,0,0,0,0,5.698,0,0,0,0,0,0,0,0,0,0,0,0,5.816,2.542,0,0,0,0,0,0,0,0,0,0,0,0,0,0,0,2.474,0,0,0,0,0,5.066,-22.296,0,0,0],
			[0,2.234,0,-0.602,1.088,4.442,0,0,0,3.532,0,0,0,0,0,0,0,0,0,0,0,3.778,3.668,0,0,0,0,0,0,0,0.308,0,0,0,0,0,0,0,0,0,0,0,0,0,0,0,0,-10.902,0,0],
			[0,0.226,0,0,-1.048,2.632,0,0,0,0,0,0,0,0,0,0,0,0,0,0,0,0,0,0,0,0,0,0,-0.634,0,-1.618,0,0,-0.266,1.764,0,0,0,0,0,0,0,0,0,3.764,0,0,0,-3.088,0],
			[0,0,0,0,0,0,0,0,0,6.874,0,0,0,0,0,0,0,0,0,0,0,0,0,0,0,0,0,0,5.226,6.59,0,0,0,0,0,0,0,0,0,0,4.6,0,0,0,8.364,6.294,0,0,4.104,-29.014]
		],
		"G": [
			[0.04775667683,0.003399394424,-0.03236481777,0.02471629039,0.008868546338,0.003022354524,0.01720180774,0.003301983262,0.0008684238324,0.009521818832,4.231463016e-17,2.846322114e-17,-2.178401827e-16,-5.817787023e-17,1.337069969e-17,-5.082731485e-17,-2.340247312e-16,-1.33348579e-18,-1.36416556e-17,2.93235752e-16,0.003709114355,0.003040840033,0.003217134457,0.00124802634,0.001185053447,0.002607561165,0.001426944614,0.002791218978,0.00275562715,-6.011343495e-06,-0.007722423939,0.01234584391,-0.003681682106,0.003191415829,0.002743467925,0.007718968549,0.0002598133332,0.01563345019,-0.01278631454,0.00328680847,0.0005328992308,-2.68226747e-17,-2.152268367e-17,-5.639545363e-18,-0.001068910126,0.002386618972,-0.0001680101728,0.01013578228,0.000909362118,0.0006842373831],
			[0.00512139757,0.03526443191,-0.03202556224,0.0185011919,0.005851343484,0.003542901834,0.002507205554,0.001693177739,0.003409138833,0.002939114185,7.069714941e-17,3.912151178e-17,1.599760305e-15,3.957512528e-16,9.945510774e-18,-1.364111248e-16,6.878442989e-17,-7.071595869e-18,-3.368960948e-17,3.417988983e-16,0.004180168066,0.001201042904,0.003158090476,0.002769164375,0.001372071626,0.003057618931,0.0004278765124,0.0007893119899,0.004383789317,0.006600740977,-0.02009440428,0.01001255542,-0.003643089859,0.004596677327,0.001629306712,0.001183515553,0.0004621494375,0.002024268465,-0.009762921485,0.00409868215,0.005371155278,-8.066956501e-18,-1.6607775e-17,1.760981497e-18,0.001190087046,0.009369060491,-0.001797052091,0.001206776896,0.009433485643,0.007098100309],
			[0.06540958582,0.07970708455,0.7290439098,-0.9096201854,0.07794985828,0.05113953619,0.05574496819,0.1061090962,0.02485572493,0.06976349295,-1.56940894e-14,-5.478239543e-16,-4.722648929e-15,-2.390159492e-14,-4.616354479e-16,-8.804955908e-16,4.28619751e-14,7.574683297e-17,7.186860826e-16,-1.332223095e-14,0.05609905865,0.0517956618,0.05203230613,-0.01683888548,0.04861878925,0.05339639154,0.008543225044,0.03136260629,0.0553021004,0.07004250851,0.4063305435,0.06208706016,0.08293289139,0.04876833016,0.04778588328,0.002242188308,0.07366967259,0.0189646948,0.01689731278,0.2694604766,0.01724633369,2.680255767e-16,3.259586069e-16,2.006858221e-16,0.08967804241,0.06830897825,0.0665693,0.02061700556,0.02132221043,0.01604361252],
			[-0.0425404154,-0.05464541304,0.01924196072,1.100567204,-0.006299251121,-0.0201493539,-0.01905912381,-0.08003628511,-0.01511569379,-0.0303103546,3.002330575e-14,7.388344348e-16,-4.95590154e-14,7.285277885e-14,4.727058097e-16,2.746300082e-15,-9.664943013e-14,9.655542474e-17,-3.590853675e-16,3.7716689e-14,-0.03691738775,0.01774005176,-0.03921877608,0.06577638879,-0.01009844778,-0.02090700646,-0.005255938507,-0.03282817341,-0.0400867038,-0.04965345924,-0.5186086954,-0.04350866778,0.002188882476,-0.02595962028,-0.029670181,-0.0009987707556,-0.07549613033,-0.005099603278,-0.02225249884,-0.1064379859,-0.01358067464,-1.833582809e-16,-3.469082728e-16,-2.357597624e-16,-0.01871609007,-0.04154123855,-0.07787094043,-0.01644855318,-0.01461803555,-0.01099914566],
			[0.001533854317,0.005224330315,-0.1073208141,-0.03169659388,0.09520518606,-0.003414734769,-0.001463044687,0.003050311152,0.0002654489835,-0.003758026023,-1.051143858e-14,-7.943923243e-17,1.278427176e-14,-2.249666993e-15,1.762001365e-17,-2.673211708e-16,1.01632628e-14,-4.440035396e-17,-3.820684843e-17,-6.103309295e-15,-0.0003063851865,-0.005229930447,-5.755722228e-05,-0.01652834891,-0.003674868942,0.009969085766,9.253118401e-05,0.0005648512565,0.001684072849,-0.001171229371,0.01576933761,0.004561201184,-0.01220835303,-0.002335914624,0.0006117521355,-0.0001077768796,0.01616028888,-0.001684183494,0.004403758578,-0.01686109806,0.001927096204,-3.301162681e-17,4.38127792e-19,1.764115519e-17,-0.008760840682,0.0007295119693,0.00204173309,0.0004417493182,0.001397545412,0.001051564384],
			[-0.002544396109,-0.001805991763,-0.05324984862,0.02272615289,0.01067056521,0.03265377776,-0.002355766909,-0.005176361907,-0.0008882477311,-0.002401163329,-2.805295541e-16,1.685932423e-18,1.617090958e-15,-4.444201726e-16,2.323071574e-17,-1.479383201e-16,-8.717598126e-16,-4.542237188e-18,-4.843491567e-17,3.209876849e-17,-0.002778808323,-0.001736770333,-0.00262330977,0.0001774342946,-0.002609313842,-0.001334130927,-0.000302532313,-0.002163659317,-0.0008701175789,-0.004307328796,-0.0325896987,-0.000676978319,-0.006057473155,0.01426483141,0.0001746844193,-0.002697021823,-0.0001709952774,-0.0008007365742,0.004091988264,0.01720391797,-0.0002854303215,-1.216823709e-17,-3.104481631e-17,-2.713893563e-17,-0.005726414997,-0.00244109939,-0.004934876814,-0.001032757525,-0.0004831156053,-0.0003635138863],
			[0.01126123371,-0.002884217161,-0.008316395425,0.08598792913,0.002205536757,-0.0005338663035,0.08123680891,-0.004726455048,-0.0008193419407,0.0006865864824,6.127029358e-16,5.398243576e-17,-4.714386965e-15,3.025590856e-15,2.743357254e-17,3.022323483e-17,-5.788946127e-15,1.179844443e-17,-3.224743222e-17,3.134740393e-15,-0.001525588244,0.002177216178,-0.00183722659,0.005070531312,-0.0003662757305,-0.0007121614386,5.193560826e-05,-0.001508420331,-0.002037382771,-0.003547376802,-0.03934418433,0.0005896871795,-0.0009460372814,-0.0008981378795,-0.001297216534,0.002239828514,-0.0053131191,0.004316688677,-0.005417340143,-0.00661625011,-0.0008101915728,-3.670434594e-17,-5.716733556e-17,-3.778283105e-18,-0.001656493308,-0.00225173118,-0.005610791078,0.001860236079,-0.0007715485464,-0.0005805414014],
			[0.0006731087157,0.001697646181,-0.03166438031,0.004347262752,0.0004740521847,0.002610917023,0.0003110053013,0.02845658838,4.370184516e-05,-0.000605596123,2.043775524e-16,1.214698729e-17,7.884777799e-16,-1.153613435e-15,5.360007962e-18,-1.457212815e-16,1.8881695e-15,2.295719369e-18,-1.335805988e-17,-3.890603987e-16,-0.0001753277357,0.0004990818327,-0.0003139671371,0.001509470542,-0.001266158573,0.002410107766,-4.42009941e-05,-0.0002217124205,0.01112336985,0.0006172921291,-0.01194765307,0.0006859765568,-0.00360200336,0.001540449437,0.0002081565291,-0.0006501232086,-0.0001085343432,0.0004172085969,-0.002127813726,0.006055934737,0.0002493749458,-1.186408278e-17,-1.329399682e-17,6.722476986e-18,0.003495033654,0.0001201022461,-0.001640195909,7.902066551e-05,0.0004541323936,0.0003417058556],
			[0.0007706657386,0.002365170252,-0.04718543305,-0.007955731339,0.02980326314,7.823303696e-05,-0.0003190489392,0.01337066141,0.04479233745,-0.001432619411,-2.654781523e-15,-6.872741489e-17,2.120079609e-15,-1.717644416e-15,1.180686463e-17,-2.229397115e-16,4.569230127e-15,-1.45240985e-17,3.20484942e-17,3.698159077e-16,-0.0001717830122,-0.001407953381,-0.0001549516908,-0.004479204806,-0.00169512984,0.004151184003,9.469592673e-06,7.88084741e-05,0.005379312096,-9.46264741e-05,-0.0003134234312,0.001717390706,-0.00536761139,-5.36964614e-05,0.000281043119,-0.0003173087002,0.004976349928,-0.0003414321957,0.0004401170984,-0.00259793652,0.000707935988,3.304315232e-18,-1.905951186e-17,1.443979417e-18,-0.001197752907,0.000279211834,-8.129863525e-05,0.0001718216892,0.0006326998171,0.000476066529],
			[0.004617889975,0.004143958357,-0.02310621995,0.002111333051,0.005274496168,0.003992260673,0.004275553517,0.009514830082,0.001627606176,0.03331852397,-1.082037754e-15,6.456842039e-17,-7.603702709e-18,-2.712626431e-15,5.576690307e-18,-8.802518356e-17,6.573512869e-16,7.984542905e-18,1.387211489e-17,1.072309027e-15,0.003692608799,0.003483117924,0.00726146356,0.00356289646,0.0001139419446,0.003675088866,0.002622871088,0.0004439172588,0.004591907156,0.0009554533435,-0.004296799236,0.005153131655,-0.002628463943,0.003057045916,0.007678778224,0.01049221527,0.0001748692068,0.001965915898,0.01117228585,0.008551661638,0.0006396461512,-3.0024671e-18,2.06210171e-18,3.108610916e-18,0.0008450427337,0.004473018396,0.001333763002,0.001022646301,0.001108538251,0.0008341048048],
			[-4.561662205e-18,-1.128893088e-16,1.300842482e-14,-2.717173401e-14,2.314498707e-15,5.716490797e-16,-5.92667646e-16,-7.060157066e-17,-2.102757645e-16,-4.440130769e-16,10,1.340309265e-14,2.944762489e-13,2.156053114e-13,-1.107436876e-15,4.144627273e-15,1.993405441e-13,-5.248018858e-16,1.145892765e-15,-2.705613511e-13,3.616495385e-16,-5.347294246e-16,1.699813146e-15,-5.161082714e-15,1.909058989e-15,-8.640302685e-16,-1.797852254e-15,9.928450903e-16,-5.75231471e-15,1.980818502e-15,1.956947294e-14,1.955940274e-15,2.436396749e-15,1.744943216e-16,1.506721019e-15,1.964526257e-15,-2.411424402e-15,4.172529345e-16,-1.198654099e-14,8.674422778e-15,3.60214383e-16,-6.196368422e-16,-8.426832881e-16,-4.76817723e-15,-3.263288199e-16,9.244245003e-16,2.152086494e-15,4.142863461e-18,7.581035426e-15,1.064790273e-15],
			[5.855121847e-17,2.804902309e-17,4.988952503e-16,-6.800694371e-16,1.815358382e-17,-2.121677661e-19,2.309527816e-17,1.16781388e-16,1.14608444e-17,7.469015002e-18,1.164048801e-14,0.260552371,-1.043207545e-14,-1.958884686e-15,1.005133894e-17,1.691295567e-16,7.792664723e-15,-1.142296918e-17,2.917542928e-17,-5.809266735e-15,3.448951869e-17,2.150736664e-17,1.819527324e-17,-5.484680381e-17,7.747371537e-17,5.58778748e-17,5.790747162e-19,5.80139096e-18,4.423287731e-17,5.779369193e-17,4.129383537e-16,1.51305874e-16,8.501353829e-17,1.727992331e-16,1.25305415e-16,-2.063412725e-17,1.739208257e-16,7.757564781e-17,-1.207413736e-15,1.144662812e-16,1.106084749e-16,-8.772640281e-18,1.78197842e-17,-2.104959026e-17,1.071568216e-16,4.884989839e-17,1.912999415e-17,-2.528538285e-17,2.977581189e-17,6.099753692e-17],
			[-1.552676766e-15,-1.91863178e-15,-3.468267555e-14,2.006210615e-14,-3.917379244e-15,-2.505258817e-15,-3.523412239e-15,-2.239873995e-15,-3.027118143e-15,-3.113262372e-15,8.114689476e-14,-1.729225653e-14,10,-4.433953205e-13,-2.014272941e-15,-1.248518062e-14,1.847966224e-13,-5.04530972e-16,-9.531246321e-16,2.313670089e-13,3.532433311e-16,-3.147608172e-15,-3.562465246e-15,3.503654117e-15,-3.374975576e-15,-8.328630905e-16,4.724811804e-16,-4.381292439e-16,4.577948594e-15,-2.808476598e-15,-1.416925305e-14,4.749582906e-16,-3.010290167e-15,-2.914413735e-15,-1.959242645e-15,2.930807449e-15,2.494313397e-15,2.153815666e-15,-7.354479048e-15,-1.867528205e-14,-2.52863242e-15,4.516599048e-16,-3.058405267e-15,5.767525724e-15,-3.864138191e-15,-6.737069401e-15,-4.580968545e-15,-2.688721317e-15,-2.287321725e-15,-7.775900697e-17],
			[-1.488437104e-15,-2.354506974e-15,-7.804902496e-15,1.80720153e-14,4.812877766e-17,-7.154704837e-16,-1.645943805e-15,8.124162249e-17,-5.970986179e-16,-5.248751396e-17,-3.996802889e-15,-8.100349474e-15,3.55326879e-13,10,1.293656863e-15,-1.401812396e-14,3.805844528e-13,-1.064349276e-15,-1.13906102e-16,-2.495781359e-13,-4.012148175e-15,-3.232332508e-17,-8.742910957e-16,-1.000478518e-14,-1.070516544e-15,2.283866414e-16,-6.211905178e-16,-3.130361934e-16,-1.598488132e-15,-1.290926599e-15,7.531936662e-15,4.800173864e-15,8.109880438e-16,-1.987485489e-15,-1.416235426e-15,1.04242716e-15,-3.132027833e-15,-2.648972911e-15,-3.910705026e-15,-1.915951971e-15,1.287968142e-15,-1.393922408e-15,-2.080482359e-15,-1.759242683e-15,-1.324470208e-15,-1.220475953e-15,2.935455732e-16,-1.250364274e-16,-1.630679081e-15,-7.822698997e-16],
			[7.268605253e-18,1.002791109e-17,1.522470724e-16,-7.854448947e-17,6.247397795e-19,-2.377982455e-17,-8.267993913e-18,1.255558207e-17,-2.760722626e-18,6.188402023e-18,-2.608780332e-15,2.777010702e-17,1.501451516e-15,1.436499534e-17,0.03126954346,4.997085938e-17,3.568100625e-16,3.397111439e-18,-4.235473771e-17,1.605583732e-15,-1.524038102e-18,-3.810234183e-18,-7.869003354e-18,-3.182158889e-17,2.944000235e-17,7.172208752e-18,-5.538682287e-20,1.010764257e-19,1.491436433e-17,1.464977621e-17,9.541638821e-17,-2.08631241e-18,4.171841875e-17,6.54378523e-17,-8.395780103e-18,1.853581485e-18,5.16322717e-17,-2.697478758e-18,-1.269517383e-15,5.268476803e-18,-3.342706768e-18,1.472548172e-18,2.944331242e-18,1.569328657e-17,9.489180038e-18,-3.915502741e-18,8.892035763e-18,1.734926801e-17,-2.892078078e-17,-6.277930696e-19],
			[7.875434134e-17,3.190460865e-16,1.03267666e-15,-2.019687064e-15,2.007394904e-16,1.867107525e-16,2.159475475e-16,3.435241608e-16,9.701963532e-17,2.14596213e-16,-1.36391496e-14,2.576005604e-16,2.115130658e-14,-1.023521832e-14,-1.343094479e-16,0.5882352941,2.256084081e-15,1.491422555e-16,-4.428669857e-16,7.366697064e-15,1.03675872e-16,1.343831086e-16,2.326764445e-16,-8.913112806e-17,3.070350686e-17,1.68720638e-16,-5.990243723e-18,-1.437417268e-16,7.809287055e-17,1.562530319e-16,1.418751601e-15,-1.00458854e-16,-1.390032045e-16,1.045016093e-16,5.356772593e-17,-2.562707697e-18,8.298971436e-17,1.809499754e-16,5.228389521e-15,-4.742317714e-17,2.628274077e-16,1.360617277e-16,-1.370881959e-16,-7.922741976e-17,1.11668734e-16,1.177523308e-16,2.31293902e-16,1.917238857e-16,-2.786239162e-16,3.039378804e-17],
			[-2.803917341e-15,-4.344789107e-15,-4.226657457e-14,3.636868511e-14,-2.935594164e-15,-3.341767408e-15,-2.807961426e-15,-5.76833446e-15,-8.067290976e-16,-3.879796868e-15,-1.505462421e-13,9.063471776e-15,2.440408986e-13,1.709743458e-13,-1.125749104e-15,-1.845103518e-15,10,-2.618116664e-15,-3.179862703e-16,3.321370956e-13,-2.628554925e-15,-2.254521315e-15,-2.752941334e-15,2.851956132e-15,-3.383716768e-15,-2.69883295e-15,4.915837727e-17,-7.684143982e-16,-6.982661243e-15,-4.34310214e-15,-2.765286792e-14,-4.576835323e-15,-2.65879825e-15,-5.591009698e-15,-8.762088293e-16,6.827173925e-16,-3.020001204e-16,-1.667558161e-15,-2.177968652e-14,-3.280920114e-15,-2.704924803e-15,-2.533998174e-17,-5.557197468e-16,2.829528843e-15,-4.665298422e-15,-1.390950475e-15,-4.303950356e-15,-5.023411079e-16,4.658516148e-15,-1.538027848e-15],
			[-2.540057573e-17,-1.948415207e-17,2.330342029e-17,4.629456693e-16,-2.991412289e-17,-4.938973607e-17,-1.373808703e-17,-3.813161819e-17,-3.872573131e-18,-2.076488309e-17,-3.772096197e-15,-2.678948429e-17,1.038232844e-15,5.439082955e-16,-7.270794532e-18,-2.057289061e-17,5.415854189e-15,0.02651254043,2.320931046e-17,2.148828509e-15,-1.237889082e-17,-2.226980286e-17,-4.075156861e-17,1.062942382e-17,-6.588250154e-18,-7.19705186e-18,-1.128265426e-18,-7.335385953e-18,-1.035494131e-17,-1.912731981e-17,-2.507601603e-16,-2.248364856e-17,7.045888688e-18,8.88364906e-17,-3.412917563e-17,6.973697627e-18,3.018275469e-17,-1.378471286e-17,-1.796042636e-15,-1.424997273e-16,-1.99167375e-17,6.400374377e-18,1.891540007e-17,1.310832693e-17,-5.193589298e-18,-3.506635431e-17,-4.380694253e-17,-1.259414502e-17,2.324742928e-17,-2.078802068e-18],
			[-1.52008507e-16,-1.847753011e-16,-1.822611213e-15,1.895497166e-15,1.242349206e-16,4.998026117e-16,2.558754932e-17,-2.957353282e-16,2.255260952e-17,-8.206371693e-17,5.716444463e-15,-1.235890926e-16,-1.277254945e-14,-2.192635766e-15,-4.154635393e-17,-1.991046423e-16,1.476929406e-15,3.937034619e-17,0.1814882033,1.326542187e-15,-5.048065762e-17,2.128566856e-16,1.789576726e-16,3.117521707e-16,-2.551672004e-16,-1.518730246e-16,6.977830894e-18,-6.909088127e-17,-3.389845878e-16,-2.866793271e-16,-1.206617268e-15,-2.635297767e-16,-2.560489376e-16,-1.357738931e-15,8.908566097e-17,-7.977163536e-17,-1.356662095e-15,5.601346433e-17,2.75943722e-14,4.309963236e-16,-1.697127725e-16,3.36499124e-17,2.662947922e-17,-1.571876662e-17,-2.126684798e-16,-2.25764879e-17,-1.221352507e-16,-9.370752723e-17,8.120144015e-18,-3.486374117e-17],
			[2.979772904e-15,4.286131147e-15,2.076597294e-14,-4.753681232e-14,2.070278647e-15,3.199418866e-15,1.401349802e-15,6.588367987e-15,3.306822486e-15,3.686556102e-15,1.645905634e-14,1.278291668e-14,4.818714872e-13,2.003397448e-13,2.5826e-16,2.594517121e-14,7.616129949e-14,5.338014e-16,-3.219234638e-16,10,2.814534978e-15,5.42698833e-16,5.92958801e-15,-4.581940171e-15,1.43089014e-15,-8.839045296e-17,-1.402237997e-15,3.914294662e-15,-1.745288357e-15,3.688923844e-15,3.704954531e-14,1.076591961e-15,6.713726531e-16,-1.108019032e-15,2.873361099e-15,-2.844611682e-15,4.383527739e-15,-9.135800874e-16,5.86217389e-14,9.582382708e-15,-3.507542007e-16,-2.688871997e-16,-2.18973108e-15,-4.395282323e-15,4.247427993e-15,7.52434818e-15,8.262822969e-15,6.504167335e-15,5.15446134e-15,2.157627912e-15],
			[0.01080941405,0.008578422576,-0.01232304892,-0.004642248191,0.002519067117,0.001947615707,0.004780931919,0.004825408312,0.001549908132,0.003487876083,4.94076633e-16,2.980803203e-17,-5.980603501e-15,1.271208301e-15,4.756799624e-18,2.839967473e-16,3.522762963e-16,-5.038576697e-18,9.866690899e-17,-3.652907003e-16,0.06256137411,0.001280256361,0.00305155133,-0.002880628266,0.0006800758677,0.001861554206,0.0004891082741,0.002300518431,0.00307152645,0.003534453241,0.02317298958,0.005035940523,-0.001401816905,0.002504692939,0.00183602542,0.001389963655,0.0009319966459,0.003121139301,-0.003119018291,0.007439120513,0.00136420888,1.494404347e-18,-7.039584946e-18,2.852044637e-17,0.0008159263139,0.004259487147,0.003818392368,0.002702247079,0.00229478888,0.001726683251],
			[0.008570394478,0.004716840735,-0.04590166973,0.004135991892,0.003554420922,0.0003678557387,0.01618325621,0.006246841326,0.003625897813,0.001424056577,-1.214181233e-15,1.618896127e-17,2.751047624e-15,-2.778701543e-15,3.844346196e-18,-7.289319757e-17,1.500781632e-15,-2.023966823e-18,-2.943231311e-17,8.759076342e-17,0.0004909162947,0.0328975299,0.001481119887,0.002250180666,-0.001204843468,0.0003105513304,0.0002225586414,-0.0002039846302,0.003003912885,-0.0007153600769,-0.01896762854,0.003756210809,-0.005221576011,-4.467992603e-05,0.001518549143,-0.00032533257,0.0003617673886,0.003072942987,-0.001334729468,0.01812542539,0.0007395148196,-1.105319101e-17,-1.49309674e-17,-1.161853918e-17,-0.0017893027,0.009964761663,-0.002087534559,0.001646586705,0.00126178835,0.0009494157956],
			[0.005945908972,0.01003184263,-0.01591920525,0.004108394804,0.01520594169,0.002643648064,0.003151060665,0.00995475877,0.002430395818,0.004275368588,-2.260634303e-15,9.382799999e-18,3.815214308e-15,-1.121479494e-15,9.151913538e-18,-1.148149804e-16,5.158292918e-16,2.027155361e-18,-1.111169068e-17,-1.660239374e-15,0.01143301811,0.002342820409,0.03945182431,0.003962106167,0.0005529083172,0.003698305165,0.0004933524434,0.0004713609693,0.005098806647,0.00221652438,-0.01022306023,0.005011075198,-0.001810900143,0.002238801373,0.002383907677,0.0006561559414,0.002181558788,0.002448749796,-0.00189984116,0.01538558241,0.001672094789,-3.18213106e-17,-5.316097891e-18,1.341938416e-17,0.002061243943,0.006679260234,0.008957801895,0.001292232609,0.002683589054,0.00201923075],
			[-0.01311735548,-0.01360128483,-0.2474367332,0.2408139001,-0.006504153397,0.003591274263,-0.0101982987,-0.01359715399,-0.005404683154,-0.009223263128,6.687937069e-15,1.796837196e-16,5.346669382e-16,-1.779661775e-16,1.412234879e-16,1.969179452e-17,-9.157735882e-15,-1.140253529e-17,-2.018909324e-16,4.093096213e-15,-0.01032140866,-0.01072385229,-0.01063730263,0.1234733793,-0.0140298013,-0.006026058138,-0.0007394809728,-0.004399379606,-0.006946669338,-0.009521362286,-0.1343934307,-0.01101257258,-0.02814733577,0.0007105296695,-0.007720457971,0.00483150969,-0.01622246081,0.01204420987,-0.02834973223,-0.0406651881,-0.00319964984,-1.046817315e-16,-7.634964404e-17,-5.082451793e-17,-0.01283502496,-0.01485325353,-0.02030331219,-0.00367235362,-0.003638440156,-0.002737695712],
			[0.006398042495,0.01248409468,-0.06534983841,0.03455218667,0.01917492534,0.0009971282379,0.006915698693,0.002497065343,0.002129769398,0.0005408826373,-1.750731698e-15,3.715278978e-17,2.254767514e-16,-4.495682467e-15,2.571275041e-17,-1.562551014e-16,-1.038713377e-15,1.06581204e-17,-1.171172869e-17,4.23546587e-15,0.01829573086,0.01180373984,0.0008746477246,0.00798245589,0.08115388895,0.002378571577,0.0002182981341,6.140447254e-05,0.002328299357,0.0008019463117,-0.02090940684,0.004787279243,-0.007433915815,0.00115810152,0.0006120935607,0.0009111127194,0.0008971159977,0.003125707781,-0.005630073988,0.002635728233,0.001953034043,-2.739102058e-17,-1.074223066e-17,6.272596612e-17,-0.002849864731,0.005853072962,-0.002498995511,0.00128147863,0.003339583868,0.002512825288],
			[-0.001644109788,0.001617455113,-0.04308746561,0.1057861258,0.0006515365723,0.0001248602543,0.001298333154,0.00106117271,-0.0003389511307,-0.002433088112,2.398315926e-15,1.434212686e-16,-2.593588998e-15,4.722586669e-15,5.015685482e-17,3.837188947e-17,-6.862067703e-15,3.901488722e-18,-8.120910926e-17,2.202131259e-15,-0.002897088889,0.006971050465,-0.003088756537,0.01750114085,-0.002351133557,0.02961784721,-0.0003446050335,-0.002722567155,0.000321902999,-0.003406291091,-0.05918092532,-0.001690544437,-0.004901444285,-0.0007235838326,-0.002243745898,0.0003529475431,-0.006790167241,0.001776836387,-0.00651718133,-0.005842706758,-0.0002325333084,-2.296205735e-17,-4.103154651e-17,-2.619639972e-17,-0.00189725149,-0.0009315119751,-0.008524503895,-0.0009912266516,0.0004326807143,0.000325564826],
			[0.002023478592,0.002363968785,-0.05287886091,0.13813692,0.004675559119,0.007240958048,0.01546820028,-0.005304711419,-9.792073225e-06,-0.001561610943,4.365639058e-15,1.187998736e-16,-7.211602949e-15,5.13647228e-15,6.389294342e-17,1.251585613e-16,-8.447240028e-15,1.01788592e-17,-6.558988723e-17,3.378499719e-15,0.006923550196,0.004009257778,-0.002915134007,0.02103775777,-0.00207178887,0.005353436041,0.02844399876,-0.002862198278,-0.001526219632,-0.004175530595,-0.06727801014,0.001797237755,-0.006015271192,0.001974729232,0.004713029415,0.001020695502,-0.008952224955,0.003431474334,0.005803809835,-0.004407962926,-0.0002715276542,-4.290020708e-17,-5.266766163e-17,-3.332227615e-18,-0.003605200361,-2.691076277e-05,-0.009535292109,-0.0002993903696,0.000632378416,0.0004758246951],
			[0.0151699926,0.01163933134,-0.05053862753,0.01539022043,0.01510638356,0.002704588723,0.02300268903,0.004440933969,0.002211991815,0.004939995933,8.978287323e-16,6.348399243e-17,3.315994181e-15,-1.556685008e-15,1.576513371e-17,7.887799542e-19,-5.5561024e-16,-5.700757131e-17,-2.050905974e-17,3.667287329e-16,0.01339337706,0.00243823642,0.002843402659,0.001702841798,0.0004269834452,0.005278494087,0.001932531351,0.04911036995,0.004464600249,0.004128848132,-0.009664970738,0.01149237925,-0.005749056334,0.01154848012,0.00965353206,0.002127981114,0.008519771266,0.00513838057,-0.1567363256,0.01124501578,0.002361074791,-2.581121149e-17,-2.434033877e-17,4.857225733e-17,0.005483890311,0.006079038178,-0.0005188601114,0.01501239133,0.003113603683,0.002342789516],
			[0.005836187854,0.005096769899,-0.1295730187,0.01997159015,0.000525133674,0.009756313721,0.003189255895,0.009593936199,0.0002549649651,-0.003289293828,-4.598771375e-16,7.121064491e-17,2.004817408e-15,-5.38518879e-15,2.490557674e-17,-2.347957494e-16,5.152433719e-15,1.50389618e-17,-7.122035832e-17,-8.522002452e-16,-0.002429665293,0.004744565398,-0.001971947866,0.003933669174,-0.005385736699,0.009283792429,-0.0001948275187,-0.001247450177,0.08621020031,-0.003414822839,-0.03585126243,0.002040283543,-0.01473966787,0.003928807922,-0.00113251754,8.82896777e-06,-0.001018989635,0.002409457831,-0.004460337687,-0.003067524247,0.0006999546615,-3.263516864e-17,-3.473761526e-17,-1.415265e-17,-0.007716932665,0.0007006995896,-0.005190362394,0.0008501918197,0.001363422096,0.001025888751],
			[0.004330518681,0.00603391053,-0.04002457188,0.05072952237,0.009993671413,0.008576713883,0.004862305543,0.001876757293,0.0006861699256,0.0006778464761,3.531482788e-16,9.16972931e-17,1.652245006e-15,-6.269268244e-16,3.203707835e-17,-8.182545125e-17,-1.800653097e-15,-1.003386331e-17,-8.601068731e-17,-3.992083117e-16,0.01350540485,0.002523526272,0.007063004442,0.005416949022,-0.001002085735,0.009751550387,0.000265348427,0.007123670408,0.003482108753,0.04505837237,-0.03207761512,0.003285440471,-0.004553022703,0.0231482105,0.001359142934,0.0002449977149,0.001007966597,0.002117486999,-0.06341174111,0.006650983517,0.0009843378642,-2.233265893e-17,-2.177213488e-17,2.555328995e-17,-0.0006962581388,0.001885745303,-0.00234137383,0.002599244599,0.001614113861,0.001214518422],
			[0.0327631079,0.03122905015,-0.0182544503,-0.1106784025,0.001504930498,0.01328544208,0.02506850993,0.0621862065,0.01311290389,0.02238524017,-2.325134751e-15,2.823841868e-17,8.129216666e-15,-7.611844095e-15,-1.048864854e-16,-1.220239059e-15,1.673375939e-14,-1.939565631e-17,6.82056788e-18,-1.277247097e-14,0.02559474587,0.01205909682,0.03101187025,-0.05497250155,0.003916986389,0.01433400065,0.002730823676,0.02656985685,0.02906344365,0.03762252742,0.4331305993,0.01922198121,-0.002076547549,0.01874667567,0.01678012951,-0.001394174271,0.007712204035,0.003358291223,0.008888326304,0.09927815764,0.005269973494,5.970944356e-17,7.633778558e-18,-1.281772607e-17,0.01273550766,0.03603713308,0.06458148637,0.01298275777,0.008353992402,0.006285850033],
			[0.001110188618,0.001030518774,-0.1304640517,0.1022660673,0.008415813435,-0.001759219133,-0.0001202909586,-0.003619289188,-0.0007333494865,0.006674839011,-1.887598479e-15,2.439000015e-17,9.930775028e-16,-2.250974572e-15,4.087723161e-17,1.790909887e-16,-4.749387385e-15,-1.346586584e-17,-1.065464117e-16,-2.076889477e-15,0.01930612282,0.0005519357372,-0.001601077418,0.004540514266,0.02084334257,-0.0007602718709,0.0003699688975,-0.002575078323,0.00854273433,-0.006105735385,-0.04881505058,0.1279607496,-0.01484102793,-0.002365774509,-0.001186877575,0.004662846425,-0.005691451993,0.0009587459571,-0.0002449017597,-0.02278992164,-0.0002441414727,-5.845461719e-17,-2.633234851e-17,-5.90170206e-17,-0.01098346457,-0.002015405074,-0.006784447136,-0.0004099588858,0.0002756710809,0.0002074250238],
			[0.01955260408,0.005329441178,-0.1166148877,0.1706369402,0.03623671656,0.001549683724,0.00975138085,0.003866072828,0.001195436462,0.001892118445,1.24477515e-15,1.099794938e-16,-3.990964861e-16,6.038958367e-15,6.572602429e-17,1.161959692e-16,-8.565009612e-15,3.070390249e-18,-7.479321851e-17,4.853495144e-15,0.0079475766,0.007348248731,0.001264635743,0.0185774539,0.03074394896,0.004069237713,0.0004253935842,0.001944617483,0.002368633082,8.569689351e-05,-0.004458045056,0.004416533322,0.07423876846,0.001884054084,-0.0001148679483,0.003608967926,-0.005632826466,0.008784645627,-0.01185406877,-0.002085913361,0.0004107918096,-4.275231711e-17,-6.528519676e-17,-2.263324975e-17,-0.006026838498,0.003285321329,-0.0002515641165,0.004345887893,0.001425663313,0.001072721323],
			[0.004927984113,0.01287622142,-0.02170238135,-0.08123512409,0.01025349663,0.002700771943,0.002140801451,0.006719908572,0.001854322517,0.001970939403,-1.856099608e-15,3.435801358e-17,1.90229447e-16,-7.525358793e-15,-4.81532389e-17,-2.146395999e-16,6.339803484e-15,-3.72960472e-18,-1.318953547e-17,-5.028740406e-15,0.003098776969,-0.0004812772116,0.003002752299,-0.009894532452,0.0006146931529,0.00419262079,0.0004173996678,0.001953406845,0.0149467704,0.00401159987,0.02496078767,0.006054060527,-0.002468769317,0.1225374131,0.002332948932,0.0001119935661,0.00718726514,0.0002905724098,0.0003563895884,0.006281125116,0.002454641864,-6.557358501e-19,-4.447897061e-17,1.677125236e-18,0.0001676384259,0.005096084578,0.004038840058,0.001453162022,0.003444480552,0.002591753398],
			[0.01363307995,0.007498571841,-0.03465345569,0.0207132225,0.01079424539,0.007234045576,0.01335433359,0.009579970324,0.006334146764,0.006199895101,9.258034667e-16,2.955868262e-17,-1.657133324e-15,-1.201994378e-15,8.176614617e-18,-3.275899934e-17,2.600885062e-16,2.670142174e-17,-4.75656738e-18,2.870530164e-16,0.00871800002,0.01130683882,0.006194645238,0.009995586474,0.00307307163,0.004964568686,0.007673397351,0.002335687099,0.005944735988,0.002986947636,0.01290868146,0.02160258053,-0.003942027686,0.0007567543824,0.04295731518,0.001962375206,-0.003175959725,0.005734837924,0.07531611944,0.01908963503,0.000911911185,-2.41353568e-17,-1.555999524e-17,-3.537209588e-17,0.001084647464,0.01740762319,0.003299538142,0.003269778787,0.00200592115,0.001509328585],
			[0.01528988315,0.01135619321,-0.095095535,-0.02835191746,0.01187689062,0.02069339967,0.01758465894,0.007999195427,0.002677246457,0.002722695379,-1.10895196e-15,5.644269637e-17,2.88062315e-15,-8.899710911e-15,-2.160095481e-17,-2.341566977e-16,5.745256942e-15,-4.627042835e-18,-2.476198409e-17,6.33396248e-16,0.006131059833,0.01345760289,0.001645386044,0.01159436591,-0.002129202261,0.01973718225,0.01459945369,0.0005388915382,0.00677946365,0.0001850955841,-0.02476645145,0.009238334606,-0.01081765799,0.02449096279,0.006070693686,0.1098197666,0.00374892824,0.006482457779,0.001674563618,0.02085794558,0.001982785143,-2.169627249e-17,-3.620568218e-17,-1.923950636e-17,-0.003760830937,0.007357659879,-0.002801008055,0.003158342751,0.003037862226,0.002285798868],
			[0.02714926861,0.009231167054,-0.08068245899,0.03475246362,0.01373348145,0.007505468281,0.01530961126,0.03217414734,0.004473285709,0.009781390282,-8.937859517e-16,1.135600414e-16,-2.133098055e-15,-2.461902301e-15,5.931771439e-17,-3.226367125e-16,9.923992349e-15,6.774699062e-18,-5.957516706e-18,-3.49091474e-15,0.01264179447,0.009560134962,0.006169603636,0.0009919205443,0.008839644594,0.006762604305,0.005320721066,0.00174339279,0.01715380102,0.001672758505,-0.0129487777,0.05082093865,-0.009178088615,0.003053402891,0.027681787,0.004311854148,0.1743416171,0.008924752795,0.04085483996,0.01703369998,0.0136550054,-4.720069923e-17,1.363384232e-17,-4.864340809e-17,0.002586334994,0.01229356927,-7.950443138e-05,0.005800404223,0.002469402658,0.001858069056],
			[0.009213050314,0.006728303437,-0.07657999824,0.06447086307,0.03271494561,0.005219060905,0.01318907895,0.003447009613,0.001220473359,0.01426220087,2.673030118e-15,6.209343578e-21,-9.599491273e-16,4.730689335e-15,4.584698235e-17,1.57355246e-16,-2.331713654e-15,-4.589371918e-17,9.872356459e-18,-1.894693386e-16,0.005638166263,0.005481275275,0.00161519309,0.00555934701,-0.001761592357,0.009816279631,0.005379897498,0.01634501833,0.003421458244,-0.001370095283,-0.04259066155,0.007370631421,-0.008711410371,0.01168484616,0.006484404535,0.03451318959,0.00483803189,0.09434673292,-0.09354851901,0.001330826177,0.001358743517,-6.258091173e-17,7.928228386e-18,-1.19262239e-17,-0.00178737625,0.003354128209,-0.005133641943,0.005820728439,0.001799868889,0.001354287312],
			[-0.01766054809,-0.02041476117,-0.2488993375,0.3416675771,0.05188654288,0.1661446886,0.03012931585,-0.04516935357,0.01043747618,-0.009019677013,-5.464771812e-15,1.213869007e-16,-2.578428193e-14,1.896062355e-14,2.104083095e-16,1.292657048e-15,-4.620372719e-15,2.279527414e-15,-5.495978363e-17,-1.81144973e-14,-0.01045759496,0.09507949965,0.07459636553,0.0539477333,-0.02868033185,-0.02068578602,0.003353752887,-0.01633983108,-0.05753472671,-0.05682492149,-0.1684336528,-0.06298518901,-0.02831371533,-0.3785964617,0.03333723523,-0.01956057838,-0.3856736539,0.001398323437,8.06301754,0.1765349694,-0.03020628752,-2.130457269e-17,-6.526897078e-17,-1.534362915e-15,-0.03097454762,0.02868447149,-0.002509535359,-0.007491602681,-0.005461093401,-0.004109126809],
			[-0.01061066272,-0.01276616825,-0.425078652,-0.3032521032,-0.02942727177,-0.01985644883,-0.01531657357,-0.02031847505,-0.003361189901,-0.004636588205,-4.442950082e-15,-1.753541902e-16,4.471702673e-14,-4.474456197e-14,-6.50249548e-17,-1.056151974e-15,4.127300665e-14,-9.133071687e-17,2.952286187e-18,-6.116125398e-15,-0.01133159475,-0.02330587888,-0.008212804363,-0.001914291652,-0.0184821094,-0.02243641491,-0.0007148347572,-0.006451853305,-0.01036855572,-0.02034052555,-0.08384601891,0.004942652693,-0.04835511442,-0.02362675727,0.017207429,-0.02992111461,0.01363693295,-0.003689479538,0.05444436192,0.2805866388,-0.0009738859507,-5.785700898e-17,6.505721255e-17,-2.656972949e-17,-0.03989624724,-0.009237286322,-0.01307812581,-0.003678082101,-0.00341504055,-0.002569601661],
			[0.01706648269,0.0174401551,-0.02338515207,-0.04619588618,0.01860166625,0.007080143396,0.01037687347,0.01324201704,0.004119411056,0.01787823694,1.934358687e-15,5.916345328e-17,-2.287612763e-15,-1.41625271e-15,-8.055691833e-18,-1.009609311e-16,5.11572348e-15,4.569954554e-18,6.970547526e-17,4.673098268e-15,0.01544920406,0.008916744333,0.02191994047,-0.02552021611,0.02490600432,0.00987612155,0.001892466559,0.001920297388,0.008511042041,0.007670200783,0.001290986946,0.01482742095,-0.002660194058,0.01180815373,0.009503031831,0.002014269699,0.01824513698,0.00216042908,0.005875827134,0.04318642447,0.1674285826,5.626363413e-18,2.49258503e-17,9.874710099e-17,0.01813352365,0.01132104419,0.005886282913,0.003847824479,0.00466536518,0.003510391734],
			[0.01038167281,0.01744147077,0.02455193515,0.04965149671,0.01697670471,0.007952953727,0.01171618753,0.007733165704,0.002868779029,0.01530247094,4.451175813e-15,1.005698667e-16,-9.777555094e-15,4.419109855e-15,1.731369553e-17,1.90745585e-16,-5.275337245e-15,6.479793719e-19,5.918152804e-17,2.843925312e-15,0.02121530012,0.009067822522,0.004637101136,0.02407706916,0.003463324407,0.007382408033,0.001738341241,0.01191178437,0.007936077956,0.005522940423,-0.03117048921,0.009402104908,0.00279292227,0.03347977632,0.006677935102,0.004726231774,0.00124666188,0.00653981433,-0.04154418072,0.02333877092,0.002728104114,0.03753190212,-3.310035351e-17,1.288845333e-17,0.009024039744,0.007884033353,-0.002855866631,0.004967938639,0.004665717131,0.003510656555],
			[0.01714397273,0.01286522757,-0.05667828021,0.08148468034,0.03888469564,0.008409025412,0.01836706432,0.01741177872,0.03554836452,0.0129558902,-1.828718963e-16,6.025876932e-17,-5.370785933e-15,1.816807384e-15,3.209304825e-17,-1.960745591e-18,-5.279619127e-15,1.451714483e-17,-5.722053869e-17,1.805300025e-15,0.01257347493,0.005409364896,0.01549634091,0.008315097029,-0.0001947021183,0.01165693152,0.01485109864,0.01073191266,0.01027333816,0.001953484745,-0.02969301799,0.01004306695,-0.006447476748,0.02166575741,0.006924401831,0.00771501453,0.001937787791,0.006650293619,-0.03406773274,-0.01481115109,0.002083900457,-4.708158522e-17,0.1023541453,3.791997098e-17,0.002524765109,0.006704851447,0.0001695112299,0.006017975812,0.003441539619,0.002589540532],
			[0.01254243435,0.02604599906,-0.1149309463,0.09658822718,0.01780249235,0.006526078942,0.01904831584,0.008486657201,0.01147728446,0.003753226571,2.535724476e-15,2.334568147e-17,-6.098090106e-15,3.721702145e-16,4.37305764e-17,-5.667185618e-16,-8.70237682e-16,-1.036244121e-16,-6.888408064e-17,3.285185634e-15,0.01183366618,0.001611101186,0.0006634923748,0.0193085506,-0.001704680505,0.0135629605,0.02784766965,0.002251532437,0.03415147019,0.002785287452,-0.06276185197,0.01373427434,-0.01307404884,0.06486705688,0.005876333221,0.00425729749,0.01237836373,0.006610468557,-0.3490596938,-0.00979991388,0.00481337978,-6.21535836e-17,0.02843890494,0.1582278481,-0.002942825608,0.006260737301,-0.008012764346,0.00303331121,0.006967489475,0.00524259442],
			[-0.000356456199,0.004759228183,-0.06847743089,0.008118197904,0.001857060426,0.006191903548,-0.0004544029309,-0.002083366875,4.97421065e-05,-0.0008326974741,5.770908921e-16,1.499074444e-17,5.26896561e-15,-2.741138069e-15,1.47746805e-17,-1.894117998e-16,2.289800203e-15,-1.126022729e-17,-4.496603925e-17,-6.335642622e-17,0.0006276368894,-0.0005096614169,-0.0002749209771,0.004583410346,-0.002617935457,0.005552296254,-8.738416221e-05,-0.0002794418858,0.0001277088233,0.004828236068,-0.03350535343,0.001934372094,-0.007789697249,0.004727804924,0.001616957759,-0.002975468668,0.0001033075348,0.0004893484691,-0.007098803701,0.02947204221,0.000727760194,-2.77854997e-17,-9.693127411e-18,3.840870899e-18,0.02050572873,0.0001367022077,-0.00444171637,-0.0001388941979,0.001273127293,0.0009579476319],
			[0.0020212433,0.004010983311,-0.0293697922,0.001369940272,0.01969195778,0.001438435822,0.0008461576293,0.009727429362,0.02316030015,0.0007487212021,-2.470972964e-15,1.043433181e-17,3.038243618e-16,-2.937012187e-16,2.724031402e-18,2.642058846e-17,1.767348741e-15,-6.615951588e-18,1.756839557e-17,6.026785647e-16,0.003041309364,0.0001889361871,0.01044430003,0.004200582683,-0.000747750483,0.003378724926,0.0001858153813,0.0002097887856,0.004261199498,0.0007697314268,-0.006069937245,0.00229178133,-0.003340980911,0.00108330568,0.0008989885654,0.0002455660253,0.0029422342,0.00120898785,-0.001396015322,0.00390153849,0.0008140813439,-1.402797403e-17,-2.31685969e-17,1.167553854e-17,0.0004258252211,0.06364957949,0.001932753474,0.0004513979035,0.001072966483,0.0008073393029],
			[0.01121928958,0.009538293892,-0.1052169989,0.00451772525,0.008774160302,0.001580172039,0.003235213423,0.004448313977,0.006197738373,0.01076130277,-2.198056497e-15,-1.9301437e-17,8.00505759e-15,-4.885606864e-15,2.009379838e-17,-3.939092506e-16,4.406578795e-15,-1.480731339e-17,-6.255840602e-17,-3.668908977e-16,0.003789729233,-0.001403650134,0.01369371859,0.01758354612,-0.003126062039,0.0006489860853,0.001053713671,-0.0002074576147,0.00298510421,-0.0009929729166,-0.03545132726,0.006985964346,-0.01196903207,0.0006583261745,0.004706216065,0.001941803397,0.001093184964,0.005954267184,0.0002653891604,0.03508813596,0.001520855996,-4.506996138e-17,-2.69621175e-17,2.640201697e-18,-0.005011881115,0.01703274304,0.04379934552,0.002170073832,0.002551561265,0.001919888203],
			[0.009907092946,0.01726391185,-0.06929658159,-0.05051205901,0.02349504486,0.01748824473,0.009222103199,0.01331536368,0.004169848569,0.01428141012,-4.526979317e-15,6.382675362e-17,1.302444351e-14,-7.455215135e-15,-3.666605105e-18,-6.273401075e-16,1.071588897e-14,-1.272350339e-17,-8.543824069e-17,-2.362551531e-15,0.007668539481,0.0116947008,0.01875377187,-0.002927806413,-0.0006750423843,0.005179859353,0.001433892331,0.00213164526,0.007990657895,0.004092823926,0.01364659487,0.009833841083,-0.007882880299,0.01021226926,0.006394591017,0.002655895595,0.00694052993,0.00282264492,0.00410387376,0.02907735894,0.003101544572,-2.222140645e-17,-2.97001515e-18,1.29519808e-17,-0.001223161339,0.01145965753,0.006671879937,0.09420862895,0.004618218861,0.003474917115],
			[-0.01375049792,-0.009165324295,-0.07653467721,0.114097722,-0.01613731276,0.03173300153,-0.008227363303,-0.03752212146,-0.0040014589,-0.009252929187,6.740735847e-15,1.855440263e-16,2.209519972e-15,3.111249411e-15,1.062782764e-16,8.81620294e-16,-1.208454808e-14,3.780807652e-17,1.466043554e-16,1.316582002e-14,-0.009392228711,-0.001030936528,-0.01488460961,0.04610823376,-0.003311531471,-0.004470610402,0.002592111701,-0.01481824784,-0.0316563701,-0.01455652675,-0.2897999039,0.002293955603,-0.008706254846,-0.001701956284,0.01780991309,-0.003962365557,-0.01173551139,0.001630352436,0.03187760166,0.01558494175,-0.002212626535,-5.462748411e-17,-1.206852543e-17,-8.160654227e-17,0.01869079326,-0.01099688582,-0.0416804364,-0.006345535063,0.3213824076,-0.001844816085],
			[0.004225390987,0.006980984892,-0.07854867993,0.02707215041,0.009087795504,0.01235932081,0.003225801637,0.002710151475,0.005712991908,0.008903368396,8.850589631e-16,7.314874785e-17,3.680451433e-15,-2.527330522e-15,3.043749563e-17,-1.406390273e-16,-1.410141285e-15,5.591161161e-18,1.342741742e-18,1.96951578e-15,0.005466270358,0.003414920597,0.006525724611,0.007491407879,0.001392706038,0.008024755351,0.001328396872,-0.0003281264864,0.01523980044,0.01056137003,-0.06652407823,0.006064668489,-0.00893535911,0.009918906594,0.006610961441,0.001497450469,0.001987553891,0.002357172128,-0.009467885791,0.02137801818,0.02711943723,-4.205709166e-17,-2.237003426e-17,2.429925767e-17,0.01017450458,0.01570055354,-0.006974273643,0.000756155617,0.04767347193,0.03587126738]
		],
		"names": [
			"G01",
			"G02",
			"G03",
			"G04",
			"G05",
			"G06",
			"G07",
			"G08",
			"G09",
			"G10",
			"G11",
			"G12",
			"G13",
			"G14",
			"G15",
			"G16",
			"G17",
			"G18",
			"G19",
			"G20",
			"G21",
			"G22",
			"G23",
			"G24",
			"G25",
			"G26",
			"G27",
			"G28",
			"G29",
			"G30",
			"G31",
			"G32",
			"G33",
			"G34",
			"G35",
			"G36",
			"G37",
			"G38",
			"G39",
			"G40",
			"G41",
			"G42",
			"G43",
			"G44",
			"G45",
			"G46",
			"G47",
			"G48",
			"G49",
			"G50"
		],
		"description": "Stable smallworld_scalefree network, IAA=477.4003",
		"created": {
			"creator": "",
			"time": 736265.634,
			"id": "",
			"nodes": "",
			"type": "unknown",
			"sparsity": ""
		},
		"tol": 2.220446049e-16,
		"N": 50
	}
}
