{
	"obj_data": {
		"network": "Tjarnberg-D20151002-smallworld_scalefree-N50-L325-ID5411020",
		"A": [
			[-23.09,0,0,0,0,0,5.59,0,0,0,0,0,0,0,0,0,0,0,0,0,2.814,0,0,0,0,0,0,0,0,0,0,0,0,0,0,0,0,0,0,0,0,0,0,2.152,0,0,0,0,0,0],
			[0.326,-2.934,0,0,0.662,0,0,0,0,0,0,0,0,0,0,0,0,0,0,0,0,0,-1.236,0,0,0,0,0,0,0,0,0,0,-1.466,0,0,0,0,0,0,0,0,1.2,0,0,0,0,0,0,0],
			[0,0.13,-17.588,0,0,0,0,0,0,0,0,0,0,0,0,0,0,0,0,0,0,0,0,0,0,0,0,0,0,0,0,0,0,0,2.314,0,0,0,0,0,0,0,0,0,0,0,0,0,0,0],
			[1.876,-1.566,1.668,-9.632,2.166,0,0,0,0,0,0,0,0,0,0,0,0,0,0,0,0,0,0.516,0,1.122,0,0,0,2.368,0,0,0,0,0,0,0,0,0,0,0,0,0,0,0,0,0,0,0,0,0],
			[0,0,3.598,0,-31.176,0,0,0,0,0,0,0,0,0,0,0,0,0,0,0,3.092,0,0,3.518,3.11,0,3.528,0,0,0,0,0,0,0,0,0,0,0.634,0,0,0,0,0,0,0,0,0,2.174,3.552,0],
			[0,0,0,0,0,-12.512,0,0,0,0,0,0,0,0,0,0,0,0,0,0,0.996,0,0.396,1.478,0,0,0,0,0,0,0,0,0,0,0,0,0,0,0,-1.15,0,0,0,0,0,0,0,0,0,0],
			[0,0,0,0,0,4.066,-18.122,0,0,0,0,0,0,0,0,0,0,0,0,0,0,0,0,0,0,0,0,0,0,0,0,0,0,0,4.712,0,0,0,0,0,0,0,0,0,0,0,0,0,0,0],
			[6.438,3.742,0,0,0,5,0,-31.27,0,0,0,0,0,0,0,0,0,0,0,0,0,0,0,0,0,0,0,0,0,0,0,0,0,0,0,0,0,0,0,4.292,0,0,0,0,0,0,0,0,0,0],
			[1.25,0,0,0,0,0,0,0,-1.244,0,0,0,0,0,0,0,0,0,0,0,0,0,0,0,0,0,0,0,0,0,0,0,0,0,0,0,0,0,0,0,0,0,0,0,0,0,1.732,0,0,0],
			[2.166,0,0,0,2.454,0,0,0,-0.308,-13.728,0,0,0,0,0,0,0,0,0,0,0,0,0,0,0,1.976,0,2.606,0,0,0,0,0,0,0,0,5.072,0,0,0,0,0,0,0,0,0,0,0,0,0],
			[0,0,0,0,0,0,0,0,0,0,-32.27,0,0,0,0,0,0,0,0,0,0,0,0,0,0,0,0,0,0,0,0,0,0,0,0,0,0,0,0,0,0,0,0,0,0,0,0,0,0,0],
			[0,0,0,0,0,0,0,0,0,0,0,-7.464,0,0,0,0,0,0,0,0,0,0,0,0,0,0,0,0,0,0,0,0,0,0,0,0,0,0,0,0,0,0,0,0,0,0,0,0,0,0],
			[0,0,0,0,0,0,0,0,0,0,0,0,-0.1,0,0,0,0,0,0,0,0,0,0,0,0,0,0,0,0,0,0,0,0,0,0,0,0,0,0,0,0,0,0,0,0,0,0,0,0,0],
			[0,0,0,0,0,0,0,0,0,0,0,0,0,-17.422,0,0,0,0,0,0,0,0,0,0,0,0,0,0,0,0,0,0,0,0,0,0,0,0,0,0,0,0,0,0,0,0,0,0,0,0],
			[0,0,0,0,0,0,0,0,0,0,0,0,0,0,-0.796,0,0,0,0,0,0,0,0,0,0,0,0,0,0,0,0,0,0,0,0,0,0,0,0,0,0,0,0,0,0,0,0,0,0,0],
			[0,0,0,0,0,0,0,0,0,0,0,0,0,0,0,-10.05,0,0,0,0,0,0,0,0,0,0,0,0,0,0,0,0,0,0,0,0,0,0,0,0,0,0,0,0,0,0,0,0,0,0],
			[0,0,0,0,0,0,0,0,0,0,0,0,0,0,0,0,-7.568,0,0,0,0,0,0,0,0,0,0,0,0,0,0,0,0,0,0,0,0,0,0,0,0,0,0,0,0,0,0,0,0,0],
			[0,0,0,0,0,0,0,0,0,0,0,0,0,0,0,0,0,-0.1,0,0,0,0,0,0,0,0,0,0,0,0,0,0,0,0,0,0,0,0,0,0,0,0,0,0,0,0,0,0,0,0],
			[0,0,0,0,0,0,0,0,0,0,0,0,0,0,0,0,0,0,-8.94,0,0,0,0,0,0,0,0,0,0,0,0,0,0,0,0,0,0,0,0,0,0,0,0,0,0,0,0,0,0,0],
			[0,0,0,0,0,0,0,0,0,0,0,0,0,0,0,0,0,0,0,-17.478,0,0,0,0,0,0,0,0,0,0,0,0,0,0,0,0,0,0,0,0,0,0,0,0,0,0,0,0,0,0],
			[0,-0.508,2.618,0,0,0,4.976,0,0,1.406,0,0,0,0,0,0,0,0,0,0,-18.79,1.418,0,0,0,0,0,0,3.286,0,0,0,0,0,1.768,-0.604,0,0,0,0,0,0,0,0,0,0,0,0,0,0],
			[2.18,-1.248,1.976,0,0,0.294,0,5.338,0,0.72,0,0,0,0,0,0,0,0,0,0,0,-11.906,0,0,0,0,0,0,2.666,0.08,0,0,0,0,0,0,0,0,0,0,0,0,0,0,0,5.764,0,0,0,0],
			[0,0,0,0.516,2.562,0,0,5.408,0,0.82,0,0,0,0,0,0,0,0,0,0,1.518,0,-13.256,0,0,0,0,0,0,0,0,0,3.242,0,0,0,0,0,0,0,0,0,0,0.81,0,0,0,0,0,0],
			[3.248,0.046,3.056,0,0,0,5.354,0,0,1.878,0,0,0,0,0,0,0,0,0,0,2.534,0,0,-29.054,0,0,0,0,3.706,0,0,0,0,0,0,0,0,0,0,0,2.77,0,0,0,7.948,6.62,0,0,0,0],
			[0,-0.494,2.638,1.122,0,0,0,0,0,1.426,0,0,0,0,0,0,0,0,0,0,0,0,0,2.554,-18.698,0,0,0,0,0,0,0,0,0,0,0,0,-0.526,0,0.06,0,0,0,0,0,0,0,0,2.588,0],
			[0,0.14,0,1.68,0,0,0,0,1.066,1.976,0,0,0,0,0,0,0,0,0,0,2.63,1.988,2.086,0,0,-22.272,0,0,0,0,0,0,4.252,0,0,0,0,0,0,0,0,0,0,0,0,0,0,1.686,3.102,0],
			[0,0,3.068,0,0,0,0,0,0,1.886,0,0,0,0,0,0,0,0,0,0,2.544,0,1.996,2.984,2.562,3.078,-27.022,0,3.718,0,0,0,0,0,0,0,5.988,0,0,0,2.78,0,0,0,0,0,0,0,0,0],
			[3.92,0,0,0,4.178,0,5.942,6.774,0,0,0,0,0,0,0,0,0,0,0,0,3.234,2.614,2.714,3.656,0,0,3.668,-26.802,0,0,0,0,0,0,0,0,0,0,0,0,0,0,0,0,0,0,0,0,0,0],
			[3.97,0.93,0,2.368,0,0,0,0,0,0,0,0,0,0,0,0,0,0,0,0,0,0,2.768,0,0,3.796,0,0,-27.766,0,0,0,0,0,0,0,0,0,0,0,0,0,0,0,8.464,0,0,0,0,0],
			[0,0,0,0,0,-0.374,0,0,0,0.066,0,0,0,0,0,0,0,0,0,0,0,0,0,1.276,0.81,1.378,0,0,2.084,-8.622,0,0,0,0,0,0,0,0,0,0,0,0,0,0,0,0,0,0,0,0],
			[0,-0.882,0.214,0,0,0,0,0,-0.434,0,0,0,0,0,0,0,0,0,0,0,0,0,-0.71,0,-0.282,0.236,0,0.832,0.864,0,-0.398,2.236,0,0,0,0,0,0,0,0,0,0,0,0,0,0,0,0,0,0],
			[0,2.646,0,0,5.572,3.794,0,0,0,4.144,0,0,0,0,0,0,0,0,0,0,0,0,0,5.094,4.732,5.178,0,5.688,0,0,0,-26.842,0,0,0,0,0,0,0,0,0,0,0,0,0,0,0,0,0,0],
			[4.418,1.388,0,0,0,0,0,0,0,0,0,0,0,0,0,0,0,0,0,0,3.754,0,0,0,0,0,4.174,0,0,2.582,0,0,-23.67,0,0,0,0,0,3.658,0,0,0,0,0,0,0,0,0,4.198,0],
			[0,0,0,-0.14,0,-0.208,0,0,-0.54,0.228,0,0,0,0,0,0,0,0,0,0,0,0,0.37,0,0,0,1.42,0,0,-0.434,0,3.668,2.718,-4.388,0.586,0,0,0,0,0,0,0,0,0.174,0,0,0,0,1.438,0],
			[2.514,-0.846,2.314,0.77,0,0.664,0,0,0,0,0,0,0,0,0,0,0,0,0,0,0,0,0,0,0,0,2.238,0,0,0,-0.744,0,0,0,-15.854,0,0,0,0,0,0,0,0,0,7.422,0,0,0,2.264,0],
			[0,0,0,0,0,0,0,0,0,-1.324,0,0,0,0,0,0,0,0,0,0,0,-1.39,-1.12,0,-0.57,-0.002,0,0.646,0.692,0,0,2.208,0,0,0,-0.61,0,0,-0.668,0,0,0,0,0,0,0,0,0,0,0],
			[0,3.478,0,4.834,6.428,4.742,0,8.644,0,0,0,0,0,0,0,0,0,0,0,0,0,0,0,0,0,0,0,0,0,0,0,0,0,0,0,0,-27.394,0,0,0,5.812,0,0,0,0,0,0,0,0,0],
			[0,0,0.1,0,0,0,0,3.714,0,0,0,0,0,0,0,0,0,0,0,0,0,-1.28,0,0,0,0,-0.004,0.834,0,0,0,0,0,-1.482,-0.878,0,0,-0.622,0,0,0,0,0,0,0,0,0,0,0,0],
			[0,0,0,0.994,0,0.884,0,0,0.314,0,0,0,0,0,0,0,0,0,0,0,1.976,0,0,0,1.996,2.53,0,0,3.192,0,0,0,3.658,0,1.662,0,0,0,-14.604,0,0,4.992,0,0,0,0,0,0,0,0],
			[0.854,-2.342,0.618,0,0,0,0,0,0,0,0,0,0,0,0,0,0,0,0,0,0,-0.716,0,0.516,0,0,0,0,0,0,0,0,0,0,0,0,0,0,-0.06,-2.432,0,0,0,0,6.15,0,0,0,0,0],
			[3.048,-0.214,0,0,0,0,0,0,0,0,0,0,0,0,0,0,0,0,0,0,0,0,0,0,0,0,0,3.46,3.51,0,0,0,0,0,2.014,0,0,0,0,0.294,-13.298,0,0,0,0,0,0,0,0,0],
			[0,0,5.526,0,0,4.176,0,0,0,0,0,0,0,0,0,0,0,0,0,0,0,0,0,5.456,5.094,0,0,0,0,4.004,0,0,0,0,0,0,0,0,0,0,5.282,-24.442,6.368,0,0,0,0,0,0,0],
			[0,0,0,0,0,0,0,0,0,3.012,0,0,0,0,0,0,0,0,0,0,0,3.028,3.11,0,3.648,0,4.054,0,0,0,0,0,0,0,3.346,0,0,1.168,0,0,0,0,-18.766,0,0,0,0,0,0,0],
			[0,0,0,0,2.438,0,0,0,-0.268,0.692,0,0,0,0,0,0,0,0,0,0,0,0,0.81,0,0,1.958,1.87,0,0,0.05,0,0,0,0.174,1.064,0,0,0,0,0,0,0,0,-10.224,0,0,0,0,0,0],
			[0,0,0,0,8.336,0,0,0,0,0,0,0,0,0,0,0,0,0,0,0,0,7.182,0,0,0,0,0,0,0,0,0,0,0,0,0,5.598,0,0,0,0,0,0,0,7.158,-48.364,0,0,0,0,0],
			[0,4.246,0,0,0,5.438,0,0,0,0,0,0,0,0,0,0,0,0,0,0,0,0,0,0,6.284,0,0,0,0,5.28,0,0,0,0,0,0,0,0,6.188,0,0,0,0,5.744,0,-39.076,0,0,0,0],
			[0,0.818,0,0,0,0,0,0,0,0,0,0,0,0,0,0,0,0,0,0,0,0,2.762,0,3.31,0,3.724,0,0,0,0,0,4.85,0,3.002,0,0,0,0,0,0,0,0,0,0,7.196,-18.068,2.396,0,6.898],
			[0,-1.506,0,0,0,0,0,0,0,0,0,0,0,0,0,0,0,0,0,0,0,0,0.53,0,0,0,0,2.32,0,0,0,0,0,0,0,0,0,0,1.006,0,0,0,0,0,6.956,5.532,0,-8.144,0,0],
			[0,0,0,1.616,0,1.516,0,0,0,0,0,0,0,0,0,0,0,0,0,0,0,0,0,0,0,3.102,0,0,0,0,0,0,0,0,0,0,0,0.05,0,0,0,0,0,0,0,0,0,0,-11.902,0],
			[0,3.892,6.372,0,6.742,0,0,0,0,0,0,0,0,0,0,0,0,0,0,0,0,0,0,0,0,0,0,0,6.896,4.936,0,0,0,5.058,0,0,0,0,0,0,0,0,7.162,0,0,0,0,0,0,-30.12]
		],
		"G": [
			[0.0455854215,0.002360023558,0.003305247862,0.002266762494,0.001743115499,0.006744727968,0.01651571417,0.0009648194462,0.003780947816,0.001574045448,-4.218338602e-18,-2.084285932e-17,1.547650432e-17,-4.172946019e-18,-6.958287015e-17,-1.998494883e-17,-1.199305868e-18,-4.170413387e-17,1.025407715e-17,3.351512824e-18,0.008321472592,0.00150267786,0.002010733372,0.0006643896179,0.000849700612,0.001710346045,0.001704303995,-8.238364724e-05,0.001544822009,0.0006916086727,-0.01341217845,-0.0008187200369,0.000597579931,-0.0008088137825,0.007174794383,0.004972951417,0.0006639749885,0.001640611366,0.0002170695105,-0.001368633984,0.0008024905273,4.433397415e-05,0.0001976357344,0.01104749447,0.001439740945,0.000532056104,0.0003624419757,0.0009260298995,0.002628580548,8.300546973e-05],
			[-0.004126727628,0.3159192184,-0.007269614566,-0.01095200169,-0.002916158744,-0.01305509488,-0.007805981411,-0.003730404217,0.03844693731,-0.008183027272,-2.580196158e-17,-1.614286372e-16,4.846606335e-15,1.721717739e-16,2.823678517e-15,2.460551985e-16,-2.26054142e-16,-1.009483662e-15,-4.316067825e-17,-1.354000487e-17,-0.01300280057,-0.002745678147,-0.03271096136,-0.005629415385,-0.0024948775,-0.0114647877,-0.007819024445,-0.003963271975,-0.005525164665,-0.0007145018739,0.01449537375,-0.01632983867,-0.01990356162,-0.1166962305,-0.007754245634,-0.01933669014,-0.003224232777,0.03490173441,-0.004651322951,-0.001027049601,-0.004593728555,-0.0009499797141,0.02020135734,-0.008450091231,-0.003510016529,-0.0009727182743,0.003685526645,-0.002067637442,-0.02699534982,0.0008440492297],
			[0.001063158038,0.004446147847,0.05802990054,0.0008341386758,0.0003276959193,0.0004015736873,0.0002240749031,-0.0001410651132,0.006178405595,-0.001153425677,-4.002578872e-18,3.272523561e-17,2.508538166e-15,-1.98238881e-17,8.524024707e-17,8.812661256e-18,3.189572637e-17,2.531767174e-16,1.733658911e-17,5.762784915e-18,0.0001380065004,-0.0006733635329,-0.0002598154756,-3.776404217e-05,3.748451521e-05,-8.18391555e-05,0.0007906782565,-0.000398333844,-0.0001008185379,7.081186253e-05,-0.01615324195,-0.0006090539414,-0.0001991802751,-0.001616534042,0.008641115987,0.01163943386,-4.072401378e-05,0.000979731388,-0.0005475748368,-0.0004264066738,9.520783972e-05,-0.0001118359212,0.0002981268257,0.001095428722,0.001283210179,3.799724214e-05,0.0005922624801,0.0002447803309,0.001462768662,0.0001356383329],
			[0.01487246244,-0.04696133174,0.01813566083,0.1129071759,0.01130752771,0.008043086621,0.008964249743,0.002890617635,0.0007160545337,0.002483229216,8.166208667e-18,-6.694728264e-17,-3.888604283e-15,-2.844857485e-17,-4.807813568e-16,-5.374657311e-17,5.275670441e-17,-1.515268664e-15,4.316915255e-17,-1.242059669e-18,0.00885335086,0.0005804593852,0.01190697724,0.004138796567,0.009404128635,0.006355979519,0.004127982621,0.002204590728,0.01278310566,0.001564488532,-0.013585099,0.004078612762,0.004735173786,0.01639390394,0.007267297581,0.03610578146,0.001362097486,-0.001025761958,0.0004270033942,0.001814807899,0.002355047002,8.721057786e-05,-0.002967369423,0.008571535939,0.004889594607,0.001415900979,6.864104784e-05,0.004354519974,0.01210925281,1.571998499e-05],
			[0.005464472137,0.0006506142217,0.0131248546,0.006076972668,0.0352973604,0.007918150326,0.007367004818,0.004684550308,0.009166439181,0.00121628825,-1.506190858e-18,-3.198337689e-17,-8.998835619e-17,-1.662836106e-17,-2.903027968e-16,-1.327792761e-17,2.481239168e-17,-2.042982815e-16,2.853274736e-18,3.478173858e-18,0.009936597124,-0.002077807022,0.001751960196,0.006575377739,0.007401316916,0.00409511285,0.005367866583,0.003081350112,0.004302895884,0.002181435526,-0.007706636006,0.0006438498118,2.126358542e-05,-0.01022844688,0.004122635928,0.03262327804,0.001398547094,0.03100175405,0.0002597810492,0.0050833877,0.003124159265,5.305731927e-05,0.0001364095529,0.005736327485,0.004626992545,0.002459839403,0.000878695631,0.01052875448,0.01276661721,0.0002012364696],
			[0.001072540142,0.02573241075,0.0008308339654,0.001039741977,-0.0008338299997,0.08094129741,0.00189239745,0.001433858047,0.004385851432,0.003798616836,2.698750283e-18,-3.862823873e-17,-1.784859115e-16,3.251932105e-17,5.770201111e-16,9.359301262e-17,-3.753145588e-18,5.535467732e-15,-1.531677747e-17,-1.29283637e-17,0.004721114519,0.004875063144,0.003372924096,0.002579781516,0.001191197637,-0.0006324105344,-0.0004799055067,-0.001515632599,0.0008486548279,0.001435627016,-0.002828380111,-0.004694448156,-0.0002402388838,-0.009065469888,0.001513031296,-0.03914491663,0.0005984124413,0.001525874704,0.002369711926,-0.03560649573,0.0008908293079,0.0004839866596,0.001846451838,-0.00161627815,-0.003756135401,0.001201045658,0.0004204280872,-0.0002298188707,-0.001046870092,9.628529036e-05],
			[0.002402041763,0.009945618931,0.002610707376,0.002041773511,0.000503137728,0.01914498357,0.05616300638,9.741780641e-05,0.01263279337,-0.001307688769,-5.177420494e-18,-3.05191828e-17,2.614140387e-15,1.051293003e-17,3.791377907e-17,1.271844148e-17,2.676500021e-17,1.28512115e-15,2.958598157e-17,2.182520513e-18,0.001521949528,-0.0001968496761,0.0007211331643,0.000586420192,0.0003777915748,-0.0001361581471,0.00156915697,-0.00106939185,7.187318475e-05,0.0004724914591,-0.03276994826,-0.002018416446,-0.0001567979236,-0.003524101644,0.01753016049,0.01450257015,0.0001008802839,0.001768767217,-0.0004825379825,-0.008816667913,0.0004551361243,-9.855288473e-05,0.0007083786955,0.001925686991,0.001744520419,0.0003587793504,0.001210980635,0.0004623978863,0.003050318833,0.0002773354721],
			[0.01106215398,0.00706138136,0.002947904438,0.000136220716,0.003091939496,0.01528216206,0.005923579326,0.0312796206,0.002872999935,-0.004016412388,-1.138865509e-17,-2.172607517e-17,2.253155981e-15,-1.245316543e-17,-1.162191174e-16,-3.442233096e-17,-1.395048217e-17,-7.393306376e-16,3.637822396e-17,1.933933495e-17,0.003229526235,-0.005261277402,-0.003754237537,0.002988472729,-0.000587508379,0.001377817871,0.001129481791,0.002261739864,0.001548021777,-0.0004884918757,-0.004613357223,0.004485353453,-0.0011250698,-0.003410616906,0.002467898084,0.06486479481,-0.0004967477063,0.004166454729,-0.00338526738,0.04800586403,0.0003668930874,-0.0006914022895,0.0002409962038,0.007137138631,0.007416605695,-5.037148589e-05,0.0002754060155,0.001191644181,0.0008146445617,6.307273223e-05],
			[0.0723948567,0.08812655927,0.03764494001,0.02913339834,0.02202080922,0.03803257041,0.03824001374,0.01136902539,0.8463755763,0.01010262758,7.560718628e-18,2.717793039e-16,2.692522642e-14,-2.412282062e-16,-5.500606478e-15,-8.151489615e-16,-2.505990279e-16,-1.128630137e-14,4.121810239e-16,2.499030689e-16,0.0340514596,0.005316639995,0.02422932359,0.0138245357,0.03487693223,0.02028721584,0.02659617568,0.007546558886,0.02343285462,0.03388573374,-0.08025231349,0.002600152615,0.02386379513,-0.01347586134,0.04293067308,0.1352658192,0.007684106996,0.02115110582,0.01180223851,0.004482381796,0.01275556318,0.002410472737,0.01354465012,0.04267058938,0.01841358187,0.02287343365,0.08113363395,0.03394814245,0.03439819574,0.01858100289],
			[0.01630937962,0.01529035999,0.008956867184,0.01301429814,0.01362168603,0.01545380666,0.01240045129,0.008676754854,-0.003218585575,0.07460104724,-1.453106006e-18,-5.349032098e-17,1.557437745e-15,1.357752956e-17,2.121591453e-16,-6.364029143e-17,-1.317813852e-17,-1.916171941e-16,-1.497345385e-17,1.596063351e-17,0.01020619815,0.002261995509,0.003283538431,0.004699923139,0.003699452966,0.00993683479,0.003973547564,0.009694061873,0.005280036156,0.001954327912,-0.01263609881,0.0003861915482,0.001085525716,-0.009326440891,0.006759633502,0.03298453608,0.01468095621,0.01317190517,-9.748598938e-05,0.009089998377,0.008218213271,-1.991040254e-05,0.00094402529,0.00787014237,0.004695446712,0.001866239151,-0.000308533884,0.005602627911,0.008001335892,-7.065958606e-05],
			[7.4105246e-18,-2.27689579e-17,3.19055933e-17,4.097910308e-17,1.185455298e-17,2.391471953e-17,1.554824256e-17,-2.585638687e-17,-1.855220846e-16,4.824719515e-17,0.03098853424,1.085202185e-17,2.033433571e-15,-1.771750937e-17,5.073760849e-16,6.565037242e-18,2.803137704e-17,1.039272225e-15,2.664161841e-18,-4.682520492e-18,1.338378794e-17,8.799510183e-17,2.243428569e-17,1.019878015e-17,1.989411558e-17,1.089017127e-17,5.168596874e-18,1.86225218e-18,1.695272967e-17,-4.381137646e-20,3.615233804e-16,2.835932562e-17,1.453934368e-17,1.618221158e-16,4.802606949e-17,-2.046362586e-16,1.551445466e-17,-4.138080839e-16,2.098275619e-17,-1.720217659e-16,1.935359147e-18,4.680578876e-18,-1.956181076e-17,4.772025543e-18,-1.131173005e-17,9.814131335e-18,-1.475089583e-17,-1.325478606e-17,4.466824875e-17,-1.443431212e-17],
			[4.114946204e-17,-2.423583667e-16,2.381404474e-17,2.249182059e-17,4.052221923e-17,2.603854364e-18,2.325321205e-17,4.188038235e-17,3.249552715e-16,4.009453334e-17,1.229405682e-17,0.1339764202,2.676963688e-15,3.125489724e-18,8.996705154e-16,2.94606891e-17,-2.672677124e-17,5.499342819e-16,-8.443467053e-18,4.896514566e-18,-2.556692306e-18,-6.289186954e-17,2.526356479e-17,8.576781567e-18,1.761528184e-17,9.369994718e-18,2.939369945e-18,3.71121954e-17,1.005097259e-17,-4.702446164e-17,2.026848206e-16,1.929829696e-17,-1.282212574e-17,-7.726921776e-17,5.752831557e-18,1.952738703e-16,-1.259736463e-17,4.087316896e-16,5.493613967e-19,1.799986414e-16,-4.627009706e-18,-1.85334598e-18,-2.32040439e-17,4.232102545e-17,3.764764507e-17,6.900597506e-18,3.539692976e-17,6.458417895e-17,-1.293172652e-17,-1.049726793e-17],
			[2.521326129e-15,-2.051115992e-14,5.659669615e-15,3.484276804e-15,3.231103237e-15,1.790360062e-16,2.829719666e-15,8.240555156e-16,-1.053063605e-14,4.770911984e-15,3.383621655e-15,-3.156303635e-15,10,-6.366371049e-17,-2.37374883e-14,-3.024691585e-15,7.349511245e-16,1.953992523e-14,1.240827986e-16,1.74422757e-15,2.684742809e-15,2.4752685e-15,6.599379227e-15,1.610635477e-15,-8.793181865e-17,4.878187068e-15,3.000869562e-15,1.795916127e-15,2.481169315e-15,-2.595164857e-15,3.046698258e-14,2.073478453e-15,4.096636832e-15,2.228612041e-14,4.763154349e-15,-2.682584666e-14,3.402605361e-16,-1.075594485e-14,3.056725231e-15,-3.107323423e-15,1.244245436e-15,-1.51884185e-15,2.002964613e-16,4.088984146e-15,1.363466559e-15,6.682708833e-17,-3.019169567e-16,3.066533039e-15,5.476530049e-15,1.501741351e-15],
			[2.041619922e-17,1.167680624e-16,2.452850414e-17,1.68029678e-17,-1.484372654e-18,-1.243747746e-17,3.838787054e-18,-2.428414756e-17,1.870373546e-16,4.341093919e-17,-4.440175243e-19,-4.179094535e-18,-5.576440297e-16,0.05739869131,9.932193016e-18,1.155804641e-18,2.575345234e-17,-4.31396268e-16,-6.062695212e-17,-1.377459616e-17,1.014972506e-17,5.920282171e-17,4.0261155e-17,-6.069662566e-18,4.872971108e-17,4.279626321e-18,3.597970106e-17,-3.413001895e-17,2.167298601e-17,4.576947181e-17,-2.431052623e-16,-3.226592949e-17,4.03406191e-17,1.624862506e-16,4.050632326e-17,-3.352193722e-16,1.485950286e-17,-2.913109575e-16,4.499800981e-17,-7.26505225e-17,1.640531141e-17,1.929368773e-17,1.412912337e-17,3.409576689e-17,7.554219284e-18,8.546282556e-18,1.933566067e-17,6.001450089e-18,2.005963864e-17,7.370062476e-18],
			[1.837534683e-16,-2.227958985e-15,2.554668083e-16,3.187341993e-16,4.135330595e-16,6.101121114e-16,4.852317891e-16,4.174598643e-16,-3.807304544e-15,3.064196299e-16,-6.962146983e-17,2.906902365e-17,4.465420282e-14,2.708433644e-17,1.256281407,4.211020746e-16,5.745101234e-16,-6.916989862e-15,2.802394632e-16,2.090401214e-16,3.184737363e-16,-8.217408024e-16,-3.724595586e-16,5.486282819e-16,1.569139798e-16,8.021493787e-16,2.791085047e-16,6.613417877e-16,3.821974266e-16,-4.291688314e-16,8.511617069e-15,9.68255165e-16,1.169809735e-16,8.287849788e-16,-2.000388935e-16,8.572510642e-16,1.748221551e-16,3.600159035e-15,-4.272255579e-16,9.025398274e-16,2.324536188e-16,3.232604e-17,2.132195102e-17,9.327293055e-17,2.12374394e-16,-7.413835679e-17,-3.465581212e-16,-4.223449129e-17,-6.112971241e-17,-2.77477877e-17],
			[2.154342971e-17,-2.893235593e-16,1.646002917e-17,3.263454957e-17,1.93969033e-17,5.175486449e-17,1.892170673e-17,2.425536735e-17,-1.457299878e-16,6.091651922e-17,-3.034393419e-17,-2.782395332e-17,-1.420408513e-15,-3.271519407e-17,1.648336424e-16,0.09950248756,-7.076826252e-17,3.243875751e-15,-1.21656643e-17,2.109984514e-17,3.432427737e-17,1.856184591e-17,3.312807745e-18,1.907481869e-17,2.301773642e-18,2.340352844e-17,-2.260763103e-18,3.496503049e-17,1.980737828e-17,1.632948724e-17,4.031429928e-16,3.774404404e-17,-9.392945857e-19,5.001313222e-17,2.21779465e-18,-1.324098423e-16,2.030093004e-17,5.691457289e-17,-1.219606097e-18,1.906564489e-16,-6.645830602e-18,7.424478381e-18,-7.5007707e-18,5.462341785e-17,3.735292851e-17,6.630900073e-18,-1.69315999e-17,1.2963156e-17,4.209037929e-17,-5.968119537e-18],
			[-2.344897424e-17,-1.204946685e-16,4.861289895e-18,-5.507316514e-18,-9.158373156e-18,1.153324429e-17,7.070065819e-18,-3.359839472e-17,-2.550846972e-16,3.254409579e-17,-1.918567863e-17,-2.442983094e-17,5.831215158e-16,-9.367260905e-17,2.938222873e-16,1.583411236e-17,0.1321353066,6.47701725e-15,2.911647842e-17,-4.005126861e-18,2.03094505e-17,2.565194761e-17,2.238254563e-17,-4.570419179e-18,2.421547727e-17,-1.966292143e-17,4.256786515e-18,7.061697142e-18,-8.218454935e-18,-4.183828532e-19,1.039964638e-16,2.48023861e-17,1.277667285e-17,2.384164634e-16,2.72448583e-17,4.001865521e-17,-4.593012514e-19,-3.588081442e-16,6.436506237e-18,-2.081213085e-16,-1.326396433e-17,-6.915338069e-18,-2.209013703e-17,-1.865357462e-17,-2.326592397e-17,2.736010865e-19,-4.55078248e-17,1.924336592e-17,3.651823929e-17,-1.790487548e-17],
			[2.301906629e-16,-1.806665243e-15,1.575715396e-16,-2.341778569e-16,-1.33166395e-17,-6.144124692e-15,-1.328840799e-15,-1.542492425e-15,1.635965601e-14,7.846350448e-16,4.166946458e-16,-1.09910909e-15,-8.704148513e-14,5.590381147e-16,1.555891224e-14,-5.288680721e-15,-5.258027615e-16,10,3.288974477e-15,-1.61565385e-15,-5.005137466e-16,-2.745906484e-15,4.786536991e-15,-8.0433996e-16,5.148112678e-16,-4.880698371e-16,9.636717373e-16,-4.161401204e-16,-2.037778233e-15,-1.397232709e-15,-2.573597207e-14,-2.79028268e-15,3.529133461e-16,2.405860256e-15,2.618617016e-15,7.491358842e-17,1.109319257e-16,-1.065631528e-14,-9.150920285e-16,1.690676127e-15,1.438384956e-15,-4.190446582e-16,-5.442568581e-16,3.90308967e-15,1.111536446e-18,3.662067088e-16,2.416779068e-15,1.84827809e-15,2.787810172e-15,-2.171792268e-16],
			[-2.28953586e-17,-5.344441217e-17,-9.164841676e-18,-1.533965819e-17,-1.119006162e-17,-6.034928859e-17,-3.089163952e-17,-3.217138994e-17,3.07911434e-17,-3.861425629e-17,-7.148921993e-18,-1.32645311e-17,-7.530416938e-16,2.408021816e-17,-3.8221018e-17,-2.665044621e-17,-2.875751255e-16,1.760546005e-15,0.1118568233,3.176862883e-17,5.672711002e-18,-2.213078714e-17,1.927988757e-17,-1.771523909e-17,-9.43167582e-18,-2.370690239e-17,-1.767758382e-19,-2.435082239e-17,-2.03615441e-17,7.507104286e-18,-4.926566834e-16,-2.403189302e-17,1.214149219e-17,4.367717658e-17,-4.924253112e-18,2.002741669e-16,-1.519097127e-17,-1.730115485e-16,2.056983181e-18,9.093812885e-17,-1.665816592e-17,-5.250904603e-18,8.691886225e-18,3.104431993e-17,7.925617983e-18,-6.573947324e-19,9.042553771e-18,2.718759682e-17,-3.282503353e-17,3.201684728e-18],
			[5.125156709e-18,1.649162879e-16,1.447472739e-17,-2.081994795e-17,-1.047436967e-17,-2.786809735e-19,3.423210755e-18,-5.430873212e-18,2.112938775e-16,9.170460201e-18,-1.149800599e-17,-4.906736874e-17,6.997806669e-16,-9.216784671e-18,-2.949000634e-16,-4.101120331e-16,-6.142911857e-19,2.420635214e-15,3.844559583e-18,0.0572147843,-3.625248869e-18,4.423352592e-17,2.699068811e-17,-4.241806047e-18,1.744298369e-17,-2.856339401e-17,-9.541762609e-18,-1.718773025e-17,-1.546174875e-17,1.469825971e-17,-1.639060539e-16,-3.920581566e-17,-9.290481209e-18,-2.812412985e-17,2.456642122e-17,-2.369344781e-16,-4.002913982e-19,-1.426935931e-16,2.510620252e-17,-7.912071547e-17,-7.183270545e-18,1.742260361e-17,6.240745741e-18,-2.945178514e-17,-1.054236291e-17,8.000221731e-18,4.362008379e-18,-1.086592452e-18,-4.404915047e-18,-4.474629089e-18],
			[0.007899287191,-0.00490233818,0.01417793376,0.006999050909,0.00321428841,0.01037059532,0.01833762368,0.003843835812,0.008915516397,0.009061552436,-1.5084648e-17,-5.438185753e-17,1.03583949e-15,-2.062043683e-17,-2.347359036e-16,-2.569082147e-17,-2.468356913e-17,1.390282799e-15,-2.804333578e-18,-4.67879183e-18,0.05762548025,0.0115577635,0.007138597957,0.0009854411655,0.002754960164,0.003416109172,0.002593484065,-0.000650124664,0.008490815648,0.002498062489,-0.02808735989,-0.003412175661,0.002329588666,0.001683271213,0.01502522747,-0.01583356938,0.002244651257,0.001318536773,0.002392724809,0.002180139904,0.001922598466,0.0004886867787,-7.295352509e-05,0.006686474463,0.004492195918,0.0022863783,0.0008546421518,0.001816692739,0.006331795681,0.0001957278075],
			[0.02010639615,-0.004427397035,0.01745652652,0.009215886779,0.00610245248,0.0215291508,0.01112790431,0.01613919919,0.007681081242,0.005035132344,-8.667419326e-18,-5.621172391e-17,-5.784686448e-17,-5.487305569e-17,-5.446905683e-16,-1.019831685e-16,-3.645901786e-17,-6.211300417e-15,3.293003612e-17,5.468893244e-17,0.009261403613,0.0834081122,0.003994790537,0.00485145712,0.007363072267,0.007829595187,0.003831551782,0.002895604443,0.01366908874,0.01055672204,-0.01690265458,0.003764710414,0.002966459114,0.002103227229,0.009042011455,0.05938951771,0.001769786206,0.0007871761493,0.004014725768,0.01883571846,0.002910760028,0.0008199619929,5.948799128e-05,0.01754065641,0.007470791994,0.01375157305,0.0007363090941,0.003466555227,0.008483254626,0.0001686274944],
			[0.01256616263,0.007585535685,0.009732530409,0.01068086946,0.01160287992,0.01347855524,0.01029991809,0.01581336793,0.007857259393,0.005953594669,-3.469456991e-18,-5.67781926e-17,1.252954429e-15,-7.231750175e-18,-3.743749886e-16,-6.331345412e-17,-5.112387403e-18,2.024361756e-16,6.86732844e-17,2.842173355e-17,0.01571854079,-1.89717554e-05,0.07731085592,0.004236155133,0.003872928616,0.005609633783,0.005112593579,0.002610978279,0.005645917338,0.004949269047,-0.01353428322,0.001564592084,0.01141067211,-0.005387283891,0.007240113875,0.04167572252,0.002219859915,0.01066584322,0.00180051412,0.02200035021,0.003067480771,0.0003677344935,0.0006756787273,0.01388099039,0.00623726141,0.001487837863,0.0007531975464,0.004480251085,0.01051792622,0.0001724952415],
			[0.01172245513,0.0187488217,0.01190339951,0.005837363932,0.005893634821,0.01226659001,0.01878686944,0.001448331777,0.01083209119,0.001958188783,-1.132844694e-17,-4.601425114e-17,1.762836384e-16,-5.2176772e-18,-2.287576622e-16,-2.783189873e-17,-1.342467335e-18,-1.381245071e-15,8.826520004e-18,1.648676655e-17,0.01005902713,-0.0006489569476,-0.001466928747,0.03768615665,0.003480427415,0.005006310208,0.002972732605,0.003887869765,0.009901065689,0.004750882113,-0.01915794234,0.003854403657,-1.635319997e-05,-0.007444161317,0.01024846915,0.0786242055,0.001012362428,0.005815650758,-0.0004704671615,-0.002085530622,0.008875858513,-9.608755707e-05,0.001257052622,0.01285503916,0.009652807742,0.006892739466,0.001038365172,0.002915192051,0.004864753046,0.0002378035511],
			[0.005181602584,-0.005852734725,0.01419914183,0.01381822802,0.003895458486,0.006036039338,0.005165413094,-0.002702159207,7.622685537e-05,0.008487085032,-2.149009574e-17,-7.891648752e-17,5.733857705e-16,-2.274316665e-17,-9.554728125e-18,-2.773046073e-17,-7.414187881e-18,-2.103318349e-15,2.537884858e-17,-5.488177155e-18,0.005096309543,0.005955087308,0.003610179032,0.006629369121,0.05666703906,0.005781870372,0.002985030982,0.0006377615419,0.004320522143,0.001867164068,-0.01485301846,0.002616272761,0.003629454496,0.01663911351,0.007945566329,0.01920519673,0.002223876061,-0.04290576306,0.001191887549,-0.005853393307,0.00307359758,0.0002434294511,-0.0002910123436,0.004813309058,0.002642611821,0.002319846252,7.307112768e-06,0.00223900639,0.01979319315,1.673454976e-06],
			[0.01482034563,0.007002805706,0.01179046863,0.01958378662,0.007530475994,0.01423030399,0.01183350393,0.006272542271,0.0494395359,0.0101392313,-9.202375342e-18,-6.247591779e-17,-5.196772593e-16,-3.421534538e-17,-1.275738336e-16,-6.302900562e-17,-7.907973521e-18,6.43393787e-16,1.883633905e-17,1.84842634e-17,0.01763705843,0.01022752548,0.01228933978,0.004130539693,0.006484633869,0.05345823944,0.005695073633,0.003656027252,0.008387184055,0.008266894253,-0.01796173859,0.001470787374,0.01262877227,-0.002759797602,0.009608564463,0.04065410317,0.003122153832,0.006282522868,0.004453853795,0.004957391182,0.003776855403,0.000909648889,0.001170706461,0.01136198763,0.006332937875,0.005129917827,0.004739278071,0.01447165481,0.02353879423,0.001085376498],
			[0.01239454689,0.01409731212,0.01640133173,0.01396064744,0.008054278724,0.01326847704,0.0111883771,0.006148704186,0.01403686253,0.007846428115,-1.533403193e-17,-5.369426738e-17,1.337550114e-17,-2.285580029e-17,4.966529031e-17,-3.580592376e-17,-2.904942337e-18,-1.607619951e-15,-1.738425422e-18,2.305025432e-18,0.0139103845,0.002413449506,0.009104390027,0.007563422967,0.008441691686,0.01080978979,0.04055320649,0.003998251914,0.01220416551,0.002949272807,-0.01833897979,0.00145628772,0.00286874252,-0.00525379395,0.00981036822,0.04500296648,0.01031721121,0.003738371844,4.84556787e-05,0.006546268186,0.01456643861,9.896520254e-06,0.001022425479,0.009164403384,0.00640473058,0.002562384752,0.001345574823,0.004783804618,0.00929982886,0.0003081598649],
			[0.01832933564,0.008667809227,0.01212036195,0.007297682033,0.01071439019,0.01853272722,0.02594723574,0.01347683047,0.01152785328,0.002643057804,-1.300166773e-17,-5.290085078e-17,1.170367715e-15,-3.225112596e-17,-2.075594457e-16,-3.442210749e-17,1.344616997e-17,7.990661108e-17,1.98356965e-17,1.584591721e-17,0.01664371448,0.008291728783,0.009903649543,0.0092042957,0.004286056724,0.005112693402,0.008879147571,0.03965935669,0.007254050516,0.003306362334,-0.02312524811,0.001505731614,0.001887843249,-0.005227783574,0.01237076445,0.0504077957,0.002430237455,0.009138623837,-8.528827024e-05,0.01571000423,0.004828730744,-1.74191574e-05,0.0006449424932,0.01167164244,0.007288595735,0.003586708212,0.001105060985,0.004243714572,0.007849472995,0.0002530780437],
			[0.01071096273,0.01342811293,0.004612369799,0.01290084056,0.005793432331,0.005416263904,0.00662794183,0.002175380148,0.01085807551,-0.002176603351,-8.444227134e-18,-5.695472766e-17,-7.975636619e-16,-1.706385895e-17,2.493111223e-17,-2.152085338e-17,-1.057580607e-17,-3.050087673e-15,-5.80104989e-19,6.55338229e-18,0.005794052634,-0.001087790962,0.005230619659,0.002533590859,0.001438735176,0.00926646609,0.00227445466,0.003002562908,0.03997616276,0.00133484007,-0.006632480345,0.004698954936,0.001539348597,-0.006064582644,0.003548020399,0.07391506502,9.417034055e-05,0.006567098737,-0.002320097758,0.001416968969,0.0008561779442,-0.0004738535311,0.0007888452962,0.00920097442,0.008679492221,0.0009943246533,0.001040856032,0.003771129024,0.004942054263,0.000238374001],
			[0.007257518267,0.005590591176,0.006127338022,0.008464756546,0.003982485734,0.002573198748,0.006771735368,0.001493015632,0.0119214413,0.002587797905,7.64318809e-19,-4.600733096e-17,2.222828147e-15,-4.880114422e-17,1.810653558e-16,-6.531187921e-17,-2.776582564e-17,-1.14881969e-15,2.489637404e-17,6.10354185e-17,0.00606006887,0.001640935222,0.003229297779,0.00739672565,0.007199505054,0.01217124666,0.0022315699,0.002085306193,0.01287779298,0.118457455,-0.008678498325,0.00239364177,0.002747730939,-0.001123604568,0.004642530018,0.03975391133,0.0009669252951,-0.0005440824438,8.985540283e-05,0.001890353981,0.002437163419,1.835194219e-05,0.000463604608,0.006524863997,0.004985739104,0.00226042578,0.001142790366,0.003919053485,0.007642684812,0.0002617187232],
			[0.04964010514,-0.5102553427,0.09485141434,0.0819367663,0.08036845726,0.154516129,0.1147209874,0.03988488881,-0.8302934445,0.08591260457,-1.628048316e-16,-6.389730389e-16,-6.329800909e-14,1.19766307e-16,1.079305661e-14,5.358709284e-16,-7.683798046e-16,6.263592551e-15,-8.112301644e-16,-1.174702451e-17,0.08962532423,0.04482720035,-0.0386250982,0.08517271351,0.0197554717,0.1332697706,0.0322553352,0.151379203,0.1201975109,-0.00597615081,2.424243113,0.250304946,0.01909176339,0.1520078603,0.04724629163,0.3353772318,0.02295735116,-0.001908630974,-0.004558399117,0.001939731725,0.03414865585,-0.0009310010797,-0.03990107357,0.04795688507,0.04621539964,0.0100126772,-0.07959199944,0.02562763123,0.09710123337,-0.01822794197],
			[0.01327824098,0.04298911692,0.01311316791,0.01120614623,0.01455320742,0.02424764265,0.01519880628,0.006011281372,0.01986498105,0.01588384295,-1.302865693e-17,-9.718952661e-17,-1.648214097e-15,-1.037434804e-17,3.073806782e-16,7.919281571e-18,-2.79545621e-18,1.312633139e-15,-3.16171864e-18,6.685231707e-20,0.01276053424,0.004993005757,0.002950211157,0.0129681905,0.01483953803,0.01452986875,0.004959696844,0.01149096095,0.007079466291,0.004413190962,-0.01714100364,0.03697054217,0.001648972489,-0.01646764151,0.00916951539,0.04125628898,0.004025024317,0.008813484704,0.0008772517701,0.0001822106034,0.005568480613,0.0001791686784,0.002976195933,0.00929760853,0.005872400671,0.004339315736,0.001904258754,0.00745317235,0.01169308275,0.0004361081304],
			[0.01645546103,0.02315160463,0.01018067831,0.0116385636,0.00434447068,0.01104956104,0.01142853675,0.003056640955,0.01759199772,0.004467064139,-1.027794054e-17,-6.470627369e-17,-9.302361426e-16,2.26920347e-18,1.001414955e-16,-6.805526857e-18,-3.138733002e-17,7.172169784e-16,4.627924493e-18,2.845097037e-18,0.01756490756,0.003884518829,0.003879503714,0.003752213058,0.00611186753,0.008720573282,0.009198979561,0.001284009942,0.008436243469,0.01668348136,-0.01753338,-0.0009725889442,0.04545464848,-0.008862847343,0.009379415644,0.02065549334,0.002837863726,0.005556507184,0.01152668768,0.0009101823884,0.004880080712,0.00235419462,0.002426700314,0.00765162171,0.004145954824,0.002009230679,0.001686370381,0.0034612364,0.02164418822,0.0003862079313],
			[0.02043683296,0.0470138261,0.02142201501,0.02255809109,0.01767772941,0.03012833527,0.02122289968,0.01000055612,-0.06261890289,0.02146670734,-2.699963801e-17,-7.718812268e-17,-5.662425789e-15,2.923306404e-17,9.934763353e-16,-2.925589862e-17,3.355174624e-17,8.112706368e-15,-5.166368037e-17,-9.850919543e-17,0.02528320473,0.006634392962,0.01271159132,0.01432669876,0.01527015327,0.02347297324,0.02187287088,0.01141789294,0.01265364116,0.0004905145081,-0.04091743007,0.03005018844,0.02939863547,0.2062482692,0.02188862522,0.06412132255,0.008755708932,0.01495141613,0.006390845564,0.00521802098,0.01190209704,0.001305257387,0.002924586406,0.01753426717,0.009715087962,0.003406353681,-0.006002653299,0.00781243361,0.05416568181,-0.001374711237],
			[0.008312574831,0.0160455272,0.009323656231,0.00695531169,0.002654544713,0.003785669986,0.00214166248,-0.0008626191284,0.04480021424,-0.00830711204,5.255753526e-18,-1.783019337e-17,2.694678154e-15,2.326002295e-17,-1.093111397e-15,-4.773565223e-17,1.005837698e-16,-4.121244913e-15,6.412131462e-17,3.597289228e-17,0.001779439241,-0.004963776862,-0.0001370828037,2.922645916e-05,0.0004250698913,2.205502768e-05,0.006448972495,-0.002804956911,-0.0004558880892,0.0005783596723,-0.1235901547,-0.003711824414,-0.0003957301932,-0.005730808454,0.06611408812,0.08955407625,-0.0001283939902,0.005485864382,-0.003900637099,-0.003183286141,0.0009817200507,-0.0007966606823,0.001131062297,0.008800739943,0.009950476565,0.0003434524073,0.004294552306,0.001976659173,0.01263464594,0.0009835266203],
			[-0.05010034406,0.1332298919,-0.04769879216,-0.04561179782,-0.006651866667,-0.02511166225,-0.002921330576,-0.04885280911,0.02191242581,-0.1414680841,-3.985526355e-17,-2.36223347e-16,1.733355358e-16,1.637188202e-17,1.961649748e-16,1.670894739e-16,2.62376243e-16,-2.437747865e-14,-1.727877347e-16,1.790313882e-16,-0.03075321018,-0.1811512104,-0.1446725227,0.01494532153,-0.04536225773,-0.006116225972,-0.008254620406,0.05051014692,0.001192408945,-0.03462430957,0.05465124086,0.1250526495,-0.04117931369,-0.05679782202,-0.02923547562,1.559237978,-0.02799718147,0.03274063665,-0.09171430266,-0.07767129664,-0.01828915934,-0.0187316013,0.002346710167,-0.04497347158,-0.01204711908,-0.02414554147,0.002100526982,-0.002423901335,-0.04039091162,0.0004810569429],
			[0.01123692626,0.03823240713,0.007946239133,0.02170649672,0.01194473247,0.0223596806,0.007326134196,0.01212841115,0.01145127197,-0.001199191179,-1.002336999e-17,-3.544527666e-17,2.323053347e-15,9.251700649e-18,3.184392911e-16,-5.697847603e-18,-3.483603725e-17,-7.563664112e-16,2.928488155e-18,1.766854371e-18,0.005908018812,-0.001436020878,-0.001224005853,0.00375692349,0.003458557148,0.001961781128,0.002264134849,0.003439400225,0.005977747095,0.001077048326,-0.01073864781,-0.0001053603502,-0.001768250503,-0.01700600996,0.005744599231,0.0378449178,0.03677722647,0.01409248172,-0.001456906018,0.01299720487,0.01721149947,-0.0002975564537,0.002439760897,0.005976034612,0.004761315331,0.00118142547,0.001097719894,0.003917675373,0.003242471469,0.0002513968071],
			[-0.01108323281,-0.07114509029,-0.05704769564,-0.07188814776,-0.02559551002,-0.005353691791,-0.006364328437,0.148957985,0.1036673416,-0.0704571688,4.660331857e-16,1.080671548e-16,1.314846433e-14,3.648587217e-16,-1.047530621e-15,7.649259579e-16,1.596834385e-16,1.277769873e-16,1.538693338e-16,2.211887737e-16,-0.04027841841,-0.2008656439,-0.04755232335,-0.01402918534,-0.04994495843,-0.05707140467,-0.05058716934,0.03738784581,-0.03875969059,-0.02220066729,0.2456989568,-0.04541249905,-0.07982931718,-0.5152541108,-0.1314357322,0.05507559395,-0.0241028959,1.599994649,-0.03839917606,0.2608990278,-0.02714722421,-0.007842594177,-0.006342105238,-0.03191399659,0.00165558192,-0.03240192241,0.009937560091,-0.0157240463,-0.1487848835,0.002275872826],
			[0.01876278059,0.01388816392,0.02085428417,0.02438459148,0.008044091049,0.0233918575,0.01541853402,0.00476006234,0.0450573733,0.006394758783,-1.133425951e-17,-1.115278619e-16,1.901671193e-17,1.143012956e-17,-3.861738106e-16,-2.84933155e-17,1.623010853e-17,8.653128443e-16,2.599722981e-17,1.594447781e-17,0.02210291642,0.005695712678,0.009297826948,0.008560807668,0.01858902218,0.01766940646,0.007889797107,0.003149117067,0.0186527137,0.01502904407,-0.040161308,0.0008718489245,0.01588394459,-0.004952119232,0.02148414057,0.05949602666,0.002908604863,0.005839172732,0.07195484411,-0.0009276379053,0.01054112872,0.01469595703,0.006252483338,0.01310672506,0.008867941726,0.004087631471,0.004319203595,0.007076041877,0.02013873684,0.0009891721911],
			[0.01456526684,-0.2575061057,0.02188968171,0.005929609811,0.02342595211,0.01831228491,0.02298465817,-0.004964559436,-0.02336922895,-0.02891405314,-5.386336853e-17,2.061334181e-17,8.559701743e-15,-2.553774711e-16,-3.604660012e-15,-5.178941285e-16,6.318503466e-17,-1.095965185e-14,3.112519326e-16,1.234159277e-16,0.0168836328,-0.04387124243,-0.005778264754,0.02267906959,-0.00476745483,0.01820513635,0.01304867276,0.02182286071,0.01278960133,-0.005645896238,-0.02283594211,0.0536128656,0.008539648132,0.08866770653,0.01221600129,0.5275835858,-0.002501154451,-0.004312413855,-0.02369480746,0.3941822768,0.004436602643,-0.004839394437,-0.0183043257,0.04467758335,0.05931112925,-0.001716171963,-0.002240176253,0.009363263443,0.0267479225,-0.000513039037],
			[0.01969214762,-0.002006404563,0.007141628322,0.007184242268,0.005683357989,0.008985877182,0.01324429885,0.004121491842,0.01238171003,-0.001291720159,-8.223190672e-18,1.581181137e-17,-2.262869786e-15,-3.20375504e-17,-3.073900655e-16,-1.114572996e-16,8.204070163e-18,-3.615873409e-15,6.474600243e-18,2.376423948e-18,0.008619221185,0.00053720715,0.004796215135,0.00381230486,0.001688822908,0.00475850078,0.004692263247,0.01121402787,0.01309582892,0.001345401703,-0.03029779161,0.00233033976,0.001483643629,-0.0001760136739,0.0162076896,0.05930365038,0.000786510465,0.004661035382,-0.001624589117,0.01239711378,0.0771862827,-0.000331803816,-0.0001371530325,0.01045422511,0.007392146539,0.001347354283,0.001186911765,0.00285146036,0.006888612689,0.0002718232853],
			[0.01280096076,0.00971881546,0.02410409829,0.009524130112,0.005625672755,0.02355425334,0.01193430854,0.005417166909,0.01429234815,0.005670280054,-1.052449968e-17,-6.777831455e-17,1.366179665e-15,-1.166884267e-17,-4.233400564e-17,-4.705752941e-17,-2.142856252e-17,-1.662252555e-15,1.975137353e-17,3.069118841e-17,0.008966089846,0.002711649074,0.006069092425,0.01338051495,0.01752975669,0.006181845037,0.005222940322,0.004789907201,0.009467648828,0.02207358811,-0.0248412208,0.0009092127113,0.001132622199,-0.008938997086,0.01328871758,0.05105901205,0.00219152468,0.01903823478,-0.000410240521,0.001400031582,0.02105442982,0.04082939528,0.0145961515,0.009489000667,0.006531174637,0.003369976992,0.001370065696,0.003184612072,0.008949051423,0.0003137686977],
			[0.01242168941,0.003337419678,0.01028238992,0.007813852289,0.006471327423,0.01256949048,0.008899700178,0.01653785718,0.01951233609,0.01125126027,6.348171256e-19,-2.616035576e-17,-9.798242179e-16,1.376325193e-17,-2.296357441e-16,7.278128796e-18,1.445240435e-17,-1.375895149e-16,-1.585770502e-18,1.115837098e-17,0.007543541927,0.002110322145,0.0136684612,0.00429386026,0.01223028307,0.003698884582,0.009445538228,0.005270469599,0.004971357994,0.002558722972,-0.0205914473,-0.001736383698,-0.001169955856,-0.03304212948,0.01101531724,0.054634509,0.004147852632,0.09703787212,-0.00191275517,0.02409138342,0.004526729641,-0.000390658449,0.05353219386,0.008892200102,0.006767300789,0.001814052252,0.001870454179,0.003043540452,0.003245226761,0.0004283662991],
			[0.007858445598,0.005897822387,0.01014294298,0.009865568213,0.01319283893,0.009076419796,0.00733948025,0.005072751625,-0.003904968866,0.008436561831,-1.022881042e-17,-5.955931017e-17,-9.629309861e-16,-3.35833052e-18,2.158391902e-17,-2.357431003e-17,-2.963277617e-17,5.181822342e-16,7.114019745e-17,2.401259588e-17,0.009980019915,0.001521224447,0.01036648909,0.004316745336,0.00453312004,0.01423795679,0.01081911135,0.002744011539,0.005285787104,0.002926797934,-0.02205639349,0.0009203367071,0.003772843167,-0.001725142769,0.01179898469,0.03639021622,0.003926957741,0.01128436116,0.0004537150124,0.005366403929,0.004914081439,9.26661215e-05,0.0003758659012,0.1047891812,0.005042151469,0.001787049412,-0.0003743306441,0.006359225292,0.01200045053,-8.572818004e-05],
			[-0.0007082746584,0.01574856302,0.0008346478533,-0.001403336446,0.008172686327,0.002998552431,0.003670381936,-0.001699717337,0.004678913139,-0.01416855772,-8.734760532e-18,-6.287339208e-17,-3.455892808e-16,-6.103068823e-18,-2.279414848e-16,-9.55517309e-18,1.554217947e-17,-3.848550976e-15,-3.535892413e-18,3.299714652e-17,0.001005445917,-0.008714727669,-0.01431598973,0.004222535086,-0.002210546744,0.003267837133,0.002139992034,0.007213625893,0.003691818393,-0.001630841971,-0.0007770118524,0.01528074155,-0.003763820693,-0.008280161583,0.0004156595662,0.2003055688,-0.002155532323,0.01092009888,-0.009907569245,-0.004522743144,-0.0004188993647,-0.002023508128,0.0003595997937,0.01389699953,0.02193527801,-6.422178738e-05,0.0004485210071,0.002990133818,0.0005611644495,0.000102719054],
			[0.005641167794,0.04078929874,0.007230484661,0.007632287158,0.003944792468,0.01620246629,0.004681357917,0.00106085395,0.01297228632,0.003606780078,-7.693859748e-18,-7.390318392e-17,7.117170705e-17,1.419929344e-17,1.861616419e-16,5.538622801e-18,-3.102457614e-17,-1.726142976e-16,1.599528741e-17,1.420546189e-17,0.005849728312,0.00268505819,0.0009281488154,0.003803093567,0.01359045587,0.006131641666,0.002704943185,0.0006448046383,0.005683401509,0.01923874086,-0.01198183825,-0.001410185339,0.001828734516,-0.01245561461,0.006409639279,0.01568224179,0.001259063603,-0.0003851962347,0.01148950631,-0.005110713228,0.002840031136,0.002346600748,0.003513266961,0.01799168746,0.002340014897,0.02724109842,0.001243524458,0.002688287239,0.006089869947,0.0002847885695],
			[0.01909782036,0.06159319301,0.02465285539,0.01928896906,0.01455830964,0.02244896514,0.01554615149,0.007469424528,0.02780891001,0.006120156986,-2.38613471e-17,-1.195263158e-16,1.682561943e-15,1.744943553e-17,-2.027124484e-16,-4.384760173e-17,-8.84438896e-18,-1.940222706e-15,1.328729196e-17,4.046671125e-17,0.0184516022,0.002734152904,0.01595142138,0.009449904959,0.02443693876,0.01333681522,0.01787255344,0.005479733726,0.01571561411,0.02383911197,-0.04796111716,0.002458423729,0.01670876803,-0.009095239192,0.02565661913,0.09356494795,0.005039873191,0.01400762785,0.008320235459,0.004207202907,0.008582452329,0.001699313289,0.009585739078,0.02267485283,0.01218638549,0.01604473518,0.05801223335,0.02371475279,0.02280925509,0.01328580298],
			[0.01234706725,-0.01258347172,0.01363086713,0.01179718823,0.01500034385,0.02502734739,0.01772493191,0.005414950074,0.01505952907,-0.006208216408,-2.476106229e-17,-9.86887773e-17,-6.790250749e-15,-3.254817984e-17,-6.421642721e-16,-1.177778612e-16,4.348235562e-17,-3.989340646e-15,5.15506042e-19,3.443114225e-17,0.01573140651,-0.002047429981,0.003452853263,0.0111861331,0.01157416311,0.0130804598,0.008947865171,0.01918900618,0.01277359126,0.01492800946,-0.02391263238,0.01575196969,0.004950501868,0.003595003537,0.0127919727,0.2097357533,0.0008064445873,0.006630157437,0.009183542052,-0.001352128988,0.005298150675,0.001875633824,-4.200646039e-05,0.03150096782,0.02455172902,0.020252679,0.001443607724,0.1299267297,0.01501626532,0.0003306110916],
			[0.005971972834,-0.001572317981,0.005401480516,0.02026455585,0.003284207657,0.01508816613,0.004515578466,0.002835682429,0.0139767184,0.003167588523,-5.013607114e-18,-6.780376326e-17,9.45598402e-16,-2.97532347e-17,-9.401541284e-17,-4.509129185e-17,1.605221454e-17,-1.395097977e-15,2.513790726e-17,1.259454726e-17,0.006230924125,0.002521519066,0.005049482775,0.001908143076,0.002908840013,0.01447541733,0.001771134524,0.001216208068,0.003866839176,0.002456603649,-0.005853949715,0.0001483794573,0.003568377114,-0.001812661845,0.003131548369,0.01074324122,0.0009736278936,0.008414023955,0.001359302339,-0.001900851884,0.001303537005,0.0002776220143,0.0001107694657,0.003785121006,0.001842953789,0.001546109072,0.001339809401,0.004267633152,0.09104012712,0.0003068394837],
			[0.01094203984,0.05458727922,0.02237740462,0.01010852458,0.01407980922,0.009880353361,0.008995083798,0.006891219479,0.006890666556,0.005176822389,-2.08437017e-17,-9.809433903e-17,1.588150471e-15,8.552236902e-18,4.23649847e-16,1.480714153e-17,-6.318808299e-18,1.889013844e-15,-1.719049125e-17,-9.287551243e-18,0.008932357208,0.0006734299422,0.003221913177,0.005955505626,0.008323919791,0.008355356963,0.007163954491,0.00429312004,0.01479784711,0.02081989579,-0.0179774755,0.004006676417,0.002852149493,0.007494889355,0.009616982861,0.05446267639,0.002524443406,0.03865553949,-0.0005567986551,0.00815389452,0.003796355938,-0.000113719781,0.01618065671,0.008658617045,0.006898423785,0.002034410351,0.0006605398758,0.005682624095,0.01193042579,0.03335180624]
		],
		"names": [
			"G01",
			"G02",
			"G03",
			"G04",
			"G05",
			"G06",
			"G07",
			"G08",
			"G09",
			"G10",
			"G11",
			"G12",
			"G13",
			"G14",
			"G15",
			"G16",
			"G17",
			"G18",
			"G19",
			"G20",
			"G21",
			"G22",
			"G23",
			"G24",
			"G25",
			"G26",
			"G27",
			"G28",
			"G29",
			"G30",
			"G31",
			"G32",
			"G33",
			"G34",
			"G35",
			"G36",
			"G37",
			"G38",
			"G39",
			"G40",
			"G41",
			"G42",
			"G43",
			"G44",
			"G45",
			"G46",
			"G47",
			"G48",
			"G49",
			"G50"
		],
		"description": "Stable smallworld_scalefree network, IAA=541.102",
		"created": {
			"creator": "",
			"time": 736265.634,
			"id": "",
			"nodes": "",
			"type": "unknown",
			"sparsity": ""
		},
		"tol": 2.220446049e-16,
		"N": 50
	}
}
