{
	"obj_data": {
		"network": "Tjarnberg-D20151002-smallworld_scalefree-N50-L321-ID4609036",
		"A": [
			[-37.214,3.576,6.37,4.706,0,5.362,0,0,0,0,0,0,0,0,0,0,0,0,0,0,0,0,0,0,0,0,5.922,0,0,0,0,0,0,0,0,0,0,7.622,0,0,0,0,0,0,0,0,0,0,0,0],
			[0,-8.662,0,1.488,0,0,0,0,0,0,0,0,0,0,0,0,0,0,0,0,0,0,0,0.792,0,0,0,0,0,0,0,0,0,0,0,0,0,0,0,0,0,0,0,0,0,0,0,0,0,0],
			[0,0,-34.17,0,0,0,0,0,0,0,0,0,0,0,0,0,0,0,0,0,0,0,0,0,0,0,0,0,0,0,0,0,0,0,0,0.968,0,7.58,0,0,0,0,0,0,0,0,0,0,0,0],
			[0,0,4.68,-23.082,0,0,0,0,0,0,0,0,0,0,0,0,0,0,0,0,0,0,0,0,0,0,0,0,0.9,0,0,-0.54,0,0,0,-0.492,0,0,0,0,0,0,0,0,0,0,1.04,0,0,0],
			[0,0,1.668,0,-0.91,0,0,0,0,-1.13,0,0,0,0,0,0,0,0,0,0,0,0,0,0,0,0,0,0,0,0,0,0,0,0,0,0,0,0,0,0,0,0,0,0,0,0,0,0,0,0],
			[5.362,0,0,3.506,0,-23.07,0.784,0,0,0,0,0,0,0,0,0,0,0,0,0,1.91,0,0,0,0,0,0,0,0,0,0,0,0,0,0,0,0,0,0,0,0,0,0,0,0,0,0,0,0,0],
			[0,0,0,-0.108,0,0,-3.67,0,0,0,0,0,0,0,0,0,0,0,0,0,0,0,0,0,0,0,0,0,0,0,0,-0.902,0,0,0,0,0,3.522,0,0,0,0,0,1.884,0,0,0,0,0,0],
			[0,0,0,0,0,0,-0.888,-0.402,0,-0.378,0,0,0,0,0,0,0,0,0,0,0,0,0,0,0,0,0,0,0,-0.766,0,0,0,0,0,0,0,0,0,0,0,0,0,0,0,0,0,0,0,0],
			[0,3.772,0,0,0,0,0,1.584,-24.918,2.866,0,0,0,0,0,0,0,0,0,0,0,0,0,0,0,0,0,0,0,0,0,0,0,0,0,0,0,0,0,0,0,0,0,0,6.778,0,0,0,0,0],
			[0,-1.174,0,0,0,0,0,0,0,-1.92,0,0,0,0,0,0,0,0,0,0,0,0,1.422,0,0,0,0,0,0,0,0,0,0,0,0,0,0,0,0,0.796,0,0,0,0,0,0,0,0,0.774,0],
			[0,0,0,0,0,0,0,0,0,0,-15.724,0,0,0,0,0,0,0,0,0,0,0,0,0,0,0,0,0,0,0,0,0,0,0,0,0,0,0,0,0,0,0,0,0,0,0,0,0,0,0],
			[0,0,0,0,0,0,0,0,0,0,0,-0.1,0,0,0,0,0,0,0,0,0,0,0,0,0,0,0,0,0,0,0,0,0,0,0,0,0,0,0,0,0,0,0,0,0,0,0,0,0,0],
			[0,0,0,0,0,0,0,0,0,0,0,0,-0.1,0,0,0,0,0,0,0,0,0,0,0,0,0,0,0,0,0,0,0,0,0,0,0,0,0,0,0,0,0,0,0,0,0,0,0,0,0],
			[0,0,0,0,0,0,0,0,0,0,0,0,0,-14.418,0,0,0,0,0,0,0,0,0,0,0,0,0,0,0,0,0,0,0,0,0,0,0,0,0,0,0,0,0,0,0,0,0,0,0,0],
			[0,0,0,0,0,0,0,0,0,0,0,0,0,0,-18.284,0,0,0,0,0,0,0,0,0,0,0,0,0,0,0,0,0,0,0,0,0,0,0,0,0,0,0,0,0,0,0,0,0,0,0],
			[0,0,0,0,0,0,0,0,0,0,0,0,0,0,0,-0.1,0,0,0,0,0,0,0,0,0,0,0,0,0,0,0,0,0,0,0,0,0,0,0,0,0,0,0,0,0,0,0,0,0,0],
			[0,0,0,0,0,0,0,0,0,0,0,0,0,0,0,0,-0.1,0,0,0,0,0,0,0,0,0,0,0,0,0,0,0,0,0,0,0,0,0,0,0,0,0,0,0,0,0,0,0,0,0],
			[0,0,0,0,0,0,0,0,0,0,0,0,0,0,0,0,0,-19.444,0,0,0,0,0,0,0,0,0,0,0,0,0,0,0,0,0,0,0,0,0,0,0,0,0,0,0,0,0,0,0,0],
			[0,0,0,0,0,0,0,0,0,0,0,0,0,0,0,0,0,0,-0.1,0,0,0,0,0,0,0,0,0,0,0,0,0,0,0,0,0,0,0,0,0,0,0,0,0,0,0,0,0,0,0],
			[0,0,0,0,0,0,0,0,0,0,0,0,0,0,0,0,0,0,0,-0.1,0,0,0,0,0,0,0,0,0,0,0,0,0,0,0,0,0,0,0,0,0,0,0,0,0,0,0,0,0,0],
			[0,-0.29,0,1.028,0,0,-1.556,-0.784,3.494,0,0,0,0,0,0,0,0,0,0,0,-3.456,0,0,0,0,0,0,0,0,0,0.184,0,0,0,0,0,0,0,0,0,0,0,0,0,0,0,0,0,0,0],
			[0,0,5.722,3.978,0,4.664,1.232,0.096,0,0,0,0,0,0,0,0,0,0,0,0,2.52,-37.92,0,3.38,-0.078,0,0,0,0,0,0,0,0,0,0,0.378,0,7.034,0,0,0,0,0,5.676,0,0,0,5.096,0,0],
			[5.484,0,5.456,3.642,0,0,0.948,-0.162,0,0,0,0,0,0,0,0,0,0,0,0,0,4.79,-29.902,3.022,0,0,0,4.386,0,0,0,0.326,0,0,7.21,0,0,0,0,0,0,0,4.262,0,0,0.786,2.068,0,0,0],
			[4.136,0.792,0,2.092,0,2.882,-0.812,0,4.334,0,0,0,0,0,0,0,0,0,0,0,0.29,0,3.022,-23.158,-1.542,0,0,0,0,0,0,0,0,3.306,0,0,0,0,0,2.502,0,0,0,4.032,0,0,0,0,0,0],
			[0.762,0,0,0,0,0,0,-0.034,0.8,0,0,0,0,0,0,0,0,0,0,0,0,0,-0.046,0,-0.17,0,0,0,0,0,0,0,0,0,0,0,0,0,0,0,0,0,0,0.632,0,0,0,0,0,0],
			[0,-0.898,0,0,0,0,0,-0.502,2.924,-1.638,0,0,0,0,0,0,0,0,0,0,-0.666,0,1.708,0.072,0,-0.914,0,0,0,-0.386,0,0,0,0,0,0,0,0,-0.424,0,0,0.518,0,0,0,0,0,0,0,0],
			[0,0,5.894,0,0,4.824,1.498,0.508,0,1.974,0,0,0,0,0,0,0,0,0,0,0,0,0,0,0,0,-22.676,0,0,0,3.694,0,0,0,0,0,0,0,0,0,0,0,0,0,0,0,0,0,0,0],
			[0,2.332,5.364,0,0,0,0.766,0.064,0,1.254,0,0,0,0,0,0,0,0,0,0,0,4.696,0,2.918,0,0,0,-16.392,0,0,0,0,0,0,0,0,0,0,0,0,0,3.328,0,0,0,0,0,0,0,0],
			[0,-0.248,0,0,-0.97,0,-0.9,0,0,-1.656,0,0,0,0,0,0,0,0,0,0,0,0,1.868,0,0,0,0,0,-1.548,0,0,0,0,2.146,0,0,0,0,0,0,0.052,0,0,0,0,0,0,0,0,0],
			[3.888,0,0,1.804,-0.676,0,0,0,4.056,0,0,0,0,0,0,0,0,0,0,0,0,0,0,1.128,0,0,0,2.634,0,-9.784,0,0,0,0,0,0,0,0,0.642,0,0,1.582,2.49,0,0,0,0,0,0,0],
			[0,0,0,2.238,0,3.038,-0.41,-0.578,0,-0.458,0,0,0,0,0,0,0,0,0,0,0.184,0,0,0,0,0.356,3.694,0,0,0,-4.93,0,0,0,0,-0.178,0,0,0,0,0,0,0,0,0,0,0,0,0,0],
			[1.682,-1.402,0,0,0,0.166,-0.902,0,0,0,0,0,0,0,0,0,0,0,0,0,0,0.69,0,-1.31,0,0,0,0.334,0,0,0,-1.056,0,0,0,0,0,3.284,0,0,0,0,0,0,0,0,0,0,0,0.846],
			[0,0,0,1.474,-1.21,0,0,0,3.788,0,0,0,0,0,0,0,0,0,0,0,0,0,0,0.766,0,0,2.97,0,-0.62,0.44,0,0,-5.81,0,5.538,0,0,0,0,0,0,0,0,0,0,0,0,0,0,0],
			[5.73,0,5.702,3.916,0,0,0,0,0,0,0,0,0,0,0,0,0,0,0,0,2.366,5.046,4.738,0,0,0,0,0,0,0,0,0.588,0,-22.48,0,0,0.242,0,0,0,0,0,0,0,0,0,0,0,0,0],
			[0,5.59,0,0,0,0,4.462,2.464,0,0,0,0,0,0,0,0,0,0,0,0,0,7.46,0,0,0,0,0,0,0,0,0,3.356,0,0,-36.854,0,0,0,0,0,0,0,0,0,0,0,5.274,0,0,0],
			[0,0,0,0,0,0,0,-0.098,1.262,0,0,0,0,0,0,0,0,0,0,0,-0.622,0.378,0,0,0,0,0,0,0,0,0,0,0,0,0,-0.26,0,0,0,0,0,0,0,0,0,0,0,0,0,0],
			[1.064,0,0,0,0,0,0,0,0,0,0,0,0,0,0,0,0,0,0,0,-0.23,0,0,0,0,0,0.454,-0.038,0,-0.694,-0.438,-0.456,0,0.242,0,0,-0.304,0,0,0,0,0,0,0,0,0,0,0,0,0],
			[0,0,0,0,2.706,0,3.522,1.956,0,0,0,0,0,0,0,0,0,0,0,0,0,0,0,0,0,0,0,0,0,0,0,0,0,0,0,0,1.87,-30.952,0,0,0,0,0,0,0,0,0,0,0,0],
			[0,0,3.812,0,-0.768,0,0,0,0,-0.982,0,0,0,0,0,0,0,0,0,0,-0.242,0,0,1.086,0,0,0,0,-0.188,0,0,0,0,0,0,0,-0.536,0,-4.658,0,0,0,0,0,0,0,0.05,0,0,0],
			[5.034,0,5.004,3.136,0,0,0,-0.388,0,0,0,0,0,0,0,0,0,0,0,0,0,0,0,0,0,0,0,0,1.376,0,0,0,0,0,0,-0.352,0,6.424,2.164,-17.846,0,0,0,0,0,0,0,0,3.49,0],
			[1.422,0,0,0,0,0,0,0,0,0,0,0,0,0,0,0,0,0,0,0,0,0.63,0,-1.008,0,0,0,0,0,0,-0.646,-0.574,0,0,0,0,-0.408,2.81,0,0,-0.396,0,0,0,0,0,0,0,0,0],
			[0,0,0,0,0,3.29,0,0,0,0.114,0,0,0,0,0,0,0,0,0,0,0,0,0,0,0,0,0,3.328,0,0,0,0,1.234,3.704,0,0,0,0,0,0,-0.556,-7.996,0,0,0,0,0,0,0,0],
			[0,2.196,0,0,0,4.13,0.684,0,0,0,0,0,0,0,0,0,0,0,0,0,1.734,0,4.262,2.772,0,0,0,0,0,0,0,0.182,0,0,0,0,0,0,0,3.776,0,0,-17.224,0,0,0,0,0,0,4.98],
			[0,0,0,4.606,1.81,5.274,0,0,0,2.498,0,0,0,0,0,0,0,0,0,0,0,5.676,0,4.032,0,0,0,0,0,0,0,0,0,5.644,0,0,0,0,3.72,0,0,0,0,-28.398,0,0,0,0,0,0],
			[0,0,6.588,0,2.064,0,0,0,6.778,0,0,0,0,0,0,0,0,0,0,0,0,5.98,0,4.402,0,0,6.15,0,0,4.154,0,1.688,0,0,0,0,0,0,0,0,0,0,0,0,-24.352,0,0,0,0,0],
			[0,-0.752,0,0,0,0.694,0,0,0,0,0,0,0,0,0,0,0,0,0,0,-0.292,1.084,0,-0.732,-0.008,0,0,0,0,0,0,0,0,0,0,-0.088,0,0,-0.222,0,0,0,0,0,0,-0.176,0,0,0,0],
			[0,0,0,1.04,0,0,-1.834,0,0,0,0,0,0,0,0,0,0,0,0,0,0,0,0,0,0,0,0,0,0,0,0.38,-1.734,0,0,0,-0.44,0,0,0,0,0,0,1.762,0,0,0,-2.636,0,0,0],
			[0,2.754,0,3.972,0,0,1.028,0,0,1.722,0,0,0,0,0,0,0,0,0,0,0,0,0,0,0,1.826,0,0,0,0,0,0,0,0,0,0.136,0.272,0,3.042,4.318,0,0,0,0,0,0,0,-13.444,0,0],
			[0,0,0,0,0,0,0.31,0,0,0,0,0,0,0,0,0,0,0,0,0,0,0,0,2.478,0,0,0,0,0,2.196,0,-0.214,0,0,6.81,0,0,0,0,0,0,0,0,4.926,0,0,0,0,-11.988,0],
			[0,3.294,0,0,0,0,0,0.236,0,0,0,0,0,0,0,0,0,0,0,0,0,0,0,3.794,0,0,5.636,0,2.562,0,0,0,0,0,7.77,0,0,0,0,0,0,0,0,0,0,0,0,0,4.716,-17.926]
		],
		"G": [
			[0.02689198527,0.01605896867,0.007576291484,0.007098072018,0.02189663336,0.007344290418,0.008696034425,0.02706668436,-0.000504037479,-0.01377940387,-2.33981021e-17,-2.106942681e-16,5.349735487e-17,3.603553625e-17,-2.473197347e-18,2.167574265e-16,2.180526814e-16,2.90550806e-18,-6.521056648e-18,-2.162044397e-16,-0.000960393915,-0.0009442313247,-0.0005513109457,0.0009173408621,-0.007771721939,0.0001416990488,0.007570957215,-0.002068155439,0.0009302822863,-0.005098628065,0.002199620358,-0.03150981259,-0.0003951267001,0.0003054119604,-0.0008569719612,0.01248096064,0.03520545374,0.006003219148,-0.001148184791,-0.0007437572176,0.002734181034,-0.00186036153,-0.0008088977104,3.6783397e-05,-0.0001402909836,-0.002462104564,0.0006315646812,-0.0003579145218,-0.00177959542,-0.001711793599],
			[-4.530768816e-05,0.1162703767,0.001337616676,0.009233417191,-0.01026684972,0.0009663704328,-0.002849798739,-0.0102520687,-0.0007327674533,0.00107849457,2.12805935e-17,2.155563977e-15,7.60946044e-15,2.555667627e-17,2.812786368e-17,-4.537421828e-16,-1.660971388e-15,-1.632811431e-17,2.024089393e-15,2.009561601e-15,0.006492542183,0.0001195042064,0.001304236244,0.004553668504,-0.04163338215,0.0004380337214,4.965209341e-06,0.0004340589012,0.005988918719,0.0009837893915,0.0008922688365,-0.00794902851,8.573801781e-05,0.001176495816,0.0003025862296,-0.02502881803,-0.003024981509,-0.0006152909316,-4.399507344e-05,0.0009099507371,0.0002196443224,0.0004036773772,0.001004137057,-0.0003937273539,-0.0002039544102,0.005824600497,0.005270695923,4.529852989e-05,0.0002967015154,-9.618852923e-05],
			[-0.001307681412,0.005223472799,0.02883206371,-0.003566240367,0.03132527371,-0.002358000758,0.007819877526,0.05913563373,0.001421774903,-0.02238909174,5.444576001e-18,-3.242122526e-15,1.890750923e-15,1.034080935e-17,-2.264092932e-17,1.969145257e-16,3.517696705e-16,1.200349203e-17,8.408887177e-16,-1.722967804e-15,-0.02783052791,1.311426715e-05,-0.001958153452,-0.0004104620614,0.004128641578,-0.00211888667,-0.0008650421591,-0.0026496954,-0.005276279785,-0.007309692258,-0.005465560357,-0.01612132033,-0.0005705510497,-0.0006132862613,-0.001196738634,0.1319068258,0.03334392658,0.005889956184,-0.0009805306138,-0.001497033423,0.003078837335,-0.002686305996,-0.002089202915,0.0001371467072,0.0003957289048,-0.008744935303,-0.005356212977,4.971013493e-06,-0.002408995553,-0.001341228803],
			[-0.0006271689506,0.002925487176,0.00549890604,0.0482345928,-0.04867490657,0.001762178134,-0.008653321945,-0.05366130225,-0.001728109496,0.00995354306,-1.469345794e-17,2.712719733e-15,-9.722280846e-16,-5.332724325e-18,4.116028381e-17,-2.086805057e-15,-1.743957128e-16,-2.111183133e-17,-1.02853166e-15,3.359384131e-15,0.02715193817,-0.0004559913726,0.003727060391,0.003020989511,-0.02797621295,0.001446721961,-0.0001501492684,0.001508149687,0.02807320752,0.005762706823,0.004600897095,-0.04151981941,0.0003953837049,0.003005232514,0.0007710965114,-0.1224114134,-0.02284322346,-0.003849916455,-2.312759665e-05,0.001705684617,0.001072659077,0.001861571577,0.004159019491,-0.0007161709419,-0.0004809923687,0.01664471288,0.02349664037,-0.0001728452867,0.0008228948526,-0.0008040750954],
			[-0.01348223867,0.07212218908,0.02782941878,-0.03476482819,1.179637453,-0.02525146845,0.01327911789,0.07291761806,0.004505906779,-0.6592915569,-7.201299905e-17,-1.743682603e-14,1.894595226e-14,3.481044081e-16,-3.452299094e-16,1.663649881e-14,3.047502874e-14,-2.129342746e-17,1.777915651e-14,-1.955587619e-14,-0.1022525409,-0.01408901636,-0.04296699291,-0.01758169272,0.174970629,-0.01789953508,-0.006909609268,-0.01547049232,-0.05563111195,-0.0182900752,-0.01856300415,0.06323461276,-0.002382446348,-0.01205447164,-0.01956634546,0.4222012573,0.0198045049,0.001423466214,-0.02084656047,-0.0378555557,0.008444293405,-0.01121719067,-0.02217280484,-0.01004948548,0.001254148988,-0.1918866843,-0.08696752529,-0.005340495938,-0.05483677273,-0.003175504057],
			[0.006537409919,0.005623432639,0.004230258606,0.01189787664,-0.002158379751,0.04663858344,0.00898156127,-0.0336056479,0.003724159037,0.009395296284,-1.565283447e-17,3.15261751e-15,-2.359999666e-16,-9.071124424e-18,-2.703202869e-18,5.542861892e-16,1.143060465e-15,-1.096600398e-17,-4.049181047e-16,4.771427905e-16,0.03064673338,0.0002863744039,0.001600389345,0.002254463091,-0.02091704021,0.00129988751,0.002448062588,0.000496195162,0.006466897392,0.002577818157,0.00278056874,-0.02402420451,0.0001700729849,0.001325316564,0.0003001090475,-0.02317341954,0.008327825115,0.001380259885,0.0009550719018,0.001066219486,-0.0002750951483,0.0008007488186,0.001440600065,0.000616688924,0.001036561677,0.007147193323,0.006568257049,0.0001085513212,0.0006284173255,-0.0007335874537],
			[-0.01400110116,0.03450412106,0.0004740457547,0.00224583829,0.06270100463,-0.002482487281,0.3447868369,-0.007953811223,-0.002905104961,-0.01083251773,-1.799769851e-16,-6.733664635e-15,-1.822706053e-14,-2.824030682e-17,3.645625688e-17,-6.871386715e-15,1.502411786e-15,2.499134444e-17,-7.597845332e-15,-3.428893757e-15,-0.0007262339231,-0.003234438214,0.0004965970251,0.01753983305,-0.157716932,-0.005210454624,-0.008662867408,-0.006658844145,-0.02239422938,-0.0007324562319,-0.007088852704,-0.2953110075,-0.0006911093003,0.004959687452,-0.004055738798,0.005236709062,-0.001641713724,0.004301534566,0.01631622554,0.001541520302,0.001627987592,-0.003253926284,-0.0006509601244,0.02020108785,-0.0008085907288,0.002217757169,-0.006529408449,-0.001226026267,-0.005804454462,-0.01411775599],
			[-0.007948135089,-0.07012417288,-0.05302782777,-0.08199880878,0.07034096963,-0.05036478554,-0.7230090525,2.353196015,-0.02785841266,-0.5589723176,3.689519161e-16,-6.772867251e-14,6.513123978e-15,8.426837343e-16,-1.001316521e-16,1.279071995e-14,-4.766820925e-14,4.694428177e-16,4.797976912e-14,4.953839307e-15,-0.1117406679,-0.01873622753,-0.05407289937,-0.08683265011,0.8075838202,-0.01932976486,-0.00536607543,-0.0398216878,-0.04161295465,-0.1866499894,-0.01319966695,0.7570711596,-0.01162951276,-0.04069558874,-0.01558369539,0.2667932723,-0.1422377172,-0.02497705061,-0.08280538387,-0.04969235083,0.0714136764,-0.05475483722,-0.05136277333,-0.05337229773,-0.007753955364,-0.2414846529,-0.107522836,-0.007102039235,-0.0421141611,0.02146020249],
			[0.002053720778,0.01075638226,0.005081775493,0.0006611570741,0.03486268408,0.001287159537,-0.05231714577,0.185307223,0.04244745654,0.002959764085,1.956017612e-17,-5.059151029e-15,4.165830615e-15,3.732068808e-17,-1.616551761e-17,1.138742201e-15,-5.057040836e-15,3.293370919e-17,8.309504016e-16,-2.658530387e-16,-0.003142081882,0.002598263029,0.0001440905275,-0.001168435392,0.009375969984,0.002632276624,0.004794076276,-0.001078132136,0.004456189267,-0.01048818525,0.001706480365,0.05311523141,-0.0004998184955,-0.0006540063903,0.000590516428,0.01814953482,0.01546368644,0.002360734347,-0.003290270218,-7.445314587e-05,0.003889254023,-0.00235327833,-0.00132784865,-0.002733498866,0.01181458855,0.0006434951968,0.001492963846,0.0009848816124,0.001010430239,0.002137833286],
			[0.008927101413,-0.05037030038,0.02014788599,0.02273230506,-0.01877834139,0.01685459383,0.0008491667553,0.02856920764,-0.001529959851,0.4978852316,-1.073526364e-16,-1.08394248e-14,-9.869056239e-15,-6.600515749e-17,3.03738793e-18,-6.212204739e-15,-4.592152878e-15,-1.539038937e-17,-1.761207731e-14,-6.348472098e-15,0.04126415195,0.01136538008,0.03171129522,0.01355282271,-0.1348112374,0.0112869681,0.004287481516,0.008547306265,0.03701192672,0.003939293577,0.006881220444,-0.07472023002,0.001076413297,0.008802307708,0.01399045516,-0.1452942998,0.03327041599,0.00754786961,0.01534057077,0.0282756672,-0.002255580817,0.005068039916,0.01477209022,0.008295391592,-0.0004258405005,0.1416197616,0.06212945554,0.00430809111,0.04060465363,0.0005774681846],
			[2.711103237e-17,8.193289308e-17,3.790669015e-17,3.05766384e-17,4.176945989e-16,2.379156002e-17,3.164308612e-16,-3.525384798e-16,7.339278472e-17,-1.882111699e-16,0.0635970491,-7.513263541e-15,-6.272546533e-16,2.435495754e-17,-2.391826393e-17,-1.149772926e-15,-6.196913948e-15,-5.228383078e-18,-1.228027711e-15,-7.186278939e-15,-9.541673396e-17,2.051823555e-18,-2.957372013e-18,2.162533159e-17,1.078586408e-15,2.50934334e-16,-1.098898976e-17,2.05004165e-17,-1.070571609e-16,-5.876681666e-18,-4.463072922e-17,-3.240232456e-16,-1.154998853e-17,5.985698331e-18,-1.54020666e-17,1.881423905e-16,3.824132476e-16,1.844084962e-17,5.278641259e-17,-9.758985858e-19,7.903064844e-17,3.205939978e-17,-1.924614481e-17,4.167604337e-17,1.298862632e-17,-2.411517775e-16,-1.522067162e-16,1.800713447e-17,-2.940102356e-17,-1.943006079e-17],
			[-4.62709805e-16,-2.020529991e-15,-3.221551691e-15,-3.883616009e-16,-1.149951246e-14,-2.364505002e-15,-2.428503301e-14,7.762032629e-14,-1.189723664e-15,-1.176735174e-14,-3.563706906e-15,10,-1.904032487e-13,-4.957470217e-15,2.077447687e-16,1.199040867e-14,-3.923528169e-13,-3.392256218e-15,-5.728750807e-14,1.656452753e-13,-5.019242343e-15,-1.806486098e-15,-1.486961914e-15,-2.477634341e-15,3.432323356e-15,-9.555795443e-15,4.173309171e-16,6.789545816e-16,-2.493483659e-15,-6.799956604e-15,-3.838334354e-15,2.304388169e-14,3.103235577e-15,-4.563966632e-16,1.991968719e-16,2.617290062e-14,1.338421808e-14,-1.809954663e-15,-2.242404697e-15,-1.719021151e-15,2.408173592e-15,-2.03896039e-15,-2.521343077e-15,-4.523197558e-16,-1.51551032e-15,9.37583861e-16,-1.310693052e-15,8.591005469e-16,-1.083704975e-15,8.663472822e-17],
			[-3.984432515e-16,2.842296078e-15,-2.269473851e-16,-4.353798324e-16,1.45408382e-14,-1.476089773e-15,7.372614074e-16,-9.445381554e-15,-2.357810532e-15,2.692332209e-14,-2.981607054e-17,-7.349676423e-14,10,-3.555834233e-15,1.088010924e-15,-1.638689184e-13,-2.128297538e-13,-1.418698813e-15,2.803868249e-13,2.263189636e-13,1.173403348e-14,-1.022148506e-15,5.563756814e-16,1.220294444e-15,1.752963023e-14,-2.415697804e-14,-2.968193896e-15,8.735805555e-16,-9.506391185e-16,1.064604355e-15,-4.247027921e-15,-6.782386068e-15,-1.170762005e-15,-1.518111749e-15,-3.619945377e-16,-4.688455811e-15,-1.311699293e-14,2.640592447e-17,2.042781373e-15,1.179370057e-15,-5.210150873e-15,1.274402801e-17,1.229043963e-15,-2.884267455e-16,-2.312969947e-15,2.431400293e-15,5.089523829e-15,5.400282206e-16,1.766856139e-15,-3.968108227e-16],
			[-2.580399384e-18,1.924359699e-16,-5.890809597e-18,-3.859564886e-17,2.861814364e-16,-7.077841617e-17,1.283251104e-16,-1.626290819e-17,1.500507233e-18,-2.046221143e-16,3.626160939e-18,5.973193702e-17,2.704665417e-15,0.06935774726,-1.333406893e-17,-8.444346303e-17,2.538968115e-15,-1.08972301e-18,1.505876538e-15,4.536542495e-16,-1.544057114e-16,-3.517937002e-17,-2.70391699e-17,2.91334164e-17,1.797701161e-16,-1.702495973e-16,-1.275748356e-17,-2.161727363e-17,-1.083491828e-16,1.111645094e-17,-7.772938435e-17,-3.426134904e-16,-1.021064798e-18,1.373936557e-17,-1.698669395e-17,9.226649459e-16,-1.54395751e-17,1.873851197e-17,6.196744546e-17,-2.964864113e-18,4.353222319e-16,-4.636796811e-17,-4.291337841e-18,-8.405110312e-19,-2.052344069e-17,-1.21397288e-15,-1.148068538e-17,-8.988247133e-18,-3.114187905e-17,1.800846934e-18],
			[-6.75206553e-17,1.079254124e-17,-6.569425302e-17,-3.449354201e-17,-2.711174732e-16,-4.519078989e-17,5.198242318e-16,-9.966216795e-16,-6.155150221e-17,3.926861441e-17,-1.779872421e-17,-4.367503103e-15,-2.863523249e-16,6.008126522e-19,0.05469262743,1.297861211e-15,2.972469482e-15,-6.249367704e-18,9.011317922e-17,2.554140478e-16,-9.558908801e-17,-1.463861247e-17,1.823123068e-17,1.128417966e-20,-1.963686584e-15,2.283978509e-16,-3.290228172e-17,-4.837308524e-17,-3.426233998e-17,1.263126249e-17,-9.911726041e-17,-1.027410497e-15,-1.006133571e-17,-1.239774085e-17,-9.662445108e-18,-3.382548149e-16,6.926654078e-16,-7.378548399e-17,-5.553850965e-17,-1.080248419e-17,1.333128381e-16,-6.13071144e-17,1.396818208e-18,-1.19186388e-17,-2.671979156e-17,5.46467327e-16,-3.043992182e-17,1.650408731e-17,-3.236898096e-17,-4.668031788e-17],
			[2.210834611e-15,9.497627073e-16,2.994443566e-15,5.636888917e-15,-2.168335053e-15,4.345018326e-15,8.172675874e-15,-5.040740354e-14,2.096632786e-15,2.403993889e-14,3.754830225e-15,-4.649614027e-13,-3.419486916e-13,5.440330218e-15,1.923338507e-15,10,-1.243449788e-14,-1.044186313e-15,1.347810752e-13,-3.348432642e-13,1.341682527e-14,4.88093352e-16,1.916187288e-15,1.538750104e-15,-1.273950864e-15,1.207901471e-14,-8.118255553e-16,1.575136181e-15,-2.762592249e-15,7.931712825e-15,5.849932825e-15,-8.630470062e-15,3.201187584e-15,9.853810219e-16,-1.606084818e-16,-4.461937136e-14,-5.104567149e-15,2.672508577e-15,5.358309636e-15,2.760496965e-15,1.146968954e-14,5.749038163e-16,5.177440827e-15,4.77650867e-16,2.121818187e-15,-6.133020807e-15,9.312361991e-15,9.390579116e-16,1.336637955e-15,-2.32325931e-15],
			[3.018313976e-15,-1.90733614e-15,2.44031441e-15,2.922509235e-15,-2.019937764e-14,2.530339504e-15,-1.821234005e-14,4.083037301e-14,3.607951908e-15,-1.590388086e-15,1.80573096e-15,-2.575717417e-14,-2.059463711e-13,-3.357518714e-15,-2.878415607e-16,4.929390229e-14,10,8.976595849e-17,-2.869926519e-13,1.182387521e-13,9.514043196e-15,3.334581368e-15,8.398164348e-16,2.033116004e-17,6.058916985e-14,-6.423608932e-15,-2.955885305e-16,2.924302327e-15,2.294395091e-14,2.025449759e-15,-6.731213879e-16,3.809622929e-14,-7.672948852e-16,2.891714402e-15,1.242513218e-15,2.103847832e-14,-3.835850733e-14,3.247034924e-15,2.615938987e-15,3.9837896e-16,-3.251467504e-15,-8.12492074e-16,1.452623236e-15,1.874697919e-15,2.343344634e-15,4.539767107e-15,2.48727721e-15,2.791671637e-16,1.63400601e-15,2.717383862e-15],
			[2.837987939e-18,6.959280493e-17,8.170488754e-18,1.4124183e-17,3.975444529e-17,-3.017338866e-17,-1.247843728e-16,4.947103604e-17,1.449514095e-17,7.933129654e-17,1.440259292e-18,2.140156952e-15,4.766350401e-15,6.668922372e-18,1.66067066e-17,-1.587124469e-15,7.764734464e-16,0.05142974697,6.380333186e-16,4.249904039e-15,2.171377097e-16,-2.765461016e-17,-4.459466957e-18,1.996088494e-17,3.372183185e-16,-1.456339014e-16,1.813522332e-18,1.422962222e-17,1.808478103e-18,5.674730959e-17,6.724503278e-17,1.863788004e-16,-1.66230219e-17,-6.536486911e-18,1.255173453e-18,-4.041862427e-16,-8.176610174e-16,2.418534194e-17,4.436869278e-17,2.42559895e-18,2.360833774e-16,-1.127118415e-18,4.402963119e-18,-2.901143722e-18,7.125252112e-18,-1.109699269e-15,1.82825175e-18,-1.575573622e-17,1.370274691e-17,1.171909461e-17],
			[3.206475805e-15,3.453787121e-15,3.237627212e-15,2.694741113e-15,2.192885396e-14,2.621510884e-15,1.571654058e-14,-3.333128653e-14,5.828519756e-15,1.288990632e-14,-2.164333286e-15,6.117328866e-14,-4.829470157e-15,-2.338202523e-15,-1.276722427e-16,1.407762795e-13,1.121325255e-13,1.779756057e-15,10,-1.514899317e-13,1.100684995e-14,1.056443191e-15,5.560566957e-16,2.679818092e-15,1.032234173e-13,1.037090959e-15,3.931382629e-17,2.763588342e-16,-9.700111843e-15,1.99166869e-15,-6.495260009e-16,-2.249875612e-14,8.721677546e-17,9.880467366e-16,7.976110888e-17,-1.821678666e-14,1.209848694e-14,1.906412012e-15,-6.246056634e-16,2.151423632e-15,6.101486958e-15,-1.165725362e-15,1.630244083e-15,4.489000169e-15,1.571057227e-15,1.312249783e-15,4.41937837e-15,-1.231412291e-15,1.973200739e-15,-1.059522137e-15],
			[-2.84616738e-15,-1.666642305e-15,-3.999773267e-15,-6.164922876e-15,4.422959175e-15,-3.854485239e-15,1.520162697e-14,1.512402266e-14,-4.374155566e-15,-1.581103967e-14,-2.170792601e-15,4.984901381e-14,1.857958232e-13,2.709640341e-16,-1.341054229e-16,1.822986206e-13,-7.860379014e-14,3.811010264e-15,4.440892099e-14,10,-1.633018128e-14,-1.530564759e-15,-1.849136303e-15,-2.669444123e-15,-7.459615661e-14,1.008416179e-14,-4.089977813e-15,-1.885116607e-15,-1.362088147e-14,-1.265275682e-15,-8.278800895e-15,-2.078699279e-14,1.275992413e-15,-1.468504913e-15,-1.375405285e-15,5.64460672e-15,2.320115788e-14,-7.807127794e-16,-6.521101386e-15,-1.712332215e-15,1.768358317e-14,-2.658392152e-15,-2.523414556e-15,-1.919370711e-15,-7.938298466e-16,-3.487992997e-15,-1.384976066e-14,-2.128614994e-16,-3.104097594e-15,-2.704455983e-15],
			[0.01036593689,0.003307022004,0.01953778777,0.03432090698,-0.02393033199,0.0169319939,-0.04156955576,-0.3801264632,0.05076196446,0.1383404297,5.629553466e-17,7.96881347e-15,8.283286199e-15,-1.882278036e-16,1.744722539e-17,-3.990826597e-15,4.401835537e-15,-4.635551476e-17,2.588630128e-15,7.161721831e-15,0.3233216982,0.008274414227,0.01383283019,0.01191039972,-0.114737941,0.01478607528,0.01214630508,0.01176420569,0.03315997878,0.03517241053,0.02187448784,-0.004288202208,0.002721396622,0.007598269138,0.006280017921,-0.09238998137,0.04435954317,0.005119758365,0.008104314216,0.01120263223,-0.0136357114,0.01281305865,0.01230407509,0.0003680750537,0.01412880236,0.06177616211,0.03711155779,0.003136448594,0.01345832528,0.003215802459],
			[0.0002528380328,0.01164296776,0.01036420804,0.01232734901,0.02390534916,0.008073264629,0.02003182861,0.00439739422,0.0047809192,-0.01757086926,-2.282588101e-17,-8.28631705e-16,-1.572963383e-15,5.342885014e-18,9.444523267e-18,-2.592486869e-15,-4.592990196e-16,-1.192525281e-17,-2.458622273e-15,-4.831242176e-17,0.01242941843,0.02803079217,0.002329739242,0.008262874836,-0.08829994127,0.02040196406,0.0003508832654,-0.0008957059784,0.005424564798,-0.003449491904,-0.002118491907,-0.04576308109,5.658339567e-05,0.003676196672,-0.0001311182421,0.04408337694,0.03727445592,0.007069734336,0.01031836624,0.003105436679,0.0003382666534,0.0002664096668,0.0007555073594,0.005966605452,0.001330694413,0.01040440366,0.006624713365,0.01062517978,-0.0009974478891,-0.001949857188],
			[0.005417158484,0.009832889439,0.01440391686,0.01989314489,-0.01070602096,0.01456465613,0.007946181875,-0.01210119698,-0.002425752485,-0.003062199864,-7.77957852e-17,7.085196177e-16,-1.454408354e-15,5.250652218e-17,4.382255299e-17,-2.525121529e-15,1.148253368e-15,-2.443564582e-17,-2.243604535e-15,2.554171386e-15,0.03280523586,0.01082892052,0.0389512467,0.009275891451,-0.09729236607,0.01056089333,0.003011961711,0.009603786096,0.01745009959,-0.001074292296,0.006060095158,-0.07344413252,0.0009491362932,0.004563368689,0.008219985456,-0.1291410149,0.02439473193,0.001182898076,-0.002533803256,0.005349824278,-0.003982928813,0.004468785951,0.01508948886,0.002128740072,-0.0006751704313,0.1739527267,0.05480484142,0.004104744047,0.001645306957,0.0007258684837],
			[0.0006827931865,0.00351121,0.004298059921,0.01036210307,-0.02083736275,0.007258307607,-0.01491011822,-0.01130732486,-0.004767430241,-0.006905242559,-3.228198022e-17,9.182688941e-16,1.079558114e-15,7.841939967e-18,3.982443321e-17,-6.275664235e-16,-6.399843863e-16,-9.538760396e-17,-1.293310903e-14,2.764154137e-15,0.01999534897,0.002163712877,0.007261904646,0.044127076,-0.4027774638,0.002072633607,0.000336402468,0.001913751854,0.0127564156,-6.732833789e-05,0.001114517404,-0.008930547552,0.00019486333,0.007220985829,0.001860619081,-0.04375181656,0.009833745817,0.0005038202481,-0.0004377164929,0.00674739214,0.0003869222396,0.0009174683527,0.003168199729,-0.002960611083,-0.001326939971,0.03243100598,0.01349970607,0.0008201637027,0.001698940638,0.0004586852295],
			[0.1418371856,0.1540332733,0.1165728987,0.1134930033,0.443457505,0.0967870398,-0.06719837316,0.5106368413,0.2133139034,0.0477815999,4.506838091e-16,-3.007058444e-14,-8.13063408e-16,1.734165917e-16,-6.816831962e-16,1.064799667e-14,-2.117551138e-14,1.483783659e-15,1.577732935e-13,-2.842114706e-14,0.06883537641,0.03937765054,0.01419468019,0.052898278,5.38148389,0.04272808231,0.06227445783,-0.004018398818,0.06282105045,-0.03028713586,0.03314082708,-0.07149576466,-0.001040030506,0.04838365617,0.003462810441,0.110789724,0.2151370666,0.06155045207,0.1106262807,0.01438148437,0.01512444975,-0.004896740065,0.005777218435,0.1318290688,0.05937260338,0.06339215129,0.06493987041,0.01492625016,0.006575804272,-0.001769210593],
			[-0.004515966091,0.06442682157,0.01501152488,0.009956386832,0.1809108111,0.0229556843,0.3005460812,-0.571908037,0.1047179408,-0.6502139604,-3.257552331e-16,2.865109311e-14,1.845337904e-14,1.945871876e-16,8.958120684e-17,-2.034835024e-14,3.115482693e-14,5.760600522e-17,1.226833043e-14,1.597125024e-14,-0.1965994228,0.0123649408,0.03765488211,0.02636222433,-0.2527077738,1.099073809,0.01017455772,0.01490472059,-0.02678406043,-0.01943082625,-0.01124989196,-0.3074267872,0.0156235289,0.01961728809,-0.002629025789,-0.00588403462,0.3100410722,-0.007354164369,-0.1089719721,-0.02222903283,-0.1067979274,0.07355972685,0.00918282159,0.01130874355,0.0291466082,0.1681632803,0.02614220709,0.004686978454,-0.05315625196,-0.01195763753],
			[0.00184363454,0.001771173931,0.0122367184,0.009511031135,0.007567041926,0.01757546312,0.02551508918,-0.004793000069,0.002270679029,0.02872156721,-5.688320709e-17,1.73469526e-15,-1.510201929e-15,4.454602487e-17,5.332251645e-18,1.302380487e-15,2.674635145e-15,-8.89883728e-18,-1.12527581e-15,-1.374409274e-16,0.01238001104,0.0006854406781,0.003387057751,0.003134469675,-0.02945780558,0.01523101421,0.05089023519,8.452662976e-05,0.004744289189,-0.0007324783171,0.03777167871,-0.04136193227,0.0001862601176,0.001728791455,0.0007141535822,-0.01842106472,0.01695714531,0.002503658788,0.0004927156485,0.002108206963,-0.0006083028106,0.0008769621418,0.001535051028,0.001943219991,0.0006320081496,0.015126292,0.007847871618,0.0002598189301,0.001867990945,-0.001525585216],
			[0.001393586551,0.02129877761,0.01851168502,0.01228195572,0.0004424087769,0.01080735879,0.01930580956,0.01689419053,0.001520733456,0.03739530813,3.604042526e-18,-2.707536917e-15,-3.216331448e-15,-6.122622968e-17,-6.106592323e-18,-4.221674329e-15,-5.630029974e-15,1.501385209e-17,-5.202890134e-15,9.684432138e-17,0.009804711421,0.01080773174,0.006282051545,0.01576849018,-0.1493085617,0.009022146434,0.002647726724,0.06630254323,0.006806882505,-0.005422401089,0.002150688416,-0.04190906195,0.00575738859,0.008929006804,0.002447066907,0.02034608664,0.06986066452,0.002819703335,0.00461572674,0.005352421384,-0.03716593358,0.02710731581,0.002280264928,0.002954304747,0.0004232724772,0.02805507111,0.01475763799,0.004096712357,0.003443762543,-0.001344379508],
			[0.02721690056,0.0001705232281,0.002214751926,0.04309421061,-0.727885939,0.02511302545,-0.1953459398,-0.0678543383,0.005823725437,-0.1360788073,2.190129573e-16,2.253259754e-14,5.54424874e-15,9.13530953e-17,3.998134438e-16,-1.104622156e-14,-8.725189608e-15,-1.284205473e-16,3.974643117e-15,3.070519114e-14,0.1093945957,0.02477643055,0.05107237467,0.0001090518478,-0.02309056583,0.02186000469,0.01148919566,0.01740973556,0.6872865738,0.003494279846,0.00795219106,0.06396292777,0.00198662444,0.06490156125,0.01123514906,-0.2501686568,0.008400923885,0.004582956806,-0.01340818423,0.0007152331116,0.0771169817,0.009353555914,0.02125450157,-0.009385012533,0.001620943291,0.2280845823,0.07929416419,0.009391601462,-0.005067258341,0.008923354607],
			[0.01599697624,0.02165826572,0.01733724965,0.02921201751,-0.1003359646,0.02099224024,-0.0206815367,0.06563841515,0.01874300251,0.06021609646,-3.013549408e-17,1.722072372e-15,-2.824845238e-15,3.268584112e-17,5.45226769e-17,-1.079034708e-15,-6.536551882e-15,-2.698882609e-17,-4.59504278e-15,5.004714999e-15,0.03912114204,0.007973930718,0.01215333916,0.01854880759,-0.1744613739,0.01061485018,0.01074297724,0.02440011792,0.0295352156,0.09685987454,0.0117494334,-0.01809684662,0.006373217966,0.01126390588,0.005976174347,-0.07438622429,0.0601320977,0.004396758407,0.01697156695,0.01033845014,-0.03825240384,0.0300068042,0.02042041432,0.0004979629999,0.005216822889,0.05427570785,0.03333859084,0.003022549162,0.008793328007,0.004818907233],
			[0.006866938172,0.01776270486,0.01992229681,0.04675521515,-0.02577687282,0.04967185717,0.09157672288,-0.4155447297,0.01263364775,0.01496704313,-1.775975689e-16,2.051345234e-14,-2.332363232e-15,1.549385893e-17,4.921733463e-17,1.545886472e-16,1.800345307e-14,-1.030376911e-16,-4.848141271e-15,4.375905154e-15,0.07399002212,0.001627563334,0.01211506053,0.01453817329,-0.1351626542,0.09392009892,0.04182878478,0.007707733744,0.02412235379,0.02766039567,0.2379675524,-0.1412371081,0.003135967677,0.008741594211,0.002213008552,-0.2544534228,0.04246289704,0.001825755158,-8.501811647e-05,0.005036308348,-0.01756303175,0.01476496937,0.01030872913,0.005619383082,0.003516379126,0.05410475894,0.0323772857,0.0006169341527,0.0009369728278,-0.00380169153],
			[0.04620837224,-0.08122970668,0.01252189935,-0.02474148603,0.2931698285,-0.0008170076452,-0.2302592799,0.6081921341,-0.00844242178,-0.2952183682,3.209317242e-16,-4.058776807e-14,-3.528797935e-15,-3.729106181e-18,-2.238216306e-16,8.194496804e-15,-1.325712895e-14,2.983211783e-16,1.987920147e-14,-1.093745601e-14,-0.0850492781,0.01035793803,-0.02380530966,-0.06207381107,0.5632964488,-0.007302468477,0.02476317228,-0.007132661954,0.03104741145,-0.08919475817,-0.03888687413,0.9371992784,-0.004479107794,-0.006736907131,0.000613840905,0.2545205423,0.5371170035,0.08780193806,-0.02500081811,-0.02549450144,0.03368650228,-0.02108883005,-0.02161699641,-0.01146822931,-0.00234981664,-0.1063123488,-0.0276832966,0.003926216321,-0.01144533051,0.03822481019],
			[0.00348203597,0.01277781584,0.007179114318,0.0286259319,-0.1685574529,0.01705837166,-0.04628401306,0.2137234559,0.02479654745,0.1394304887,-1.097192978e-16,2.992089806e-15,-1.712929645e-15,1.896116713e-16,1.089658956e-16,-2.683619832e-17,-9.896318122e-15,-1.134609707e-17,-5.772070566e-15,5.83381681e-15,0.0484715214,0.006907853474,0.007544175213,0.01150556967,-0.1091172577,0.01738297162,0.03131304372,0.001514454989,-0.03891875808,-0.004527998879,0.03119873354,0.00356216303,0.1722998201,-0.001823869905,0.03036240247,-0.1949004505,0.01028492858,0.0008838318133,0.002565433038,0.01041077594,-0.006318831957,0.0008605791988,0.009192437127,-0.0002117101383,0.006901732861,0.03369160067,0.07800906897,0.002618448475,0.01310385906,0.002721852439],
			[0.009705746869,0.01000470088,0.01745884929,0.01847106584,0.01268824457,0.007420773868,0.002342496558,-0.01420672077,0.004737213631,-0.003417152403,-2.096249075e-17,-1.149633591e-15,2.16143613e-15,2.822641109e-17,8.796836697e-18,-2.615210279e-15,5.175490686e-16,-3.900249894e-18,-1.181292587e-15,6.891657596e-16,0.0360241414,0.00898135064,0.009469312974,0.004421284141,-0.04621457778,0.006494939218,0.004046842792,0.001081813347,0.01131450897,-0.003665304138,-0.0007867651051,-0.03560686427,3.097545887e-05,0.04740831531,0.001740980617,-0.002532251748,0.07204148375,0.005741156736,0.001327475011,0.002069319055,0.001280977375,0.0001458406937,0.003677648792,0.001571047764,0.001318529648,0.0422890909,0.01822486845,0.003404415565,0.0001226553299,-0.0006587479744],
			[0.0001623812841,0.0178901641,0.0003861478232,0.005115377197,-0.004681233401,0.001743617302,-0.03941554881,0.1190073355,-0.002970733219,-0.0369108586,-2.699168588e-17,-5.410238273e-16,-2.971704231e-17,8.602032538e-17,2.182866088e-17,-3.098910513e-16,-1.69327995e-15,1.451025314e-18,1.924768767e-15,2.026427883e-15,0.02316729701,0.003986371317,-0.0006324815428,-0.00102166342,0.007570969828,0.0052892768,0.001196140195,-0.001754849074,0.006783792871,-0.01000875872,0.005829277465,0.02428947849,-0.0005029351899,-0.0004546528952,0.02711210061,-0.09822576484,-0.003671283472,-0.0006004263788,-0.002659836922,-0.0005572617139,0.004215502146,-0.002367952555,0.004096303346,-0.002080377473,-0.0008268573325,-0.002824605072,0.05571633052,0.001511049407,-0.001646734697,0.002284307122],
			[-0.01146664272,0.0876569134,0.01298113246,-0.03006770279,0.2347083876,-0.003537930215,0.147149785,0.9282514661,0.1020463852,-0.1314424095,5.727746936e-16,5.816722437e-15,1.583061387e-14,2.797046904e-16,-6.611531181e-16,1.402652144e-14,2.752332691e-15,2.805179787e-17,2.483316001e-14,-5.034829387e-14,-0.7285480691,0.04063120013,-0.008624586779,0.01057743195,-0.1127735336,0.01435097557,-0.003255262447,-0.01966919287,-0.0341278496,-0.06971360815,-0.0421522146,-0.08381820955,-0.004470764871,-0.0006681131927,-0.006474230623,4.118804066,0.07674068097,0.01890333685,0.01085409846,-0.003916506421,0.02507298298,-0.02104954935,-0.01542210052,0.01464324533,0.0284030223,-0.0385166205,-0.03137649611,0.01540141296,-0.01286831876,-0.008240113012],
			[-0.01914107499,0.1084600978,-0.04547188407,-0.07069070719,-0.05746985909,-0.07456565255,0.3601029798,-0.1016712851,-0.08152460106,0.1664015606,-1.073454386e-15,4.037163301e-14,-4.239015395e-15,9.959315867e-16,4.581383537e-17,1.292804508e-14,-1.294006141e-15,1.787629554e-17,-3.171986754e-14,-7.513687534e-15,-0.2703792531,-0.038828272,-0.01007617919,0.03024842628,-0.2544380806,-0.132499997,-0.02573652328,-0.07954862758,-0.155342987,-0.1749713444,-0.2646907811,-1.352909849,-0.01620773882,0.006321705589,-0.02335638813,0.2361631243,2.448940814,-0.1192761902,-0.01005517472,0.0004317476187,0.08674422994,-0.07631034241,-0.03624996993,0.01160285717,-0.02269110323,-0.04499930024,-0.08271632161,-0.01471800611,-0.01821022981,-0.07391981383],
			[-0.004430575685,0.01235279332,-0.003611361397,-0.01223652995,0.1112383751,-0.01017785877,0.01645966006,0.148036568,-0.006622539903,-0.08414234994,-6.741987269e-17,-5.528142815e-15,-4.514956397e-16,1.159625945e-16,-2.807352969e-17,2.979691356e-15,2.317346068e-16,3.490131e-17,1.728145901e-15,-2.643864675e-15,-0.0324188137,-0.005129668498,-0.007725792012,-0.003201113821,0.03301325372,-0.01138444616,-0.003483825399,-0.009432758988,-0.01942674431,-0.02404873506,-0.01925525774,-0.06196958957,-0.002001059231,-0.002679321633,-0.004568008427,0.06863507931,0.1405114765,0.02413738426,-0.005806266278,-0.006248344837,0.01067720636,-0.009421518746,-0.00744847893,-0.001251762335,-0.001843280858,-0.03450268478,-0.02013843657,-0.001944420609,-0.009216206529,-0.004993846806],
			[-0.0001442964133,-0.008402696848,0.01992207173,0.005700218139,-0.136046899,0.007337629909,-0.03199925062,0.05499374387,0.006077117209,-0.03463349219,2.103538146e-16,-1.521080575e-15,-6.019986427e-17,-2.527031651e-16,3.148759661e-17,-8.567024395e-15,-1.041720187e-14,-2.922274507e-17,-1.789569994e-16,9.729798036e-16,0.002568713902,0.003404870584,-0.0007993894777,0.006336183751,-0.05886714849,0.01319343325,0.001493396593,0.007052326124,-0.01100273324,0.01519547419,0.02725311477,0.1384636301,0.001443492349,-0.002326451557,0.001746600065,0.03561334188,-0.2688916378,0.01572706406,0.2153423017,0.0002779318177,-0.01098714727,0.006796345663,0.002940191177,-0.001725031349,0.001691470944,-0.003570000736,0.009200976195,0.001290629314,0.0007368346425,0.007351466202],
			[0.008629329369,0.01354228995,0.01529151647,0.01505480194,-0.03383361457,0.004393791857,-0.0003027295669,0.01266060031,-0.002281437674,-0.04026487231,5.390902882e-18,-2.253534212e-15,-2.279559118e-15,1.111557962e-17,6.128982919e-17,-2.954257289e-15,-3.400644737e-15,-6.291026403e-18,-2.983105086e-15,3.296940895e-15,0.01725883828,0.00116400527,0.003439946053,0.005470654179,-0.05087906498,0.0006956411824,0.002380831344,-0.0001506170322,0.05280180178,-0.00083092213,-0.0004771149591,-0.04022483954,-3.865962279e-05,0.006724882679,0.002815567511,-0.07477904295,0.03492133301,0.01402172035,0.02690074473,0.05558738398,0.007189133056,-0.0001820197799,0.002243253489,0.002126143153,-0.000635002651,0.01536248635,0.01478192061,0.0004412206825,0.01308151711,-0.001275176385],
			[0.005331890605,0.1319252451,0.003327581731,-0.03568284909,0.6353569674,-0.05450174399,0.03119975975,1.084498025,0.04656091222,-0.4248704091,4.534135013e-16,-4.239899172e-14,-1.581675337e-14,-7.387191525e-17,-3.685537591e-16,2.102554965e-14,1.934234216e-14,-8.715637756e-17,4.023370876e-14,-8.629994095e-15,0.01653571171,0.02163228206,-0.04645632355,-0.08350455279,0.757273295,-0.0592059172,-0.07544606011,-0.0009331677016,-0.08265554851,0.07016408219,-0.1940647272,-0.3371117293,0.00205128507,-0.04145628495,-0.02087214188,0.5161980368,-2.213217545,0.1954435468,0.01894283972,-0.03094995534,2.500838551,0.009657995348,-0.01075593277,0.003779766828,0.01295950489,-0.2074697177,-0.09192502824,0.008199799865,-0.04387611197,-0.0188977501],
			[0.008059781372,0.007893448168,0.01869656916,0.02578673555,-0.06528646533,0.03378799399,0.003515625879,-0.05539640779,0.00492706108,0.07600663641,-6.678628593e-17,4.15727001e-15,1.006820131e-15,2.462861136e-17,4.588687579e-17,-4.79011082e-15,-6.430832965e-15,2.179875098e-17,-4.648062722e-15,2.209836976e-15,0.04029706943,0.00850045291,0.0125063281,0.01731397967,-0.1635765234,0.01425905195,0.01412360486,0.02872141749,0.0110040565,-0.008415547332,0.02008192457,-0.02089658477,0.02894385156,0.02894934068,0.00828499463,-0.07028327276,0.2218321506,-0.008945126833,0.002226443615,0.00778689057,-0.1898911154,0.1362753465,0.005622572704,0.002033875394,0.001371370729,0.05585212436,0.03660382221,0.003222129428,0.007400808021,0.0005758061671],
			[0.007448623007,0.0329967098,0.01304260082,0.02269956373,-0.04418283011,0.02270942865,-0.007399119477,-0.01925755599,0.003619992986,-0.008687310048,-5.981386826e-17,4.530113657e-15,1.841492621e-15,7.722077007e-17,7.437473655e-17,-1.757004819e-15,2.037131945e-15,-6.810719458e-17,-3.121907902e-15,5.143263108e-15,0.06721096125,0.006387996436,0.01634051276,0.01708871732,-0.1613698105,0.008348599748,0.008503104443,0.004498555986,0.05476601697,0.002087147048,0.00901447617,-0.03522471837,0.0006002459568,0.008888534156,0.008842258322,-0.104261943,0.02807809703,0.005650100336,0.006575367594,0.01665504662,0.003223514006,0.002826117511,0.06645378915,0.001511027142,0.001007568678,0.07297524446,0.03959126154,0.002421394662,0.01089643405,0.01679904933],
			[0.003095893744,0.005398271456,0.01398492454,0.01816974556,0.0517587183,0.01390077739,-0.0006537475882,-0.004130252302,0.002580228269,-0.004574293558,-2.104233894e-18,-3.696217491e-15,-7.477301323e-16,-3.538840663e-17,-1.043297944e-17,-1.979542131e-15,1.703306766e-16,-2.316032541e-17,-3.90318126e-15,-6.466383272e-16,0.02002746487,0.00822182444,0.004226583734,0.01060573218,-0.1008608567,0.007719251752,0.001484859315,0.001334096723,0.009167114214,0.001157235134,0.003833261551,-0.01309176992,0.0002727737208,0.01161703748,0.0009771375866,-0.003268009844,-0.010028684,0.005072357555,0.03066718782,0.002575490266,-0.0005994342365,0.001284291181,0.002545203013,0.03615977178,0.0007181663604,0.01887553872,0.01302120393,0.003116514233,0.0004895520381,8.922646702e-05],
			[0.005658053745,0.01252488092,0.02181092204,0.006842960922,0.125381167,0.008837540049,-0.02214171881,0.124935726,0.01607883026,-0.06961398683,-1.16183219e-17,-6.043974683e-15,1.611246101e-15,3.143490506e-17,-4.481727142e-17,1.614834592e-15,-5.03635582e-16,5.995288334e-18,-6.322000585e-16,-1.983859218e-15,-0.00649898302,0.009058387931,-0.0009681662478,0.007732224429,-0.07408855522,0.009178032262,0.01706285118,0.001486988342,0.007124204918,0.002848644754,0.005952070573,0.05436065716,0.0003774367995,0.002729437183,-0.0002713098096,0.07973911628,0.07770520811,0.01166673203,0.0007932499779,-0.001123183262,-0.001559580322,0.001777072776,0.000316743102,-0.0008647178897,0.04553968099,-0.004323742447,0.001412475767,0.003433616847,-0.003777716665,0.002653491945],
			[0.006959391974,-0.4632285,-0.01240979212,-0.01396452218,0.3430521241,0.1593338041,0.2717926747,0.0593640087,-0.08551320412,-0.1693464091,-6.809941567e-16,-5.106420792e-14,-7.026138848e-14,5.365229284e-16,-4.502180902e-17,-3.707448622e-14,4.112385949e-14,6.118971516e-16,2.328948547e-14,6.05930643e-17,-0.09201879488,0.1241354575,-0.03339038676,-0.1786493999,1.303136535,0.07000054061,-0.01284463206,-0.03177041355,-0.04666211775,-0.05629212071,-0.06162964254,-0.4278633516,-0.004210815097,-0.01872850695,-0.01819804059,-1.48703031,0.4518646906,0.008938180764,-0.2261999997,-0.02625223353,0.0217086462,-0.01982563672,-0.02380722793,0.04142769097,-0.02380126879,5.53269975,-0.07240549656,0.04705402347,-0.02912192404,-0.0268064482],
			[-0.01301984848,0.04056724151,0.00302592035,0.06067535968,-0.3281066301,0.02589083706,-0.1081384376,-0.6434351598,-0.005899585629,0.2239538198,-4.017449334e-16,4.133870748e-14,1.30554256e-14,2.533695425e-16,3.041129403e-16,6.114563713e-16,1.454799946e-14,-3.672478494e-16,-1.066341758e-14,2.030776799e-14,0.2443658761,-0.007020690502,0.03089313941,0.04157455212,-0.3803769008,0.02572400837,0.00193548049,0.01732119537,0.05201495114,0.0784760021,0.07969418814,-0.4573368042,0.005182816411,0.009479721084,0.01003240861,-1.013249715,-0.3491135528,-0.06138455712,0.007655954381,0.02888371829,-0.02743125632,0.02440207727,0.06479428327,-0.007417653954,-0.001642057794,0.1379659521,0.4477553517,-0.002661219786,0.02145865325,-0.003583142119],
			[0.001500591255,0.03514889162,0.01518500938,0.02496878648,-0.02996190408,0.007332631383,0.06559003361,-0.0687380435,0.01316950225,-0.04093991736,-5.879503608e-17,2.205048783e-15,3.372893463e-16,4.087313346e-17,7.569700372e-17,-1.029145802e-14,-5.387050121e-16,-1.99458783e-17,-3.716201648e-15,3.00852355e-15,-0.01883667719,0.00354736872,0.01121535235,0.01239285648,-0.1163951377,0.1515167545,0.001774318009,0.002883482071,0.0198928164,-0.001360302618,0.0005851747284,-0.09761178684,0.002282498972,0.007054728648,0.002176073044,-0.02981788098,0.03957493881,0.004873517773,0.04566821955,0.01929654378,-0.01247648924,0.01074661186,0.005020398399,0.004526390324,0.003665525881,0.05008674403,0.02386984325,0.075727268,0.001710855446,-0.003211981906],
			[0.003248963752,0.0194165555,0.009818974422,0.01836483609,-0.007690152493,0.0119986301,-0.01650356775,0.0645310262,0.001896191885,-0.008254413585,-1.049715612e-17,-3.696020977e-15,2.882647896e-15,-3.822939323e-17,2.577279217e-17,-3.146404155e-15,-3.62033125e-15,-1.785849679e-17,-8.178262483e-15,1.354155415e-15,0.03418906409,0.007282370174,0.005542623125,0.01785848586,-0.1664931346,0.008545102897,0.002661036644,0.004371731923,0.01453438507,0.0140923386,0.007780096975,-0.02110913747,0.001096216039,0.008319793282,0.01716653628,-0.08421995673,-0.002789172434,0.001196624848,0.01497715902,0.004525265399,-0.00533808511,0.005161276488,0.008137451133,0.01388299433,0.0005277754844,0.024752851,0.04622410639,0.002760410473,0.0846986414,0.001264430232],
			[0.005426182811,0.03462909263,0.00737171553,0.01900834337,-0.111073935,0.01407806991,-0.05452132416,0.0840590822,-0.0007529943278,-0.03721118674,-2.493020205e-17,4.936918534e-15,-6.906637309e-16,1.21025168e-16,1.039639516e-16,2.220961832e-16,9.667659852e-17,-7.130204851e-17,-2.528446997e-15,6.296058312e-15,0.04251736086,0.007633557146,0.01061297147,0.01428946566,-0.1353467414,0.01271830551,0.01886212292,0.00286481598,0.1097359103,-0.002652500737,0.01781164839,0.00772832325,0.0003167806396,0.01301977012,0.01834240679,-0.1166252836,0.00385980528,0.001161456423,-0.0001649648714,0.002655087498,0.01231565736,0.001491487452,0.007615543896,0.0006186486351,-0.0002095842458,0.04739656578,0.05252120913,0.002893529249,0.02129161658,0.05826528897]
		],
		"names": [
			"G01",
			"G02",
			"G03",
			"G04",
			"G05",
			"G06",
			"G07",
			"G08",
			"G09",
			"G10",
			"G11",
			"G12",
			"G13",
			"G14",
			"G15",
			"G16",
			"G17",
			"G18",
			"G19",
			"G20",
			"G21",
			"G22",
			"G23",
			"G24",
			"G25",
			"G26",
			"G27",
			"G28",
			"G29",
			"G30",
			"G31",
			"G32",
			"G33",
			"G34",
			"G35",
			"G36",
			"G37",
			"G38",
			"G39",
			"G40",
			"G41",
			"G42",
			"G43",
			"G44",
			"G45",
			"G46",
			"G47",
			"G48",
			"G49",
			"G50"
		],
		"description": "Stable smallworld_scalefree network, IAA=460.9036",
		"created": {
			"creator": "",
			"time": 736265.634,
			"id": "",
			"nodes": "",
			"type": "unknown",
			"sparsity": ""
		},
		"tol": 2.220446049e-16,
		"N": 50
	}
}
