{
	"obj_data": {
		"network": "Tjarnberg-D20150924-smallworld_scalefree-N50-L223-ID5254986",
		"A": [
			[-47.73788504,0,0,0,0,0,0,0,0,0,0,0,0,0,0,0,0,0,0,0,0,0,0,0,0,0,0,0,0,0,0,0,0,0,0,0,2.84524303,0,0,0,0,0,0,0,0,0,0,0,0,0],
			[0,-48.72543048,0,0,0,0,1.343844428,0,0,0,5.143680395,0,0,0,0,0,5.544259309,0,0,0,0,0,0,0,0,0,1.241897609,0,0,0,0,0,0,0,0,0,0,0,0,0,0,0,0,0,0,0,0,0,0,0],
			[4.889328232,2.478646389,-42.50152572,0,0.7486397693,0,0,0,0,0,0,0,0,0,0,0,0,0,2.984261419,0,9.414119354,0,0,0,0,0,0,0,1.857697584,0,5.608104791,0,0,0,0,0,0,-0.312019051,0,0,0,0,0,0,0,0,0,0,0,0.6199190386],
			[0,5.36302052,7.190854895,-10.09994341,0,0,0,0,0,0,0,0,0,0,0,0,0,0,0,7.799446509,0,0,0,0,0,0,0,0,0,0,0,0,0,0,0,0,0,0,0,0,0,0,0,5.184871029,7.428730805,0,0,0,0,0],
			[0,2.500271471,0,-2.484824984,-0.8722116707,0,0,0,1.371648105,0,0,0,0,0,0,0,0,0,0,0,3.377631971,2.586771802,0,0,0,0,-0.04736922887,0,0,0,0,0,0,0,0,0,0,0,0,0,0,0,0,0,0,0,0,0,0,0],
			[0,2.056442392,1.604375186,5.083953976,3.712305871,-50.06824515,0,0,0,0,0,0,0,0,0,0,0,0,0,0,0,0,0,0,0,0,0,0,0,0,0,0,0,0,0,0,0,0,0,0,0,0,0,0,0,0,0,0,0,0],
			[0,0,0,0,1.508606963,0,-48.73984721,0,0,0,0,0,0,0,0,0,0,0,0,0,0,0,0,0,0,0,0,0,0,0,0,0,0,0,0,0,0,0,3.114011915,0,0,0,0,0,0,0,0,0,0,0],
			[0,3.429120264,0,0,0,0,0,-2.55999789,3.903842318,0,0,0,0,0,0,0,0,0,0,0,0,0,0,0,0,0,0,0,0,0,0,0,0,0,0,0,0,0,0,0,0,0,0,0,0,0,0,0,0,0],
			[0,0.1606434718,0.7517290668,2.72373066,0,0,0.4520672059,0,-50.71081903,0,0,0,0,0,0,0,0,0,0,0,0,0,0,0,0,3.585644672,0,0,0,0,0,0,0,0,0,0,1.909185876,0,0,0,0,0,0,0,0,0,0,0,0,0],
			[3.210809904,1.982299251,0.7630564911,-1.959644403,-0.8948665192,0,0,0,0,-0.6518417798,0,0,0,0,0,0,2.65679588,0,0,0,0,0,0,0,0,0,0,0,0,0,0,0,0,0,0,0,0,0,0,0,0,0,0,0,0,0,0,0,0,0],
			[0,0,7.579076619,0,0,0,5.144710161,0,0,0,-30.64377201,0,0,0,0,0,0,8.218561208,0,0,0,0,0,0,0,0,0,0,0,0,0,0,0,0,0,0,0,0,0,0,7.504933478,0,0,0,0,0,0,0,0,0],
			[0,0,0,7.009616106,0,0,2.088365134,0,0,0,0,-46.50834462,0,0,0,0,0,0,0,0,0,0,0,0,0,0,0,0,0,0,0,0,0,0,0,0,0,0,0,1.488011646,0,0,0,0,0,0,0,0,0,0],
			[0,1.29853473,0,0,3.488846683,0,0,0,0,4.579368712,0,0,-47.17666265,0,0,0,0,0,0,0,0,0,0,0,0,0,0,7.56877896,0,0,0,0,0,0,0,0,0,0,0,0,0,0,0,0,0,0,0,0,0,0],
			[7.929197006,0,7.640862569,0,0,0,0,0,3.70509751,0,0,0,0,-21.41809981,0,0,0,0,0,0,0,0,0,0,0,0,0,0,0,0,0,0,0,0,0,0,0,0,0,0,0,0,0,0,0,0,0,0,0,0],
			[0,0.4242635281,0,0,0,0,0.870152139,0,0,0,0,2.692837684,0,0,-0.4294123573,0,0,0,0,0,0,0,0,0,0,0,0,0,0,0,0,0,-0.4232337623,0,0,0,0,0,0,0,0,0,0,0,0,0,0,0,0,0],
			[0,4.442409855,0,0,-0.05663712147,0,0,-0.9844561477,0,0,0,0,0,0,0,-1.015349123,0,0,0,0,0,0,0,0,0,0,0,0,0,0,0,0,0,0,0,0,0,0,0,0,0,0,5.727557629,0,0,0,0,0,0,0],
			[0,0,0,0,2.598099227,5.608104791,0,0,0,0,0,0,0,0,0,0,-24.94195853,0,0,0,0,0,0,0,0,0,0,0,0,0,0,0,0,0,0,0,0,0,0,0,0,0,0,0,0,0,0,0,0,0],
			[0,0,0,0,0.5272401126,0,0,0,0,0,0,0,0,0,0,0,0,-12.70937006,0,0,0,0,0,0,0,0,0,0,0,0,0,0,0,0,0,0,0,0,0,0,0,0,0,0,0,0,0,0,0,0],
			[0,0,2.984261419,4.99642388,0,0,0,0,0,0,7.297950543,0,0,0,0,0,0,7.916839816,-45.75764532,0,0,0,0,5.069537255,0,0,0,0,0,0,0,0,0,0,0,0,0,0,0,0,0,0,0,0,0,0,0,0,0,1.568333382],
			[0,0,0,0,0,0,0,0,1.077135074,0,0,7.231015763,0,0,0,0,0,0,0,-43.31092167,0,0,0,0,0,0,0,0,0,0,0,0,0,0,0,0,0,0,0,1.177022361,0,0,0,0,0,0,0,0,0,0],
			[0,4.813125559,0,0,0,0,0,0,0,0,0,0,0,0,0,0,0,0,0,0,-29.47704731,0,0,0,0,0,0,0,0,0,0,0,0,0,0,0,0,0,0,0,0,0,0,0,0,0,0,0,0,0],
			[0,0,0,0,0,0,0,0,0,0,0,0,0,8.255632779,1.835042736,0,0,0,0,0,0,-39.12595328,0,0,0,0,0,0,0,0,0,0,0,0,0,0,0,0,0,0,0,0,0,0,0,0,0,0,0,0],
			[0,0,0,6.77585926,0,6.251708445,0,0,0,0,0,0,0,0,0,0,0,0,7.313397031,0,0,0,-12.28922559,0,0,0,0,0,0,0,0,0,0,0,0,0,0,0,0,0,0,0,0,0,0,0,0,0,0,0],
			[0,0,0,0.6456631848,0,0,0,0,0,0,0,0,0,3.994461712,0,0,0,0,0,0,0,0,0,-1.776346082,0,0,0,0,0,0,0,0,0,0,0,0,0,0,0,0,0,0,0,0,0,0,0,0,0,0],
			[8.880700647,0,0,0,0,0,6.619334851,4.371356012,0,0,0,0,0,0,0,0,8.661360522,0,0,0,0,0,0,0,-19.99187411,0,0,0,0,0,0,0,0,0,0,0,0,0,0,0,0,0,0,0,0,0,0,0,0,0],
			[0,0,0,0,0,0,4.294123573,0,0,0,0,0,0,0,0,0,0,0,4.228218559,0,0,0,0,-1.506547431,0,-1.009170528,0,0,0,0,0,0,0,0,0,0,0,0,0,0,0,0,0,0,0,0,0,0,0,0],
			[0,0,0.5344484735,0,0,0,0,0,0,0,0,0,0,0,0,0,0,0,0,0,0,0,0,0,0,0,-0.09576822358,0,0,0,0,0,0,0,0,0,0,0,0,0,0,0,0,0,0,0,0,0,0,0],
			[0,0,7.281474289,0,0,0,0,0,3.646400857,0,0,0,0,0,0,0,0,0,0,0,0,0,0,0,0,0,0,-27.34028318,0,0,0,0,0,0,0,0,0,0,0,0,0,0,0,0,0,0,0,1.909185876,0,0],
			[0,0,1.857697584,0,0,0,0,0,0.2831856074,0,0,0,0,0,0,0,0,0,0,0,6.657436187,4.244694813,0,0,0,0,0,0,-49.07966994,0,0,0,0,0,0,0,0,0,0,0,0,0,0,7.804595339,0,0,0,0,0,0],
			[0,0,0,0,0,0,4.48566002,0,0,0,0,6.037517149,0,0,0,0,0,0,0,0,0,0,0,0,0,0,0,3.609329286,0,-1.811358121,0,0,0,0,0,0,0,0,0,0,0,0,0,0,0,0,0,0,0,0],
			[0,5.921153608,5.608104791,0,0,0,0,0,0,0,0,0,0,0,0,0,0,0,0,7.270146865,0,0,0,0,0,0,-0.6878835844,0,0,0,-5.968522837,0,0,0,0,0,0,0,0,0,0,0,0,0,0,0,0,0,0,0],
			[0,5.622521513,0,0,0,0,0,0,0,0.14622675,0,0,0,0,0,0,0,7.768553534,6.993139853,0,0,0,0,0,0,0,0,0,0,0,0,-8.873492286,0,0,0,0,0,0,0,0,0,0,0,0,0,0,0,0,0,0],
			[0,0,1.164665171,0,0,0,0,0,0,0,0,0,0,0,0,0,0,0,0,3.575347014,0,0,0,0,0,0,0,0,5.099400464,0,0,0,-0.5601926196,0,0,0,0,0,0,0,0,0,0,0,0,0,0,0,0,0],
			[0,0,1.597166825,-0.3707157042,0,0,0,0,0,0,2.61457548,0,0,0,0,0,0,0,0,0,0,0,0,0,0,0,0,2.567206251,0,0,0,0,0,-1.147159151,0,0,0,0,0,0,0,0,0,0,0,0,0,0,3.582555374,0],
			[0,0,0,0,0,0,0,0,2.367431677,0,0,0,0,0,0,0,0,0,0,0,0,0,0.5581330879,0,0,0,0,0,0,0,0,0.2934832658,0,-0.2976023292,-0.2080127007,0,0,0,0,0,0,0,0,0,0,0,0,0,0,0],
			[0,0,0,0,0,0,4.976858329,0,0,2.627962436,0,0,0,8.76330734,0,0,0,0,0,0,0,8.281376925,0,0,0,0,0,0,0,0,0,0,0,0,0,-28.63675838,0,0,0,0,0,0,0,0,0,0,0,0,0,0],
			[2.84524303,0,0,0,0,0,0,0,0,0,0,0,0,-0.8608842464,0,0,0,-0.1699113644,0,0,0,0,0,0,0,0,0,0,0,0,0,0,0,0,0,0,-0.6858240527,0,0,0,0,0,0,0,0,0,0,0,0,0],
			[0,0,0,0,0,0,0,0,0,0,0,0,0,0,-0.1771197253,0,0,0,0,0,0,0,0,0,1.409749442,0,0,0.8341103344,0,0,0,0,0,0,0,0,0,-0.1647625352,0,0,0,0,0,0,0,0,0,0,0,0],
			[0,0,0,0,0,0,0,6.405143555,0,0,0,0,0,0,0,0,0,0,0,0,0,7.745898686,0,0,0,0,0,0,0,0,0,0,0,0,0,0,4.253962705,0,-41.99179162,0,0,0,0,0,0,0,0,0,0,0],
			[0,0,0,0,0,0,0,0,0,0,0,0,2.243859776,0,0,0,0.3089297535,0,0,1.177022361,0,0,0,0,0,0,0,0,0,0,0,0,0,0,0,0,0,0,0,-0.4242635281,0,0,0,0,1.239838077,0,0,0,0,0],
			[0,0,0,0,-0.8474972904,0,0,0,0,0,0,0,0,0,0,0,0,0,0,0,0,0,0,0,0,0,0,7.018883999,0,0,0,0,0,0,0,0,0,0,0,0,-5.462907807,0,0,0,0,0,0,0,0,0],
			[0,0,0,0,0,0,0,5.983969325,0,0,6.702745885,0,0,0,2.66915307,0,0,0,0,0,0,0,0,0,0,0,0,0,0,0,0,0,0,0,0,0,0,0,0,0,8.227829101,-48.25585726,0,0,0,0,0,0,0,0],
			[0,0,0,5.428925534,0,0,0,0,0,0,0,0,0,0,0,0,5.495860314,0,0,0,0,0,0,0,0,0,0,0,0,0,0,0,0,0,0,6.301137205,0,0,0,0,0,0,-49.2434027,0,0,3.230375456,0,0,0,0],
			[0,0,0,0,0,0,0,0,0,0,0,0,0,7.149664261,0,0,0,0,0,0,0,8.920861515,0,0,0,0,0,0,0,0,0,0,0,0,0,0,0,0,0,0,0,0,0,-10.12465779,0,0,0,0,0,0],
			[0,0,0,0,0,0,0,0,0,0,0,0,0,0,0,0,0,0,0,0,0,0,0,0,0,0,0,0,0,0,0,0,0,4.191146989,0,8.9393973,0,0,0,0,0,0,0,0,-28.74694333,0,0,0,0,0],
			[0,0,0,0,0,0,0,0,0,0,0,0,0,1.212034399,0,0,0,0,0,0,0,0,0,0,0,0,0,0,0,-0.1019468186,0,0,0,0,0,0,0,0,0,-0.2646498221,0,0,0,0,0,-0.2574414612,0,0,0,0],
			[0,0,0,4.126271741,0,0,5.83156398,0,0,0,0,0,0,0,0,0,0,0,0,0,0,0,0,1.877263135,0,0,0,0,0,0,0,0,0,0,0,0,0,0,0,0,0,7.590404043,0,0,0,0,-6.831466615,0,0,0],
			[0,0,1.062718352,0,0,0,2.557938359,0,0,0,0,0,0,0,0,0,0,0,0,0,0,0,0,0,0,0,0,0,0,0,0,0,0,-0.7404016425,0,0,0,0,0,0,0,0,0,0,0,0,0,-0.385132426,0,0],
			[0,0,0,0,1.830923672,0,0,0,0,0,0,0,8.835390949,0,0.4530969718,0,0,0,0,0,0,0,0,0,0,0,0,0,0,0,0,0,0,0,0,0,0,0,0,0,0,0,0,0,0,0,0,0,-20.47586406,0],
			[0,0,0,-1.359290915,0,0,0,0,0,0,0,0,0,0,0,0,0,0,1.568333382,0,0,0,0,0,0,0,0,0,0,0,0,0,0,0,0,0,0,0,0,0,0,0,3.19948248,0,0,0,0,0,0,-0.3995491478]
		],
		"G": [
			[0.02673944407,-0.0002007168378,-0.0007595137884,0.0003482664131,-0.001802474939,2.33498529e-06,-9.968486767e-05,0.0001546943422,-0.0003520968501,0.0004485526442,-6.825312497e-05,-3.210059644e-05,5.713281959e-05,-0.004395622308,-0.0008323805932,6.938893904e-18,2.084636794e-05,-0.001661400803,-0.0002374740801,2.265518893e-05,-0.0004408392328,-6.709008081e-05,-5.8513036e-18,0.0003832810437,0.0001014254005,-0.001251021665,0.00341470064,7.261502709e-05,3.659239176e-05,9.684447837e-05,-0.0007136494292,2.063456963e-17,0.000628875779,0.0002577719249,-6.7871056e-17,1.170226296e-05,0.1099065442,0.001438329237,-7.392393934e-06,0.001023615961,-9.376602729e-05,9.564907799e-18,-0.0001371295337,0.0002065556476,0.0001341462789,-0.001720701388,4.988812301e-18,0.0003599686102,4.510101221e-05,-0.002110567847],
			[0.0001393170499,0.02176858629,0.003411724639,-0.003331659658,0.01729891232,0.0004865622952,0.001159555969,-0.0005628200139,0.0004314897233,-0.003650780366,0.003372778252,0.0001433792365,-0.0003923354046,-0.0001061904192,0.00455170361,-2.372234353e-16,0.004343948835,0.002542802179,0.0006304223871,-0.0004752663354,0.003020273593,0.0006598970166,1.263095531e-17,0.0004989161464,-0.0004556013902,0.001533109405,0.250707051,0.000362089241,-0.0002281651167,-0.0003564395185,0.00320570262,1.028365761e-16,-0.003438879014,-0.005055044004,-8.847089727e-17,-0.0002218763431,0.002312521539,-0.006460953535,8.598992714e-05,-0.004766149703,0.004633517041,-1.583104578e-17,0.0005047100854,-0.001882035171,-0.001066522317,0.006333102152,-2.165626077e-16,0.001794955756,-0.000884454742,0.007768019403],
			[0.002439052294,0.004842264715,0.02390751407,-0.005695460826,0.02095181769,-3.467968561e-05,-0.0003431760362,-0.005515249842,0.0002227940121,-0.007112107328,0.001370462131,0.001027408853,-0.001011773443,0.002601252974,0.02036485637,-9.61687327e-17,-0.0003096145784,0.002834714844,0.003355135074,0.0009498702521,0.009879466755,0.0005177646365,-6.857578741e-18,0.008903894522,-0.0031926072,0.0007916007653,-0.108923081,-0.001748129068,-0.000693692148,-0.002306361063,0.0224638236,-4.548228114e-17,-0.01538594847,-0.002828965111,-1.682681772e-16,-1.021723694e-06,0.01058112802,-0.04527485476,-2.54491229e-05,-0.01932333186,0.001882738551,2.450466316e-18,0.003265753736,-0.003451397279,-0.002305213711,0.04097867788,3.717119386e-17,-0.008665859068,-0.000494969303,0.05026338708],
			[0.01312684764,0.01901716647,0.02650982619,0.07942193965,0.03894779593,0.001129203392,0.006219923547,-0.004890910403,0.003016847397,0.05470417799,0.009108945704,0.006625332365,0.003369784355,0.02091550664,0.08239815853,-1.637199491e-15,0.01008134376,0.007983723551,0.004771082616,0.01422087516,0.01169510197,0.01201552408,7.115076757e-18,0.004525263229,-0.003540119718,0.01071904351,0.04842901055,0.007512395469,-0.005464703449,-0.002746658533,0.02490899128,-3.138765289e-17,-0.06225302051,0.05603016826,-6.192962809e-16,0.007696831362,0.06571795608,-0.05020298336,0.000461254814,0.03224761682,0.01251385415,-4.232496582e-17,0.003889204735,0.03645977204,0.02191488764,0.04880174101,-2.315567849e-16,0.03724059144,0.009803306949,0.05985895411],
			[-0.02840433458,0.02563387197,-0.07222954716,-0.2271939908,1.122124051,-0.001362308824,0.003779610858,0.01717161996,0.02517771801,-0.169319973,-0.01069348198,-0.003923451932,-0.01168617834,-0.05219937038,0.08428518977,-3.216177324e-15,-0.01216247104,-0.006505327131,-0.0003298654516,-0.06096582794,0.1033989674,0.04047918343,1.918495744e-16,-0.07681214085,0.009645526994,0.08945797358,0.2648653055,-0.01856403088,-0.009350182062,0.005201686762,-0.06786785953,3.82289686e-16,-0.06367870036,-0.1748405162,-2.704433899e-15,-0.02163444666,-0.04601174423,0.1367847049,0.0002802869988,-0.1252449124,-0.0146906874,-1.706601982e-16,-0.007365467727,-0.1235543911,-0.06411277848,-0.09242188903,-1.075914802e-15,-0.09202597128,-0.03059093522,-0.1133623002],
			[-0.0006892519633,0.004880894564,-0.001757417259,-0.009100081716,0.08853646229,0.02000526394,0.0009484425393,0.0005767169428,0.002197993605,-0.007377372899,0.0003145036215,0.0004206464902,-0.0005728365187,-0.001667554844,0.01545558537,-3.280524723e-16,0.0002903760176,0.0005236091512,0.0005934045757,-0.003065394749,0.009294660565,0.00426508279,1.790288837e-17,-0.004929926163,0.000234685337,0.00780960585,0.03136285293,-0.0006547608601,-0.001279757006,1.823712682e-05,-0.001651293029,3.356960977e-17,-0.01167692203,-0.007572480427,-2.873135757e-16,-0.0008316900652,0.0036955372,0.003328108935,7.033425471e-05,-0.006826786302,0.0004320645417,-2.188500202e-17,-2.582334831e-05,-0.005646683257,-0.002646061048,-0.0003240313746,-1.102921601e-16,-0.00324579314,-0.001324917492,-0.0003974485086],
			[-0.0001905773756,0.001083900981,-0.002279893573,-0.006989167512,0.03499760412,-3.503960351e-05,0.02076361305,0.004372426874,0.001043805814,-0.005288739164,-0.0002635236204,-6.437362964e-05,-0.0003716209762,-0.002127020186,0.003843066022,-9.790345618e-17,-0.0003128278667,-0.0002739956375,8.407907366e-05,-0.00196807824,0.003194449964,0.001551726844,-1.117744677e-17,-0.002905458288,0.0003044567752,0.003708705964,0.01213222558,-0.0005569447918,-0.0003879697199,0.0001471699036,-0.00214221884,2.3266301e-17,-0.002903492895,-0.005455647772,-1.173648852e-16,-0.0006642529035,0.01166589129,0.004317548454,0.001539780418,-0.004054641828,-0.0003620283027,6.565617072e-18,-0.0002083891677,-0.003878242568,-0.001981001691,-0.002614867276,-2.552470259e-17,-0.002760897444,-0.0009545462985,-0.003207328613],
			[0.003922084218,0.03053799684,0.004440501868,-0.002178747309,0.04203993249,0.0006444224935,0.01152629147,0.3917513898,0.03043757023,-0.01155019902,0.007256101796,0.0001960725551,-0.00175393834,-0.01192938609,0.01251237615,-1.406427058e-15,0.005753298945,0.01084200188,0.01215417937,-0.001306770094,0.006051449096,0.002503356992,-2.391749993e-16,-0.05703384256,-0.0005929842055,0.1081465505,0.3452457391,0.0006450533662,-0.0008141247127,-0.002505253822,0.00417235562,3.181591275e-16,-0.009453284189,-0.008958994132,-9.957312752e-16,0.00019141372,0.1063048015,-0.008409200412,0.0008547625044,-0.03070397134,0.009968420338,-8.173867941e-17,0.003547381267,-0.001743312032,-0.001887271263,0.04451254014,-3.966282597e-16,0.003197670965,-0.001567508579,0.05459793118],
			[0.002449584698,0.0009042647859,-8.492624756e-05,0.001497773899,0.01237296073,-4.805624997e-06,0.006539973416,0.001232813366,0.01958083324,-0.004367369073,0.001795652199,2.633477868e-06,-0.0008055430796,-0.007729580513,0.004206962304,-2.962446911e-16,-4.290383639e-05,0.004876202957,0.007416508403,-0.0004394601837,0.0013153235,0.001061959487,-2.114871863e-17,-0.03783896686,1.134104318e-05,0.06957189932,0.006179484976,0.0001049447365,-0.0003334540219,-0.001329759273,-7.979785097e-05,3.58972563e-18,-0.003178421888,-0.001434651247,-2.515891141e-16,0.0003204174968,0.06767951459,0.0001608290813,0.0004849889551,-0.01594798054,0.002466863945,-4.285457318e-18,0.001882908268,0.0005099718826,-0.0003007747407,0.02362673295,-7.720959424e-17,0.000520234068,-0.0002510134626,0.02897993994],
			[0.1218304048,-0.006126733099,0.02180590392,-0.04675059606,-1.031768143,0.01768118175,-0.01878041922,-0.008456930233,-0.03109179849,1.506237464,-0.005430956546,-0.01433128444,-0.001670109159,-0.03383762025,-0.2798944831,8.425985604e-15,0.1578547076,-0.01448542074,-0.008811781743,0.01202829033,-0.1061124824,-0.06831642226,-5.334274689e-17,0.06854421133,-0.002911958376,-0.1104710636,0.283717858,-0.006168633366,0.02279661673,3.467305744e-05,0.02048912228,-1.890848589e-16,0.211464398,-0.02700365335,4.638650575e-15,-0.004004412245,0.4102401245,-0.04129493054,-0.001392711456,-0.0165098127,-0.007461038889,5.376626336e-17,-4.909624459e-05,-0.006368357709,-0.01279325886,-0.0006160596771,1.313741325e-15,-0.03057926808,-0.004724688695,-0.0007556428761],
			[0.001439373808,0.0009290449978,0.009237233196,0.005654025975,-0.02095085387,-3.042885039e-05,0.005367764925,-0.001110392724,0.0001549459574,-0.002819922035,0.03129660969,0.0003292728333,-0.0008052589625,0.002309839,0.001464938431,-3.876022767e-17,-0.0002716638147,0.02094323927,0.001322459873,0.002320232264,0.0006024430882,-0.000430515248,2.846030703e-18,0.003307270114,-0.00123353926,0.000550532473,-0.03993216344,0.008173979145,0.0002346400959,-0.0008958223959,0.008679429259,-9.912995988e-17,-0.001106782528,-0.02118270652,6.722053469e-17,0.0007037523348,0.008871844716,-0.01749301037,0.0003980607468,-0.002336802794,0.0429952293,8.258571236e-20,0.001268463721,0.003076317949,0.00136031784,0.01591668277,9.166336445e-17,0.04052020678,-0.003706227921,0.01952299168],
			[0.004344524724,0.0036874518,0.003945585851,0.005848918303,0.008839669541,0.0006478752453,0.002359375971,-0.0004619366818,0.0005769914214,0.03737315426,0.001708275201,0.02260508868,0.004328017517,0.001746448633,0.01128092343,-2.100641709e-16,0.00578412455,0.001300294248,0.0007586532251,0.003245530412,0.002106731512,0.001458536018,5.759824041e-19,0.0004264198459,-0.0005268931667,0.002050085846,0.01681664961,0.002517540273,-0.0007361906273,-0.0004175429338,0.003707325836,-3.933282194e-17,-0.008522903546,0.010649648,-1.930964069e-16,0.001728257346,0.02071538646,-0.007471953205,0.0001749657398,0.08365866763,0.002346825573,-9.514615217e-18,0.0005912311033,0.002427757821,0.005119613572,0.007418767884,-4.579695388e-17,0.01247999911,0.001863313489,0.009099668928],
			[0.009782657719,0.002021602202,-0.002230440401,-0.02034446472,-0.01763957456,0.001602127902,-0.000457047645,0.0004238001335,-0.0008377266667,0.1311783394,-0.002203304562,-0.001687233947,0.01974852093,-0.006831126263,-0.02180601267,4.657190432e-16,0.01430353667,-0.002321395432,-0.0006229281464,-0.002957608233,-0.002366040844,-0.003482753049,-1.786223079e-17,0.000746629366,0.0002978528032,-0.002976494136,0.04999392475,0.002219705459,0.001627311914,0.0002709899592,-0.002095751971,1.512462031e-17,0.01647476325,-0.02806189381,1.212138029e-16,-0.001875307112,0.03804252807,0.004223896509,-3.389357199e-05,-0.01111936827,-0.003026896069,-1.545348085e-17,-0.0003837154927,-0.009164054402,-0.005736949703,-0.004814862003,2.971645689e-17,0.01100356664,-0.00490984352,-0.005905785279],
			[0.01119309068,0.001809588405,0.008233084935,-0.001643813523,0.008947610121,-1.233879125e-05,0.000972012341,-0.001697021246,0.003336401933,-0.003126677962,0.0007742697517,0.0003550975694,-0.0004791470857,0.0446530374,0.00768472302,-6.280241084e-17,-0.0001101587164,0.001239741151,0.002391997167,0.0002712296016,0.003588812692,0.0003435814325,-1.528047437e-17,-0.003227387922,-0.001099445395,0.01185444034,-0.03652494251,-0.0005786042988,-0.0002916102646,-0.00101697055,0.00773591797,-1.312562255e-17,-0.005805921253,-0.001161976657,-1.752070711e-16,5.939652813e-05,0.0561711262,-0.0155914046,7.208213544e-05,-0.009273432062,0.001063690471,-8.434330572e-19,0.001440006696,-0.001066590244,-0.0008247486372,0.01806920402,2.211094806e-17,-0.002868268369,-0.0002033050085,0.0221632186],
			[-0.01159205946,0.01839314885,-0.04612754526,0.0551678535,0.05274533737,0.001128622765,0.04633563927,0.01911562327,-0.003959246317,0.04290919871,0.004045751315,0.1044931786,0.003930114892,-0.0520576765,2.141304987,-2.335284743e-14,0.01007616002,-0.001744874697,-0.007812348586,-0.1292632349,-0.04704542953,-0.03686249201,-8.847089727e-17,-0.01036493953,0.006159868094,-0.01406744457,0.5237457176,0.008901507218,-0.1698348195,0.004691082367,-0.04334206548,5.746271514e-18,-1.617787407,0.03303891436,-1.184816134e-14,0.003794789131,-0.03779970408,0.08735403885,0.003436141379,0.05986801426,0.005558046293,-1.59909656e-16,-0.006642463754,-0.1026655772,0.01683844334,-0.08334963518,-1.612303498e-15,0.04412672295,0.005780646905,-0.1022345081],
			[0.004608659248,0.07034422924,0.04002061315,0.09343281432,0.005281279706,0.0002246119074,-0.01472508249,-0.3905981186,-0.02257561134,-0.2413108819,0.01143984736,-0.006925828774,-0.04604623621,0.124890445,0.09085829831,0.984882911,0.002005298485,0.006148385877,-0.003089281813,-0.008919364041,0.01211788417,0.01375990136,1.78177785e-15,0.05921298317,-0.005344348949,-0.08021252928,0.6394923664,-0.02160252866,-0.005617418162,-0.08319304222,0.03760390946,7.196934021e-16,-0.06864478052,0.004313230709,4.683753385e-16,0.02038315996,-0.05049912322,-0.07578903615,-0.001091977278,-0.9710836314,0.01571604289,2.691870706e-17,0.1177994169,0.04351706752,-0.01773751145,1.478147083,-8.060772102e-16,-0.107088471,0.0007546635303,0.0499676106],
			[-0.00311373611,0.003767623582,-0.007918997642,-0.02571196416,0.1367940446,0.004356201736,0.0006069599218,0.00191836826,0.00311686783,-0.01929612587,-0.001043180228,-0.0003141087667,-0.001346100311,-0.0058123329,0.01225476453,-3.596569657e-16,0.0388914588,-0.0005599011153,9.906406775e-05,-0.007039797023,0.01286050601,0.005175534481,1.515172536e-17,-0.009109673806,0.001057502207,0.01107442223,0.03464172672,-0.002080957746,-0.001261717765,0.0005459384457,-0.007440797301,6.831828939e-17,-0.00925865482,-0.0199150469,-2.953366718e-16,-0.002440571942,-0.003961922922,0.01499660178,4.501071174e-05,-0.01458121432,-0.001433119228,-1.65539884e-17,-0.0007730361682,-0.01413977812,-0.007273316072,-0.009700057838,-1.423371105e-16,-0.0103157638,-0.003484432114,-0.01189784022],
			[-0.001178335708,0.001063404833,-0.002996396706,-0.009424997836,0.04655060073,-5.651451285e-05,0.0001567947464,0.0007123537044,0.001044481577,-0.007024131113,-0.000443612281,-0.0001627619016,-0.0004847936566,-0.002165457595,0.003496517352,-2.280754795e-16,-0.0005045523558,0.07841223649,-1.368425792e-05,-0.002529128496,0.004289440228,0.001679253113,-1.310529376e-17,-0.003186502683,0.0004001385368,0.00371110699,0.01098776831,-0.0007701169837,-0.0003878863406,0.0002157886584,-0.002815454876,-2.0495148e-16,-0.002641670279,-0.007253147327,-4.082021179e-16,-0.0008974912241,-0.00190876787,0.005674426262,1.162752742e-05,-0.005195705325,-0.000609433799,2.664728594e-17,-0.000305551732,-0.00512557513,-0.002659677733,-0.003834063133,8.330992553e-17,-0.003817638737,-0.001269045441,-0.004702762737],
			[0.004283490917,0.002336798952,0.007707614291,0.006511694653,0.01293069749,-5.639795819e-05,0.001037721673,-0.001565007453,0.00169186379,-0.01511175817,0.006526300129,3.307807295e-05,-0.002955962188,0.02007023508,0.01277880718,-4.787023642e-16,-0.0005035117747,0.02069948053,0.02694779216,-3.539990109e-05,0.003782590282,0.001725116864,3.623945762e-17,0.07180837988,-0.001029274094,0.006011295628,-0.02811191272,1.271889427e-05,-0.0007113767626,-0.00540236476,0.007242178646,-9.588412963e-18,-0.00965457675,-0.003324802896,5.421010862e-17,0.001402594409,0.02295781067,-0.01459629456,7.695498407e-05,-0.05985787446,0.008965820045,-5.582582397e-18,0.007649623114,0.002786295575,-0.0008988936674,0.09598747084,-1.149296654e-17,6.305034753e-05,-0.0005817234598,0.1177357507],
			[0.002803280602,0.001294345928,0.0007011934044,-0.003919136662,0.00297106099,0.0005151285008,0.0009724056522,2.053175985e-05,0.0006473742676,0.03107431042,0.0006248025988,0.003865776929,0.00396154574,-0.001013682432,0.0008749256439,-1.757762772e-17,0.004598983261,0.0004312113021,0.0003415112454,0.02463106489,0.0005548631552,-8.860054084e-05,2.176874674e-17,-0.0009761593137,-9.363730185e-05,0.002300160408,0.01058279617,0.001620836083,-4.213957176e-05,-0.0001114308347,0.0006588508075,-1.966132877e-17,-0.0006610191905,0.003823287763,-5.876375775e-17,0.0008044845577,0.01387926124,-0.00132788501,7.211130247e-05,0.08065662378,0.0008583527502,-8.399972798e-18,0.0001577834757,-0.00203948626,0.00246589494,0.001979867054,-1.297442717e-18,0.008034839832,0.0006689407628,0.002428453753],
			[2.274822328e-05,0.003554458421,0.0005570795096,-0.0005440061918,0.002824632881,7.944776133e-05,0.0001893367545,-9.189941468e-05,7.045530015e-05,-0.0005961134474,0.0005507201939,2.341151271e-05,-6.406203252e-05,-1.733917971e-05,0.0007432196566,4.130810277e-17,0.0007092966587,0.0004151985112,0.0001029377899,-7.760331359e-05,0.03441786232,0.0001077505207,-1.978668965e-17,8.146494562e-05,-7.439234578e-05,0.000250331995,0.0409364107,5.91233227e-05,-3.725567705e-05,-5.82008143e-05,0.0005234394426,2.521447677e-17,-0.0005615133803,-0.0008254070105,1.229485264e-16,-3.622882193e-05,0.0003775974034,-0.001054969321,1.404076575e-05,-0.0007782352389,0.0007565784681,-8.145492337e-18,8.241100224e-05,-0.0003073059349,-0.0001741458624,0.001034093256,-3.014844369e-17,0.0002930872735,-0.0001444171691,0.001268392059],
			[0.001818080223,0.001244481155,-0.0004262309182,0.002240575389,0.004361762904,5.032992968e-05,0.002378279566,0.0005384661489,0.0005182933903,0.001352746806,0.0003531214487,0.004975751061,8.322522834e-05,0.006980303232,0.1020506359,-1.114424308e-15,0.0004493374056,0.0001797509697,0.0001383086223,-0.006005333252,-0.00144922869,0.02390209453,-4.648516815e-18,-0.001167108599,5.691883708e-05,0.001841528148,0.01685733398,0.0002954024266,-0.008026937435,5.433764374e-06,-0.0004004923362,-8.86335276e-18,-0.07710075616,0.001304376327,-6.367519359e-16,0.0001905118094,0.01007934849,0.0008071748014,0.0001763675857,0.0008511566411,0.0004851176471,-6.118860132e-18,-7.69408424e-06,-0.005040160876,0.0006157151259,-9.654536904e-05,-7.78126817e-17,0.001464374596,0.0002282199377,-0.0001184200542],
			[0.009436195854,0.01435904244,0.01830943966,0.04303635179,0.07420941623,0.01076601118,0.004529494798,-0.003334642603,0.003788377047,0.01741593378,0.009066197229,0.003886655964,-0.00019253837,0.02262771224,0.0608987624,-1.263962893e-15,0.005406584057,0.01698671383,0.01896928965,0.006260427091,0.01342765305,0.009821287585,0.08137209236,0.04272077796,-0.002445040865,0.01346033559,0.02592726373,0.003816560968,-0.004087426784,-0.004720118156,0.01720379717,3.475545589e-17,-0.04600991056,0.02506227822,-6.928051882e-16,0.004655369991,0.05177695063,-0.03467350135,0.0003358966175,-0.02131445663,0.01245512637,-5.456543895e-17,0.006683577758,0.01888826522,0.01020209328,0.08386553371,-2.515569269e-16,0.01891952951,0.004385016392,0.1028672959],
			[0.02994117811,0.01098154018,0.02814944782,0.02517171218,0.03427712911,0.0003826946989,0.004446566919,-0.005593823905,0.008599110967,0.01285283234,0.005052000767,0.003206670646,0.0001473873887,0.108013423,0.04723054261,-9.830461098e-16,0.003416635871,0.005689710487,0.00711305844,0.005778891796,0.01232106282,0.00513999187,2.154987343e-16,0.5573407841,-0.003759074637,0.03055316774,-0.06453058689,0.001429487469,-0.00264204364,-0.003285207921,0.02644960194,3.726538392e-16,-0.03568336951,0.01775281626,5.134781489e-16,0.002931195592,0.1501988156,-0.05330801681,0.0003297468822,-0.009131818679,0.006940430083,-5.55412209e-17,0.004651778168,0.01085389769,0.006110976571,0.05837051246,-3.940227864e-17,0.007086282801,0.003106117872,0.07159576183],
			[0.01132355761,0.008579355724,-0.003552176859,-0.01377536994,0.0792445801,0.002017641322,0.009613838961,0.08800659777,0.00819493981,-0.01243731364,0.001017071106,-0.0001287869617,-0.001064365106,-0.007783460828,0.008947905603,-5.648693319e-16,0.01801317274,0.001299361553,0.002622859952,-0.003977253548,0.007756786046,0.00327362142,-3.266159045e-17,-0.01720928187,0.05049468034,0.02911712288,0.0960324534,-0.0009126657664,-0.0008368478471,-0.000219517837,-0.003337673425,1.263908683e-16,-0.00676027427,-0.01227888474,-4.306451029e-16,-0.001230246045,0.0742125546,0.006726934926,0.0007129395512,-0.01391864251,0.00139725056,-2.125840939e-17,0.0003108321623,-0.007699497304,-0.004160107621,0.003900321973,-1.728777305e-16,-0.004524284307,-0.002148372561,0.004784034117],
			[-0.02756187502,-0.0019910507,-0.01943095314,-0.04003471959,0.1519245032,-0.0009567015382,0.08606104512,0.02039884065,-0.001307179978,-0.1050067501,0.01868063032,-0.004922427167,-0.0141861918,-0.086209109,-0.000615220645,-1.591012478e-15,-0.008541275338,0.07706679469,0.1026447345,-0.01714975199,0.01104740525,0.006157370081,-4.040414921e-16,-0.5435307351,0.002594807671,0.9862683158,0.03017562823,-0.004450587928,-0.0006871804838,-0.01710423675,-0.01825758641,-2.57010125e-16,0.0004648082447,-0.06364700213,-4.255493527e-15,-0.001325735834,-0.0783972755,0.03679736751,0.006382083487,-0.2544126921,0.02566341824,-1.447981648e-16,0.02421920226,-0.02103162673,-0.02131836038,0.30390255,-1.189990658e-15,-0.02206254016,-0.01113598473,0.3727590126],
			[0.01361148539,0.02702296115,0.1334193527,-0.0317843459,0.11692466,-0.0001935350197,-0.001915143686,-0.03077865234,0.001243334325,-0.03969014735,0.007648062862,0.005733604242,-0.005646348568,0.01451666982,0.1136490372,-9.048317651e-15,-0.001727849099,0.01581953768,0.01872381832,0.005300888826,0.05513379834,0.002889460713,-2.255140519e-16,0.04968947588,-0.01781680792,0.004417642981,9.834015819,-0.009755688023,-0.003871249729,-0.01287098271,0.1253626285,3.717512409e-15,-0.0858635189,-0.01578745046,-3.663735981e-15,-5.701877387e-06,0.05904952089,-0.2526628992,-0.0001420225246,-0.1078366584,0.01050689579,-7.030508987e-16,0.01822501278,-0.01926102353,-0.01286457974,0.2286874604,-6.788406642e-15,-0.04836108448,-0.002762248046,0.2805021279],
			[0.0003335095069,0.0007569385339,0.005613265333,0.006774612533,-0.005907361839,-0.0001670724405,0.006572827056,-6.043647956e-05,0.001910236591,-0.01500748817,-0.006096882254,-6.179224602e-05,-0.002563412012,0.001973725541,-0.006204899772,-3.705260924e-17,-0.001491595507,-0.003142836482,0.001492572484,0.002471404469,0.001273811391,0.0008533552007,-3.305461373e-17,-0.001496649891,-0.0007495949292,0.00678718756,-0.02514651513,0.02606280556,0.0006995400207,-0.0006684588573,0.005274300035,-6.667843361e-18,0.004687893026,-0.07711295442,-3.718813452e-16,0.0007444173993,0.009724653656,-0.01063012122,0.0004874253033,-0.0007690617482,-0.008375886497,-3.952891007e-18,0.0009465222273,0.004008542303,0.001717513414,0.01187696091,-1.610209633e-18,0.1291990415,-0.01349205233,0.01456797326],
			[0.00177842192,0.001155848091,0.001807928087,4.239316559e-05,0.003240702542,1.945543946e-05,0.0006984916994,-0.0002826573041,0.0006230695052,-0.0004198331239,0.0003038982426,0.001209448118,-8.658031125e-05,0.006647468529,0.02488330054,-5.482471573e-16,0.0001736949912,0.0003716967618,0.0004836955469,-0.001307446783,0.00512476943,0.005495084102,5.532819211e-18,-0.0004971375186,-0.0002414305482,0.002213804099,0.001184010952,-5.557838077e-05,0.01849016891,-0.000215832307,0.001698753686,3.666805629e-18,-0.01879969949,-6.223223716e-05,-1.02579078e-16,4.673521813e-05,0.009433829126,-0.003423763815,5.179849181e-05,-0.001777457959,0.0004174948902,-7.596363525e-18,0.0003056135373,0.01427486165,-6.570551247e-05,0.003834838666,-3.057646003e-17,-0.0002755142191,-1.088845067e-05,0.004703713986],
			[0.01467353282,0.01648327012,0.0186903061,0.01568641913,0.1043611386,0.001739778935,0.07238037442,0.009167781033,0.008314438932,0.08156896507,-0.007107369919,0.07506346879,0.008397741118,0.004486660846,0.03475399429,1.909713707e-15,0.01553246265,-0.00260690261,0.005711028346,0.01086860072,0.01747100616,0.01040462125,-6.490305255e-17,-0.008756017403,-0.002495901734,0.02954171057,0.03598945752,0.05894509415,-0.002020690151,0.5497126889,0.01756166443,-3.147167856e-16,-0.02625715377,-0.1316695968,-2.593194756e-15,0.005598902875,0.1173142947,-0.03539476718,0.005367557317,0.2672729887,-0.009764092737,-1.013136108e-17,0.003340651024,0.00647541799,0.01558097528,0.04191848905,-6.969217683e-17,0.2922037555,-0.02303754411,0.05141613516],
			[0.004275852424,0.02460784834,0.01132574812,-0.009767371371,0.02699143594,0.00109988893,0.002233093515,-0.002168249091,0.001282663406,0.03212096728,0.004513321614,0.005155630902,0.004136340065,-0.0005689966575,0.01161813695,7.294512216e-16,0.009819629025,0.003888176361,0.002035982246,0.02981272194,0.006600777379,0.0007002198898,2.862293735e-17,0.00194532829,-0.001512439348,0.00455738161,-0.9741265669,0.0018153217,-0.0004833173597,-0.001173025332,0.1781874697,-3.998537612e-16,-0.008777673322,-0.001196449018,3.469446952e-17,0.0007595094119,0.02233684031,-0.02144813551,0.0001656009316,0.08778992851,0.006200393576,3.180100497e-17,0.001660976645,-0.005374468788,0.00126226024,0.02084193494,5.136678843e-16,0.00899894768,-0.0002093364581,0.02556417869],
			[0.00444010802,0.01646489646,0.005972153509,-0.006001010985,0.04490322426,0.0005057460742,0.001380339272,-0.001105703915,0.002008809854,0.004449166097,0.006802560816,-0.0002617424105,-0.003030118298,0.01329650837,0.01140372422,-7.541710312e-16,0.004515218486,0.08633385801,0.02147963975,-0.002345025307,0.006901453986,0.002122044779,1.441988889e-17,0.05524766063,-0.0007975208228,0.007137424401,0.1509959567,-0.0005364195423,-0.0006691233736,-0.004293928936,0.00561151622,0.1126952014,-0.008615681349,-0.01261825913,-3.148523109e-16,0.0001130641131,0.0246474658,-0.01130976571,0.0001023626946,-0.05501436663,0.009345346509,-5.062377113e-17,0.006080103714,-0.003588931688,-0.003923505899,0.0762931414,-2.836306765e-16,-0.002659149282,-0.002207751133,0.09357919524],
			[0.03915129365,0.02884987169,0.0706375033,-0.03646852524,0.09202203778,0.003392733027,0.01185108681,-0.01390841962,0.0102667347,0.1797191154,0.009603329763,0.03781831616,0.022392326,0.05944995564,0.2744347402,-3.243499219e-15,0.03028976726,0.0120291737,0.01355817125,0.1472773604,0.0707316544,0.05053240294,-1.65666092e-16,0.007755982676,-0.009432925605,0.03647833695,-0.1481347685,0.006204383753,0.1666037538,-0.007470926111,0.06637195359,-3.491944147e-16,1.577760794,0.01795353223,-3.550111594e-15,0.005557808116,0.1964565674,-0.1337697719,0.0008788485581,0.4584248854,0.01319303814,-9.473301185e-17,0.01057865798,0.1097508976,0.0103474574,0.1327410003,1.724321911e-16,0.03075649058,0.003141236101,0.1628166799],
			[0.00763050282,0.01556126845,0.03197044963,-0.09259610863,0.2488442853,0.00100011545,0.02809710173,-0.002076921472,0.009591735075,0.06486252566,0.05097503338,0.003753424308,0.01355121411,-0.0208356681,0.1333083069,-2.124927838e-15,0.008928867662,0.03700122771,0.008012341388,-0.02239758419,0.03663418551,0.001829642883,-4.803015624e-17,-0.006037284341,-0.004269330863,0.03408002197,-0.1370599836,0.07051611848,-0.009254376821,-0.003719210445,0.03003986692,-2.983453328e-16,-0.1007163863,0.5444675242,-3.070460552e-15,-0.007525184332,0.0712816336,-0.06054403898,0.002083614587,-0.09019355575,0.07002941437,-6.451257036e-17,0.005266315669,-0.05455251514,-0.0278185044,0.06608172902,-1.912261582e-16,0.3495638601,0.09526264919,0.08105414075],
			[0.04854568735,0.04978611214,0.01084690425,0.25653006,0.0472691127,0.02811502076,0.04833524433,0.006494882812,0.2221293829,-0.08949704438,-0.01856916589,0.004719236071,-0.0333474452,0.02131152178,0.03664800135,-4.86589935e-16,0.007614490857,0.1699454664,0.1541487053,0.04053169377,0.00832352203,0.03881484506,0.2183350201,-0.2294394292,-0.001448494583,0.7892392972,0.5490267121,-0.09020888028,-0.002466244425,-0.0285363294,0.01019189796,0.1590006554,-0.02768810396,-0.7458506275,4.807398763,0.02706362329,0.8419923115,-0.02054132493,0.003584427359,-0.1872772259,-0.02551028859,-1.652866212e-16,0.04040678012,0.1294687943,0.05821486148,0.5070242769,-1.117676915e-15,-0.447185198,-0.1304976028,0.6219028726],
			[0.01509814576,0.0005397815582,0.004001069615,-0.005360002644,-0.08460237411,0.001627271013,0.002870324762,-0.0003797854259,-0.001500976675,0.1367409217,-0.0002051340388,0.0002212346618,-0.0003404080393,0.01220825817,0.006845662342,2.644640149e-16,0.01452801027,-0.0009455665487,-2.204822238e-05,-0.0008918785761,-0.008503512517,0.001017674439,-7.752045533e-18,0.004460131211,-0.0005343024633,-0.005333062022,0.02184265666,-0.0007545169836,-0.0003859299498,-0.0002808789694,0.003759459131,-4.128099772e-17,-0.005171998571,-0.003404620661,1.375852557e-16,0.03451050078,0.05977879301,-0.007577025583,0.0002128564932,-0.004811429074,-0.0002818127945,7.045196539e-18,0.0003977181017,-0.003042369447,-0.001592635753,0.00499056674,8.16870104e-17,-0.003740306117,-0.0005956887588,0.006121300168],
			[0.09717430264,-0.003367655145,-0.01274322845,0.005843262534,-0.03024217633,3.917670941e-05,-0.001672526636,0.002595483285,-0.00590753014,0.007525878928,-0.001145160466,-0.0005385882917,0.0009585824286,-0.07375036516,-0.01396579788,1.179611964e-16,0.0003497632736,-0.02787521478,-0.003984373291,0.0003801119249,-0.007396462235,-0.001125646748,-8.337514706e-17,0.006430742896,0.001701729539,-0.02098981627,0.05729232438,0.001218345069,0.000613952261,0.001624870188,-0.01197370982,3.298820635e-16,0.01055136568,0.004324933367,-1.248567222e-15,0.0001963422027,1.844027353,0.02413248887,-0.0001240306182,0.0171743716,-0.001573219505,2.046329957e-16,-0.002300778473,0.003465619512,0.002250725008,-0.02887016828,1.143646945e-16,0.006039603631,0.0007567110836,-0.03541140219],
			[0.1110370456,0.05746647872,0.04761095366,-0.1428744756,0.5914291815,0.01520436986,0.06572253437,0.7321511975,0.08404471628,-0.2285195623,-0.02651233443,-0.1137449237,-0.02630912076,-0.0006432489181,-2.256754648,1.506813337e-14,0.135742135,-0.0029172071,0.03839626839,0.117439087,0.1233915075,0.07195721289,-3.199480611e-16,-0.1436813981,0.4216284261,0.2986160225,0.1313468001,0.1145648364,0.1789535729,-0.010305236,0.04473589607,9.460477107e-16,1.705011324,-0.5309623723,5.560656102e-15,-0.01083707795,0.7248469113,5.979177695,0.00487382765,-0.1873428754,-0.03642260006,-2.848232988e-16,0.014591975,0.06477991704,-0.04500133576,0.1831001023,-1.74434577e-16,0.5679230127,-0.09289972305,0.2245858527],
			[0.01077782156,0.004546459958,-0.00069224739,0.0006729196465,0.004153394728,0.0001115485955,0.002027410474,0.06011736545,0.004139886279,-0.0007498521411,0.001055924146,0.0008931841321,-0.0001550731348,-0.008003278705,0.01931823905,-2.763089237e-16,0.000995887672,-0.001136965368,0.001475793493,-0.001268575809,-9.35766914e-05,0.004676845084,-5.098460716e-17,-0.008263379585,9.244265192e-05,0.01470926941,0.0615749658,0.0002763066475,-0.001542651486,-0.000216525265,-0.0006504450113,8.725116983e-17,-0.01459521369,-0.0006878004079,-2.072994554e-16,8.422955535e-05,0.2048827731,0.001310943495,0.02396452596,-0.002786526372,0.0014506268,8.950597154e-18,0.0003065947497,-0.0008445489416,5.371344671e-05,0.00384715092,-6.25262781e-17,0.001369712632,-0.0001203408579,0.004718815878],
			[0.07422017554,0.02414676104,0.001639914617,-0.1815159621,0.04369691841,0.01497938436,0.01530188894,0.002465215998,0.002357593171,0.917837621,0.01085285375,0.003372724854,0.1199211823,-0.04095615967,-0.04095943065,3.998971293e-15,0.1337335011,0.003416571875,0.001118714552,0.03721169621,0.00627094697,-0.01319256316,5.702903427e-17,-0.00391167576,-0.0002189940451,0.00837667288,0.2804475672,0.04407944427,0.003277318673,-0.0003182456671,0.001540885957,-4.757479133e-16,0.0309454522,0.07657259575,1.085936896e-15,0.01869189521,0.3215149891,-0.003105588307,0.00113475188,2.468562872,0.01490963208,-4.855701073e-17,0.0004506284783,-0.09042860772,0.0595605942,0.005654486146,4.82835885e-16,0.2185114697,0.01339750858,0.006935646551],
			[0.00483505526,-0.003004219338,0.01841751816,0.04395031357,-0.1816725113,-3.314909094e-06,0.007858580486,-0.002741598166,-0.001451666224,0.006985730146,-0.006174479505,0.0005292789804,-0.001480582752,0.01063392933,-0.02104793742,7.587246803e-16,-2.959496788e-05,-0.003028782137,0.001968869617,0.01263335895,-0.01440434528,-0.005183392821,-7.48099499e-18,0.009993445101,-0.002459473658,-0.005157858972,-0.07339920708,0.03636612255,0.002349343001,-0.001665825405,0.01730534919,-2.10606272e-17,0.01590202625,-0.07195252639,9.198371231e-16,0.00431274243,0.0196325928,-0.03487817501,0.0005827737356,0.01844196758,0.1745702061,4.031834477e-17,0.002358770111,0.02431809392,0.01215294781,0.02959784736,2.566831703e-16,0.1802748428,-0.01258915909,0.03630395453],
			[0.0008694989207,0.00442104912,0.002422532169,0.011060358,-0.02575537251,0.0001375468259,0.006077763955,0.04901479068,0.003329422851,0.001740542196,0.004417902652,0.005940075384,-0.0003644088831,-0.002224778017,0.1166072898,-1.382899871e-15,0.001227995633,0.003640548277,0.001594449293,-0.004835599242,-0.004224113855,-0.002672117629,-3.096752455e-17,-0.00548248938,-0.00032350472,0.01182964323,0.05372044501,0.007908300319,-0.009061782887,-0.0004596486936,0.002276243995,1.401331308e-17,-0.08809852226,-0.014493988,-5.260548941e-16,0.001066727866,0.0156712751,-0.004587670295,0.000450712595,0.002323855383,0.03728057108,0.02072287297,0.000650851882,-0.001321231691,0.002958423287,0.008166889415,-9.662443643e-17,0.03920317859,-0.00253593765,0.01001729546],
			[0.001102193164,0.001088442418,0.004497418045,0.01652624645,0.005840854422,-0.0002402771454,-0.001491233826,-0.001302224318,0.001143849726,-0.04360619414,0.0005534368791,-0.001344075816,-0.008275540962,0.01965563211,0.01556054473,-5.539188899e-16,-0.002145155175,0.0009169041132,0.001049187132,-0.002040019187,0.001868195263,0.002758006362,4.057965444e-17,-0.0004525969227,-0.0006005847864,0.004064168108,-0.01912769262,-0.004183117031,-0.001051246536,-0.01485069929,0.004225834829,7.853350674e-17,-0.01175622038,0.001416626848,7.199102425e-17,0.003604470912,0.007070908107,-0.008516985422,-0.0001105863723,-0.1749674141,0.0007603106456,9.614565105e-18,0.02102824551,0.007652792248,-0.003275556123,0.2638624247,-4.78696435e-17,-0.02073662828,0.0002478598273,0.01109628264],
			[0.009506067696,0.002374380853,0.005438351328,0.0008133754384,0.0101616364,3.563262339e-05,0.002781907808,-0.0007239306614,0.002812715039,-0.00101603738,0.0008578972738,0.00463490377,-0.0002650262472,0.03768271008,0.09534374396,-1.595430602e-15,0.0003181222515,0.001033839042,0.001811005281,-0.005099781818,0.001257369648,0.02130282047,-3.051690302e-17,-0.003307406034,-0.0007262369293,0.009993748741,-0.01093954349,-0.0001483094411,-0.00727847936,-0.0007133598279,0.00510994847,1.026011009e-17,-0.07203360068,0.0003287437132,-5.94359631e-16,0.0002098040988,0.04854694113,-0.01029887783,0.0002062997011,-0.00579860342,0.001178577819,-5.20753209e-18,0.00101010096,0.09357468475,-3.989927299e-05,0.01267474684,-1.098252331e-16,-0.0007352024166,5.751857665e-05,0.01554651686],
			[0.005807535098,0.002436602891,0.005905323661,-0.01516679843,0.009971451197,0.0006518415799,0.004988984572,-0.0004209051322,0.0009316658276,0.05197873696,0.007368090602,0.000616025757,0.001869836626,0.0007586588327,0.02156440764,-3.317929698e-16,0.005819535339,0.005100534947,0.001161299213,-0.003542791431,0.002696738174,0.0005832167337,-7.819808169e-18,0.0005067578369,-0.0007885963711,0.003310265726,-0.01319021461,0.01004623299,-0.00146924959,-0.0006295850711,0.00554872199,-6.819292852e-17,-0.0162922271,0.07832165466,-4.342229701e-16,0.009634552123,0.02898180079,-0.01118320668,0.000369971292,-0.01464593021,0.01012227037,-2.158981103e-17,0.0008914778484,-0.00889953954,0.03023526173,0.01118626404,-2.137254708e-17,0.0498013796,0.01370353232,0.01372078233],
			[-0.02941198851,-0.02283070311,0.02967417043,0.172647513,-0.04412209456,-0.01614585061,-0.039816736,-0.01415425936,0.009991656706,-0.9905587844,-0.004696953181,-0.03152049543,-0.1288603053,0.2505527145,0.06452338895,-5.099219658e-15,-0.1441475216,0.003356798884,0.007849916876,-0.04128064063,0.003531078232,0.01105930629,2.666053142e-16,-0.007705956763,-0.003962685953,0.03550096801,-0.4745113536,-0.07137999503,-0.003941791421,-0.2221469656,0.02788225193,1.083334811e-15,-0.04874836922,-0.03204605421,1.446759379e-15,-0.02115279496,-0.1125202074,-0.05619546025,-0.002952714936,-2.687182055,-0.006452666312,2.917520284e-17,0.004993407641,0.08537483634,-0.07128127363,3.94703548,-5.507204935e-16,-0.3538462855,-0.005606931332,0.07685379897],
			[0.0169598859,0.02034169703,0.02449303049,0.06121163501,0.03420253332,0.0009101294554,0.0294562653,0.05370118428,0.008775540394,0.03399303002,0.01157391755,0.01142797937,0.001353763289,0.03802724619,0.1955903401,-4.328460333e-15,0.008125487376,0.01019685959,0.006679779788,0.003124741847,0.008483237571,0.007025574352,-3.810970636e-17,0.1473168435,-0.003270797008,0.0311800323,0.08156375927,0.01324181905,-0.01442643751,-0.002946855915,0.02301398275,1.331671318e-16,-0.1477713783,0.01795986575,-4.952635524e-16,0.006072649946,0.1083390416,-0.04638367648,0.002184406941,0.01608932718,0.05057888766,0.02302506733,0.004172679581,0.02022605903,0.01651211796,0.05235878338,0.1463814516,0.06564260033,0.003142344244,0.06422193033],
			[-0.009204876365,-0.009355413879,-0.01063490482,0.1158764557,-0.1881356061,-0.002251098447,0.08294342515,0.01781464453,-0.01089230068,-0.1794467347,-0.09596610896,-0.004808369619,-0.03131171028,0.03310647138,-0.1745614034,1.29253162e-15,-0.02009743988,-0.06513118227,-0.005586956264,0.03260808232,-0.02195014968,0.008217404687,-2.43152666e-16,0.01687825722,0.001420184198,-0.03870101121,0.04351325398,-0.1440871905,0.01330024025,0.001763416399,-0.009992700418,9.307198024e-17,0.1318837073,-1.090757944,-6.140921105e-16,0.0100522698,-0.03035747725,0.02013985099,0.006150888166,0.09314373745,-0.1318380777,5.668672708e-17,-0.002496956693,0.06959321352,0.03396180726,-0.03133181259,2.237611172e-16,1.882237698,-0.1908442409,-0.03843079146],
			[0.001424853661,0.003571482436,-0.008441834309,-0.02787329347,0.09389443582,0.0005944813078,0.001166081301,0.002141330702,0.001802264104,0.04241295952,-0.001817402611,0.001233385325,0.007563545315,-0.008767195813,0.04551084655,-6.15826834e-16,0.005307432183,-0.001621997049,-0.0004711656431,-0.009588078056,0.007183803286,0.00130106973,2.875846263e-17,-0.006775622604,0.001127321767,0.006403554704,0.05684603215,-0.0005051856213,-0.003892054318,0.0006858664833,-0.007932061706,1.153997687e-16,-0.03438411385,-0.027011686,-3.482457378e-16,-0.002659750249,0.01146470226,0.01598672372,8.647383036e-05,-0.0146724858,-0.002496744624,-2.929844613e-17,-0.0009711710218,-0.01727419775,-0.007835779196,-0.01218625398,-1.358979661e-16,-0.002504315888,0.04411189371,-0.01494734415],
			[-0.01901847439,-0.04680908338,-0.0239195777,-0.1123005197,-0.03497449399,-0.005987071285,-0.02902864039,6.825882967e-05,0.005537141976,-0.5946112573,-0.0009400124972,-0.03317294943,-0.08933544209,0.1650220315,-0.1055588491,-3.048776509e-16,-0.05345159621,0.061431997,0.09794712068,-0.0648551775,-0.009979811645,-0.01202065216,4.204536025e-16,0.2628468981,0.003194218176,0.01967380445,-0.4282744278,-0.05900498907,0.007380821537,-0.1307817911,-0.02247515875,1.745565498e-17,0.07975126281,-0.1923248384,2.022687573e-15,0.008184085073,-0.07683929094,0.04529770026,-0.00215269529,-1.745758126,-0.001291387574,9.270436795e-17,0.1851839808,-0.05181996242,-0.1043139681,2.323688591,3.083403216e-16,-0.2925006677,-0.03365007608,2.850176364]
		],
		"names": [
			"G01",
			"G02",
			"G03",
			"G04",
			"G05",
			"G06",
			"G07",
			"G08",
			"G09",
			"G10",
			"G11",
			"G12",
			"G13",
			"G14",
			"G15",
			"G16",
			"G17",
			"G18",
			"G19",
			"G20",
			"G21",
			"G22",
			"G23",
			"G24",
			"G25",
			"G26",
			"G27",
			"G28",
			"G29",
			"G30",
			"G31",
			"G32",
			"G33",
			"G34",
			"G35",
			"G36",
			"G37",
			"G38",
			"G39",
			"G40",
			"G41",
			"G42",
			"G43",
			"G44",
			"G45",
			"G46",
			"G47",
			"G48",
			"G49",
			"G50"
		],
		"description": "Stable smallworld_scalefree network, IAA=525.4986",
		"created": {
			"creator": "",
			"time": 736265.634,
			"id": "",
			"nodes": "",
			"type": "unknown",
			"sparsity": ""
		},
		"tol": 2.220446049e-16,
		"N": 50
	}
}
