{
	"obj_data": {
		"network": "Tjarnberg-D20150924-smallworld_scalefree-N50-L225-ID5428102",
		"A": [
			[-38.90226061,0,0,0,0,0,0,0,8.002592084,0,0,0,0,0,0,0,4.334505983,0,0,0,9.504813568,0,0,0,0,0,0,0,0,0,0,0,0,0,0,0,0,0,0,9.26878986,0,0,0,0,0,0,0,0,0,0],
			[8.478804624,-17.69622462,0,0,0,0,0,0,0,0,0,0,0,0,0,0,0,0,0,0,0,0,0,0.4290077991,0,5.907534579,0,0,0,0,0,0,0,0,0,0,0,0,0,0,0,0,0,0,0,0,0,0,0,0],
			[0,4.108200898,-9.88522825,0,0,0,-1.649389208,0,0,0,0,0,0,0,0,0,0,0,0,0,0,0,0,0,0,0,0,0,0,0,0,0,0,0,0,0,0,0,0,0,0,0,0,0,0,0,0,0,0,0],
			[0,0,0,-0.5331359056,0,0,0,0,0,0,0,0,0,0,0,-0.6011662686,0,0,0,0,0,0,0,0,0,0,0,0,0,0,0,0,0,-0.02776749509,0,0,0,0,0,0,0,0,0,0,0,0,0,0,0,0],
			[0,0,3.432062393,-0.2165864617,-18.16410691,1.191225539,0,0,0,0,3.849963194,0,4.073491529,3.268234172,0,0,0,0,0,0,0,0,0,0,0,0,0,0,0,0,0,0,0,0,0,0,0,0,0,0,0,0,0,0,0,0,0,-0.4248426748,0,0],
			[6.321270256,0,0,0,0,-6.739171057,0,0,0,0,0,0,0,0,0,0,0,0,0,0,0,0,0,0,0,0,0,0,0,0,0,0,0,0,0,0,0,0,0,0,0,0,0,0,0,0,0,0,0,0],
			[0,0,0,0,-1.30229552,0,-1.338393263,0,0,0,0,0,0,0,0.4873195388,0,0,0,0,0,0,0,0,0,0,0,0,0,0,0,0,0,0,0,0,0,0,0,0,0,0,1.963161903,0,0,0,0,0,0,0,0],
			[0,0,0,0,0,0,0,-3.554239371,0,0,0,0,0,0.6303221384,0,0,0,0,0,0,0,0,0,0,0,0,0,0,0,0,0,0,0,0,0,0,0,0,0,3.698630345,0,0,0,0,0,0,0,0,0,0],
			[0,0,3.271010921,0,3.955479675,0.8038689827,0,1.574416971,-30.75111243,0,3.593113864,0.9871344503,0,0,0,0,0,0,0,0,0,0,0,0,0,0,0,0,0,0,0,4.998149115,0,0,0,0,0,0,0,0,0,7.71242176,0,0,3.743058338,0,0,0,0,0],
			[0,0.04581636689,0,0,0.2054794636,0,0,-0.2985005722,-0.9135505883,-0.6428175112,0,0,-0.638652387,0,0,0,0,0,0,0,0,0,0,0,0,0,0,0,0,0,0,0,0,-0.02082562131,0,0,-0.1388374754,0,0,0,0,2.335246337,0,0,0,0,0,0,0,0],
			[0,0,3.159940941,0,0,0.6691966316,0,0,0,0,-16.40087097,0,0,2.900314862,0,0,0,0,0,0,6.235191021,0,0,0,0,0,0,0,0,0,0,0,0,0,0,0,0,0,0,0,0,0,0,0,0,0,0,0,0,0],
			[0,0,-0.07080711247,0,1.035727567,-2.267215974,0,0,0.9871344503,0,0,-1.917345536,0,0,0,0,0,0,0,0,0,0,0,0,3.033598838,0,0,0,0,0,0,0,0,0,0,0,0,0,0,0,0,0,0,0,0,0,0,0,-0.6733617558,0],
			[0,0,3.398741398,0,0,0,0,0,3.826360823,0,0,0,-11.6095897,0,0,0,0,0,0,0,0,0,0,0,0,0,0,0,0,0,0,0,0,0,0,0,0,0,0,0,-0.4526101699,0,0,0,0,0,0,0,0,0],
			[0,0,0,0,0,0,0,0,0,0,0,0,0,-10.79461371,0,0,0,0,0,0,0,0.8913365922,0,0,0,0,0,0,0,0,0,0,0,0,0,0,0,0,0,0,0,0,0,0,0,0,0,0,0,0],
			[0,0,6.008885937,0,0,3.926323805,0,0,0,0,6.122732666,0,0,0,-22.21121932,0,0,0,0,0,0,0,0,0,0,0,0,0,0,0,1.163458044,0,0,0,0,0,0,0,0,0,0,0,0,0,0,0,0,0.8968900913,0,0],
			[0,0,0,0,3.773602582,0,0,0,3.579230117,-0.2776749509,0,0,0,0,0,-9.506201943,0,0,0,0,0,0,0,0,0,0,0,0,0,0,0,0,0,0,0,0,0,0,0,0,0,0,0,0,0,0,0,0,0,0],
			[0,0,-0.8705109709,0,-0.4359496728,0,0,-0.5956127696,0,0,0,0,0,0,0,0,-0.6650315073,0,0,-0.8496853496,0,0,0,0,0,0,0,0,0,2.240836853,0,0,0,0,0,0,0,0,0,0,0,0,0,0,0,0,0,0,0,0],
			[0,1.120418427,0,0,-0.1596630967,0,-0.2721214518,0,0,0,0,0,0.0971862328,0,0,0,0,-0.2651795781,0,0,0,0,0,0,0,0,0,0,0,0,0,0,0,0,0,0,0,0,0,0,0,0,0,0,0,0,0,0,0,0],
			[0,0,5.449370911,0,0,0,0.9274343359,0,0,0,5.670122496,0,0,0,0,0,0,0,-17.78924573,0,0,0,0,0,0,0,0,0,0,0,0,0,0,0,0,0,0,0,0,0,0,0,0,0,0,0,0,0,0,0],
			[0,0.4776009155,0,0,0,0,0,0,0,0,0,-0.1777119685,0,-1.453628368,0,0,0,0,0,-1.171788293,0,0,0,0,0,0,-0.04581636689,0,0,2.626805035,0,0,0,0,0,0,0,0.05275824066,0,0,0,0,0,0,0,0,0,0,0,0],
			[0,0,0,0,0,0,0,0,0,0,6.235191021,0,0,5.808959972,0,0,0,0,0,0,-16.4105896,0,0,0,0,0,0,0,0,0,0,0,0,0,0,0,0,0,0,0,0,0,0,0,0,0,0,0,0,0],
			[0,0,0,0,0,0,0,0,0,-0.5400777794,0,0,0,0,0,0,0,0,4.055442657,-0.5581266512,0,-2.499074558,0,0,0,0,0,0,0,0,0,0,0,0,0,0,0,0,0,0,0,0,0,0,0,0,0,0,0,0],
			[0,0,0,5.667345747,0,0,0,0,8.707886459,0,0,0,0,8.359404396,9.915772495,0,0,0,0,0,0,0,-32.89615143,0,0,0,0,0,0,0,0,0,0,0,0,0,0,0,0,0,0,0,0,0,0,0,0,0,0,0],
			[0,0,0,0,0,0,0,0,-0.5289707814,0,0,0,-0.3526471876,0,0,0,-0.2096445879,0,0,0,0,0,0,-0.5123102843,0,0,0,0,-0.2165864617,0,0,0,0,0,0,0,0,-0.1416142249,0,0,0,0,0,0,0,0,0,0,0,0],
			[0,0,0,0,0,0,0,0,0,0,0,0,0,4.798223151,0,0,0.9746390775,0,0,0,0,0,0,1.809052305,-19.56220029,0,0,0,0.7441688683,0,0,0,0,0,0,0,0,0,6.307386509,0,0,0,9.104961639,0,0,0,0,0,0,0],
			[0,0,0,0,0,0,0.0638652387,0,5.217512327,0,0,0,0,0,0,0,0.5942243948,0,0,0,0,0,0,0,0,-13.03961569,5.202240204,0,0,0,0,0,0,0,0,0,0,0,0,0,0,0,0,0,0,0,0,0,0,0],
			[0,0,0,0,0,0,0,0,3.687523347,0,0,0,0,0,0,0,0,0,0,0,0,0,0,0,0,5.202240204,-8.396890514,0,0,0,0,0,0,0,0,0,0,0,0,0,0,0,0,0,0,0,0,0,0,0],
			[0,0,0,0,0,0,0,0,0,1.069048561,0,0,0,0,0,5.304979936,0,0,0,0,0,3.847186444,0,1.303683894,0,0,0,-8.124769062,0,0,0,0,0,0,0,0,0,0,0,0,0,0,0,0,0,0,0,0,0,0],
			[0,0,0,0,0,0,0,0,0,-0.03193261935,0,0,0,0,0,0,0,0,0,0,0,0,0,0,0,0,0,0,-0.1568863472,0,0,0,0,0,0,0,0,0,0,0,0,0,0,0,0,0,0,0,0,0],
			[0,0,0,0,0,0,0,0,0,0.3915216807,0,0,0,0,0,0,0,0,0,0,0,0,0,0,0,0,0,0,0,-5.736764485,0,0,0,0,0,0,0,0,0,0,0,0,0,0,0,0,0,0,0,0],
			[0,0,-0.8760644699,0,0,0,0,-0.6816920044,0,0,0,0,0,0,1.163458044,0,0,0,1.150962671,0,0,0,0,0,0,0,0,0,0,0,-0.3748611837,0,0,0,0,0,0,0,0,0,0,0,0,0,0,0,0,0,0,0],
			[0,5.689559743,0,0,0,0,0,0,0,0.633098888,0,0,0,0,0,4.873195388,0,0,0,0,0,0,0,0,0,0,0,0,0,0,0,-12.75361049,0,0.8441318506,0,0,0,0,0,0,0,0,0,0,0,0,0,0,0,0],
			[0,10.16429158,0,0,0,8.689837587,0,0,9.844965383,0,0,0,0,0,0,0,0,0,10.65994136,0,0,0,0,0,0,0,0,0,0,0,0,0,-49.09570806,0,0,0,0,0,0,0,0,0,0,0,0,0,0,0,0,0],
			[0,0,0,0,0,0,0,0,-0.5928360201,0,0,0,0,0,0,0,0,0,0,0,0,0,0,0,0,0,0,0,0,0,0,0,0,-0.09440948329,0,0,0,0,0,0,0,0,0,0,0,0,0,0,0,0],
			[0,0,0,0,8.662070092,6.946038896,0,0,0,0,0,0,0,0,9.792207142,0,0,0,0,0,0,0,0,0,0,0,0,0,0,0,0,9.179933875,0,0,-36.96270108,0,0,0,0,0,0,0,0,0,0,0,0,0,0,0],
			[0,0,0,0,0,0,2.807293753,0,0,0,0,0,8.119215563,0,0,0,0,0,0,3.98602392,0,0,0,0,0,0,0,0,0,0,0,0,0,0,10.72241823,-20.74231883,0,0,0,0,0,0,0,0,0,0,0,0,0,0],
			[0,0.3845798069,0,0,0,0,0,0,-0.8580155981,0,0,0,0,0,0,0,0,0,0,0,0,0,0,0,1.474453989,0,0,0,0,0,0,0,0,0,0,0,-0.2512958305,0,0,0,0,0,0,0,0,0,0,0,0,0],
			[0,0.3554239371,0,0,0,0,0,0,0,-0.04442799214,0,0,0,0,0,0,0,0,0,0,0,0,0,0,0,0,0,0,0,0,0,0,0,0,0,0,0,-0.1152351046,0,0,0,0,0,0,0,0,0,0,0,0],
			[0,0,0,0,0,0,0,0,0,0,0,0,4.938449001,0,0,0,0,0,0,0.8274713535,0,0,0,0,6.307386509,0,0,0,0,0,0,0,0,0,0,0,0,0,-9.395131962,0,0,0,0,0,0,0,0,0,0,0],
			[0,0,0,0,5.939467199,0,0,3.698630345,0,0,0,0,0,0,0,5.636801502,0,0,0,0,0,0,0,0,0,0,0,0,0,0,0,0,0,0,0,0,0,0,0,-16.34255923,0,0,0,0,0,0,0,0,0,0],
			[0,0.2512958305,0,0,0,0,-0.5733987735,0,0,-0.05692336493,0,0,0,0,0,0,0,0,0,0,0,0,0,0,0,0,0,0,0,0,0,0,0,0,0,0,0,0,0,0,-0.3123843197,0,0,0,0,0,0,0.008330248526,0,0],
			[0,8.171973804,0,0,0,0,1.963161903,0,0,0,0,0,0,0,0,0,0,0,0,0,0,0,0,0,0,0,0,0,0,0,0,0,0,0,0,0,0,0,0,0,0,-30.25962777,0,0,0,0,0,0,0,0],
			[0,0,0,0,8.395502139,0,2.929470732,0,0,3.33209941,0,0,0,0,0,0,0,0,0,0,0,0,0,0,0,0,0,0,0,0,0,0,0,0,0,0,0,0,0,0,0,0,-22.613848,0,0,0,0,0,0,0],
			[0,0,0,-0.553961527,0,0,0,-0.796927109,0,-0.2512958305,0,0,0,0,0,0,0,0,3.741669963,0,0,0,0,0,0,0,0,0,0,0,0,0,0,0,0,0,0,0,0,0,0,0,0,-1.305072269,0,0,0,0,0,0],
			[0,0,0,0,0,0,0,0,3.743058338,0,0,0,0,0,0,0,0,0,0,0,0,0,0,0,0,0,0,0,0,0,0,0,0,0,0,0,0,0,0,0,0,7.522214419,0,0,-6.118567542,0,0,0,0,0],
			[0,0,0,0,0,0,0,0,4.710755541,0,0,0,4.810718524,0,0,0,0,0,0,0,0,0,0,0,0,0,0,0,0,0,0,0,0,0,0,0,0,0,0,0,0,0,0,2.382451078,0,-6.9238249,0,0,0,0],
			[0,0,0,0,0,0,2.258885725,0,0,0,0,0,0,6.901610904,0,0,0,0,0,2.424102321,0,0,0,0,0,0,0,0,0,0,0,0,0,0,0,0,0,0,0,0,2.968345225,0,0,0,0,0,-17.14642822,0,0,0],
			[0,0,0,0,0,0,0,0,0,0,0,-0.07774898624,0,0,0,0,0,0,0,0,0,0,0,0,0,0,0,0,0,0,0,0,0,0,0,0,0,0,0,0,0,0,0,0,0,0,0,-0.1277304774,0,0],
			[0,0,0,0,-0.4651055427,0,0,0,0,0,0,0,0,0,0,0,0,0,0,0,0,0,0,0,0,0,0,0,0,0,0,0,0,0,0,0,0,0,0,0,0,2.808682128,0,0,0,0,2.139485496,0,-0.660866383,0],
			[0,0,0,0,0,7.976212963,0,8.012310707,0,0,0,7.706868261,0,0,0,0,0,0,0,0,0,0,0,0,0,0,9.203536246,0,0,0,0,0,0,0,0,0,0,0,0,0,0,0,0,0,0,0,0,0,0,-42.68558182]
		],
		"G": [
			[0.02451035737,-0.003677196913,-0.005119670547,-0.001401070123,0.003448787996,-0.002422528201,0.02107905513,-0.01290892561,0.007504146111,0.006066652891,0.01043137639,0.01570890485,0.00146678234,0.02950869724,0.000552265072,0.00810670925,0.1600477184,-1.244950497e-15,0.002510248263,-0.1238770667,0.0181594939,0.01052476868,1.996915907e-17,0.006760710319,0.002786612398,-0.001854703895,-0.0004731534876,2.431408075e-18,0.003884543675,0.005794193413,0.00171406715,0.002940880253,-2.503915419e-18,0.02536877651,-2.964083273e-17,-1.432417417e-17,-0.003351741929,-0.06502314444,0.001870781753,0.01097967615,-0.02110281645,0.003403891386,0.001121967344,-3.234480012e-17,0.004590691608,7.512102275e-17,-0.001997176174,-0.008969378141,-0.01600592196,1.838644658e-17],
			[0.01200614538,0.05613936783,-0.0001094377604,-0.001443445639,0.003553096957,-0.001412458993,0.0162139178,-0.006646902096,0.01146881283,0.01385550012,0.007808520762,0.01317214751,-0.0006099449812,0.01786560341,0.0004247998986,0.005541063991,0.09447097631,-1.328499974e-15,0.001537953645,-0.07411528194,0.009920654654,0.006372065216,2.566438362e-17,0.05361641288,0.001870599918,0.03399843219,0.02146791166,8.361750437e-18,-0.06514618454,0.002964676266,0.001318453019,0.004494635989,2.819068337e-17,0.03755551607,-2.261239156e-17,-1.551340843e-17,-0.007654972441,-0.09982234732,0.00125582022,0.005305044548,-0.01502926382,0.005542683462,0.0007531553452,-1.302054811e-16,0.007016092443,6.152847329e-17,-0.001674661564,-0.009815244752,-0.01342120072,9.402610827e-18],
			[0.004125600646,0.02003596797,0.1054671156,-0.00493655038,0.01215150863,-0.001484807009,-0.1340602549,0.000825648804,0.004660401405,0.005361096683,0.004117516602,0.007583200951,0.003675888992,0.0105270439,-0.003512339422,0.0027467111,0.0328725024,-8.364266654e-16,0.0001506419027,-0.02704283061,0.003953944931,0.003754645656,-2.49202387e-18,0.02107166174,0.001215908733,0.01213564585,0.007666117465,-1.772396325e-16,-0.02332258541,0.0004576920062,-0.01090126087,0.001826414659,1.426814923e-17,0.0165996275,3.673052497e-18,5.53059575e-18,-0.002961931869,-0.03827635013,0.000816295755,0.002526721462,-0.01448706718,-0.007104352199,0.0004895585382,2.262662171e-16,0.00285101933,2.274711215e-16,-0.0009641021064,-0.06602451423,-0.007726580801,3.013823628e-17],
			[-0.001396226654,-0.003492725065,-0.01970996366,1.887539112,-0.02915636516,-0.003907796807,0.01230908235,-0.007304003503,-0.006506727157,0.04298856284,-0.0104254586,-0.008529190231,-0.01321456908,-0.01725945474,0.0003224943532,-0.1221237406,-0.01148630488,-3.46605882e-17,-0.001338604094,0.01162086292,-0.004769822525,-0.006155872192,-1.541938777e-17,-0.01695322333,-0.003972745484,-0.002135490226,-0.001386436897,9.658479528e-16,0.004560276645,0.0008344086589,0.001000926918,-0.002549991048,-4.451573184e-16,-0.5874412536,1.40600693e-16,-1.103650049e-16,-0.02375058721,0.02615447676,-0.002667087739,-0.002444913301,0.02945038538,0.002274892889,-0.001599537382,6.505213035e-16,-0.003980516545,-2.131541471e-16,0.001084371932,0.1011617544,0.008690456432,-1.366971416e-16],
			[0.002802935445,0.006611606396,0.03512630025,-0.02442589138,0.06012527109,0.008381544237,-0.02299151868,0.000692276426,0.004847910393,0.001291358729,0.01917686147,0.01301295093,0.02130412338,0.03131777202,-0.000602371057,0.003554163165,0.02102092626,-5.615451511e-16,0.002425482148,-0.02279707375,0.008909659975,0.01117000535,-6.626709323e-19,0.01438858493,0.002506831515,0.004044719205,0.002630268898,-1.194053875e-16,-0.007973075731,-0.002227562574,-0.001869581281,0.001899899566,1.774423513e-17,0.02388656445,8.089588163e-18,2.717525217e-17,-0.0007134578616,-0.02811957188,0.00168295191,0.001746378509,-0.04658799179,-0.0006498016403,0.001009319811,1.323946378e-16,0.002965728709,1.096674733e-16,-0.001654421857,-0.2072499196,-0.01325899412,1.380786788e-17],
			[0.02299045264,-0.003449171311,-0.004802196127,-0.001314188766,0.003234926194,0.1461138968,0.0197719279,-0.01210843393,0.007038808662,0.005690455421,0.0097845193,0.01473478447,0.001375826121,0.02767884189,0.0005180187213,0.007604006431,0.1501230453,-1.568486643e-15,0.002354585978,-0.1161953615,0.01703341074,0.009872120274,1.356814433e-17,0.006341473853,0.002613812576,-0.001739692385,-0.0004438129025,3.198396409e-17,0.003643660353,0.005434891349,0.001607776624,0.002758514172,-1.055850888e-17,0.0237956406,-6.260319928e-17,-3.517161377e-17,-0.003143898023,-0.06099101291,0.001754773243,0.01029881861,-0.01979421576,0.003192813655,0.001052393349,-5.450064093e-17,0.004306019549,-5.91731923e-17,-0.001873329856,-0.008413180609,-0.01501338333,-1.0152345e-17],
			[0.005178373384,0.01974772512,-0.02608001954,0.02599081065,-0.06397738007,0.005380774193,0.8438434322,-0.02150404275,0.0006348141169,0.00237998019,-0.005228371442,-0.01263973592,-0.02354979531,-0.01859278792,0.02210845083,-0.002660416399,0.03828905875,7.341713127e-16,0.002927806807,-0.0225270752,0.001012735029,-0.006631427693,1.579563716e-16,0.007256510197,-0.002628085034,0.01194912656,0.007525921085,-2.021037553e-16,-0.02248379796,0.004641170023,0.06861808072,0.0002487841085,-4.490313559e-17,-0.005944929088,-1.808298875e-17,5.446210093e-18,-0.001314906182,-0.01923123973,-0.001764355004,-0.001929823224,0.04939084735,0.05638365995,-0.001058139836,-4.969643945e-16,0.0003883500928,-1.383958662e-16,0.001606972584,0.3712552459,0.01287872252,-1.023580091e-16],
			[0.002408076974,0.006707187263,0.03011064306,-0.01786545895,0.04397651434,0.005823308633,-0.01573765326,0.3744149016,0.01038410465,-0.02130842061,0.01669544842,0.01369201812,0.01711689818,0.04760100708,-0.000412321907,0.0542716122,0.01894620182,2.869022353e-15,0.003787633483,-0.0236043452,0.007738151762,0.01697769252,-8.762518782e-17,0.01918447786,0.003842326529,0.004104573108,0.002671755759,9.470251867e-17,-0.008259217055,-0.003407611661,-0.00127972503,0.004069538075,8.308425742e-17,0.04634139173,-5.056469058e-18,7.938816298e-18,0.01177260807,-0.03438291397,0.002579531465,0.08610293261,-0.04134153513,0.0002654354455,0.001547027098,5.531463959e-17,0.006352517846,-1.18364384e-16,-0.001740756125,-0.1518611147,-0.01395090081,-6.25271119e-18],
			[0.00327339491,0.01457737992,0.02187979018,-0.005650197447,0.01390817833,0.0005922394472,0.00975295268,0.01632314142,0.03774416994,0.01839040214,0.0150012512,0.02380011482,0.004163188907,0.01659929842,0.0002555245043,0.01123155239,0.02670989452,-4.00234926e-16,0.00140099847,-0.02667767354,0.007595624424,0.005920416437,1.193300016e-17,0.02538899875,0.0037330239,0.008849664954,0.005628316436,-4.109126234e-17,-0.01734321233,-0.001782281845,0.0007930723505,0.01479196732,2.154110664e-19,0.1298627066,-1.428436362e-17,-1.475531394e-18,-0.01016044317,-0.04341481285,0.002506151556,0.005550763161,-0.0347844379,0.01516112093,0.001503018832,-3.653761321e-17,0.02309014798,3.07913417e-17,-0.003025864801,-0.04673413442,-0.02425011699,3.9080512e-18],
			[0.005391875898,0.02696468958,-0.0562713525,0.01094241177,-0.02693516744,-0.002985503321,0.09013195653,-0.1640244201,-0.01992839257,1.377161172,-0.01150221608,-0.0116492477,-0.09935752851,-0.04926217426,0.002361430869,-0.02489411242,0.01601281364,-3.667930488e-15,-0.003531303437,-0.03596997666,-0.001247349411,-0.01757017549,8.269921477e-17,-0.2440112853,-0.07549674088,0.01633109624,0.01031409174,1.60217976e-16,-0.02124329735,-0.01021551661,0.007329181733,-0.007809951367,-6.42898007e-18,-0.3768340625,1.746243124e-17,2.101658149e-17,-0.760862526,0.2834011083,-0.05068445306,-0.03406379166,0.1580312408,0.1051199424,-0.03039707924,-3.692792599e-16,-0.01219127442,-2.019326546e-16,0.001481045316,0.1164764459,0.01186950659,8.747097488e-18],
			[0.002016629098,0.004342873072,0.02594955686,-0.001300634672,0.003201562269,0.006585552707,-0.03013601048,0.0008298054605,0.00159979034,-0.008802486847,0.07395466399,0.003135476845,0.001691179636,0.03924742751,-0.00078955465,0.001193204912,0.01476188366,-3.530351996e-16,0.003032653168,-0.01768021148,0.02926702528,0.01399824915,1.322518532e-17,0.007479963008,0.001088379563,0.00266462194,0.001747319013,-3.695670923e-18,-0.005163741447,-0.002329448181,-0.002450543692,0.0006269589837,1.408038605e-17,0.007930015562,-3.774081028e-18,1.246402364e-18,0.004863252402,-0.01728679835,0.0007306795264,0.00133154512,-0.00623823786,-0.002279962817,0.0004382117617,-5.19168728e-17,0.000978678184,-1.999705822e-17,-0.0003986337498,-0.01659956288,-0.003194761071,1.062000541e-17],
			[-0.03088378046,-0.01847638647,0.03785675601,-0.01843458056,0.04537742906,-0.1652818442,0.1755755955,-0.01650905861,-0.0007339207715,0.2447836728,0.006687568656,0.5248127717,0.01912741443,-0.0002082535457,0.00460002919,-0.01158339821,-0.174414063,6.230808241e-16,0.0009067958641,0.03154960099,-0.01534657278,-7.427709798e-05,8.992864098e-17,0.30536649,0.09085912373,-0.0112101365,-0.007117314533,5.788284348e-17,0.009409892776,-0.05368161969,0.01427712764,-0.0002876240777,2.590967907e-18,-0.0511461606,1.743278509e-16,-8.02987234e-19,-0.1352395982,-0.3608252667,0.060997931,-0.02125225134,-0.6617292461,-0.01965082789,0.03658240014,-9.757819552e-18,-0.000448978988,-4.555004377e-17,-0.06672289208,-0.1617853251,-0.5347357022,7.980215033e-18],
			[0.002299440089,0.01050248001,0.03584840982,-0.001336154968,0.003288996844,6.406015238e-05,0.02459689959,0.003115515654,0.01334801005,0.01730486399,0.00545310299,0.008995932174,0.08622409183,0.00631181322,0.0006444315666,0.003957532193,0.01820731677,-2.533776242e-16,0.0006426205897,-0.01623268328,0.003403710015,0.002251213382,-6.07105571e-18,0.0118341803,0.0008607415256,0.006367227688,0.004033346676,-2.015353962e-16,-0.01225464309,-0.0003208198206,0.00200012464,0.005231094727,1.349667592e-17,0.04334787844,-6.92618841e-18,1.278511531e-17,-0.009560698335,-0.02197504043,0.000577855586,0.002009242693,-0.1357969332,0.007512451687,0.0003465583819,-3.043897599e-17,0.008165698907,1.75795759e-16,-0.001143711899,-0.01527078089,-0.009166023328,7.889185461e-19],
			[-2.443925265e-05,-1.290486236e-05,0.006669336664,-0.0003468688596,0.0008538310391,-0.0001330941939,-0.002441884273,0.003355428439,0.0005895381333,-0.02824586846,0.003555466714,0.001991903129,0.002191716914,0.09768625767,-6.397665293e-05,0.0005824481481,0.0005480289423,-1.299133606e-16,0.007930009565,-0.01661779981,0.001336741953,0.0348414319,3.305146383e-17,0.006682145745,0.001895394768,4.028525863e-05,0.000115630995,4.462773077e-17,-0.000234364077,-0.007395052889,-0.0001985645746,0.000231040418,2.291212542e-18,0.008398499681,-7.782274022e-18,-2.707916687e-17,0.01560545219,-0.01581994288,0.001272466149,0.0007455360557,-0.005581932368,-0.002286730296,0.0007631384385,-8.493538175e-17,0.0003606523275,-4.673758396e-17,-0.0002532437179,-0.003653182717,-0.002029565163,2.059910674e-17],
			[0.007297156833,0.005666959473,0.02917837613,0.0008847739855,-0.002177905195,0.03730687743,-0.03410363313,-0.04435783721,0.002055547893,-0.005708552451,0.02975942244,-0.01096595176,-0.0009271852699,0.01805118006,0.05286938566,-0.00314168637,0.04854807836,3.018495081e-16,0.01208440673,-0.03627059265,0.01553349424,0.006438254222,3.078964763e-18,-0.001846974576,-0.001866940979,0.003515199322,0.002375724441,-6.586951714e-17,-0.006305772839,0.002355430103,0.1640909081,0.0008055706961,1.006891887e-17,0.008201761621,-1.027027449e-18,4.320376251e-17,0.003153896382,-0.01433603752,-0.001253363805,-0.005900387335,0.01459113407,-0.0007794956024,-0.000751682155,-1.41474831e-16,0.001257489703,5.581947122e-17,0.001394173418,0.3794305319,0.01117329118,6.170158565e-18],
			[0.002187646478,0.007325528509,0.02382556647,-0.01214316695,0.0298908725,0.003637349378,-0.008087370684,0.0112118519,0.0167177989,-0.0327898152,0.0135966669,0.0144670288,0.01292665606,0.02012080189,-0.0002118867438,0.1115613562,0.01793346326,-3.014234505e-16,0.001593470895,-0.01804344874,0.006433101425,0.00717641934,-3.398296184e-18,0.0223986081,0.004605907967,0.0044606052,0.002861990987,-1.841619034e-17,-0.009074479592,-0.001256920454,-0.0006576336714,0.006551717401,2.067580954e-18,0.06938462863,-3.179761684e-18,4.863239667e-18,0.01811592,-0.03578685637,0.003092158991,0.003778192281,-0.03620661468,0.002379906589,0.001854466138,8.580104943e-17,0.01022718081,6.158098933e-17,-0.00183928832,-0.1032687556,-0.01474056506,4.06297882e-18],
			[-0.02338791765,-0.0773119786,-0.172585413,0.03579514243,-0.08811111982,-0.04023395548,0.2296313546,-0.3392974017,-0.02524930326,0.0832466488,-0.0314620064,0.06547842561,-0.03200683844,0.06345428537,0.00601627425,-0.06073475844,1.3356605,-1.069727735e-14,0.006367583742,-0.9924670821,-0.02549996235,0.02263202845,1.86748742e-16,-0.03460269735,0.008534924071,-0.0436558214,-0.02163143999,9.505064921e-17,0.08825433707,0.06728178316,0.01867273267,-0.009895220087,-8.494512263e-17,-0.1173661234,-2.22895026e-16,-1.800165241e-16,-0.04599262365,-0.4118587228,0.005729889176,-0.09005403247,-0.03272881566,0.004854504235,0.00343639686,-3.247185507e-16,-0.01544636296,6.815091568e-16,-0.00832470199,0.3331754667,-0.06671646306,6.927003679e-17],
			[0.04456869826,0.2167997622,0.01828917129,-0.0185529469,0.04566879237,-0.01651245825,-0.7745700179,-0.005292059192,0.04977884501,0.06166359531,0.02880950366,0.0640865821,0.04036254722,0.07802100276,-0.02029350766,0.02545224474,0.35387711,3.771029456,0.002268751054,-0.2822531421,0.03675979604,0.02782749098,9.960359688e-17,0.2147637411,0.00940651876,0.1312841319,0.08287632209,1.104941139e-15,-0.2518694651,0.008987103302,-0.06298503488,0.01950836512,-4.200335469e-17,0.1662822207,-3.372276656e-16,-6.332652836e-16,-0.0340682847,-0.3931508553,0.006315030993,0.02407973697,-0.1359025563,-0.03129661251,0.003787325026,9.343476446e-16,0.03045240893,4.080792982e-17,-0.00814774779,-0.3032573016,-0.06529830319,-4.52257443e-17],
			[0.002176543291,0.008551389082,0.03921914976,-0.0005717545245,0.001407395753,0.001924755085,-0.006678728982,-0.0006036918364,0.001970629446,-0.001039352613,0.02456095749,0.002663389337,0.0004373198052,0.01476509474,-0.0001749807436,0.001083019728,0.01677118521,-3.995926236e-16,0.05737914821,-0.01509382502,0.01059254445,0.005266217124,1.827797673e-17,0.009217340988,0.0005823634675,0.005189787132,0.003297656847,-1.473440282e-18,-0.0099624635,-0.0003603155915,-0.0005430883821,0.0007722910958,1.009766216e-17,0.007302623028,-3.116041645e-17,-1.086933854e-17,0.0005742279631,-0.01823776062,0.0003909675237,0.001097813946,-0.003851214865,3.655149619e-05,0.0002344756643,1.27476341e-17,0.001205540501,2.62806795e-17,-0.0003386141665,-0.006160955977,-0.002713747538,2.131247599e-17],
			[0.01192287586,0.03674292836,-0.0222303823,0.004066477158,-0.01000978993,0.02409178964,-0.003331103041,-0.02761962315,0.001634261158,0.1914972377,-0.003206300077,-0.07738882839,-0.01952709116,-0.1187516306,-8.727392426e-05,0.0003743409764,0.07664957392,-2.582557716e-15,-0.00967320478,0.8262581177,0.005687353174,-0.04235474824,-5.965356586e-17,-0.05925445078,-0.02549382748,0.01972236514,0.007710513276,6.870453642e-17,-0.03912386907,0.408275114,-0.000270872402,0.0006404681222,9.724997026e-19,-0.03771152192,3.324773725e-17,-2.34797533e-18,-0.1057995789,0.4511055717,-0.0171151852,0.0005112941296,0.1217844716,0.02254649914,-0.01026452116,3.142559997e-16,0.000999765846,-3.244339476e-16,0.009838949666,0.04062308253,0.07885206254,-3.58929682e-17],
			[0.0007575657738,0.001645503302,0.01222030156,-0.0006169585127,0.001518667108,0.002455063545,-0.01231452342,0.001503026135,0.0008165216554,-0.0133428665,0.02935756926,0.001896408562,0.001418378284,0.04949065136,-0.0003226369077,0.0006595301448,0.00580275572,1.474087468e-17,0.003959289796,-0.01259989037,0.07252942174,0.01765166565,1.568092408e-17,0.005207327552,0.001084453835,0.001026681105,0.0007048231616,3.722772007e-17,-0.002044918962,-0.003502745607,-0.001001369365,0.0003199954234,8.253384813e-18,0.005985873312,-1.118305837e-17,1.043629294e-17,0.00737174945,-0.0121679909,0.0007280440034,0.0007698216574,-0.004346085555,-0.001675718491,0.0004366311547,-1.588229128e-17,0.0004995104114,-5.482214287e-17,-0.0002411028668,-0.007600131421,-0.001932265026,1.498664079e-17],
			[-0.0002959738152,-0.0001562855216,0.08076961458,-0.004200787202,0.01034039927,-0.001611849467,-0.0295726639,0.04063622448,0.007139655743,-0.3420741858,0.04305880639,0.0241231259,0.0265429891,0.06112776835,-0.0007747951347,0.007053791824,0.00663695487,-3.325730025e-15,0.0960371096,-0.2012513918,0.01618873627,0.421950363,-1.407535824e-17,0.08092474013,0.02295435252,0.0004878783269,0.001400359792,-2.255242163e-16,-0.002838287693,-0.08955846762,-0.002404734529,0.002798036215,1.255818989e-17,0.1017108022,-5.519393739e-17,-9.687261708e-17,0.1889912629,-0.1915888721,0.01541031824,0.009028882918,-0.06760050492,-0.0276936574,0.009242058192,3.1441863e-18,0.004367713157,1.334771459e-16,-0.003066931319,-0.04424220502,-0.02457923542,-9.637937921e-18],
			[0.002819299444,0.004961920634,0.01288604755,0.3238679487,-0.001780951731,0.01069499695,-0.006197963182,-0.00945542492,0.009639626309,0.003375751673,0.01204863618,0.002031425126,-0.0008971039005,0.03168516041,0.01604317636,-0.01886535901,0.01986441377,-4.744231538e-18,0.005797936225,-0.02021551242,0.006210774034,0.01130104055,0.03039869275,0.004941286806,0.0002226411017,0.003044489685,0.001996497149,1.351203898e-16,-0.005765531958,-0.001497237581,0.04979326588,0.003777776476,-5.958548559e-17,-0.06222216398,1.933352702e-17,-1.015423097e-17,-0.001865056173,-0.01532771959,0.0001494692663,-0.000540957344,-0.00115431994,0.003589140817,8.964147499e-05,1.881090769e-17,0.00589708022,-1.445038208e-17,-0.0002582684088,0.1184993178,-0.002069834425,-1.160382198e-17],
			[-0.004589611958,-0.0333130087,0.01261111861,-0.004555791381,0.01121425571,0.01643786889,-0.1174319899,0.09391906032,-0.05144405218,0.1884926709,-0.01524100344,-0.07103534335,-0.06917142986,-0.0721710707,-0.003076683747,0.001013198344,-0.6641423025,-1.796467434e-14,-0.006486047106,0.50111115,-0.008449054983,-0.02574101522,-5.735429492e-17,1.839027032,-0.02407669338,-0.02149643394,-0.01605221659,-1.265968667e-15,-2.653038272,-0.0299669362,-0.009549114742,-0.02016096101,1.214619835e-16,-0.2205020372,9.715129092e-17,7.615165009e-17,-0.1041395972,-2.030584742,-0.01616379755,0.01865263166,0.1860380849,-0.007289044392,-0.009693943711,-1.556046958e-15,-0.03147110612,4.118884053e-16,0.009031189414,-0.04677034171,0.07237844858,2.976981996e-17],
			[0.0003282659136,-0.0001770763015,0.0009208366691,-0.001048868696,0.002581830637,0.00225772367,0.07203931976,-0.02400452357,-0.004975586248,0.1367793767,0.00131063309,-0.003463151506,0.003601027356,0.0248089526,0.001887409083,-0.004044238826,0.02225819766,-5.679203445e-16,0.002396222067,0.00771466949,0.0006881016626,0.008848526428,1.882488374e-17,0.2021393263,0.05728636069,-0.0001288701801,-0.0001219346326,-8.668535182e-17,-0.007329606829,0.01222673904,0.005857958562,-0.001949935825,1.35735971e-17,-0.04729815086,-3.51772783e-18,1.726422553e-17,-0.0755687164,-0.2448801667,0.0384589828,-0.005246499666,-0.001033724885,0.01353218865,0.02306507572,-1.99113729e-16,-0.003043834927,7.379351036e-17,0.0004402931801,0.004598084167,0.003528631262,8.510881175e-18],
			[0.001119569124,0.006588981793,0.006104371019,-0.001982158244,0.004879158756,-0.00194785525,0.02684354677,-0.00820390013,0.0273207709,0.01910902938,0.009525842564,0.02206999562,0.001090945557,0.01640569397,0.0007032930649,0.004889694467,0.101512484,-9.949147354e-16,0.001475172637,-0.08061092417,0.004267777426,0.005851364183,1.347629419e-18,0.01735553177,0.003352414312,0.1060665315,0.06615268749,5.864856127e-18,-0.008058131722,0.002740871398,0.00218281329,0.01070702975,1.469003946e-17,0.09210120309,-5.305052052e-17,-4.124372827e-17,-0.01055747479,-0.05823469107,0.00225063074,-0.001221726826,-0.02824297646,0.01224718999,0.001349774869,-2.520770051e-18,0.01671359164,2.239216299e-17,-0.002805903392,-0.01313209911,-0.02248728546,1.618881133e-17],
			[0.002131144575,0.01048386836,0.01339050941,-0.003709337196,0.009130676175,-0.0009466973629,0.02091379167,0.002085689456,0.03350189218,0.01991508617,0.01248952634,0.02412522794,0.00250416712,0.01745368253,0.0005479352179,0.00796175402,0.07462115697,-4.983281176e-16,0.001529187137,-0.06165757834,0.005979718996,0.006225146768,-2.004058777e-17,0.02190217563,0.003716337286,0.06959920694,0.1625478761,3.606327476e-17,-0.01260869569,0.0009153942708,0.001700628565,0.01312941562,2.203450333e-17,0.1140903698,-3.655201277e-17,-2.975457337e-17,-0.01100281004,-0.05514469748,0.00249494906,0.001680723634,-0.03277346228,0.0142457272,0.001496300339,4.878909776e-19,0.02049491748,6.389000115e-17,-0.003067198565,-0.02865936448,-0.02458137721,4.359149184e-18],
			[0.00126127009,0.00291176915,0.04842156364,-0.009209100019,0.02266855389,0.003856493238,-0.02626704152,0.02005035173,0.003419663087,0.0280641264,0.02530772524,0.007937729113,-0.003163686598,0.02402018464,-0.0006881887964,0.07306987799,-0.08960782476,-4.614113724e-15,0.04500990792,-0.0314021081,0.01034616321,0.1980426701,-9.698950763e-18,0.3159236552,7.949070665e-05,0.00184307518,0.001313206393,0.1230804214,-0.435765338,-0.04938040118,-0.002135934116,0.001340168421,1.366666485e-17,0.008500625062,-2.324089001e-17,-2.501288293e-17,-0.01550504221,-0.4026203968,5.336578695e-05,0.005253111555,-0.005005580438,0.001102604472,3.20051605e-05,-2.4952913e-16,0.002091992667,-4.763713295e-18,-0.001009175598,-0.08055631453,-0.008087812226,-3.393425745e-19],
			[-0.001097461466,-0.005488388145,0.01145346113,-0.002227216556,0.005482379214,0.0006076688176,-0.01834544248,0.03338550143,0.004056221497,-0.2803071412,0.002341159026,0.002371085816,0.02022321377,0.01002681423,-0.000480645221,0.005066943236,-0.003259245253,5.294473627e-14,0.0007187608766,0.007321322683,0.0002538852783,0.003576230409,-1.52144058e-16,0.04966601383,0.01536659328,-0.003324028439,-0.002099328408,1.800005999e-15,6.378364796,0.002079264443,-0.001491780353,0.001589636119,-6.793415995e-18,0.07670073838,-1.329841727e-17,1.253778169e-16,0.1548658239,-0.05768341143,0.0103163046,0.006933338125,-0.03216565078,-0.02139609447,0.006187016129,5.993469609e-16,0.002481409838,-9.124645484e-16,-0.0003014517015,-0.02370759518,-0.00241591727,-3.237296397e-17],
			[0.0003679837859,0.001840281332,-0.003840397242,0.0007467957696,-0.00183826651,-0.0002037540989,0.006151309715,-0.01119430941,-0.001360069387,0.09398825036,-0.0007850011945,-0.0007950357822,-0.006780934908,-0.003362036094,0.0001611625133,-0.00169896895,0.001092839653,-1.439687501e-15,-0.000241003768,-0.00245487256,-8.512888042e-05,-0.001199126207,3.61736008e-19,-0.01665323874,-0.005152488124,0.001114561748,0.0007039142961,4.464414203e-17,-0.001449808774,0.1736170984,0.0005002006894,-0.0005330121698,-7.799055862e-19,-0.02571810397,-1.518264206e-17,-2.936578525e-17,-0.05192721015,0.01934150836,-0.003459103524,-0.002324779586,0.01078528797,0.007174207103,-0.00207453445,-1.499722655e-16,-0.0008320279252,-7.406879607e-17,0.0001010781169,0.007949263733,0.0008100679714,-3.414654508e-18],
			[0.01531019264,-0.01517744871,-0.09025896789,0.04501614716,-0.1108089776,0.114579459,0.2155692507,-0.8223371452,-0.01734484343,0.00531182312,0.1277918949,-0.06847888335,-0.04125305963,-0.009805580521,0.1725119347,-0.1115386893,0.09089432628,1.732011954e-14,0.2064417171,-0.05279177029,0.0574219102,-0.003497323719,4.827748986e-17,-0.06156439336,-0.01383532579,-0.008980990242,-0.005276065148,-6.834539445e-16,0.01936558179,0.01133141656,3.203080101,-0.006797456603,-2.856163334e-17,-0.07518902801,8.700129511e-17,2.53155278e-16,-0.002934708906,0.0514877211,-0.009288293933,-0.1774271777,0.1424990606,0.01381333818,-0.005570485419,-2.124602577e-15,-0.01061077783,4.969067963e-16,0.008706169876,1.589187515,0.06977365216,-5.642329984e-17],
			[0.005099181543,0.02312354794,-0.002832020375,-0.002392360913,0.005888888401,0.0003653765857,0.00456373942,-0.01360770453,-0.005172161793,0.05437194544,0.001873023748,0.0009340993101,-0.001995274354,0.006313905663,0.0001195686364,0.03919607878,0.03869095635,-1.286446535e-15,0.0005373933352,-0.03065610938,0.003665037775,0.002251959687,8.243324643e-18,0.009812521015,-0.002704801272,0.01400416934,0.008843464639,-2.484178228e-17,-0.02637634301,0.001075954645,0.0003711056198,0.07638219504,1.435509087e-17,0.6716565091,-3.347474208e-18,-1.025248679e-17,-0.03003974886,-0.02609408795,-0.001815858162,-0.0001876466633,0.001762464264,0.002299010085,-0.001089027919,-4.380176777e-17,-0.003164090809,4.797594613e-17,-0.0001187581759,-0.0186324318,-0.0009517608516,1.507591591e-17],
			[0.007683880327,0.01579191548,0.01203031742,-0.001788599467,0.00440270638,0.02610610563,0.007361956204,-0.0003771395371,0.01161680573,0.007337788277,0.01168939513,0.01068588953,0.001047022298,0.01513228823,0.0001928810968,0.0049804301,0.05512728861,-7.611141602e-16,0.0134745855,-0.04453725803,0.008891786654,0.005397182803,2.375477431e-17,0.01931511729,0.001724924328,0.009632202568,0.006210580776,-5.264309767e-18,-0.01848317573,0.00114011414,0.0005986457745,0.004552634511,0.02036837922,0.03961333747,-2.451482756e-17,-1.372299254e-17,-0.004054026673,-0.04412720204,0.001158021461,0.004272609407,-0.01442642706,0.004760758927,0.0006945023174,1.005597515e-16,0.007106627692,3.566516928e-17,-0.001358567268,-0.01423027746,-0.01088793366,-1.757408077e-18],
			[-0.02055499451,-0.09153737096,-0.1373922119,0.03547991632,-0.08733517864,-0.003718915352,-0.0612428058,-0.1024997263,-0.2370111848,-0.1154809076,-0.09419903327,-0.149450721,-0.0261423774,-0.1042338298,-0.001604543579,-0.07052754221,-0.1677224259,3.797526529e-15,-0.008797446272,0.1675200971,-0.04769605337,-0.03717673262,-8.136937305e-17,-0.1594279774,-0.0234411942,-0.05557069022,-0.03534251645,-8.532671097e-16,0.1089051716,0.01119168158,-0.004980027848,-0.0928848536,-1.294266343e-17,9.776694858,3.32850067e-17,3.209238431e-17,0.06380160639,0.2726194866,-0.01573715756,-0.03485552749,0.2184258086,-0.09520292112,-0.009438074137,-9.957312752e-16,-0.1449925469,3.01408204e-16,0.01900065103,0.2934628735,0.1522764699,2.901596064e-17],
			[0.008176816449,0.008145422092,0.01435590911,-0.006330841834,0.01558361067,0.03939606944,-0.0095737749,-0.01724408784,0.001718841535,0.01336329559,0.01468181754,0.003145375593,0.004509915942,0.01889085914,0.01399210531,0.01116415983,0.05560790874,-6.930355812e-16,0.004345759011,-0.04440036893,0.01031425786,0.006737739759,1.599198204e-18,0.006511304224,-8.769314473e-05,0.005030221637,0.003358705795,-3.508410468e-17,-0.009405017563,0.00139052921,0.04342734906,0.02014705644,1.717676938e-18,0.1790526135,0.02705429989,1.567180359e-17,-0.007383036235,-0.0283297235,-5.887246291e-05,0.0007348718555,-0.01033423205,0.0008121851963,-3.530768929e-05,-2.70508442e-17,0.001051508232,5.668344483e-17,-0.0003998922427,0.0457424975,-0.003204846981,2.721485096e-17],
			[0.008119004462,0.01805518376,0.01365160372,0.0005034370369,-0.001239229629,0.02574818752,0.1182457984,-0.0159125614,0.006513342293,0.05080351177,0.008400292405,-0.01143513556,0.02914247691,-0.01310073359,0.01046066862,0.007032116841,0.05578431534,-7.181246971e-16,0.001035381291,0.1264260059,0.007894113176,-0.004672594979,7.354363565e-18,-0.002406544555,-0.004963213142,0.01049986569,0.005815300687,-1.333467028e-16,-0.02022001145,0.07967906298,0.03246681594,0.01261907525,-2.916969712e-19,0.101474652,0.0139852984,0.04821061754,-0.02806823855,0.06083922615,-0.003332034477,0.001003433032,-0.02840965385,0.01532423582,-0.001998327099,-8.185726402e-17,0.003984563381,4.092863201e-17,0.001453823834,0.07572106819,0.01165134611,-2.115941242e-17],
			[0.009123550366,0.03510347551,-0.06947014391,0.01092866865,-0.0269013382,0.009063245406,0.4141971716,-0.2067497089,-0.1405144114,0.760952503,-0.03157967209,-0.08142349723,0.005980583138,0.1162293557,0.01085184461,-0.05359782478,0.1839776328,-2.561996839e-15,0.01162974553,0.02292733784,-0.006714423144,0.04145513687,1.37439566e-16,1.181399501,0.3262390191,0.02105863339,0.01292164305,-1.54688545e-16,-0.08348856546,0.08236167051,0.03368091031,-0.05506769879,-2.118429401e-18,-0.6634414968,-6.258557041e-17,-1.566401089e-16,3.558957877,-1.441343497,0.2190193385,-0.04161688916,0.08970088793,0.03611566258,0.1313528664,-4.185020386e-16,-0.08596025712,-5.009014037e-17,0.0103519036,0.17152507,0.08296301713,3.415745063e-17],
			[0.03495220709,0.1627567241,0.02135743631,-0.008670834461,0.02134359252,-0.003205462602,0.01525952227,0.04273704224,0.04305692346,-0.4882186684,0.02851870156,0.04511862277,0.03642524093,0.07409619336,0.0003997950152,0.02668824071,0.2852067458,2.211664012e-15,0.006105034253,-0.2147285894,0.03107955148,0.0264276423,-6.705790437e-17,0.2594477449,0.0348767384,0.09856630795,0.06223776444,-1.280442766e-16,-0.1927426232,0.01308257416,0.001240845269,0.01687403924,1.767080135e-17,0.2611193025,-7.26144405e-17,-9.565373667e-17,0.2697340709,8.260762286,0.02341436716,0.02949557515,-0.107283027,-0.02343266494,0.01404234101,1.602884492e-15,0.02634024635,3.95733793e-17,-0.005736226633,-0.07518010753,-0.04597170598,-4.016630236e-18],
			[0.002479156858,0.008637749234,0.01750359788,-0.001048336533,0.002580520698,0.003671258641,0.06099903415,-0.0169102936,0.003819831987,0.1177884533,0.003463859704,-0.004412340516,0.0460204545,0.009514145036,0.001598156833,-0.0006018808564,0.03126430675,-6.982998909e-16,0.001094518729,0.06941893413,0.002751988306,0.003393378396,-6.971928189e-18,0.1367071798,0.03666606665,0.004997384555,0.002717323925,-1.159079885e-16,-0.01480803831,0.04399835781,0.004960205281,0.0014969949,2.367954719e-17,-0.01228951719,-9.709115158e-18,1.321921969e-17,-0.06507649351,-0.1362194319,0.1310537264,-0.002421049272,-0.06134806541,0.0150193937,0.01476277413,-1.132449169e-16,0.002336797603,1.259266942e-16,0.0005609698086,-0.001362156651,0.004495767122,-5.457539158e-19],
			[0.002318232911,0.00644754437,0.02779856133,-0.01710889506,0.04211420323,0.005618654228,-0.01470712345,0.08885591497,0.009878249851,-0.01566288757,0.01543775003,0.01281803392,0.01607515761,0.0290949764,-0.0003853223279,0.05205363956,0.01811316498,1.990080616e-16,0.002288332347,-0.01985084181,0.007208253628,0.01037720825,-1.711573007e-17,0.0172967602,0.003369311821,0.003937469088,0.002547747098,-6.571578066e-17,-0.007896844733,-0.002014313754,-0.001195926336,0.003871293214,2.058313885e-17,0.04310099248,-9.038159185e-18,2.106412121e-17,0.008653529043,-0.03034459674,0.002261974819,0.08261450229,-0.03877632606,0.0006447786392,0.001356578274,1.666283214e-17,0.006043059133,2.584297522e-17,-0.001629640778,-0.1453100258,-0.0130603917,-7.598904623e-18],
			[-0.0003281327477,0.004299296916,0.05742269259,-0.05056347133,0.1244639294,-0.007786093972,-1.555152272,0.06428166912,0.01170409509,-0.2481452751,0.01786589493,0.02740125012,0.06053096642,0.05748002379,-0.04074453414,0.01406510111,0.005628135911,-4.841023687e-15,-0.003508190831,-0.01222950915,0.006598082685,0.02050120848,-4.247878701e-16,0.06931930307,0.01861115893,0.00262263723,0.001691566717,3.863825492e-16,-0.00741796542,-0.003401360103,-0.1264589615,0.004586843273,3.311634126e-17,0.1106213127,-1.237853949e-17,-4.013242104e-18,0.1370968371,-0.09078662964,0.01249453155,0.01436205525,3.080379461,-0.1178727789,0.00749336814,-2.981555974e-18,0.007160027309,3.541004295e-16,-0.003483700766,-0.4991810293,-0.02791934098,9.311486129e-17],
			[0.003578361628,0.01644228504,-0.001721555324,0.001296392991,-0.003191121208,-3.236150145e-05,0.05912501644,-0.003190198769,0.003138474856,0.003896249859,0.00176958183,0.00273726422,-0.001692569246,0.003618570293,0.001549058118,0.001323829955,0.02799710464,-2.108336772e-16,0.0006052908455,-0.02147721192,0.002744894729,0.001290623405,3.222711383e-18,0.01495053506,0.000334674874,0.009956909237,0.006285927067,-1.189293484e-17,-0.01905219236,0.001101752646,0.004807817417,0.001229970551,-5.709681904e-18,0.009756624815,-5.301878656e-18,-6.331809509e-18,-0.002152624232,-0.0282058871,0.000224682718,0.001307488973,-0.0008544890435,0.03820221868,0.0001347493752,-1.12384702e-16,0.001919974634,4.281817723e-19,-0.0003480063653,0.02143530108,-0.002789019216,-1.531441669e-18],
			[0.002505907455,0.008985961375,0.001370865076,-0.004088959137,0.01006513018,0.003368825121,0.114059223,-0.02669731967,-0.00105435721,0.2037093208,0.004747378373,0.0014772395,-0.009781563264,0.001959636951,0.002988318243,-0.002693229601,0.01512366207,-5.508763476e-16,0.0007594201044,-0.0166818503,0.003255153867,0.0006989371792,3.335605158e-17,-0.02967264705,-0.01053405129,0.005455900361,0.003471190428,-5.0157903e-17,-0.009002819025,-0.00173099472,0.0092748544,-0.0004132033482,4.02089187e-18,-0.0474277686,3.324604318e-19,2.692082465e-17,-0.1125465861,0.02882770709,-0.007071995714,-0.004620866659,0.01238777502,0.02255206494,0.03997939082,-4.583464684e-17,-0.00064500727,-1.680513367e-18,-0.0001878111529,-0.01168640871,-0.001505170499,-9.062590791e-18],
			[0.004324162643,0.01671176231,0.113256904,-0.7940370077,-0.005256311353,0.00419598173,-0.03211805279,-0.1956791336,0.005908078167,-0.2733921602,0.06686197035,0.005138592128,0.01554234366,0.03007651942,-0.0008414835783,0.02659578683,0.03830631985,8.935181154e-17,0.1634425232,-0.02686715194,0.02790865705,0.01072729192,4.063386455e-17,0.06889278981,0.01554681879,0.01013466334,0.006425462887,-6.324625611e-16,-0.02136442777,0.002660636198,-0.002611715699,0.002315380078,1.499155143e-16,0.3145496124,-4.280565702e-17,5.072033288e-17,0.1510453924,-0.09696405223,0.01043729833,-0.0418334128,-0.02872695878,-0.02126409095,0.006259579914,0.7662410916,0.003614290614,6.082374188e-17,-0.0006533029425,0.009700773149,-0.005235750383,5.508085849e-17],
			[0.006401778075,0.0291320437,0.01126855629,-0.001862735442,0.004585194934,0.0003225193861,0.07865516213,0.006063692385,0.02694861333,0.01604048239,0.01135261348,0.01792502998,0.0004659898156,0.01460338607,0.002060742216,0.008498474232,0.05075974326,-7.725448699e-16,0.001601215719,-0.04272442525,0.008021248716,0.00520854103,-7.245943347e-18,0.03391212607,0.002695144294,0.01765491966,0.01117111277,-7.499799122e-17,-0.03403269314,0.0002641851556,0.006395933247,0.01056118093,4.468151736e-18,0.09143890405,-1.229680081e-17,-9.735373179e-18,-0.008862144969,-0.06123572311,0.001809374986,0.005003138811,-0.02233003545,0.0562409809,0.001085139752,-2.556548723e-16,0.1799228699,3.338665065e-17,-0.002278926705,-0.002237069469,-0.01826394861,-1.602215759e-18],
			[0.005312703416,0.02296561609,0.07876513242,-0.2779964713,0.009939240598,0.001891265595,0.01267404189,-0.05406170296,0.03698718379,-0.06953698791,0.03700208307,0.02421145351,0.06808960094,0.02602830553,0.0003320561863,0.01954278655,0.0440041447,-1.746819106e-16,0.05763938999,-0.03867407793,0.01713596639,0.009283428971,1.351737529e-17,0.04920199214,0.0084874595,0.01393231189,0.008842694649,-2.289428412e-16,-0.02766577418,-0.0005200062688,0.001030604015,0.0144953039,7.439776249e-17,0.2267077796,-2.526699282e-17,3.034241424e-17,0.03841822536,-0.07817130313,0.005698024015,-0.00922205154,-0.127903636,0.008217996456,0.003417286309,0.2636594572,0.02262705866,0.1444288402,-0.003078160988,-0.03906870807,-0.0246692331,6.124154088e-18],
			[0.002301175661,0.008535258981,0.006046684212,-0.004894078442,0.01204696232,0.002713401148,-0.1595090693,0.005741142007,0.00257815481,-0.02694076157,0.003381922925,-0.007060738583,0.005498009139,0.03003237771,-0.004179090908,0.002371792532,0.01707560009,-1.314379988e-15,0.001602728071,0.1050397853,0.002617771949,0.01071154805,-8.550882306e-17,0.007268800606,3.437636099e-05,0.004832707277,0.00242093936,5.333512359e-17,-0.009871744823,0.05476652768,-0.01297065993,0.001010380722,7.798499996e-18,0.01641624223,-1.522033503e-17,-2.517763084e-17,0.01488439866,0.03915776121,2.307844066e-05,0.002604455953,0.5547447853,-0.01071068302,1.384087521e-05,-8.782037597e-18,0.001577196589,-9.283481102e-19,0.05921886233,-0.03323472265,0.007194239943,1.376579417e-17],
			[0.01879882289,0.01124649611,-0.02304324279,0.01122104903,-0.02762104378,0.1006063399,-0.1068721016,0.0100489922,0.0004467343827,-0.1489987574,-0.004070693965,-0.3194512523,-0.011642774,0.0001267630278,-0.002800017768,0.00705076413,0.1061650818,1.325315183e-15,-0.0005519626999,-0.01920410495,0.009341392125,4.52121466e-05,-6.454560465e-17,-0.1858752548,-0.05530555357,0.006823561348,0.004332278412,1.961863831e-16,-0.00572776082,0.0326757685,-0.008690425517,0.0001750755255,1.225614323e-17,0.03113244558,-1.436296828e-16,-1.033719009e-16,0.08231975545,0.2196327711,-0.03712917539,0.01293615299,0.402791715,0.0119613735,-0.02226754791,3.829402073e-16,0.0002732915579,-1.200753906e-16,0.04061393431,7.92746309,0.325491297,5.022905377e-18],
			[0.02068519725,0.09285858945,-0.01246234587,0.006856096122,-0.0168765443,0.002748038933,-0.2489315311,0.004540788066,0.01827315381,-0.07156765817,0.004973022434,-0.02038330084,-0.004387640409,0.09056472297,-0.006521933222,0.01080335217,0.1594740171,-4.548258607e-15,0.006054140375,0.2648212798,0.01387011033,0.03230141786,-4.493848598e-17,0.07694533237,-0.0002306036033,0.05511564783,0.03270159229,2.969697513e-17,-0.1073192512,0.1835510467,-0.0202421483,0.007161262108,-9.087509442e-17,0.07780059282,-2.187886103e-17,-1.412867897e-16,0.03954014264,0.02668415338,-0.0001548148618,0.0127594118,1.82508416,0.1281420366,-9.284739873e-05,-8.88828941e-16,0.01117867544,8.043424867e-18,0.1914001708,0.129364768,1.53393388,-1.204615317e-16],
			[-0.0003685589632,-0.0004609910374,0.01447677489,-0.007727146886,0.01902066926,-0.001649846229,0.03694992306,0.06548608539,0.01035533169,0.04555316458,0.008862490158,0.1052798766,0.007463397035,0.01783264936,0.0009680771645,0.0112332254,0.01620707796,1.697130036e-16,0.001644369317,-0.03374074743,0.003153831526,0.006360311604,-3.930179936e-18,0.06464219538,0.01841551522,0.01342783001,0.03418086372,5.333385304e-17,-0.001889082511,-0.009118894076,0.003004624681,0.00405826193,1.137914649e-17,0.02850983415,2.094627775e-17,-1.531541448e-17,-0.02516749425,-0.09488737749,0.01236318688,0.01461170944,-0.1380001332,0.0001700348794,0.007414596561,1.561928755e-17,0.006334915869,-3.53212739e-17,-0.01338492167,-0.0654668233,-0.1072704625,0.0234271142]
		],
		"names": [
			"G01",
			"G02",
			"G03",
			"G04",
			"G05",
			"G06",
			"G07",
			"G08",
			"G09",
			"G10",
			"G11",
			"G12",
			"G13",
			"G14",
			"G15",
			"G16",
			"G17",
			"G18",
			"G19",
			"G20",
			"G21",
			"G22",
			"G23",
			"G24",
			"G25",
			"G26",
			"G27",
			"G28",
			"G29",
			"G30",
			"G31",
			"G32",
			"G33",
			"G34",
			"G35",
			"G36",
			"G37",
			"G38",
			"G39",
			"G40",
			"G41",
			"G42",
			"G43",
			"G44",
			"G45",
			"G46",
			"G47",
			"G48",
			"G49",
			"G50"
		],
		"description": "Stable smallworld_scalefree network, IAA=542.8102",
		"created": {
			"creator": "",
			"time": 736265.634,
			"id": "",
			"nodes": "",
			"type": "unknown",
			"sparsity": ""
		},
		"tol": 2.220446049e-16,
		"N": 50
	}
}
