{
	"obj_data": {
		"network": "Tjarnberg-D20150924-smallworld_scalefree-N50-L220-ID4982479",
		"A": [
			[-11.61380936,0,0,0,0,0,0,0,0,0,0,0,0,0,0,0,0,0,4.62035754,0,0,0,0,0,0,0,3.70611658,0,5.160054623,0,0,2.725027894,-0.5986803706,0,0,0,0,0,0,0,0,0,0,0,0,0,0,0,0,0],
			[4.829748211,-13.32039248,0,0,0,0,0,0,0,7.856573928,0,0,0,0,0,0,0,0,0,0,0,0,0,0,0,0,0,0,0,0,0,0,0,0,0,0,0,0,0,0,0,0,0,0,0,0,0,0,0,0],
			[-0.9840378505,0,-0.5013579458,0,0,0,0,0,0,0,0,-0.1051868631,0,-0.3194928086,0,0,0,0,0,0,0,0,0,0,0,0,0,0,0,0,0,0,0,0,0,0,0,0,0,0,0,0,0,0,0,0,0,3.352216853,0,0],
			[0,0,0,-47.56314018,0,0,0,0,0,0,0,0,0,0,0,0,0,0,0,0,0,0,0,0,0,0,0,0,0,0,0,0,0,0,0,0,0,0,0,0,0,0,0,0,0,0,0,0,0,0],
			[0,6.637585981,0.2162720551,6.922671872,-17.42268014,0,0,0,0.6655280967,0,0,0,0,0,0,0,0.6035956446,0,0,5.802972459,0,0,0,0,0,0,5.819684391,0,0,0,0,0,0,0,0,0,0,0,0,0,0,0,0,0,0,0,0,0,0,0],
			[0,0,4.729476622,0,0,-45.51248788,0,0,0,0,0,0,0,0,0,0,0,0,0,0,0,0,0,0,0,0,0,0,0,0,0,0,0,0,0,0,0,0,0,0,0,0,0,0,0,0,0,0,0,0],
			[0,0,-0.5269173705,0,0,6.658230132,-1.244547371,0,0,2.978656031,0,0,0,0,0,0,0,0,0,1.015495604,0,0,0,0,0,0,0,0,0,0,0,0,0.03342386306,5.356665582,0,0,0,0,0,0,0,0,0,0,0,0,0,0,0,0],
			[4.993918362,0,0,0,0,0,0,-8.956612244,2.085059222,0,0,0,0,0,0,0,0,0,0,0,0,0,0,0,0,0,0,0,0,0,0,0,0,0,0,0,0,0,0,0,0,0,0,0,0,0,0,0,0,0],
			[-2.69357014,0,-0.1454921098,0,0,0,-1.277971234,0,-1.428378618,0,0,0,0,0,0,-0.2133228907,0,3.531132826,0,0,0,3.112351483,0,0,0,0,0,0,0,0,0,0,0,0,0,0,1.701667851,0,0,0,0,0,0,0,0,0,0,0,-0.09928853437,0],
			[5.234766787,0,2.5008914,0,0,0,0,0,0,-36.1085857,0,0,6.960027954,0,0,0,0,0,0,0,0,0,0,0,0,0,0,0,0,0,0,0,0,0,0,0,0,0,0,0,0,0,0,0,0,0,0,0,0,0],
			[2.547094976,0,0.3725777676,0,0,0,0,0,0,0,-11.66984348,0.8670543298,0,0,0,0,0,0,0,0,0,6.500941364,0,0,0,0,0,0,0,0,0,0,0,0,0,0,0,0,0,0,0.2054584523,0,0,0,5.976973158,0,0,0,0,0],
			[-1.126580796,0,0,0,0,0,0,0,0,0,0,-0.3519336169,0,0,0,0,0,0,0,0,0,0,0,0,0,0,0,0,0,0,0,0,0,0,0,0,0,0,0,0,0,0,0,0,0,0,0,0,0,0],
			[2.66899377,0,0,0,0,0,-0.274272288,0,0,0,0,1.763600304,-24.0956561,0,0,0,0,0,0,0,0,0,0,0,0,0,0,0,0,0,0,0,-0.4640018636,0,0,0,0,0,0,0,0,0,0,0,0,0,0,0,0,0],
			[0.09732242478,0,0,0,0,0,-0.1150174111,0,0,0,0,0,0,-0.558375124,0,0,0,0,0,0,0,0,0,0,0,0,0,0,0,0,0,0,0,0,0,0,0,0,0,0,0,0,0,0,0,0,0,0,0,0],
			[1.279937344,0,0,0,0,0,0,0,0,6.337754268,0,0,0,0,-5.156122404,0,0,0,0,0,0,0,0,0,0,0,0,0,0,0,0,0,0,0,0,0,0,0,0,0,0,0,0,0,0,0,0,0,0,0],
			[0,0,-0.1110851919,0,0,0,0,0,-0.2133228907,0,0,0,3.414149306,0,0,-2.280687126,0,0,0,0,0,0,0,0,0,0.09044104121,0,0,0,0,0,0,0,0,0,0,0,0,0,0,0,0,0,0,0,0,0,0,0,0],
			[-1.036139755,0,0,0,0,0,-0.05800023295,0,-0.3666794388,0,0,0,0,0,0,0,-0.3076961511,0,0,0,0,0,0,0,0,0,0,0,0,0,0,0,0,0,0,0,0,0,0,0,0,-0.1759668084,0,0,0,0,0,0,0,0],
			[5.905210158,0,0,0,0,0,0,0,0,0,7.130096434,0,0,0,0,0,0,-29.46608445,0,0,0,0,0,0,0,0,0,0,0,0,0,0,0,0,0,0,0,0,0,0,0,0,0,0,0,0,0,0,0,0],
			[0,0,0,0,0,0,0,0,3.03174099,0,0,0,6.583517967,0,0,0,0,0,-34.19261191,0,0,0,0,0,0,0,0,0,0,0,0,0,0,0,0,0,0,0,0,0,0,0,0,0,0,0,8.03745601,0,0,0],
			[3.871269786,0,0,0,5.802972459,0,0,0,0,0,0,0,6.059549761,0,0,0,0,0,0,-30.73520819,0,0,0,0,0,0,0,0,0,0,0,0,0,0,0,0,0,0,0,0,1.957262098,0,0,0,0,0,0,0,0,0],
			[0,0,-0.6045786994,6.432127529,1.762617249,0,0,0,0,0,0,0,0,0,0,0,0,0,0,3.262758867,-4.628221978,0,0,0,0,0,0,0,0,0,0,0,0,0,0,0,0,0,0,5.1757835,0,0,6.310228734,0,0,0,0,0,0,0],
			[5.187580157,0,0,0,0,0,0,0,0,0,6.500941364,0,0,0,0,0,2.741739825,0,0,0,0,-30.20632471,0,0,5.79707413,0,0,0,0,0,0,0,0,0,0,0,0,0,0,0,0,0,0,0,0,0,0,0,0,0],
			[0,0,0,5.114834102,0,0,-0.45712048,0,-0.4630188088,0,0.6045786994,0,0,0,0,0,0,0,0,0,0,0,-0.7667827407,0,0,0,0,0,0,0,0,0,0,0,0,0,0,0,0,0,0,0,0,0,0,0.01572887673,0,0,0,0],
			[1.956279044,0,0,0,0,0,0,0,0,0,0,0.2929503291,4.646900019,0.6861722474,0,0,0,0,0,0,0,0,0,-11.42113062,0,0,0,0,0,0,0,0,0,0,0,0,0,0,0,0,0,0,0,0,0,0,0,0,0,0],
			[0.6478331104,0,-0.01572887673,0,0,0,0,0,0,0,0,0,0,0,0,0,0,0,5.610293719,0,0,0,0,0,-5.044054157,0,0,0,0,0,0,0,0,0,0,0,0,0,0,0,0,0,0,0,0,0,0,0,0,0],
			[0,0,0,0,2.192212195,0,0,0,0,0,0,0,0,-0.2752553428,0,0.09044104121,0,5.465784664,0,0,0,0,0,0,0,-2.526450825,0,0,0,0,0,0,0,0,0,0,0,0,0,0,0,0,0,0,0,0,0,0,0,0],
			[0,0,0,0,0,0,0,0,1.446073605,0,0,0,5.938634021,0,0,0,0,0,0,0,0,0,0,0,0,0,-12.09845537,0,0,0,0,0,0,0,0,0,0,0,0,0,0,0,0,0,0,0,0,0,0,0],
			[0,-0.36078111,-0.1848143016,0,0,0,0,0,0,0,0,0,0,-0.06193245213,0,0,0,0,0,0,0,0,0.08749187682,0,0,0,0,-0.2850858908,0,0,0,0,0,1.417565015,0,0,0,0,0,0,0,0,0,0,0,0,0,1.740006988,0,0],
			[0,0,0,0,5.494293253,0,0,0,0,0,0,0,0,0,6.173584117,0,0,0,0,0,0,0,0,0,0,0,0,0,-47.68307287,0,0,0,0,0,0,0,0,0,0,0,0,0,0,0,0,0,0,0,0,0],
			[0,0,0,0,0,0,0,0,0,0,0,0,5.285885637,0,0,0,0,0,0,6.212906309,0,0,0,0,0,0,0,-1.005665056,0,-6.388873118,0,0,0,0,0,0,0,0,0,0,0,0,0,0,0,0,0,0,0,0],
			[6.32988983,0,0,0,7.608844119,0,4.322491937,0,0,0,0,0,0,0,0,0,0,0,8.393321846,0,0,0,0,0,0,0,0,0,0,0,-37.50059129,0,0,0,0,0,0,0,0,0,0,0,0,0,0,0,0,0,0,0],
			[0,0,0.4050185758,0,0,0,0,0,0,0,0,0,5.276055089,0,0,0,0,0,0,0,2.002482619,0,0,0,0,0,0,0,0,0,0,-7.081926749,0,0,0,0,0,0,0,0,0,0,0,0,0,0,0,0,0,0],
			[0,0,0,3.129063415,0,0,0.03342386306,0,0,0,0,0,0,0,0,0,0,0,0,0,0,0,0,0,0,0,0,0,0,0,0,0,-0.1789159728,0,0,0,0,0,0,0,0,0,0,0,0,0,0,0,0,0],
			[0,0,0,0,0,0,0,0,5.263275376,0,0,0,0,0,0,0,0,0,0,0,0,0,0,0,0,0,0,0,0,0,0,0,0,-34.50325722,0,0,0,0,0,0,0,0,0,0,0,0,0,0,0,0],
			[0,0,0,0,0,0,0,0,0,0,0,0,0,0,0,0,0,0,0,0,0,0,0,4.965409773,4.280220581,0,0,0,0,5.542462938,0,0,0,0,-8.83078123,0,0,0,0,0,0,0,0,0,0,0,0,0,0,0],
			[0,0,0.02162720551,0,0,0,0,0,0,0,-0.2546111921,0,0,0,0,0,0,0,1.558141851,0,0,0,0.01572887673,0,0,0,0,0,0,0,0,0,0,0,0,-0.1386107262,0,0,0,0,0,0,0,0,0,0,0,0,0,0],
			[0,0,0,0,0,0,0,0,1.701667851,7.864438366,0,0,0,0,0,0,0,0,0,0,0,0,0,6.265991268,0,4.241881444,0,0,0,0,0,0,0,0,0,0,-20.80242253,0,0,0,0,0,0,0,0,0,0,0,0,0],
			[0,0,2.21580551,0,0,0,0,0,0,0,0,0,7.548877777,4.816968499,0,0,0,0,0,0,0,0,3.413166251,0,0,0,0,0,0,0,0,0,0,0,0,0,0,-26.80200595,0,0,0,0,0,0,0,0,0,0,0,0],
			[2.795807839,0,0,0,0,0,0,0,0,0,0,0,0,0,0,0,0,0,6.687721775,0,0,0,0,0,0,0,0,0,6.789959474,0,0,0,0,0,0,-0.09535631519,0,0,-6.346601761,0,0,0,0,0,0,0,0,0,0,0],
			[0,0,0,0,0,0,0,0,0,0,0,0,0,0,0,0,2.391772318,0,0,0,0,0,0,6.894163283,0,0,0,0,0,0,0,0,0,0,0,0,0,0,0,-19.68272312,0,0,0,0,0,0,0,0,0,0],
			[0,0,0,0,0,0,0,0,0,0,0,0,0,0,0,0,0,0,0,0,0,0,0,0,0,0,0,0,0,0,0,0,0,0,0,-0.2152890003,0,0,0,0,-0.3912558087,0,0,0,0,0,0,0,0,0],
			[-1.884516043,0,0,0,0,0,0,0,0,0,0,0,0,0,0,0,0,0,0,2.781062017,0,0,0,0,0,0,0,0,4.83564654,0,0,0,0,0,0,0,0,0,0,0,0,-1.005665056,0,0,0,0,0,0,0,0],
			[6.488161652,0,0,0,0,0,0,0,0,0,0,0,0,0,7.345385434,0,0,0,0,0,0,0,0,0,0,0,0,2.230551332,0,0,0,0,0,0,0,0,0,0,0,0,0,0,-43.83244723,0,0,0,0,0,0,0],
			[0,0,0,0,0,0,0,0,-0.1405768358,0,0,0,0,-0.04030524663,0,0,0,0,0,0,0,0,0,-0.2447806441,0,0,0,0,3.969575265,0,0,0,0,0,0,0,0,0,0,0,0,0,0,-0.3381708497,0,0,0,0,0,0],
			[0,0,0,0,0,0,2.048686194,0,1.82651581,0,0,0,0,0,0,0,0,0,0,0,0,0,0,0,0,0,0,0,0,0,0,0,0.8139693709,0,0,0,0,0,0,0,0,0,0,0,-10.38302475,0,0,0,0,0],
			[-0.5465784664,0,-0.2418314798,0,0,0,0,0,-0.01376276714,0,0,0,0,0,0,0,0,0,0,0,0,0,0,0,0,0,0,0,0,0,0,0,0,0,0,0,0,0,0,0,0,0,0,0,0,-0.2378992606,0,0,0,0],
			[0,0,0,0,0,0,0,0,0,0,0,0,0,0,0,6.269923487,0,0,0,0,5.298665349,0,0,6.966909337,0,0,0,0,0,0,0,0,0,0,0,0,0,0,0,0,0,0,0,0,0,0,-28.52628406,0,0,0],
			[0,0,0,0,0,0,0,0,0,0,0,0,0,0,0,0,0,0,0,8.048269613,0,0,0,0,0,0,0,1.740006988,0,0,0,0,0,0,0,0,8.244880572,0,0,0,0,0,0,0,0,0,0,-33.35701533,0,0],
			[0,0,0,0,-0.5908159322,0,0,0,0,0,0,0,0,0,0,0,0,0,1.402819194,0,0,0,0,0,0,0,0,0,0,0,0,0,0.02457636989,0,0,0,0,0,0,0,0,0,0,0,0,0,0,0,-0.101254644,0],
			[6.557958542,0,2.536281373,0,0,0,0,0,0,0,0,0,0,0,0,0,0,0,0,0,0,0,0,0,0,0,0,0,0,0,0,0,0,0,0,0,0,0,0,0,0,4.395237992,0,0,0,4.043304375,0,0,0,-30.8807003]
		],
		"G": [
			[0.08056059418,0.002156008818,-0.01406184312,-0.01767274461,0.005143835172,-0.005008553767,-0.03423608648,8.860981068e-17,0.0195697837,0.0001174319939,0.003459528888,0.1088802654,0.01832718854,0.0115168106,0.01240972287,0.006295024184,0.06893927748,0.002807919703,0.01036236771,0.0003624633445,0.01675470158,0.002760952899,0.00159969849,0.005182003605,0.003173131796,0.002494590309,0.02715242905,0.01503339398,0.007494612772,5.336815787e-17,-2.046346897e-17,0.03099860731,-0.317069599,-0.004697540632,2.183231657e-16,-0.005637952642,0.001351553852,3.111596708e-17,-1.309495996e-16,0.004405828779,0.003629914715,-0.01206268883,0.002412048745,7.020209067e-17,0.001991472793,0.0001057651894,0.002919660844,-0.0006289572583,-0.0191897879,-2.208776053e-17],
			[0.0311914324,0.07529089031,0.05610972677,-0.006598311968,0.003737361776,-0.002637029185,-0.01802547471,2.406928823e-17,0.01436875282,0.0166902269,0.004077633738,0.06016158003,0.0126714168,-0.0377234549,0.004438953539,0.001347942037,0.04098310306,0.003183864503,0.003071803443,0.002423459104,0.006183769114,0.002358084529,0.006472636073,0.004069099712,0.002710119756,0.007881401888,0.01135263524,0.06070952785,0.002648169788,6.283290403e-17,-1.183612077e-17,0.01200203368,-0.1318574164,-0.0003042245288,1.08188342e-16,-0.02215574011,0.004665397957,3.313359956e-17,-1.046238156e-16,0.001626088522,0.01426465459,-0.007171041493,0.000890230868,1.842601592e-16,0.002347283955,0.0004279428809,0.000865499516,0.008805553241,-0.01408974791,8.685475841e-18],
			[-0.09402970465,-0.01739122989,1.535977871,0.04702838483,0.03778325086,-0.008001437111,-0.05469401062,-4.973845229e-16,0.1565595134,0.009647717435,0.06565312826,-0.2577010734,0.0003838222499,-1.055006995,-0.02388279741,-0.03563094535,0.2881802356,0.05017758028,-0.03576536633,0.05656308885,-0.02719137936,0.03026105889,0.142467909,0.04529534139,0.03477869114,0.1693634927,-0.01062932814,1.337230721,-0.01528914604,1.888612422e-16,-1.260046212e-17,-0.03618133555,0.4542750095,0.04644877305,-2.249821152e-16,-0.4930353256,0.1016320332,-1.562775788e-18,-1.750308882e-16,-0.007150265324,0.3174337028,-0.0504244987,-0.003914538981,2.739128369e-15,0.03779312818,0.009419365883,-0.01007711197,0.2241124284,-0.1535195228,-1.932429436e-16],
			[-2.495740227e-17,3.411255788e-17,-2.736255233e-17,0.02102468416,1.573871919e-17,1.01408902e-17,6.755680677e-17,1.995648667e-17,5.93024707e-17,1.153150654e-17,9.515356371e-18,2.740320991e-17,-8.590608151e-18,-6.370704203e-17,-1.390321203e-17,3.41515214e-17,3.19353444e-16,6.417651004e-18,-1.883462462e-17,-1.785968969e-18,-9.640505489e-18,1.490878572e-17,-1.048067218e-16,1.651714247e-19,1.860396696e-17,4.915575715e-17,7.409844223e-18,-1.050117567e-16,-1.237838067e-17,-7.51184221e-18,4.10257182e-18,-2.526360468e-17,-2.16210242e-16,1.08877615e-17,1.510359089e-17,-4.920244984e-17,1.059924091e-17,7.236721524e-18,-3.648402514e-18,-7.00782121e-18,-3.285810209e-17,-5.353449397e-17,5.623239979e-19,-1.040484684e-16,4.608865085e-18,1.890331899e-16,-1.047991514e-17,-7.418314552e-18,-2.343774046e-16,-2.828099495e-18],
			[0.003292733479,0.02967960925,0.03257847664,0.006986823111,0.06110730572,-0.002898162414,-0.01981045701,6.272024865e-17,0.01598589426,0.00504045922,0.005131069303,0.05613457685,0.01044067565,-0.02302605394,-0.002726684057,-0.003876145027,0.1433060804,0.002884490782,-0.00334116457,0.009803526214,-0.0005295743277,0.002751427166,0.001596834139,0.001093625091,0.003162183979,0.00522273283,0.03040292964,0.02844093411,-0.002186592553,3.821812658e-18,-4.886956589e-18,0.001266998501,-0.03051131244,-0.001907098787,2.769547863e-16,-0.08035703169,0.003193285913,3.511131561e-17,-1.413130477e-16,-0.0001392572588,0.05173671903,-0.02507506197,-7.623884474e-05,2.480925621e-16,0.002953692611,0.0001055758108,-0.0009413936702,0.004757546231,-0.01567548854,-2.21025836e-17],
			[-0.009771192714,-0.001807227401,0.1596127079,0.004887002601,0.00392628507,0.02114051407,-0.005683583928,-6.23153669e-17,0.0162690416,0.001002552403,0.00682241182,-0.02677927002,3.988528078e-05,-0.1096321285,-0.002481805265,-0.003702626046,0.02994654326,0.00521425446,-0.00371659454,0.005877811099,-0.002825619934,0.003144608815,0.01480469815,0.004706911623,0.003614063181,0.01759958017,-0.001104557481,0.138959695,-0.001588787213,2.078703556e-17,-1.05901353e-17,-0.003759820406,0.04720645119,0.004826771651,-2.588765621e-17,-0.05123426899,0.01056119644,-1.570822601e-18,-1.348222342e-17,-0.0007430271179,0.03298644716,-0.005239913239,-0.000406783313,1.974874257e-16,0.003927311482,0.000978823018,-0.001047173374,0.02328887169,-0.01595313788,-2.79924272e-17],
			[-0.03850376034,0.00430709882,0.3127896707,0.02564322221,0.02276959084,0.07998471635,0.5467374004,9.228593367e-17,0.3059346794,0.05246770199,0.06220887895,0.125674399,0.01017726784,-0.2205384703,-0.01655119505,-0.04178429864,0.4181555524,0.04973254039,-0.02060843829,0.02613774058,-0.0130579742,0.0449108768,0.02444727149,0.01789825456,0.05161556042,0.07046147432,-0.0008420572618,0.2598885241,-0.01158673796,2.629258031e-16,-4.409145304e-17,-0.01481571678,0.3262933501,0.09555904457,6.329030182e-17,-0.2538254301,0.04285750741,2.194975769e-16,-3.875616191e-16,-0.0034337346,0.1634218522,-0.07316700281,-0.001879858625,7.511352651e-16,0.03581045105,0.001616348528,-0.005806554258,0.04499043571,-0.2999942002,-6.259234667e-17],
			[0.02978607912,0.002750770121,-0.06189302632,-0.00579373373,0.003063052838,-0.01499527253,-0.1025005363,0.1116493572,0.1017224715,-0.006404888157,0.01490507269,0.07300537959,0.002810493332,0.04192298546,0.002166147027,-0.005863506164,0.1409569844,0.0136838618,0.004301290664,-0.006612562194,0.006346396704,0.01368895728,-0.004353757494,0.004446553452,0.01573256306,0.008052689955,0.0105977729,-0.04520763591,0.0007220859223,-5.802175689e-18,-4.441840775e-17,0.01146127309,-0.1007728905,-0.01777066594,7.718587732e-17,0.03922179691,0.004921171669,6.416232224e-17,-3.080320016e-17,0.001668853194,-0.02525238979,-0.02466402757,0.0009136431427,-7.79541362e-17,0.008580083501,-0.0002878517351,0.001211915103,-0.008578119042,-0.09974727783,-3.384849536e-18],
			[-0.06500087298,0.006652400649,-0.232189156,0.01744028035,0.0008377141613,-0.05241795138,-0.3583041333,5.231851465e-16,0.3900890788,-0.02779419638,0.05574055186,0.05282426457,-0.03182258984,0.1525011422,-0.02041755144,-0.040264558,0.4403807427,0.0520553667,-0.00634218232,-0.02927315792,-0.01286745104,0.05218974495,-0.0225334997,0.006689283446,0.05998108087,0.02861647308,-0.01950873676,-0.230201043,-0.01484851864,-3.564043592e-16,-5.764652129e-17,-0.02501144085,0.3265307672,-0.06508488023,8.075705293e-16,0.1819851915,0.01790235809,2.327697361e-16,-1.534010549e-16,-0.003383634488,-0.1171685479,-0.07705586797,-0.001852430435,-3.02926087e-16,0.03208696793,-0.001489818162,-0.001786948882,-0.03534188577,-0.3825145336,-2.97001515e-17],
			[0.003359573295,-0.0009557308977,0.1037753545,-0.0003229395504,0.003174373106,-0.001391982082,-0.009514926099,-1.567688579e-17,0.01233111279,0.02822517906,0.004786695662,0.03506765083,0.01021724479,-0.07103790095,-0.0001027462446,-0.001584439342,0.02710490192,0.003671928744,-0.001162084069,0.003886022078,0.0001844622917,0.002300736209,0.009990603117,0.003713353026,0.002644209983,0.01182896314,0.00255609654,0.09368806779,-0.0001174088999,-1.455795526e-17,9.522450272e-18,0.001292717542,-0.02864177332,0.002371968814,9.225395818e-17,-0.03409797512,0.007079073854,1.551954942e-17,-4.036959027e-17,4.850634131e-05,0.02195349083,-0.004742695449,2.655565287e-05,2.466017841e-16,0.002755454424,0.0006605357432,-0.0003274243347,0.01531598016,-0.0120916737,-1.685076757e-17],
			[-0.01410322512,-0.0009790615052,0.0769838888,0.0228029396,0.001508695616,0.007224605847,0.04938396234,8.555075119e-17,0.05380811718,0.00438130652,0.1098368245,0.2424131846,-0.001669420839,-0.05359319106,-0.007940376301,-0.006622374101,0.2563538856,0.009141531361,-0.00279535034,0.0004115458693,-0.003249669731,0.02918304486,0.005388443527,0.003825697856,0.03353974188,0.01451969498,-0.003594513744,0.06390462178,-0.006075102482,-2.849863527e-17,-3.321496766e-17,-0.005426726822,0.3411488877,0.01029242907,2.804027927e-16,-0.09278283668,0.008789078683,7.220713677e-17,-2.137215533e-16,-0.0008545355675,0.05973689485,-0.04485566522,-0.0004678305823,9.597222106e-17,0.06322740892,0.0003562607291,-0.0007876071534,0.01106997057,-0.05276329937,-6.903000883e-17],
			[-0.2578839132,-0.006901637167,0.04501360954,0.05657252884,-0.01646601985,0.0160329682,0.1095937294,2.310976931e-16,-0.06264517351,-0.0003759135893,-0.01107435784,2.492906451,-0.05866748065,-0.03686666187,-0.03972497878,-0.02015111093,-0.2206827151,-0.008988480389,-0.03317115472,-0.001160287689,-0.05363376539,-0.00883813414,-0.005120822541,-0.01658820148,-0.01015756715,-0.007985476242,-0.08691811086,-0.04812365783,-0.02399113474,-9.146600578e-16,-9.59400338e-17,-0.09923017871,1.014976984,0.01503737867,7.525243991e-16,0.01804774784,-0.004326482442,2.864640017e-16,-7.478962111e-17,-0.01410357481,-0.01161978286,0.03861408211,-0.00772125101,-4.13731549e-16,-0.006374938047,-0.0003385667796,-0.00934617689,0.002013365972,0.06142876238,-9.780689442e-17],
			[-0.009374732861,-0.0003308488309,-0.002948565692,-0.005281742735,-0.0009764991394,-0.0005794758544,-0.003961020764,2.196314081e-17,-0.007000338484,-0.0008004745965,-0.001359241705,0.1926375706,0.03908487225,0.00188102256,-0.001285015531,-0.000151683655,-0.01477994623,-0.001091853385,-0.0009713313588,-0.0004363189822,-0.001874072371,-0.001013822926,-0.000563829354,-0.0009082411996,-0.001165175169,-0.001363668622,-0.003341481904,-0.00575019218,-0.0007522276523,-5.780512821e-17,-1.331861371e-17,-0.003607268114,-0.07335042167,-0.0008511989077,2.245908918e-16,0.004498762992,-0.0008089625637,1.395343844e-17,-6.453289915e-17,-0.0004928074635,-0.002896463844,0.002586129399,-0.0002697961458,-6.6996918e-17,-0.0007824455185,-3.727797382e-05,-0.0002736785853,-0.0005962645635,0.006864409582,-2.197759331e-18],
			[0.02197260349,-0.0005114184663,-0.06688118651,-0.008362427316,-0.003793666279,-0.01734869478,-0.1185874092,-2.808524084e-16,-0.0596073044,-0.01078713973,-0.01221117162,-0.006909785927,0.001097977691,1.838345879,0.005572275325,0.009704173125,-0.0741183295,-0.009754794322,0.006051164935,-0.005320830593,0.005610032461,-0.008769785649,-0.004756972912,-0.002783587018,-0.010079015,-0.01407927474,0.00490600559,-0.05091311851,0.003692984166,-4.445228907e-18,2.242121622e-16,0.008454755258,-0.1224757258,-0.02050257876,1.61039598e-16,0.05130179227,-0.008592472774,1.88214956e-17,1.803095975e-16,0.001475218305,-0.03302992105,0.01296889636,0.0008076343044,-2.284630818e-15,-0.007029343252,-0.0003145106058,0.001704952943,-0.009377020681,0.05844988102,-5.597469001e-17],
			[0.02412756199,-0.0006395564567,0.1240669572,-0.00478396659,0.005178733424,-0.00295428894,-0.02019411118,-1.583697501e-17,0.02001497474,0.03472271227,0.006742446815,0.07013217358,0.01710821289,-0.0844588103,0.1968984457,-0.0003848920779,0.05042978875,0.005210454921,0.0011439174,0.004866560841,0.004385862698,0.003513366447,0.01267725943,0.005850706511,0.004037872137,0.01515906233,0.009882100478,0.118890458,0.001716120239,-7.891975376e-17,-3.34472135e-18,0.009283953615,-0.1139138476,0.001749453773,-7.179620668e-17,-0.04331177501,0.009036894614,-2.776595177e-17,-9.487277229e-17,0.001153309715,0.02788566336,-0.008823980631,0.0006313997636,6.819631665e-17,0.003881279742,0.0008381659129,0.000322305764,0.01866982302,-0.01962633445,2.115803599e-17],
			[-0.00226663115,0.0007708611612,-0.05482047882,-0.01139866921,-0.001143298097,0.004470588491,0.03055881225,4.21907111e-18,-0.05240501167,0.001246291995,-0.007888446341,0.3052851472,0.0621904321,0.03033165858,0.001081518773,0.4441648546,-0.06568745742,-0.00566453106,0.0008614113356,-0.0002954515995,-9.949263632e-05,-0.007097359411,-0.005468454064,-0.003978973364,-0.008156914528,0.003318371933,-0.00124429383,-0.04949514301,0.0009203167164,-5.258380537e-17,-6.182620537e-17,-0.0008721684549,-0.1615920077,0.002710780435,3.998804428e-16,0.00872959733,-0.007493615471,-1.060841004e-16,5.579406024e-17,-2.616265759e-05,-0.005620425678,0.01149369978,-1.432320877e-05,-3.836449387e-16,-0.004540972709,-0.0003615506819,0.0002427079426,-0.008091012492,0.05138743863,-1.307948043e-16],
			[-0.1269004714,-0.0316079388,0.1728809598,0.0169108735,-0.05671666892,0.05922352461,0.4048237884,-2.550382323e-16,-0.5758029458,0.005861059906,-0.1000827189,-0.458034862,-0.02809770664,-0.1104642735,-0.07095239407,0.05560903828,2.37849433,-0.08036276821,0.005396682518,-0.03081184867,-0.01938616079,-0.08086826396,0.02068073358,-0.02281199365,-0.09294097691,-0.06124270378,-0.06615563964,0.1235330302,-0.05593819269,7.602019058e-16,1.152693257e-16,-0.04882955394,0.3885766159,0.06792465247,9.74491077e-16,0.3210332815,-0.03766159449,-2.229898937e-17,-2.405438045e-16,-0.005097799248,-0.2066926607,-0.4161783823,-0.002790880194,8.747343128e-16,-0.05761247216,0.001367321229,0.001520548496,0.02381756267,0.5646223061,-1.980625611e-16],
			[0.01273226121,0.0001951695428,0.01581019063,0.001976030694,0.001395929378,0.0007444346345,0.005088600365,3.217518178e-17,0.01694221541,0.001083706885,0.02727123101,0.08047863423,0.00326893682,-0.01066023665,0.000565612062,-0.0003408910751,0.07584750024,0.03671208362,0.001400282471,0.000172224578,0.002571416489,0.007614921881,0.001624466862,0.001964238413,0.008751743195,0.004013356632,0.004571749953,0.01847620669,3.194170351e-05,1.181992126e-17,-1.374411542e-17,0.004899198788,0.01900699944,0.001549104605,9.908792587e-17,-0.02358114019,0.002397610318,1.857932359e-17,-5.752094866e-17,0.0006761815909,0.01518237793,-0.01327145899,0.0003701875491,-4.079310674e-18,0.01569864463,0.0001074027678,0.0003945381999,0.00255262395,-0.01661324035,-2.591979052e-17],
			[-0.006202316232,0.000869155004,-0.03528105858,0.000751790041,0.0007533279978,-0.004512750836,-0.03084701394,8.676121421e-17,0.02705435926,-0.002295815351,0.003786035123,0.07417901849,0.009766757433,0.02942415009,-0.0001946303278,0.01964831941,0.05029754107,0.003506794829,0.02856007869,-0.001982379649,0.008180071354,0.003602406733,-0.001827530313,0.006443521944,0.004140205127,0.001426872252,-0.001537582713,-0.0182304623,-0.001563700493,-2.209940723e-17,-5.365834607e-18,-0.002386565879,-0.004066806426,-0.005538027968,1.360814281e-16,0.01231484377,0.0004309191891,3.114117954e-17,-1.562436975e-17,0.002151037643,-0.007928735028,-0.008800840519,0.001177623531,-7.523007824e-17,0.002179425634,-0.0001208284505,0.008046977854,-0.004496532124,-0.0265290319,-3.086446446e-17],
			[0.01077375736,0.00552795598,0.01431925906,-0.001559477568,0.01164191778,0.001033282036,0.007063023536,2.851282307e-17,-0.002434605291,0.001986808993,0.006299306011,0.04974881342,0.00798498758,-0.01187076004,0.0004279536042,-0.008116661468,0.029222814,-0.0001650911605,-0.0108076495,0.03483966331,-0.001692572685,0.001104870319,-0.004507091029,-0.001808119788,0.001269814904,0.0006828524752,0.008900399654,0.01008835247,0.0006473402,-7.204862249e-18,-1.085811535e-17,0.004145593477,-0.03861441738,0.001511021127,2.183481531e-17,-0.2758371483,0.0005797598415,2.440746613e-17,-9.60298193e-17,-0.0004450801712,0.1775937804,-0.005113278306,-0.0002436669971,1.251711408e-16,0.00362618638,-0.0002979894895,-0.003045121728,0.001965255725,0.002387331402,-1.159386934e-17],
			[0.0278036692,0.006908430886,-0.2501473684,0.02413956968,0.02143026232,0.002624217373,0.01793789926,2.240740959e-16,-0.07349963724,0.007183222065,-0.009867937217,0.1698089212,0.01922004116,0.1724500325,0.04018396913,0.005435910863,0.4062531051,-0.01285113341,-0.0007416746503,0.01692835808,0.2204553355,-0.0096968959,0.0133505671,0.0276798394,-0.01114453228,-0.02179661438,0.01882562654,0.1392040672,-0.004200031622,3.410798391e-16,4.315643454e-17,0.01069846905,-0.1554726258,0.008504070831,2.356475305e-16,-0.1234824778,-0.01309789171,6.083432979e-17,-2.13846173e-16,0.05797109885,0.07950241724,-0.07108436541,0.03173730148,2.501796513e-17,-0.005680463764,0.0008826821224,-0.000208971395,-0.01787726416,0.07207245982,-5.532713332e-19],
			[-2.786397373e-07,-0.002460322063,0.02104833865,0.003104187986,-0.003674931948,0.004988292136,0.03409758763,3.00175771e-17,-0.03115889726,0.001002150122,0.016002917,0.04796831496,0.002774168232,-0.01238672735,-0.005739198224,0.009073933768,0.2951637536,-0.004056901716,0.008041108023,-0.003093955706,0.002593784237,0.03333926238,0.002875614021,0.001118786531,0.03831643544,-0.001740793714,-0.001767827058,0.02322676687,-0.00523761095,6.323439764e-17,-2.009479788e-18,-1.07216734e-07,0.04528301857,0.006247955804,2.422158475e-16,0.01098729281,-0.001230276188,2.153909494e-17,-8.712242082e-17,0.0006820634306,-0.007074010442,-0.0516464437,0.0003734076661,8.841668717e-17,0.009212055992,0.0001901232411,0.002265631649,0.003326836383,0.03055387013,-2.273992296e-17],
			[0.04932596275,-0.007103536746,-0.01665516778,0.1322376803,-0.01392174881,-0.009869398902,-0.06746250716,3.764045011e-16,-0.380162067,-0.01121463633,0.01425915075,0.08449395409,0.01099848193,0.01840659023,0.01587281442,0.04449605936,-0.3228627878,-0.05511433607,0.01417641292,0.001257066677,0.01278491761,-0.03610171316,1.304412015,-0.01288964742,-0.04149128873,-0.0515206771,0.008413271033,0.006139713733,0.01106693179,3.810835111e-16,6.234331898e-17,0.01897995124,-0.1176295286,-0.01022137257,-6.654290834e-16,-0.02139728991,-0.03163424742,-1.477640506e-16,-3.460298996e-16,0.003361931436,0.01377633734,0.05649309777,0.001840548716,-3.0444397e-16,0.008208259476,0.08624211669,0.003994291544,-0.001353496075,0.3727802793,-6.157675417e-17],
			[0.00469002335,2.69303804e-05,-0.006471849748,-0.004227398895,-0.0001665116559,-0.001724717576,-0.01178934735,7.499841473e-17,-0.004684187523,-0.0009632982897,-0.0009781571247,0.1605553982,0.01760275224,0.112238699,0.0009186163358,0.001082679572,-0.004318616519,-0.0007798970853,0.0008924373746,-0.0004648720312,0.001068691394,-0.0006931588102,-0.000372542053,0.0874823547,-0.0007966395447,-0.001178243463,0.00135659698,-0.004057747561,0.0005841663022,2.263864958e-17,1.218515128e-17,0.001804656403,-0.06547778107,-0.001997020505,3.44831348e-17,0.004409795728,-0.000724841766,2.426484696e-17,-7.148534558e-17,0.0002810238832,-0.002839183551,0.0007556523529,0.000153851486,-5.692061406e-19,-0.0005630747319,-2.463087953e-05,0.00025144972,-0.0008620541325,0.004593232425,-3.423971871e-18],
			[0.003741432099,0.001297863398,-0.04583734202,-0.00158026254,0.001380724663,-0.005637669647,-0.0385364228,1.845464564e-16,0.0321166953,-0.002568542975,0.004450649372,0.0972938941,0.01321581773,0.0374962609,0.001451837234,0.02277362599,0.06389946735,0.004104629875,0.03320861728,-0.002334746976,0.01133503754,0.004267048576,-0.002271487183,0.007691170269,0.2031572947,0.001379317691,0.001810277811,-0.02251606573,-0.0007289928982,-7.049537583e-17,-9.731085075e-18,0.001439651552,-0.04666274218,-0.006907890325,1.993296165e-16,0.01451061543,0.0003359612687,2.552507317e-17,-2.493389711e-17,0.002980669896,-0.009342451033,-0.01118084522,0.001631820355,-5.70554617e-16,0.002562009864,-0.0001501809708,0.009356732196,-0.00578093754,-0.03149307014,9.497012814e-18],
			[0.02792735756,0.02625867225,0.06779685252,0.01084052462,0.05641544834,0.001145946717,0.007833145603,2.03819844e-16,0.05514243036,0.00793801258,0.06449950192,0.2344989441,0.01823816397,-0.2422433266,-0.001710676944,0.01074196123,0.2941613023,0.08278669452,-0.0004981722915,0.009448281373,0.004488779189,0.01956312496,0.00522250215,0.005359256167,0.02248367724,0.4106792755,0.03569233706,0.06842533552,-0.002197615545,3.573462598e-17,-4.071073279e-17,0.01074606263,0.02220444696,0.004027356095,7.766987194e-16,-0.126018949,0.008625766812,8.331903113e-17,-4.161117116e-16,0.001180372711,0.08113548773,-0.0514710392,0.000646215879,7.70542484e-16,0.03712904485,0.0003452893984,-0.0001403631076,0.01038253304,-0.05407170355,-7.055360934e-18],
			[-0.0123709308,0.0006327312559,-0.02919984836,-0.0005080324591,-0.0003791950735,-0.006549721306,-0.04477077326,3.087286862e-17,0.04318940361,-0.003715034526,0.005995220009,0.1008717037,0.01538154575,0.01915108779,-0.003071178759,-0.004887095618,0.04538184913,0.005685996434,-0.001234838948,-0.003713059094,-0.002457893205,0.005740360001,-0.002970087851,0.0003537215294,0.006597330525,0.002751028663,0.07868319247,-0.0303374214,-0.002144013827,-1.307300063e-16,-6.790557259e-18,-0.004760163823,0.003024040077,-0.008197119641,2.520496883e-16,0.02396012382,0.001742701382,3.935947701e-17,-9.184547654e-17,-0.0006463294238,-0.01542638109,-0.00794071456,-0.0003538444532,-4.537386092e-17,0.003451139713,-0.0001963694447,-0.0003479234695,-0.004516937368,-0.04235077441,1.41755993e-17],
			[0.004440853405,-0.09466233796,-1.707553856,0.05072713475,0.006308818718,-0.05379427729,-0.3677120413,1.447736855e-15,0.2037923078,-0.04688654302,0.05849151521,0.5916755761,-0.01469635151,0.5735411258,-0.005894685673,-0.01706165765,0.3135621283,0.03156997442,0.0006091317241,-0.01143314814,0.0009358221621,0.03358644959,0.412878818,0.01304473785,0.03860052489,0.03853533159,0.004395077935,3.611094887,-0.005083483893,3.979877476e-15,-9.629917577e-17,0.001708779239,0.08029302068,0.09127403024,1.068100076e-16,0.04112707168,0.02331528962,5.549353295e-16,-4.520919771e-16,0.0002460844912,-0.02647907355,-0.05486570964,0.0001347232991,1.443073092e-16,0.033670556,0.02729777309,0.0001716266103,0.01676527469,-0.1998351756,-2.764366139e-16],
			[0.003503230115,0.003337035802,0.01981695902,0.0001856724911,0.007711600403,-0.0007164367442,-0.004897220131,1.710625389e-17,0.004433340983,0.005076378923,0.001464181266,0.01554821565,0.003418049957,-0.01358816502,0.02517849298,-0.0004964621545,0.02304168141,0.001006969918,-0.0002368821257,0.001759693023,0.0005068225302,0.00077191357,0.001825335434,0.0008835111334,0.0008871514953,0.002564452432,0.004782631992,0.0186700022,0.02094204026,-2.120123467e-18,-6.953928739e-18,0.001347994708,-0.01826423437,6.757954283e-06,2.126804439e-17,-0.01486678481,0.001537964605,-9.948957831e-18,-3.813469383e-17,0.0001332744292,0.009571765562,-0.004031731155,7.296343907e-05,1.134346523e-16,0.000842853825,0.0001206833345,-6.674299608e-05,0.002965393556,-0.004347256692,3.245883193e-18],
			[0.002021728711,0.02000265877,0.2802694067,-0.01387131678,0.009520289733,0.008993083007,0.06147242935,-1.538889459e-16,-0.04023804529,0.008650163785,-0.00420585455,0.1146238811,0.04241557888,-0.1002679669,0.0002808742444,-0.005332947793,-0.03316781714,-0.006033290601,-0.0114094992,0.03531877142,-0.003343790211,-0.00505115916,-0.06984021489,-0.004563116912,-0.00580523983,-0.006529998886,0.005198832572,-0.5633652046,0.0008073343591,0.1565221255,3.086916285e-17,0.0007779333686,-0.1108767649,-0.01360218125,1.587731496e-16,-0.2709915253,-0.003775542512,-4.523304169e-17,-3.705430331e-17,-0.0008792855589,0.1744739957,0.005803557448,-0.000481380402,3.276458965e-16,-0.002421094079,-0.004617534869,-0.003214696583,-0.001221199321,0.03945672402,2.337228599e-17],
			[0.008439956296,0.007076883512,0.03239362742,0.00155858232,0.01606001799,0.006775921471,0.04631696978,5.349521282e-17,0.04786550878,0.006576352351,0.009642907478,0.06085648796,0.008570991643,-0.02156261762,-0.0004098798714,-0.0001424990633,0.1001693302,0.00757651055,0.005088036295,0.004619374584,0.003046377299,0.007007216713,0.003002887612,0.00460180342,0.00805331455,0.009921838073,0.01031071274,0.03418384164,-0.0008641354851,4.42396838e-17,0.0266662462,0.003247578963,-0.02301043959,0.008595198245,1.685544743e-16,-0.04375684804,0.005912452784,3.784299686e-17,-8.611953381e-17,0.0008010776387,0.02817221723,-0.01752718486,0.0004385640954,1.448494102e-16,0.005550925721,0.000198538024,0.001433585525,0.005038537935,-0.04693608142,-1.577577688e-17],
			[-0.004500049337,0.0007123294455,0.01491501131,0.005580356014,0.00749295847,-0.0001472943103,-0.001006833705,-1.222120312e-17,-0.01704428903,0.001986526342,-4.816067439e-05,0.1767925835,0.03457494003,-0.01017305912,0.00903919409,-0.0006136986718,0.1203420129,-0.00157753648,-0.002978797556,0.007696465025,0.05938458129,-0.001766547519,0.01150275007,0.00974055844,-0.002030272992,0.002506835926,0.002225816864,0.1115542006,-0.002622403997,1.213522928e-16,-1.705958766e-17,0.1394729535,-0.07262744974,0.004426888151,2.776619e-16,-0.05976117442,0.001506147997,1.276071017e-17,-1.487470324e-16,0.01561581363,0.03847637257,-0.02105691134,0.008549152851,2.314703876e-16,-2.772362245e-05,0.0007605124017,-0.000839294535,0.007317904148,0.01671333197,-1.722523555e-17],
			[-0.007193010174,0.0008046228564,0.05843323518,0.3724914244,0.004253659827,0.01494219976,0.1021377561,-1.309038598e-16,0.05715263241,0.009801658613,0.01162143893,0.02347763498,0.001901247838,-0.04119949444,-0.003091981493,-0.007805857988,0.07811697132,0.009290694358,-0.003849928032,0.004882874614,-0.002439401774,0.008389944018,0.004567072696,0.003343629972,0.00964246733,0.01316313257,-0.0001573074006,0.0485506034,-0.002164555443,-8.370176297e-16,-4.806064943e-17,-0.002767771266,5.6501718,0.01785168965,-1.33819686e-15,-0.04741793749,0.008006347538,-2.116294878e-16,7.968885968e-16,-0.0006414669033,0.03052935701,-0.01366856096,-0.0003511823806,-8.161873954e-16,0.006689864483,0.0003019552196,-0.001084740905,0.008404806672,-0.05604287256,1.043544591e-18],
			[-0.009915512962,0.00101478583,-0.03541913331,0.002660415436,0.0001277885241,-0.007996059937,-0.05465725482,8.231762643e-17,0.05950586723,-0.004239846357,0.008502903717,0.0080580407,-0.004854354836,0.02326318068,-0.003114581184,-0.006142128996,0.06717757411,0.00794074971,-0.0009674637912,-0.004465453516,-0.00196285637,0.007961248346,-0.003437357039,0.001020412091,0.009149772266,0.004365279984,-0.002975946681,-0.035115858,-0.00226505695,-2.646257982e-17,-1.590553174e-17,-0.00381535285,0.04981040878,0.01905444313,1.105518815e-16,0.02776080446,0.002730902764,3.950016389e-17,-1.701943301e-17,-0.0005161541697,-0.01787339465,-0.01175443379,-0.0002825777123,-1.256454793e-16,0.004894684208,-0.0002272632753,-0.0002725888744,-0.005391203385,-0.0583504135,1.169974846e-17],
			[0.005719471198,0.01319847632,0.1500494061,-0.01184899688,0.006550820252,0.001942005998,0.01327462744,-1.223911787e-16,-0.0123217009,0.003642498903,-0.00103252279,0.2093768644,0.04292465832,0.01835306591,0.001396504444,0.008299880042,0.007726237975,-0.002235711245,0.009436854538,0.02077409288,0.003996262327,-0.001491801291,-0.04514426101,0.05005386573,0.09437750113,-0.004092384751,0.004903165866,-0.3667798794,0.0004818368063,0.09823797658,1.650761335e-17,0.002200773759,-0.1290238286,-0.01300823811,0.1132402642,-0.1605696451,-0.002614372601,2.752433562e-18,-1.028361525e-16,0.001050860111,0.1033804564,-0.001351902832,0.0005753119197,-3.496552006e-17,-0.0005943702483,-0.00298474453,0.002658891816,-0.004053162556,0.01208244457,1.484838169e-17],
			[-0.05288917745,0.00804910614,-0.300243082,-0.01109182121,0.01001245567,-0.0663675531,-0.4536569624,2.965563992e-16,0.1865714419,-0.03362276679,-0.1473358627,0.3579518379,0.114163903,0.266682737,0.01047242468,0.2325236689,0.1028376368,0.02420347922,0.3222106738,-0.01407206456,0.09513068009,-0.01248566002,0.1398059845,0.07100985595,-0.01434962719,0.009947925708,-0.01138526541,-0.1129735354,-0.007548255624,-7.433561145e-16,5.210607878e-17,-0.02035102719,-0.6148331372,-0.07507221568,2.887365911e-17,7.443957035,0.0009673213284,2.270387112e-17,6.783581943e-16,0.02501563434,-0.1477655172,-0.01799407331,0.01369525064,-3.517151848e-15,-0.08481367596,0.009243370877,0.09078483938,-0.03606601636,-0.1829486954,-1.837383869e-17],
			[0.003060386179,0.005545450752,0.03211451515,0.002241719771,0.01272229017,-0.005099944248,-0.03486078826,9.924685043e-17,0.04640497488,0.009725539414,0.01922692868,0.1137575285,0.010280737,-0.029969955,-0.001781156939,-0.001376159081,0.1049533311,0.02229274574,-0.0007908987174,0.0008611398359,0.0002543859804,0.008919381321,0.002886434984,0.02939481561,0.01025094361,0.09020073578,0.007057253085,0.02931892523,-0.001531179625,-5.301833327e-17,-1.023247564e-17,0.00117759446,0.0006874620083,-0.004207605705,2.696516682e-16,-0.02237281611,0.05375260662,4.416853303e-17,-1.293343077e-16,6.689352646e-05,0.01440441585,-0.01836426809,3.662204199e-05,1.415968037e-16,0.01106795364,0.0001908386766,-0.0002228405787,0.004756719154,-0.04550390741,-1.082359876e-17],
			[-0.0001836131218,-0.002527503316,0.1120124534,0.01773755902,0.0003939126287,-0.00519953755,-0.0355415606,-3.199031684e-17,-0.04815393722,-0.002794714324,0.004666137197,0.04247031774,0.01263808279,0.2460483088,0.0006864400359,0.004422089085,-0.03477466146,-0.004931027846,-0.0003375431107,0.003757158685,-0.0001394504775,-0.003957372993,0.1768780212,0.001347156804,-0.004548163816,0.004526315436,0.0001332364746,0.1005650354,0.0005971947718,3.770058945e-17,5.038766069e-17,-7.06518009e-05,-0.02009473284,-0.001386152562,-1.260800072e-16,-0.03299839463,0.002601575545,0.03731064017,-4.808097822e-17,-3.66700012e-05,0.02124554175,0.006084715934,-2.007563952e-05,-3.191349095e-16,0.002686055118,0.01169441462,-9.510484778e-05,0.0165024926,0.04721890931,-5.276978204e-17],
			[0.03349551319,0.005314853402,-0.01765948086,-0.006627712434,0.0111596613,-0.006731001671,-0.04600991944,1.017667734e-16,0.03906922664,0.003568696152,0.009293676547,0.1373862353,0.02030674528,0.01753479262,0.03204169881,0.01945271155,0.1064763197,0.005645887948,0.0295653979,0.0001647935209,0.01511343618,0.006025718572,-0.001368763146,0.00895095313,0.006925289889,0.005196615694,0.01562877059,0.009083840705,0.02417219287,-5.376795743e-17,-2.282182046e-17,0.01288861224,-0.1542634257,-0.006769877279,3.400837283e-16,-0.1172560673,0.002680336703,5.198707065e-17,0.1575646366,0.003974240409,0.005704729393,-0.01863075388,0.002175768073,-1.978668965e-17,0.005349891442,-9.049673689e-05,0.008330232727,-0.001300849691,-0.03831060088,-6.270055513e-18],
			[-0.01377773015,-0.003831448024,0.01874099955,0.0005742386768,-0.00695032473,0.006592517781,0.04506330957,-6.276514139e-18,-0.07161016753,0.0003748051067,-0.01250429882,0.0005781734277,0.002751292638,0.02589004188,-0.008300115793,0.007136630805,0.2875132478,-0.01003855925,0.0009683743819,-0.003906971101,-0.001981410271,-0.01006960388,0.002382558555,0.0278699517,-0.01157288133,-0.007854685831,-0.007563822627,0.01358999495,-0.006592791157,7.877575816e-17,2.019347722e-17,-0.005301480841,0.02428384916,0.007554468817,1.060510661e-16,0.04055538265,-0.004830385312,7.001150826e-18,-4.881620282e-17,0.05028494499,-0.02611099979,-0.05030779213,-0.0002852487784,2.461138932e-16,-0.007198081503,0.0001575245326,0.0002728454389,0.002592275714,0.07021967884,-1.418494313e-17],
			[0.02910233634,-0.004429030766,0.1652091331,0.006103288555,-0.005509366313,0.03651882947,0.2496253135,-2.133845401e-16,-0.1026611703,0.01850096967,0.08107174357,-0.1969634485,-0.06281883107,-0.1467425111,-0.005762464837,-0.1279464409,-0.05658653887,-0.01331799485,-0.177296828,0.007743171202,-0.05234577623,0.00687025011,-0.07692841861,-0.03907326244,0.007895900389,-0.005473858618,0.006264756595,0.06216382978,0.00415343714,1.769960047e-16,4.521123059e-17,0.01119817828,0.3383127061,0.04130858099,-1.071191746e-16,-4.09604671,-0.0005322697762,7.967191902e-17,-3.326603316e-16,-0.01376488422,2.637180759,0.009901261444,-0.007535828869,1.046905618e-15,0.04666883175,-0.005086176437,-0.04995447192,0.01984537081,0.1006677495,4.665457473e-17],
			[-0.1043238617,0.02729266635,0.1612369096,0.02969717729,0.05963598805,0.008798045069,0.06013924296,-1.494301644e-16,-0.02208716464,0.02968355174,0.01797764172,0.008306546587,0.004173702016,-0.1197461288,0.09899731083,-0.03662922189,0.06242109163,-0.0008763831227,-0.05044449902,0.1041275613,-0.03364026494,0.001593327739,-0.006684611461,-0.01046244431,0.001831193466,0.00954467404,-0.003270976632,0.08950016979,0.08844384047,3.680866376e-17,1.364146562e-17,-0.04014238543,0.3995507973,0.01301378938,-2.092476312e-16,-0.8237195032,0.006465747554,-6.252543107e-17,-2.025763997e-17,-0.008846069068,0.5303399541,0.9834446904,-0.004842936678,1.03324467e-16,0.01034880341,-0.0004419577825,-0.0142130479,0.02087213139,0.02165828765,-2.808740077e-17],
			[0.01619398406,-0.004605229041,-0.06818470349,-0.0008362349522,0.001950289718,-0.0039739418,-0.02716397217,8.730029774e-17,0.01662144994,0.003450201649,0.004618500522,0.05797858695,0.004831927639,0.01673767681,0.03453293074,-9.342247165e-07,0.03461207235,0.002895331954,0.001756551035,0.0002873730049,0.003262662084,0.002706598577,0.02337186083,0.002411326209,0.003110662991,0.004870581259,0.005898840906,0.2059106531,0.00113826298,2.052386242e-16,4.272222428e-19,0.006231222072,-0.06193681614,0.004242597224,2.336138044e-17,-0.005999792426,0.002900922314,2.476041417e-17,-4.935279819e-17,0.0008579520463,0.003862880055,-0.006056266814,0.0232838504,1.463672933e-16,0.002658633135,0.001545246997,0.0004949190593,0.003888719117,-0.01629870334,-6.589228115e-18],
			[0.0621292892,0.03644744119,0.3417952008,-0.001013757924,0.09074607856,0.0166963565,0.1141283356,-5.365784314e-16,-0.09962396864,0.07312535516,-0.003820685471,0.04515939544,0.04047852814,-0.5232450312,0.3027129818,0.008969939831,0.09936642543,-0.008091953392,-0.001511373897,0.03379537558,0.009856044731,-0.01108717668,0.03163021454,-0.0554009559,-0.01274236618,0.02073760511,0.06268336762,0.323854753,0.2511349622,-7.868258454e-17,-1.778036506e-16,0.02390649495,-0.2881378076,0.03102409979,-2.923364811e-17,-0.2594691048,0.01216000247,-1.115466159e-16,-5.150265251e-16,0.002591752847,0.1670554511,-0.01738669614,0.001418900851,2.957085156,-0.002199372057,0.002091253854,-0.0004258388925,0.05124202957,0.09768952265,3.866324239e-17],
			[-0.01959565148,0.00208316437,0.0254524655,0.03732885963,0.004973521166,0.007732222743,0.05285378951,1.461195361e-16,0.1334667449,0.0062314758,0.02299108128,0.0359299766,-0.003440893064,-0.01991746177,-0.007099854359,-0.01593952637,0.1660996443,0.01969836967,-0.005483762598,0.0003905078712,-0.005031278823,0.01870002717,0.001217800374,0.004970382197,0.02149172876,0.01996877421,-0.003610332395,0.01458947604,-0.005067938029,-5.043318871e-17,-4.304478501e-17,-0.007540136856,0.5647634688,0.008805012351,-6.181222933e-19,-0.02178619227,0.01223318335,4.805937888e-17,-9.531915865e-17,-0.001323028818,0.01402672653,-0.02906337862,-0.0007243154832,-4.889751798e-17,0.1095458311,8.05157272e-05,-0.001545083845,0.003318881291,-0.1308751576,1.249254483e-17],
			[-0.08574533387,0.0123403638,-1.51562613,-0.008211159455,-0.05027429779,0.0226733915,0.1549844982,8.576581285e-16,-0.2266763931,-0.008469057555,-0.07791130306,0.008749986708,-0.04065628449,1.037162637,-0.003052859629,0.02408629306,-0.4768095315,-0.0604696828,0.01291567862,-0.05663729449,-0.01010905141,-0.04012382945,-0.1471944999,-0.05833676841,-0.04611386129,-0.1795497605,-0.05044964261,-1.380555826,-0.0008181632797,-4.273247338e-16,-1.275174221e-16,-0.03299362375,0.2478000576,-0.0326585837,-7.753400786e-17,0.5036099136,-0.107452798,-1.396621805e-16,6.994052689e-16,-0.002658283672,-0.3242419991,0.08343001578,-0.001455324325,4.406197629e-16,-0.04484952874,4.193728024,0.003639071899,-0.2243271518,0.2222749097,-4.076430762e-17],
			[0.005811682369,0.001459227051,-0.06009391856,0.0009460332334,0.003688644653,0.001048827334,0.007169283785,5.852023578e-17,-0.02631466835,0.001372924471,-0.003805668616,0.1378535689,0.02153826256,0.06611057457,0.007926106358,0.0988991644,0.0599677303,-0.003822562507,0.0002695278381,0.002965914662,0.04118800434,-0.00353041711,0.001186902995,0.02563250017,-0.004057468271,-0.003607050338,0.003554628982,0.01398692685,-0.0004351920823,4.17638065e-17,-1.355411534e-18,0.002236255348,-0.08038708087,0.001687690919,3.812812933e-18,-0.01994075958,-0.004256973927,4.12187408e-18,-4.912198171e-17,0.01083082823,0.01283857124,-0.01049288732,0.005929528121,-1.627658511e-16,-0.002190727626,7.847292531e-05,0.03513133067,-0.005309542667,0.02580370392,-4.688327363e-18],
			[0.003587543349,-0.002233445336,-0.07767871367,0.002823909271,0.006282589818,-0.003817329458,-0.02609344485,1.243258019e-16,0.02151299056,0.0004374903673,0.009323312834,0.07098443053,0.003701081349,0.01964587609,-0.0006444801583,-0.003188497221,0.04934857164,0.00711707273,-0.002771346541,0.008022457594,-0.0002966860818,0.00422316516,0.02116304621,0.007509737941,0.004853635734,0.02446986977,0.004121066885,0.1980469503,-0.000487445355,2.233261658e-16,-2.192417729e-17,0.00138043728,-0.004958500666,0.004085717743,-6.251314909e-18,-0.0699376584,0.01464215691,3.936670326e-17,-5.98293252e-17,-7.801679257e-05,0.04502835541,-0.00863479406,-4.271167039e-05,1.351729059e-16,0.005366951527,0.001399209666,-0.0007808439355,0.03250312337,-0.02109526258,-1.987493989e-17],
			[-0.1068879936,-0.1609421883,-0.6647078076,0.0600583428,-0.3450888368,-0.04198393046,-0.2869821392,3.25911173e-16,0.2954161556,-0.05883886439,0.02533432468,0.7058594134,0.0748528931,0.5320090605,0.0124631078,0.2929375584,-0.1203829023,0.03400858854,0.4142429514,-0.08348255484,0.1158276791,0.03589102216,-0.03352821609,0.08370124159,0.04124914396,-0.007511042847,-0.1987400381,-0.4067388933,-0.009430799664,5.145623511e-16,-3.168580849e-17,-0.04112902807,1.493089913,-0.06126511939,4.337892892e-16,0.6279845598,-0.01071926663,1.800317707e-16,4.809520837e-16,0.03045813258,-0.4043188262,0.02106406599,0.01667484238,-4.080069615e-15,0.0145836673,-0.00221674156,0.1167154997,-0.08801666465,9.586410311,1.596487699e-17],
			[-0.0166898882,0.00452980579,-0.05233068144,0.003261131836,0.006100965441,0.002500109789,0.01708955897,7.402136223e-17,-0.01580868259,0.003933289591,-0.001515537046,0.004284810311,-0.0008056454399,0.03455179638,0.01436437809,-0.003649319083,-0.01523681198,-0.003324748507,-0.006225526347,0.01212733253,-0.004786785646,-0.0019550407,-0.008183207019,-0.004306675265,-0.002246906062,-0.007710651773,-0.002177879509,-0.05500040815,0.0128169188,-2.366440648e-17,-2.251720623e-17,-0.006422039159,0.05928919497,0.000393481631,-7.259707633e-18,-0.09299157184,-0.004514632144,-1.033877828e-17,4.255112362e-17,-0.001258736711,0.05987128598,0.1441939153,-0.0006891176339,3.246101304e-16,-0.0008724167052,0.5498307991,-0.001754080344,-0.008127972007,0.01550171788,0.03238268531]
		],
		"names": [
			"G01",
			"G02",
			"G03",
			"G04",
			"G05",
			"G06",
			"G07",
			"G08",
			"G09",
			"G10",
			"G11",
			"G12",
			"G13",
			"G14",
			"G15",
			"G16",
			"G17",
			"G18",
			"G19",
			"G20",
			"G21",
			"G22",
			"G23",
			"G24",
			"G25",
			"G26",
			"G27",
			"G28",
			"G29",
			"G30",
			"G31",
			"G32",
			"G33",
			"G34",
			"G35",
			"G36",
			"G37",
			"G38",
			"G39",
			"G40",
			"G41",
			"G42",
			"G43",
			"G44",
			"G45",
			"G46",
			"G47",
			"G48",
			"G49",
			"G50"
		],
		"description": "Stable smallworld_scalefree network, IAA=498.2479",
		"created": {
			"creator": "",
			"time": 736265.634,
			"id": "",
			"nodes": "",
			"type": "unknown",
			"sparsity": ""
		},
		"tol": 2.220446049e-16,
		"N": 50
	}
}
